Data File    , C:\Program Files\Biolog\OL_DC_23\PMX\Data_2013\07\PMX_443_130705_B_23.OKA,,,,,,,,,,,,,,,,,,,,,,,,,,,,,,,,,,,,,,,,,,,,,,,,,,,,,,,,,,,,,,,,,,,,,,,,,,,,,,,,,,,,,,,,,,,,,,,
Set up Time  ,Jul 05 2013 12:22 PM,,,,,,,,,,,,,,,,,,,,,,,,,,,,,,,,,,,,,,,,,,,,,,,,,,,,,,,,,,,,,,,,,,,,,,,,,,,,,,,,,,,,,,,,,,,,,,,
Position     ,12-A,,,,,,,,,,,,,,,,,,,,,,,,,,,,,,,,,,,,,,,,,,,,,,,,,,,,,,,,,,,,,,,,,,,,,,,,,,,,,,,,,,,,,,,,,,,,,,,
Plate Type   ,PM 2-A,,,,,,,,,,,,,,,,,,,,,,,,,,,,,,,,,,,,,,,,,,,,,,,,,,,,,,,,,,,,,,,,,,,,,,,,,,,,,,,,,,,,,,,,,,,,,,,
Strain Type  ,---,,,,,,,,,,,,,,,,,,,,,,,,,,,,,,,,,,,,,,,,,,,,,,,,,,,,,,,,,,,,,,,,,,,,,,,,,,,,,,,,,,,,,,,,,,,,,,,
Sample Number,,,,,,,,,,,,,,,,,,,,,,,,,,,,,,,,,,,,,,,,,,,,,,,,,,,,,,,,,,,,,,,,,,,,,,,,,,,,,,,,,,,,,,,,,,,,,,,,
Strain Name  ,rep2,,,,,,,,,,,,,,,,,,,,,,,,,,,,,,,,,,,,,,,,,,,,,,,,,,,,,,,,,,,,,,,,,,,,,,,,,,,,,,,,,,,,,,,,,,,,,,,
Strain Number,342-JUL26,,,,,,,,,,,,,,,,,,,,,,,,,,,,,,,,,,,,,,,,,,,,,,,,,,,,,,,,,,,,,,,,,,,,,,,,,,,,,,,,,,,,,,,,,,,,,,,
Other        ,,,,,,,,,,,,,,,,,,,,,,,,,,,,,,,,,,,,,,,,,,,,,,,,,,,,,,,,,,,,,,,,,,,,,,,,,,,,,,,,,,,,,,,,,,,,,,,,
,,,,,,,,,,,,,,,,,,,,,,,,,,,,,,,,,,,,,,,,,,,,,,,,,,,,,,,,,,,,,,,,,,,,,,,,,,,,,,,,,,,,,,,,,,,,,,,,
Hour,  A01,  A02,  A03,  A04,  A05,  A06,  A07,  A08,  A09,  A10,  A11,  A12,  B01,  B02,  B03,  B04,  B05,  B06,  B07,  B08,  B09,  B10,  B11,  B12,  C01,  C02,  C03,  C04,  C05,  C06,  C07,  C08,  C09,  C10,  C11,  C12,  D01,  D02,  D03,  D04,  D05,  D06,  D07,  D08,  D09,  D10,  D11,  D12,  E01,  E02,  E03,  E04,  E05,  E06,  E07,  E08,  E09,  E10,  E11,  E12,  F01,  F02,  F03,  F04,  F05,  F06,  F07,  F08,  F09,  F10,  F11,  F12,  G01,  G02,  G03,  G04,  G05,  G06,  G07,  G08,  G09,  G10,  G11,  G12,  H01,  H02,  H03,  H04,  H05,  H06,  H07,  H08,  H09,  H10,  H11,  H12
0,0,0,0,0,0,0,0,0,0,0,0,17,0,0,0,0,0,0,0,0,0,0,0,0,0,0,0,0,0,0,0,0,0,0,0,0,0,0,0,0,0,0,0,0,0,0,0,0,0,0,0,0,0,0,0,0,0,0,0,2,0,0,0,0,0,0,0,0,0,0,0,0,0,0,0,0,0,0,0,0,0,0,0,1,0,0,0,0,0,0,0,0,56,0,9,7
0.25,0,0,0,0,0,0,0,0,0,0,0,17,0,0,0,0,0,0,0,0,0,0,0,0,0,0,0,0,0,0,0,0,0,0,0,0,0,0,0,0,0,0,0,0,0,0,0,0,0,0,0,0,0,0,0,0,0,0,0,5,0,0,0,0,0,0,0,0,0,0,0,0,0,0,0,0,0,0,0,0,0,0,0,1,0,0,0,0,0,0,0,0,65,0,15,11
0.5,0,0,0,0,0,0,0,0,0,0,0,16,0,0,0,0,0,0,0,0,0,0,0,0,0,0,0,0,0,0,0,0,0,0,0,0,0,0,0,0,0,0,0,0,0,0,0,0,0,0,0,0,0,0,0,0,0,0,0,4,0,0,0,0,0,0,0,0,0,0,0,0,0,0,0,0,0,0,0,0,0,0,0,0,0,0,0,0,0,0,0,0,64,0,14,10
0.75,0,0,0,0,0,0,0,0,0,0,0,13,0,0,0,0,0,0,0,0,0,0,0,0,0,0,0,0,0,0,0,0,0,0,0,0,0,0,0,0,0,0,0,0,0,0,0,0,0,0,0,0,0,0,0,0,0,0,0,1,0,0,0,0,0,0,0,0,0,0,0,0,0,0,0,0,0,0,0,0,0,0,0,0,0,0,0,0,0,0,0,0,61,0,11,7
1,0,0,0,0,0,0,0,0,0,0,0,27,0,0,0,0,0,0,0,0,0,0,0,0,0,0,0,0,0,0,0,0,0,0,0,0,0,0,0,0,0,0,0,0,0,0,0,0,0,0,0,0,0,0,0,0,0,0,0,5,0,0,0,0,0,0,0,0,0,0,0,0,0,0,0,0,0,0,0,0,0,0,0,0,0,0,0,0,0,0,0,0,58,0,17,15
1.25,0,0,0,0,0,0,0,0,0,0,0,22,0,0,0,0,0,0,0,0,0,0,0,0,0,0,0,0,0,0,0,0,0,0,0,0,0,0,0,0,0,0,0,0,0,0,0,0,0,0,0,0,0,0,0,0,0,0,0,0,0,0,0,0,0,0,0,0,0,0,0,0,0,0,0,0,0,0,0,0,0,0,0,0,0,0,0,0,0,0,0,0,53,0,12,10
1.5,0,0,0,0,0,0,0,0,0,0,0,18,0,0,0,0,0,0,0,0,0,0,0,0,0,0,0,0,0,0,0,0,0,0,0,0,0,0,0,0,0,0,0,0,0,0,0,0,0,0,0,0,0,0,0,0,0,0,0,0,0,0,0,0,0,0,0,0,0,0,0,0,0,0,0,0,0,0,0,0,0,0,0,0,0,0,0,0,0,0,0,0,49,0,8,6
1.75,0,0,0,0,0,2,0,0,0,0,0,14,0,0,0,0,0,0,0,0,0,0,0,0,0,0,0,0,0,0,0,0,0,0,0,0,0,0,0,0,0,0,0,0,0,0,0,0,0,0,0,0,0,0,0,0,0,0,0,0,0,0,0,0,0,0,0,0,0,0,0,0,0,0,0,0,0,0,0,0,0,0,0,0,0,0,0,0,0,0,0,0,45,0,4,2
2,0,0,0,0,0,7,0,0,0,0,0,17,2,0,0,0,0,0,0,0,0,0,0,0,0,0,0,0,0,0,0,0,0,0,0,0,0,0,0,0,0,0,0,0,0,0,0,0,0,0,0,0,0,0,0,0,0,0,0,5,0,0,0,0,0,0,0,0,0,0,0,2,0,0,0,0,0,0,0,0,0,0,0,5,0,0,0,0,0,0,2,0,42,8,15,24
2.25,0,0,0,0,0,12,0,0,0,0,0,10,0,0,0,0,0,0,0,0,0,0,0,0,0,0,0,0,0,0,0,0,0,0,0,0,0,0,0,0,0,0,0,0,0,0,0,0,0,0,0,0,0,0,0,0,0,0,0,0,0,0,0,0,0,0,0,0,0,0,0,0,0,0,0,0,0,0,0,0,0,0,0,0,0,0,0,0,0,0,0,0,35,1,8,17
2.5,0,0,0,0,0,18,0,0,0,0,0,10,1,0,0,0,0,0,0,0,0,0,0,0,0,0,0,0,0,0,0,0,0,0,0,0,0,0,0,0,0,0,0,0,0,0,0,0,0,0,0,0,0,0,0,0,0,0,0,0,0,0,0,0,0,0,0,0,0,0,0,0,0,0,0,0,0,0,0,0,0,0,0,0,0,0,0,0,0,0,0,0,35,1,8,17
2.75,0,0,0,0,0,30,0,0,0,0,0,10,8,5,0,0,0,0,0,0,0,0,0,0,0,0,0,0,0,0,0,0,0,0,0,0,0,0,0,0,0,0,0,0,0,0,0,0,0,0,0,0,0,0,0,0,0,0,0,0,0,0,0,0,0,0,0,0,0,0,0,0,0,0,0,0,0,0,0,0,0,0,0,0,0,0,0,0,0,0,0,0,35,1,8,17
3,0,0,0,0,0,34,0,0,0,0,0,12,11,17,0,0,0,0,0,0,0,0,0,0,0,0,0,0,0,0,0,0,0,0,1,0,13,0,0,0,0,0,0,0,0,0,0,0,0,0,0,0,9,0,0,0,0,0,0,5,0,0,0,0,0,0,0,0,0,0,0,3,0,0,0,0,0,0,0,0,0,0,0,1,0,0,0,0,0,0,1,0,35,3,12,21
3.25,0,0,0,0,0,38,0,0,0,0,0,12,13,21,0,0,0,0,0,0,0,0,0,0,0,0,0,0,0,0,1,0,0,0,1,0,17,0,0,0,0,0,0,0,0,0,0,0,0,0,0,0,13,0,0,0,0,0,0,5,0,0,0,0,0,0,0,0,0,0,0,3,0,0,0,0,0,0,0,0,0,0,0,1,0,0,0,0,0,0,1,0,35,6,17,26
3.5,0,0,0,0,0,44,0,0,0,0,0,13,17,27,0,0,0,0,0,0,0,0,0,10,0,0,0,0,0,0,7,0,0,0,4,0,23,0,0,0,0,0,0,0,0,0,0,0,0,0,0,0,20,0,0,0,0,0,0,4,0,0,0,0,0,0,0,0,0,2,0,4,0,0,0,0,0,0,0,0,0,0,0,3,0,0,0,0,0,0,4,0,35,5,18,25
3.75,0,0,0,0,0,47,0,0,0,0,0,12,21,33,0,0,0,0,0,0,0,0,0,16,0,0,0,0,0,0,6,0,0,0,3,0,27,0,0,0,0,0,1,0,0,0,0,0,0,0,0,0,25,0,0,0,0,0,0,4,0,0,4,0,0,0,0,0,0,3,0,6,0,0,0,0,0,0,0,0,0,0,0,3,0,0,0,0,0,0,4,0,34,9,18,28
4,0,0,0,0,0,62,0,0,0,0,0,12,26,42,0,0,0,0,0,0,0,0,0,16,0,0,0,0,0,0,9,0,0,0,3,0,31,0,0,0,0,0,2,0,0,0,0,0,0,0,0,0,27,0,0,0,0,0,0,4,0,0,4,0,0,0,0,0,0,3,0,6,0,0,0,0,0,0,0,0,0,0,0,3,0,0,0,0,0,0,4,0,34,9,18,28
4.25,0,0,0,0,0,67,0,0,0,0,0,12,32,50,0,0,0,0,0,0,0,0,0,21,0,0,0,0,0,0,14,0,0,0,3,0,38,0,0,0,0,0,2,0,0,0,0,0,0,0,0,0,33,0,0,0,0,0,0,4,0,0,12,0,0,0,0,0,0,3,0,6,0,0,0,0,0,0,0,0,0,0,0,3,0,0,0,0,0,0,4,0,34,9,18,28
4.5,0,0,0,0,0,67,0,0,0,0,0,12,34,52,0,0,0,0,0,0,0,0,0,25,0,0,0,0,0,0,16,0,0,0,3,0,44,0,0,0,0,0,2,0,0,0,0,0,0,0,0,0,38,0,0,0,0,0,0,4,0,0,12,0,0,0,0,0,0,3,0,6,0,0,0,0,0,0,0,0,0,0,0,3,0,0,0,0,0,0,4,0,34,9,18,28
4.75,0,0,0,0,0,70,0,0,0,0,0,12,41,60,0,0,0,0,0,0,0,0,0,28,0,0,0,0,0,0,21,0,0,0,3,0,50,0,0,0,0,0,2,0,0,0,0,0,0,0,0,0,43,0,0,0,0,0,0,4,0,0,19,0,0,0,0,0,0,6,0,6,0,0,0,0,0,0,0,0,0,0,0,3,0,0,0,0,0,0,4,0,36,9,18,28
5,0,0,0,0,0,84,0,0,0,0,0,12,50,71,0,0,0,0,0,0,0,0,0,28,0,0,0,0,0,0,24,0,0,0,3,0,54,0,0,0,0,0,4,0,0,0,0,0,0,0,0,0,44,0,0,0,0,0,0,4,0,0,20,0,0,0,0,0,0,6,0,6,0,0,0,0,0,0,0,0,0,0,0,3,0,0,0,0,0,0,4,0,36,9,18,28
5.25,0,0,0,0,0,83,0,0,0,0,0,11,53,75,0,0,0,0,0,0,0,0,0,32,0,0,0,0,0,0,26,0,0,0,2,0,60,0,0,0,0,0,3,0,0,0,0,0,0,0,0,0,49,0,0,0,0,0,0,3,0,0,27,0,0,0,0,0,0,5,0,5,0,0,0,0,0,0,0,0,0,0,0,2,0,0,0,0,0,0,3,0,35,8,17,27
5.5,0,0,0,0,0,85,0,0,0,0,0,11,57,81,0,0,0,0,0,0,0,0,0,36,0,0,0,0,0,0,30,0,0,0,2,0,66,0,0,0,0,0,3,0,0,0,0,0,0,0,0,0,55,0,0,0,0,0,0,3,0,0,30,0,0,0,0,0,0,5,0,5,0,0,0,0,0,0,0,0,0,0,0,2,0,0,0,0,0,0,3,0,35,8,17,27
5.75,0,0,0,0,0,94,0,0,0,0,0,6,69,90,0,0,0,0,0,0,0,0,0,31,0,0,0,0,0,0,32,0,0,0,0,0,67,0,0,0,0,0,0,0,0,0,0,0,0,0,0,0,55,0,0,0,0,0,0,0,0,0,27,0,0,0,0,0,0,0,0,0,0,0,0,0,0,0,0,0,0,0,0,0,0,0,0,0,0,0,0,0,30,3,12,22
6,0,0,0,0,0,94,0,0,0,0,0,7,69,90,0,0,0,0,0,0,0,0,0,40,0,0,0,0,0,0,32,0,0,0,0,0,73,0,0,0,0,0,0,0,0,0,0,0,0,0,0,0,59,0,0,0,0,0,0,0,0,0,39,0,0,0,0,0,0,2,0,0,0,0,0,0,0,0,0,0,0,0,0,0,0,0,0,0,0,0,0,0,30,3,12,22
6.25,0,0,0,0,0,94,0,0,0,0,0,7,71,96,0,0,0,0,0,0,0,0,0,42,0,0,0,0,0,0,35,0,0,0,0,0,78,0,0,0,0,0,1,0,0,0,0,0,0,0,0,0,64,0,0,0,0,0,0,0,0,0,42,0,0,0,0,0,0,2,0,0,0,0,0,0,0,0,0,0,0,0,0,0,0,0,0,0,0,0,0,0,30,3,12,22
6.5,0,0,0,0,0,94,0,0,0,0,0,7,71,96,0,0,0,0,0,0,0,0,0,42,0,0,0,0,0,0,35,0,0,0,0,0,80,0,0,0,0,0,1,0,0,0,0,0,0,0,0,0,66,0,0,0,0,0,0,0,0,0,43,0,0,0,0,0,0,2,0,0,0,0,0,0,0,0,0,0,0,0,0,0,0,0,0,0,0,0,0,0,30,3,12,22
6.75,0,0,0,0,0,103,0,0,0,0,0,7,85,111,0,0,0,0,0,0,0,0,0,46,0,0,0,0,0,0,41,0,0,0,0,0,86,0,0,0,0,0,1,0,0,0,0,0,0,0,0,0,72,0,0,0,0,0,0,0,0,0,49,0,0,0,0,0,0,2,0,0,0,0,0,0,0,0,0,0,0,0,0,0,0,0,0,0,0,0,0,0,30,3,12,22
7,0,0,0,0,0,103,0,0,0,0,0,7,85,111,0,0,0,0,0,0,0,0,0,49,0,0,0,0,0,0,41,0,0,0,0,0,90,0,0,0,0,0,1,0,0,0,0,0,0,0,0,0,76,0,0,0,0,0,0,0,0,0,55,0,0,0,0,0,0,2,0,0,0,0,0,0,0,0,0,0,0,0,0,0,0,0,0,0,0,0,0,0,30,3,12,22
7.25,0,0,0,0,0,108,0,0,0,0,0,7,96,119,0,0,0,0,0,0,0,0,0,49,0,0,0,0,0,0,48,0,0,0,0,0,95,0,0,0,0,0,1,0,0,0,0,0,0,0,0,0,81,0,0,0,0,0,0,0,0,0,55,0,0,0,0,0,0,2,0,0,0,0,0,0,0,0,0,0,0,0,0,0,0,0,0,0,0,0,0,0,30,3,12,22
7.5,0,0,0,0,0,108,0,0,0,0,0,7,96,119,0,0,0,0,0,0,0,0,0,53,0,0,0,0,0,0,48,0,0,0,0,0,99,0,0,0,0,0,1,0,0,0,0,0,0,0,0,0,86,0,0,0,0,0,0,0,0,0,62,0,0,0,0,0,0,2,0,0,0,0,0,0,0,0,0,0,0,0,0,0,0,0,0,0,0,0,0,0,30,3,12,22
7.75,0,0,0,0,0,108,0,0,0,0,0,7,99,119,0,0,0,0,0,0,0,0,0,55,0,0,0,0,0,0,50,0,0,0,0,0,102,0,0,0,0,0,1,0,0,0,0,0,0,0,0,0,89,0,0,0,0,0,0,0,0,0,64,0,0,0,0,0,0,2,0,0,0,0,0,0,0,0,0,0,0,0,0,0,0,0,0,0,0,0,0,0,31,3,12,22
8,0,0,0,0,0,113,0,0,0,0,0,7,107,125,0,0,0,0,0,0,0,0,0,55,0,0,0,0,0,0,54,0,0,0,0,0,103,0,0,0,0,0,1,0,0,0,0,0,0,0,0,0,93,0,0,0,0,0,0,0,0,0,65,0,0,0,0,0,0,2,0,0,0,0,0,0,0,0,0,0,0,0,0,0,0,0,0,0,0,0,0,0,31,3,12,22
8.25,0,0,0,0,0,121,0,0,0,0,0,7,125,135,0,0,0,0,0,0,0,0,0,55,0,0,0,0,0,0,59,0,0,0,0,0,103,0,0,0,0,0,1,0,0,0,0,0,0,0,0,0,95,0,0,0,0,0,0,0,0,0,66,0,0,0,0,0,0,2,0,0,0,0,0,0,0,0,0,0,0,0,0,0,0,0,0,0,0,0,0,0,31,3,12,22
8.5,0,0,0,0,0,121,0,0,0,0,0,7,125,135,0,0,0,0,0,0,0,0,0,70,0,0,0,0,0,0,59,0,0,0,0,0,113,0,0,0,0,0,1,0,0,0,0,0,0,0,0,0,105,0,0,0,0,0,0,0,0,0,81,0,0,0,0,0,0,2,0,0,0,0,0,0,0,0,0,0,0,0,0,0,0,0,0,0,0,0,0,0,38,3,12,22
8.75,0,0,0,0,0,121,0,0,0,0,0,7,125,135,0,0,0,0,0,0,0,0,0,74,0,0,0,0,0,0,59,0,0,0,1,0,113,0,0,0,0,0,1,0,0,0,0,0,0,0,0,0,105,0,0,0,0,0,0,0,0,0,87,0,0,0,0,0,0,2,0,0,0,0,0,0,0,0,0,0,0,0,0,0,0,0,0,0,0,0,1,0,38,3,16,22
9,0,0,0,0,0,121,0,0,0,0,0,7,125,135,0,0,0,0,0,0,0,0,0,74,0,0,0,0,0,0,66,0,0,0,1,0,120,0,0,0,0,0,1,0,0,0,0,0,0,0,0,0,113,0,0,0,0,0,0,0,0,0,90,0,0,0,0,0,0,2,0,0,0,0,0,0,0,0,0,0,0,0,0,0,0,0,0,0,0,0,1,0,38,3,16,22
9.25,0,0,0,0,0,131,0,0,0,0,0,6,136,146,0,0,0,0,0,0,0,0,0,73,0,0,0,0,0,0,70,0,0,0,0,0,119,0,0,0,0,0,0,0,0,0,0,0,0,0,0,0,115,0,0,0,0,0,0,0,0,0,89,0,0,0,0,0,0,1,0,0,0,0,0,0,0,0,0,0,0,0,0,0,0,0,0,0,0,0,0,0,37,2,15,21
9.5,0,0,0,0,0,134,0,0,0,0,0,6,138,146,0,0,0,0,0,0,0,0,0,73,0,0,0,0,0,0,72,0,0,0,0,0,119,0,0,0,0,0,0,0,0,0,0,0,0,0,0,0,117,0,0,0,0,0,0,0,0,0,89,0,0,0,0,0,0,1,0,0,0,0,0,0,0,0,0,0,0,0,0,0,0,0,0,0,0,0,0,0,37,2,15,21
9.75,0,0,0,0,0,137,0,0,0,0,0,6,146,146,0,0,0,0,0,0,0,0,0,73,0,0,0,0,0,0,77,0,0,0,0,0,119,0,0,0,0,0,0,0,0,0,0,0,0,0,0,0,121,0,0,0,0,0,0,0,0,0,89,0,0,0,0,0,0,1,0,0,0,0,0,0,0,0,0,0,0,0,0,0,0,0,0,0,0,0,0,0,37,2,15,21
10,0,0,0,0,0,136,0,0,0,0,0,4,144,144,0,0,0,0,0,0,0,0,0,76,0,0,0,0,0,0,79,0,0,0,0,0,125,0,0,0,0,0,0,0,0,0,0,0,0,0,0,0,124,0,0,0,0,0,0,0,0,0,92,0,0,0,0,0,0,0,0,0,0,0,0,0,0,0,0,0,0,0,0,0,0,0,0,0,0,0,0,0,35,0,13,19
10.25,0,0,0,0,0,136,0,0,0,0,0,4,144,144,0,0,0,0,0,0,0,0,0,86,0,0,0,0,0,0,79,0,0,0,0,0,131,0,0,0,0,0,0,0,0,0,0,0,0,0,0,0,130,0,0,0,0,0,0,0,0,0,100,0,0,0,0,0,0,0,0,0,0,0,0,0,0,0,0,0,0,0,0,0,0,0,0,0,0,0,0,0,35,0,13,19
10.5,0,0,0,0,0,136,0,0,0,0,0,4,144,144,0,0,0,0,0,0,0,0,0,91,0,0,0,0,0,0,79,0,0,0,0,0,132,0,0,0,0,0,0,0,0,0,0,0,0,0,0,0,130,0,0,0,0,0,0,0,0,0,105,0,0,0,0,0,0,0,0,0,0,0,0,0,0,0,0,0,0,0,0,0,0,0,0,0,0,0,0,0,35,0,13,19
10.75,0,0,0,0,0,137,0,0,0,0,0,4,144,144,0,0,0,0,0,0,0,0,0,91,0,0,0,0,0,0,80,0,0,0,0,0,135,0,0,0,0,0,0,0,0,0,0,0,0,0,0,0,136,0,0,0,0,0,0,0,0,0,108,0,0,0,0,0,0,0,0,0,0,0,0,0,0,0,0,0,0,0,0,0,0,0,0,0,0,0,0,0,35,0,13,19
11,0,0,0,0,0,137,0,0,0,0,0,4,144,144,0,0,0,0,0,0,0,0,0,94,0,0,0,0,0,0,80,0,0,0,0,0,135,0,0,0,0,0,0,0,0,0,0,0,0,0,0,0,136,0,0,0,0,0,0,0,0,0,109,0,0,0,0,0,0,0,0,0,0,0,0,0,0,0,0,0,0,0,0,0,0,0,0,0,0,0,0,0,35,0,13,19
11.25,0,0,0,0,0,137,0,0,0,0,0,4,144,144,0,0,0,0,0,0,0,0,0,98,0,0,0,0,0,0,80,0,0,0,0,0,135,0,0,0,0,0,0,0,0,0,0,0,0,0,0,0,136,0,0,0,0,0,0,0,0,0,112,0,0,0,0,0,0,0,0,0,0,0,0,0,0,0,0,0,0,0,0,0,0,0,0,0,0,0,0,0,35,0,13,19
11.5,0,0,0,0,0,137,0,0,0,0,0,4,144,144,0,0,0,0,0,0,0,0,0,98,0,0,0,0,0,0,86,0,0,0,0,0,135,0,0,0,0,0,0,0,0,0,0,0,0,0,0,0,141,0,0,0,0,0,0,0,0,0,113,0,0,0,0,0,0,0,0,0,0,0,0,0,0,0,0,0,0,0,0,0,0,0,0,0,0,0,0,0,35,0,13,19
11.75,0,0,0,0,0,140,0,0,0,0,0,4,144,144,0,0,0,0,0,0,0,0,0,100,0,0,0,0,0,0,88,0,0,0,0,0,141,0,0,0,0,0,0,0,0,0,0,0,0,0,0,0,143,0,0,0,0,0,0,0,0,0,115,0,0,0,0,0,0,0,0,0,0,0,0,0,0,0,0,0,0,0,0,0,0,0,0,0,0,0,0,0,35,0,13,19
12,0,0,0,0,0,146,0,0,0,0,0,4,144,146,0,0,0,0,0,0,0,0,0,100,0,0,0,0,0,0,94,0,0,0,0,0,142,0,0,0,0,0,0,0,0,0,0,0,0,0,0,0,147,0,0,0,0,0,0,0,0,0,120,0,0,0,0,0,0,0,0,0,0,0,0,0,0,0,0,0,0,0,0,0,0,0,0,0,0,0,0,0,38,0,13,19
12.25,0,0,0,0,0,146,0,0,0,0,0,4,144,146,0,0,0,0,0,0,0,0,0,111,0,0,0,0,0,0,94,0,0,0,0,0,144,0,0,0,0,0,0,0,0,0,0,0,0,0,0,0,147,0,0,0,0,0,0,0,0,0,124,0,0,0,0,0,0,0,0,0,0,0,0,0,0,0,0,0,0,0,0,0,0,0,0,0,0,0,0,0,38,0,13,19
12.5,0,0,0,0,0,155,0,0,0,0,0,4,150,151,0,0,0,0,0,0,0,0,0,111,0,0,0,0,0,0,97,0,0,0,0,0,145,0,0,0,0,0,0,0,0,0,0,0,0,0,0,0,152,0,0,0,0,0,0,0,0,0,125,0,0,0,0,0,0,0,0,0,0,0,0,0,0,0,0,0,0,0,0,0,0,0,0,0,0,0,0,0,38,0,13,19
12.75,0,0,0,0,0,155,0,0,0,0,0,4,150,151,0,0,0,0,0,0,0,0,0,114,0,0,0,0,0,0,97,0,0,0,0,0,145,0,0,0,0,0,0,0,0,0,0,0,0,0,0,0,152,0,0,0,0,0,0,0,0,0,129,0,0,0,0,0,0,1,0,0,0,0,0,0,0,0,0,0,0,0,0,0,0,0,0,0,0,0,0,0,38,0,13,19
13,0,0,0,0,0,161,0,0,0,0,0,4,156,153,0,0,0,0,0,0,0,0,0,114,0,0,0,0,0,0,104,0,0,0,0,0,145,0,0,0,0,0,0,0,0,0,0,0,0,0,0,0,152,0,0,0,0,0,0,0,0,0,129,0,0,0,0,0,0,1,0,0,0,0,0,0,0,0,0,0,0,0,0,0,0,0,0,0,0,0,0,0,38,0,13,19
13.25,0,0,0,0,0,161,0,0,0,0,0,4,156,153,0,0,0,0,0,0,0,0,0,115,0,0,0,0,0,0,104,0,0,0,0,0,145,0,0,0,0,0,0,0,0,0,0,0,0,0,0,0,152,0,0,0,0,0,0,0,0,0,131,0,0,0,0,0,0,1,0,0,0,0,0,0,0,0,0,0,0,0,0,0,0,0,0,0,0,0,0,0,38,0,13,19
13.5,0,0,0,0,0,163,0,0,0,0,0,4,166,160,0,0,0,0,0,0,0,0,0,115,0,0,0,0,0,0,107,0,0,0,0,0,145,0,0,0,0,0,0,0,0,0,0,0,0,0,0,0,153,0,0,0,0,0,0,0,0,0,131,0,0,0,0,0,0,1,0,0,0,0,0,0,0,0,0,0,0,0,0,0,0,0,0,0,0,0,0,0,38,0,13,19
13.75,0,0,0,0,0,165,0,0,0,0,0,4,166,164,0,0,0,0,0,0,0,0,0,115,0,0,0,0,0,0,111,0,0,0,0,0,145,0,0,0,0,0,0,0,0,0,0,0,0,0,0,0,155,0,0,0,0,0,0,0,0,0,131,0,0,0,0,0,0,1,0,0,0,0,0,0,0,0,0,0,0,0,0,0,0,0,0,0,0,0,0,0,38,0,13,19
14,0,0,0,0,0,165,0,0,0,0,0,4,166,164,0,0,0,0,0,0,0,0,0,115,0,0,0,0,0,0,111,0,0,0,0,0,151,0,0,0,0,0,1,0,0,0,0,0,0,0,0,0,157,0,0,0,0,0,0,0,0,0,140,0,0,0,0,0,0,2,0,0,0,0,0,0,0,0,0,0,0,0,0,0,0,0,0,0,0,0,0,0,47,0,13,19
14.25,0,0,0,0,0,165,0,0,0,0,0,4,166,164,0,0,0,0,0,0,0,0,0,115,0,0,0,0,0,0,111,0,0,0,0,0,151,0,0,0,0,0,1,0,0,0,0,0,0,0,0,0,157,0,0,0,0,0,0,0,0,0,140,0,0,0,0,0,0,2,0,0,0,0,0,0,0,0,0,0,0,0,0,0,0,0,0,0,0,0,0,0,47,0,13,19
14.5,0,0,0,0,0,165,0,0,0,0,0,4,166,164,0,0,0,0,0,0,0,0,0,119,0,0,0,0,0,0,111,0,0,0,0,0,152,0,0,0,0,0,1,0,0,0,0,0,0,0,0,0,159,0,0,0,0,0,0,0,0,0,141,0,0,0,0,0,0,2,0,0,0,0,0,0,0,0,0,0,0,0,0,0,0,0,0,0,0,0,0,0,47,0,13,19
14.75,0,0,0,0,0,165,0,0,0,0,0,4,166,164,0,0,0,0,0,0,0,0,0,120,0,0,0,0,0,0,111,0,0,0,0,0,152,0,0,0,0,0,1,0,0,0,0,0,0,0,0,0,159,0,0,0,0,0,0,0,0,0,143,0,0,0,0,0,0,2,0,0,0,0,0,0,0,0,0,0,0,0,0,0,0,0,0,0,0,0,0,0,48,0,13,19
15,0,0,0,0,0,165,0,0,0,0,0,4,166,164,0,0,0,0,0,0,0,0,0,123,0,0,0,0,0,0,111,0,0,0,0,0,152,0,0,0,0,0,1,0,0,0,0,0,0,0,0,0,159,0,0,0,0,0,0,0,0,0,145,0,0,0,0,0,0,2,0,0,0,0,0,0,0,0,0,0,0,0,0,0,0,0,0,0,0,0,0,0,50,0,13,19
15.25,0,0,0,0,0,165,0,0,0,0,0,4,166,164,0,0,0,0,0,0,0,0,0,123,0,0,0,0,0,0,111,0,0,0,0,0,152,0,0,0,0,0,1,0,0,0,0,0,0,0,0,0,160,0,0,0,0,0,0,0,0,0,147,0,0,0,0,0,0,2,0,0,0,0,0,0,0,0,0,0,0,0,0,0,0,0,0,0,0,0,0,0,52,0,13,19
15.5,0,0,0,0,0,165,0,0,0,0,0,4,166,164,0,0,0,0,0,0,0,0,0,123,0,0,0,0,0,0,111,0,0,0,0,0,152,0,0,0,0,0,1,0,0,0,0,0,0,0,0,0,161,0,0,0,0,0,0,0,0,0,148,0,0,0,0,0,0,2,0,0,0,0,0,0,0,0,0,0,0,0,0,0,0,0,0,0,0,0,0,0,56,0,13,19
15.75,0,0,0,0,0,165,0,0,0,0,0,4,166,164,0,0,0,0,0,0,0,0,0,123,0,0,0,0,0,0,111,0,0,0,0,0,153,0,0,0,0,0,1,0,0,0,0,0,0,0,0,0,161,0,0,0,0,0,0,0,0,0,148,0,0,0,0,0,0,2,0,0,0,0,0,0,0,0,0,0,0,0,0,0,0,0,0,0,0,0,0,0,56,0,13,19
16,0,0,0,0,0,165,0,0,0,0,0,4,166,164,0,0,0,0,0,0,0,0,0,123,0,0,0,0,0,0,116,0,0,0,0,0,153,0,0,0,0,0,1,0,0,0,0,0,0,0,0,0,164,0,0,0,0,0,0,0,0,0,148,0,0,0,0,0,0,2,0,0,0,0,0,0,0,0,0,0,0,0,0,0,0,0,0,0,0,0,0,0,62,0,13,19
16.25,0,0,0,0,0,177,0,0,0,0,0,4,167,164,0,0,0,0,0,0,0,0,0,123,0,0,0,0,0,0,120,0,0,0,0,0,153,0,0,0,0,0,1,0,0,0,0,0,0,0,0,0,167,0,0,0,0,0,0,0,0,0,149,0,0,0,0,0,0,2,0,0,0,0,0,0,0,0,0,0,0,0,0,0,0,0,0,0,0,0,0,0,62,0,13,19
16.5,0,0,0,0,0,177,0,0,0,0,0,4,167,164,0,0,0,0,0,0,0,0,0,123,0,0,0,0,0,0,120,0,0,0,0,0,153,0,0,0,0,0,1,0,0,0,0,0,0,0,0,0,167,0,0,0,0,0,0,0,0,0,150,0,0,0,0,0,0,2,0,0,0,0,0,0,0,0,0,0,0,0,0,0,0,0,0,0,0,0,0,0,62,0,13,19
16.75,0,0,0,0,0,177,0,0,0,0,0,4,167,164,0,0,0,0,0,0,0,0,0,123,0,0,0,0,0,0,120,0,0,0,0,0,153,0,0,0,0,0,1,0,0,0,0,0,0,0,0,0,167,0,0,0,0,0,0,0,0,0,154,0,0,0,0,0,0,2,0,0,0,0,0,0,0,0,0,0,0,0,0,0,0,0,0,0,0,0,0,0,67,0,13,19
17,0,0,0,0,0,177,0,0,0,0,0,4,167,164,0,0,0,0,0,0,0,0,0,123,0,0,0,0,0,0,120,0,0,0,1,0,155,0,0,0,0,0,1,0,0,0,0,0,0,0,0,0,170,0,0,0,0,0,0,0,0,0,156,0,0,0,0,0,0,2,0,0,0,0,0,0,0,0,0,0,0,0,0,0,0,0,0,0,0,0,0,0,67,0,13,19
17.25,0,0,0,0,0,177,0,0,0,0,0,4,167,164,0,0,0,0,0,0,0,0,0,123,0,0,0,0,0,0,120,0,0,0,1,0,156,0,0,0,0,0,1,0,0,0,0,0,0,0,0,0,170,0,0,0,0,0,0,0,0,0,156,0,0,0,0,0,0,2,0,0,0,0,0,0,0,0,0,0,0,0,0,0,0,0,0,0,0,0,0,0,67,0,13,19
17.5,0,0,0,0,0,177,0,0,0,0,0,4,167,164,0,0,0,0,0,0,0,0,0,123,0,0,0,0,0,0,120,0,0,0,1,0,156,0,0,0,0,0,1,0,0,0,0,0,0,0,0,0,170,0,0,0,0,0,0,0,0,0,157,0,0,0,0,0,0,2,0,0,0,0,0,0,0,0,0,0,0,0,0,0,0,0,0,0,0,0,0,0,67,0,14,19
17.75,0,0,0,0,0,177,0,0,0,0,0,4,167,164,0,0,0,0,0,0,0,0,0,123,0,0,0,0,0,0,120,0,0,0,1,0,156,0,0,0,0,0,1,0,0,0,0,0,0,0,0,0,171,0,0,0,0,0,0,0,1,0,159,0,0,0,0,0,0,2,0,0,0,0,0,0,0,0,0,0,0,0,0,0,0,0,0,0,0,0,0,0,70,0,14,19
18,0,0,0,0,0,177,0,0,0,0,0,4,167,164,0,0,0,0,0,0,0,0,0,123,0,0,0,0,0,0,120,0,0,0,1,0,156,0,0,0,0,0,1,0,0,0,0,0,0,0,0,0,172,0,0,0,0,0,0,0,1,0,159,0,0,0,0,0,0,2,0,0,0,0,0,0,0,0,0,0,0,0,0,0,0,0,0,0,0,0,0,0,70,0,14,19
18.25,0,0,0,0,0,179,0,0,0,0,0,4,167,164,0,0,0,0,0,0,0,0,0,123,0,0,0,0,0,0,128,0,0,0,1,0,156,0,0,0,0,0,1,0,0,0,0,0,0,0,0,0,176,0,0,0,0,0,0,0,1,0,159,0,0,0,0,0,0,2,0,0,0,0,0,0,0,0,0,0,0,0,0,0,0,0,0,0,0,0,0,0,70,0,14,19
18.5,0,0,0,0,0,179,0,0,0,0,0,4,167,164,0,0,0,0,0,0,0,0,0,123,0,0,0,0,0,0,128,0,0,0,1,0,156,0,0,0,0,0,1,0,0,0,0,0,0,0,0,0,176,0,0,0,0,0,0,0,1,0,159,0,0,0,0,0,0,2,0,0,0,0,0,0,0,0,0,0,0,0,0,0,0,0,0,0,0,0,0,0,70,0,14,19
18.75,0,0,0,0,0,179,0,0,0,0,0,4,167,164,0,0,0,0,0,0,0,0,0,123,0,0,0,0,0,0,128,0,0,0,1,0,156,0,0,0,0,0,1,0,0,0,0,0,0,0,0,0,176,0,0,0,0,0,0,0,1,0,161,0,0,0,0,0,0,2,0,0,0,0,0,0,0,0,0,0,0,0,0,0,0,0,0,0,0,0,0,0,70,0,14,19
19,0,0,0,0,0,179,0,0,0,0,0,4,167,164,0,0,0,0,0,0,0,0,0,123,0,0,0,0,0,0,128,0,0,0,1,0,156,0,0,0,0,0,1,0,0,0,0,0,0,0,0,0,176,0,0,0,0,0,0,0,1,0,162,0,0,0,0,0,0,2,0,0,0,1,0,0,0,0,0,0,0,0,0,0,0,0,0,0,0,0,0,0,70,0,14,19
19.25,0,0,0,0,0,179,0,0,0,0,0,4,167,164,0,0,0,0,0,0,0,0,0,123,0,0,0,0,0,0,128,0,0,0,1,0,156,0,0,0,0,0,1,0,0,0,0,0,0,0,0,0,176,0,0,0,0,0,0,0,1,0,163,0,0,0,0,0,0,2,0,0,0,2,0,0,0,0,0,0,0,0,0,0,0,0,0,0,0,0,0,0,70,0,14,19
19.5,0,0,0,0,0,179,0,0,0,0,0,4,167,164,0,0,0,0,0,0,0,0,0,123,0,0,0,0,0,0,128,0,0,0,1,0,157,0,0,0,0,0,1,0,0,0,0,0,0,0,0,0,176,0,0,0,0,0,0,0,2,0,163,0,0,0,0,0,0,2,0,0,0,2,0,0,0,0,0,0,0,0,0,0,0,0,0,0,0,0,0,0,70,0,14,19
19.75,0,0,0,0,0,179,0,0,0,0,0,4,167,164,0,0,0,0,0,0,0,0,0,123,0,0,0,0,0,0,128,0,0,0,1,0,157,0,0,0,0,0,1,0,0,0,0,0,0,0,0,0,179,0,0,0,0,0,0,0,2,0,163,0,0,0,0,0,0,2,0,0,0,2,0,0,0,0,0,0,0,0,0,0,0,0,0,0,0,0,0,0,70,0,14,19
20,0,0,0,0,0,179,0,0,0,0,0,4,167,164,0,0,0,0,0,0,0,0,0,123,0,0,0,0,0,0,128,0,0,0,1,0,157,0,0,0,0,0,1,0,0,0,0,0,0,0,0,0,180,0,0,0,0,0,0,0,2,0,163,0,0,0,0,0,0,2,0,0,0,2,0,0,0,0,0,0,0,0,0,0,0,0,0,0,0,0,0,0,70,0,14,19
20.25,0,0,0,0,0,179,0,0,0,0,0,4,167,164,0,0,0,0,0,0,0,0,0,123,0,0,0,0,0,0,128,0,0,0,1,0,157,0,0,0,0,0,1,0,0,0,0,0,0,0,0,0,180,0,0,0,0,0,0,0,2,0,164,0,0,0,0,0,0,2,0,0,0,7,0,0,0,0,0,0,0,0,0,0,0,0,0,0,0,0,0,0,70,0,15,19
20.5,0,0,0,0,0,179,0,0,0,0,0,4,167,164,0,0,0,0,0,0,0,0,0,123,0,0,0,0,0,0,128,0,0,0,1,0,157,0,0,0,0,0,1,0,0,0,0,0,0,0,0,0,180,0,0,0,0,0,0,0,2,0,164,0,0,0,0,0,0,2,0,0,0,8,0,0,0,0,0,0,0,0,0,0,0,0,0,0,0,0,0,0,70,0,15,19
20.75,0,0,0,0,0,179,0,0,0,0,0,4,167,164,0,0,0,0,0,0,0,0,0,123,0,0,0,0,0,0,128,0,0,0,1,0,158,0,0,0,0,0,1,0,0,0,0,0,0,0,0,0,180,0,0,0,0,0,0,0,2,0,165,0,0,0,0,0,0,2,0,0,0,8,0,0,0,0,0,0,0,0,0,0,0,0,0,0,0,0,0,0,70,0,15,19
21,0,0,0,0,0,183,0,0,0,0,0,4,167,164,0,0,0,0,0,0,0,0,0,123,0,0,0,0,0,0,133,0,0,0,1,0,158,0,0,0,0,0,1,0,0,0,0,0,0,0,0,0,182,0,0,0,0,0,0,0,2,0,165,0,0,0,0,0,0,2,0,0,0,8,0,0,0,0,0,0,0,0,0,0,0,0,0,0,0,0,0,0,70,0,15,19
21.25,0,0,0,0,0,183,0,0,0,0,0,4,167,164,0,0,0,0,0,0,0,0,0,123,0,0,0,0,0,0,133,0,0,0,1,0,158,0,0,0,0,0,1,0,0,0,0,0,0,0,0,0,182,0,0,0,0,0,0,0,2,0,165,0,0,0,0,0,0,2,0,0,0,8,0,0,0,0,0,0,0,0,0,0,0,0,0,0,0,0,0,0,70,0,15,19
21.5,0,0,0,0,0,183,0,0,0,0,0,4,167,164,0,0,0,0,0,0,0,0,0,123,0,0,0,0,0,0,133,0,0,0,1,0,158,0,0,0,0,0,1,0,0,0,0,0,0,0,0,0,182,0,0,0,0,0,0,0,2,0,166,0,0,0,0,0,0,2,0,0,0,12,0,0,0,0,0,0,0,0,0,0,0,0,0,0,0,0,0,0,70,0,15,19
21.75,0,0,0,0,0,183,0,0,0,0,0,4,167,164,0,0,0,0,0,0,0,0,0,123,0,0,0,0,0,0,133,0,0,0,1,0,158,0,0,0,0,0,1,0,0,0,0,0,0,0,0,0,182,0,0,0,0,0,0,0,2,0,169,0,0,0,0,0,0,2,0,0,0,15,0,0,0,0,0,0,0,0,0,0,0,0,0,0,0,0,0,0,70,0,15,19
22,0,0,0,0,0,183,0,0,0,0,0,4,167,164,0,0,0,0,0,0,0,0,0,123,0,0,0,0,0,0,133,0,0,0,1,0,158,0,0,0,0,0,1,0,0,0,0,0,0,0,0,0,182,0,0,0,0,0,0,0,2,0,169,0,0,0,0,0,0,2,0,0,0,15,0,0,0,0,0,0,0,0,0,0,0,0,0,0,0,0,0,0,70,0,15,19
22.25,0,0,0,0,0,183,0,0,0,0,0,4,167,164,0,0,0,0,0,0,0,0,0,123,0,0,0,0,0,0,133,0,0,0,1,0,158,0,0,0,0,0,1,0,0,0,0,0,0,0,0,0,182,0,0,0,0,0,0,0,2,0,169,0,0,0,0,0,0,2,0,0,0,15,0,0,0,0,0,0,0,0,0,0,0,0,0,0,0,0,0,0,70,0,15,19
22.5,0,0,0,0,0,183,0,0,0,0,0,4,167,164,0,0,0,0,0,0,0,0,0,123,0,0,0,0,0,0,133,0,0,0,1,0,158,0,0,0,0,0,1,0,0,0,0,0,0,0,0,0,182,0,0,0,0,0,0,0,2,0,169,0,0,0,0,0,0,4,0,0,0,19,0,0,0,0,0,0,0,0,0,0,0,0,0,0,0,0,3,0,70,0,16,19
22.75,0,0,0,0,0,183,0,0,0,0,0,4,167,164,0,0,0,0,0,0,0,0,0,123,0,0,0,0,0,0,133,0,0,0,1,0,158,0,0,0,0,0,1,0,0,0,0,0,0,0,0,0,182,0,0,0,0,0,0,0,2,0,169,0,0,0,0,0,0,4,0,0,0,19,0,0,0,0,0,0,0,0,0,0,0,0,0,0,0,0,3,0,70,0,16,19
23,0,0,0,0,0,183,0,0,0,0,0,4,167,164,0,0,0,0,0,0,0,0,0,123,0,0,0,0,0,0,133,0,0,0,1,0,158,0,0,0,0,0,1,0,0,0,0,0,0,0,0,0,182,0,0,0,0,0,0,0,2,0,169,0,0,0,0,0,0,4,0,0,0,19,0,0,0,0,0,0,0,0,0,0,0,0,0,0,0,0,3,0,70,0,16,19
23.25,0,0,0,0,0,183,0,0,0,0,0,4,167,164,0,0,0,0,0,0,0,0,0,123,0,0,0,0,0,0,133,0,0,0,2,0,158,0,0,0,0,0,1,0,0,0,0,0,0,0,0,0,182,0,0,0,0,0,0,0,2,0,170,0,0,0,0,0,0,4,0,0,0,19,0,0,0,0,0,0,0,0,0,0,0,0,0,0,0,0,3,0,70,0,16,19
23.5,0,0,0,0,0,183,0,0,0,0,0,4,167,164,0,0,0,0,0,0,0,0,0,123,0,0,0,0,0,0,133,0,0,0,2,0,158,0,0,0,0,0,1,0,0,0,0,0,0,0,0,0,182,0,0,0,0,0,0,2,2,0,172,0,0,0,0,0,0,6,0,0,0,25,0,0,0,0,0,0,0,0,0,0,0,0,0,0,0,0,6,0,75,1,18,19
23.75,0,0,0,0,0,183,0,0,0,0,0,4,167,164,0,0,0,0,0,0,0,0,0,123,0,0,0,0,0,0,133,0,0,0,2,0,158,0,0,0,0,0,1,0,0,0,0,0,0,0,0,0,182,0,0,0,0,0,0,2,2,0,172,0,0,0,0,0,0,6,0,0,0,25,0,0,0,0,0,0,0,0,0,0,0,0,0,0,0,0,6,0,75,1,18,19
24,0,0,0,0,0,183,0,0,0,0,0,4,167,164,0,0,0,0,0,0,0,0,0,123,0,0,0,0,0,0,133,0,0,0,2,0,158,0,0,0,0,0,1,0,0,0,0,0,0,0,0,0,182,0,0,0,0,0,0,2,2,0,172,0,0,0,0,0,0,6,0,0,0,25,0,0,0,0,0,0,0,0,0,0,0,0,0,0,0,0,6,0,75,1,18,19
24.25,0,0,0,0,0,183,0,0,0,0,0,4,167,164,0,0,0,0,0,0,0,0,0,123,0,0,0,0,0,0,136,0,0,0,2,0,158,0,0,0,0,0,1,0,0,0,0,0,0,0,0,0,183,0,0,0,0,0,0,2,2,0,172,0,0,0,0,0,0,6,0,0,0,25,0,0,0,0,0,0,0,0,0,0,0,0,0,0,0,0,6,0,75,1,18,19
24.5,0,0,0,0,0,183,0,0,0,0,0,4,167,164,0,0,0,0,0,0,0,0,0,123,0,0,0,0,0,0,136,0,0,0,2,0,158,0,0,0,0,0,1,0,0,0,0,0,0,0,0,0,183,0,0,0,0,0,0,2,2,0,172,0,0,0,0,0,0,6,0,0,0,25,0,0,0,0,0,0,0,0,0,0,0,0,0,0,0,0,6,0,75,1,18,19
24.75,0,0,0,0,0,187,0,0,0,0,0,4,167,164,0,0,0,0,0,0,0,0,0,123,0,0,0,0,0,0,140,0,0,0,2,0,158,0,0,0,0,0,1,0,0,0,0,0,0,0,0,0,184,0,0,0,0,0,0,2,2,0,172,0,0,0,0,0,0,6,0,0,0,25,0,0,0,0,0,0,0,0,0,0,0,0,0,0,0,0,6,0,75,1,18,19
25,0,0,0,0,0,187,0,0,0,0,0,4,167,164,0,0,0,0,0,0,0,0,0,123,0,0,0,0,0,0,141,0,0,0,2,0,158,0,0,0,0,0,1,0,0,0,0,0,0,0,0,0,184,0,0,0,0,0,0,2,2,0,172,0,0,0,0,0,0,6,0,0,0,26,0,0,0,0,0,0,0,0,0,0,0,0,0,0,0,0,6,0,75,1,18,19
25.25,0,0,0,0,0,190,0,0,0,0,0,4,173,164,0,0,0,0,0,0,0,0,0,123,0,0,0,0,0,0,147,0,0,0,2,0,158,0,0,0,0,0,1,0,0,0,0,0,0,0,0,0,184,0,0,0,0,0,0,2,2,0,172,0,0,0,0,0,0,6,0,0,0,26,0,0,0,0,0,0,0,0,0,0,0,0,0,0,0,0,6,0,75,1,18,19
25.5,0,0,0,0,0,190,0,0,0,0,0,4,173,164,0,0,0,0,0,0,0,0,0,123,0,0,0,0,0,0,147,0,0,0,2,0,158,0,0,0,0,0,1,0,0,0,0,0,0,0,0,0,185,0,0,0,0,0,0,2,2,0,172,0,0,0,0,0,0,6,0,0,0,26,0,0,0,0,0,0,0,0,0,0,0,0,0,0,0,0,6,0,75,1,18,19
25.75,0,0,0,0,0,190,0,0,0,0,0,4,173,164,0,0,0,0,0,0,0,0,0,123,0,0,0,0,0,0,147,0,0,0,4,0,160,0,0,0,0,0,1,0,0,0,0,0,0,0,0,0,185,0,0,0,0,0,0,2,2,0,173,0,0,0,0,0,0,6,0,0,0,29,0,0,0,0,0,0,0,0,0,0,0,0,0,0,0,0,6,0,75,1,18,19
26,0,0,0,0,0,192,0,0,0,0,0,4,174,164,0,0,0,0,0,0,0,0,0,123,0,0,0,0,0,0,157,0,0,0,4,0,160,0,0,0,0,0,1,0,0,0,0,0,0,0,0,0,186,0,0,0,0,0,0,2,2,0,173,0,0,0,0,0,0,6,0,0,0,29,0,0,0,0,0,0,0,0,0,0,0,0,0,0,0,0,6,0,75,1,18,19
26.25,0,0,0,0,0,192,0,0,0,0,0,4,174,164,0,0,0,0,0,0,0,0,0,123,0,0,0,0,0,0,157,0,0,0,4,0,160,0,0,0,0,0,1,0,0,0,0,0,0,0,0,0,187,0,0,0,0,0,0,2,2,0,173,0,0,0,0,0,0,6,0,0,0,29,0,0,0,0,0,0,0,0,0,0,0,0,0,0,0,0,6,0,75,1,18,19
26.5,0,0,0,0,0,192,0,0,0,0,0,4,174,164,0,0,0,0,0,0,0,0,0,123,0,0,0,0,0,0,157,0,0,0,5,0,160,0,0,0,0,0,1,0,0,0,0,0,0,0,0,0,187,0,0,0,0,0,0,2,2,0,173,0,0,0,0,0,0,6,0,0,0,29,0,0,0,0,0,0,0,0,0,0,0,0,0,0,0,0,6,0,75,1,18,19
26.75,0,0,0,0,0,195,0,0,0,0,0,4,181,164,0,0,0,0,0,0,0,0,0,123,0,0,0,0,0,0,163,0,0,0,5,0,160,0,0,0,0,0,1,0,0,0,0,0,0,0,0,0,187,0,0,0,0,0,0,2,2,0,173,0,0,0,0,0,0,6,0,0,0,29,0,0,0,0,0,0,0,0,0,0,0,0,0,0,0,0,6,0,75,1,18,19
27,0,0,0,0,0,195,0,0,0,0,0,4,181,164,0,0,0,0,0,0,0,0,0,123,0,0,0,0,0,0,163,0,0,0,5,0,160,0,0,0,0,0,1,0,0,0,0,0,0,0,0,0,187,0,0,0,0,0,0,2,2,0,173,0,0,0,0,0,0,6,0,0,0,29,0,0,0,0,0,0,0,0,0,0,0,0,0,0,0,0,6,0,75,1,18,19
27.25,0,0,0,0,0,195,0,0,0,0,0,4,181,164,0,0,0,0,0,0,0,0,0,123,0,0,0,0,0,0,163,0,0,0,5,0,160,0,0,0,0,0,1,0,0,0,0,0,0,0,0,0,187,0,0,0,0,0,0,2,2,0,173,0,0,0,0,0,0,6,0,0,0,38,0,0,0,0,0,0,0,0,0,0,0,0,0,0,0,0,6,0,75,1,18,19
27.5,0,0,0,0,0,195,0,0,0,0,0,4,181,164,0,0,0,0,0,0,0,0,0,123,0,0,0,0,0,0,165,0,0,0,5,0,160,0,0,0,0,0,1,0,0,0,0,0,0,0,0,0,187,0,0,0,0,0,0,2,2,0,173,0,0,0,0,0,0,6,0,0,0,38,0,0,0,0,0,0,0,0,0,0,0,0,0,0,0,0,6,0,75,1,18,19
27.75,0,0,0,0,0,195,0,0,0,0,0,4,181,164,0,0,0,0,0,0,0,0,0,123,0,0,0,0,0,0,165,0,0,0,5,0,160,0,0,0,0,0,1,0,0,0,0,0,0,0,0,0,187,0,0,0,0,0,0,2,2,0,173,0,0,0,0,0,0,6,0,0,0,38,0,0,0,0,0,0,0,0,0,0,0,0,0,0,0,0,6,0,75,1,18,19
28,0,0,0,0,0,195,0,0,0,0,0,4,181,164,0,0,0,0,0,0,0,0,0,123,0,0,0,0,0,0,165,0,0,0,5,0,160,0,0,0,0,0,1,0,0,0,0,0,0,0,0,0,187,0,0,0,0,0,0,2,2,0,173,0,0,0,0,0,0,6,0,0,0,38,0,0,0,0,0,0,0,0,0,0,0,0,0,0,0,0,6,0,75,1,18,19
28.25,0,0,0,0,0,195,0,0,0,0,0,4,181,164,0,0,0,0,0,0,0,0,0,123,0,0,0,0,0,0,165,0,0,0,5,0,160,0,0,0,0,0,1,0,0,0,0,0,0,0,0,0,187,0,0,0,0,0,0,2,2,0,173,0,0,0,0,0,0,6,0,0,0,38,0,0,0,0,0,0,0,0,0,0,0,0,0,0,0,0,6,0,75,1,18,19
28.5,0,0,0,0,0,195,0,0,0,0,0,4,181,164,0,0,0,0,0,0,0,0,0,123,0,0,0,0,0,0,165,0,0,0,5,0,160,0,0,0,0,0,1,0,0,0,0,0,0,0,0,0,188,0,0,0,0,0,0,2,2,0,173,0,0,0,0,0,0,6,0,0,0,38,0,0,0,0,0,0,0,0,0,0,0,0,0,0,0,0,6,0,75,1,18,19
28.75,0,0,0,0,0,195,0,0,0,0,0,4,181,164,0,0,0,0,0,0,0,0,0,123,0,0,0,0,0,0,167,0,0,0,5,0,160,0,0,0,0,0,1,0,0,0,0,0,0,0,0,0,188,0,0,0,0,0,0,2,2,0,173,0,0,0,0,0,0,6,0,0,0,44,0,0,0,0,0,0,0,0,0,0,0,0,0,0,0,0,6,0,75,1,18,19
29,0,0,0,0,0,195,0,0,0,0,0,4,181,164,0,0,0,0,0,0,0,0,0,123,0,0,0,0,0,0,167,0,0,0,5,0,160,0,0,0,0,0,1,0,0,0,0,0,0,0,0,0,188,0,0,0,0,0,0,2,2,0,173,0,0,0,0,0,0,6,0,0,0,44,0,0,0,0,0,0,0,0,0,0,0,0,0,0,0,0,6,0,75,1,18,19
29.25,0,0,0,0,0,195,0,0,0,0,0,4,181,168,0,0,0,0,0,0,0,0,0,123,0,0,0,0,0,0,173,0,0,0,5,0,160,0,0,0,0,0,1,0,0,0,0,0,0,0,0,0,188,0,0,0,0,0,0,2,2,0,173,0,0,0,0,0,0,6,0,0,0,44,0,0,0,0,0,0,0,0,0,0,0,0,0,0,0,0,6,0,75,1,18,19
29.5,0,0,0,0,0,195,0,0,0,0,0,4,181,168,0,0,0,0,0,0,0,0,0,123,0,0,0,0,0,0,173,0,0,0,5,0,160,0,0,0,0,0,1,0,0,0,0,0,0,0,0,0,188,0,0,0,0,0,0,2,2,0,174,0,0,0,0,0,0,6,0,0,0,44,0,0,0,0,0,0,0,0,0,0,0,0,0,0,0,0,6,0,75,1,18,19
29.75,0,0,0,0,0,195,0,0,0,0,0,4,181,168,0,0,0,0,0,0,0,0,0,123,0,0,0,0,0,0,173,0,0,0,5,0,160,0,0,0,0,0,1,0,0,0,0,0,0,0,0,0,188,0,0,0,0,0,0,2,2,0,174,0,0,0,0,0,0,6,0,0,0,44,0,0,0,0,0,0,0,0,0,0,0,0,0,0,0,0,6,0,75,1,18,19
30,0,0,0,0,0,195,0,0,0,0,0,4,181,168,0,0,0,0,0,0,0,0,0,123,0,0,0,0,0,0,175,0,0,0,5,0,160,0,0,0,0,0,1,0,0,0,0,0,0,0,0,0,188,0,0,0,0,0,0,2,2,0,174,0,0,0,0,0,0,6,0,0,0,44,0,0,0,0,0,0,0,0,0,0,0,0,0,0,0,0,6,0,75,1,18,19
30.25,0,0,0,0,0,195,0,0,0,0,0,4,181,168,0,0,0,0,0,0,0,0,0,123,0,0,0,0,0,0,175,0,0,0,5,0,160,0,0,0,0,0,1,0,0,0,0,0,0,0,0,0,188,0,0,0,0,0,0,2,2,0,174,0,0,0,0,0,0,6,0,0,0,47,0,0,0,0,0,0,0,0,0,0,0,0,0,0,0,0,6,0,75,1,18,19
30.5,0,0,0,0,0,195,0,0,0,0,0,4,181,168,0,0,0,0,0,0,0,0,0,123,0,0,0,0,0,0,175,0,0,0,5,0,160,0,0,0,0,0,1,0,0,0,0,0,0,0,0,0,188,0,0,0,0,0,0,2,2,0,174,0,0,0,0,0,0,6,0,0,0,47,0,0,0,0,0,0,0,0,0,0,0,0,0,0,0,0,6,0,75,1,18,19
30.75,0,0,0,0,0,195,0,0,0,0,0,4,181,168,0,0,0,0,0,0,0,0,0,123,0,0,0,0,0,0,175,0,0,0,5,0,160,0,0,0,0,0,1,0,0,0,0,0,0,0,0,0,188,0,0,0,0,0,0,2,2,0,174,0,0,0,0,0,0,6,0,0,0,51,0,0,0,0,0,0,0,0,0,0,0,0,0,0,0,0,6,0,75,1,18,19
31,0,0,0,0,0,195,0,0,0,0,0,4,181,168,0,0,0,0,0,0,0,0,0,123,0,0,0,0,0,0,175,0,0,0,5,0,160,0,0,0,0,0,1,0,0,0,0,0,0,0,0,0,188,0,0,0,0,0,0,2,2,0,174,0,0,0,0,0,0,6,0,0,0,51,0,0,0,0,0,0,0,0,0,0,0,0,0,0,0,0,6,0,75,1,18,19
31.25,0,0,0,0,0,195,0,0,0,0,0,4,181,168,0,0,0,0,0,0,0,0,0,123,0,0,0,0,0,0,175,0,0,0,5,0,160,0,0,0,0,0,1,0,0,0,0,0,0,0,0,0,188,0,0,0,0,0,0,2,2,0,174,0,0,0,0,0,0,6,0,0,0,51,0,0,0,0,0,0,0,0,0,0,0,0,0,0,0,0,6,0,75,1,18,19
31.5,0,0,0,0,0,195,0,0,0,0,0,4,181,168,0,0,0,0,0,0,0,0,0,123,0,0,0,0,0,0,175,0,0,0,5,0,160,0,0,0,0,0,1,0,0,0,0,0,0,0,0,0,188,0,0,0,0,0,0,2,2,0,174,0,0,0,0,0,0,6,0,0,0,51,0,0,0,0,0,0,0,0,0,0,0,0,0,0,0,0,6,0,75,1,18,19
31.75,0,0,0,0,0,195,0,0,0,0,0,4,181,168,0,0,0,0,0,0,0,0,0,123,0,0,0,0,0,0,175,0,0,0,5,0,161,0,0,0,0,0,1,0,0,0,0,0,0,0,0,0,188,0,0,0,0,0,0,2,5,0,177,0,0,0,0,0,0,8,0,0,0,58,0,0,0,0,0,0,0,0,0,0,0,0,0,0,0,0,6,0,75,1,18,19
32,0,0,0,0,0,195,0,0,0,0,0,4,181,168,0,0,0,0,0,0,0,0,0,123,0,0,0,0,0,0,175,0,0,0,5,0,161,0,0,0,0,0,1,0,0,0,0,0,0,0,0,0,188,0,0,0,0,0,0,2,5,0,177,0,0,0,0,0,0,8,0,0,0,58,0,0,0,0,0,0,0,0,0,0,0,0,0,0,0,0,6,0,75,1,18,19
32.25,0,0,0,0,0,198,0,0,0,0,0,4,181,168,0,0,0,0,0,0,0,0,0,123,0,0,0,0,0,0,179,0,0,0,5,0,161,0,0,0,0,0,1,0,0,0,0,0,0,0,0,0,188,0,0,0,0,0,0,2,5,0,177,0,0,0,0,0,0,8,0,0,0,58,0,0,0,0,0,0,0,0,0,0,0,0,0,0,0,0,6,0,75,1,18,19
32.5,0,0,0,0,0,198,0,0,0,0,0,4,181,168,0,0,0,0,0,0,0,0,0,123,0,0,0,0,0,0,179,0,0,0,5,0,161,0,0,0,0,0,1,0,0,0,0,0,0,0,0,0,188,0,0,0,0,0,0,2,5,0,177,0,0,0,0,0,0,8,0,0,0,58,0,0,0,0,0,0,0,0,0,0,0,0,0,0,0,0,6,0,75,1,18,19
32.75,0,0,0,0,0,199,0,0,0,0,0,4,184,168,0,0,0,0,0,0,0,0,0,123,0,0,0,0,0,0,183,0,0,0,5,0,161,0,0,0,0,0,1,0,0,0,0,0,0,0,0,0,188,0,0,0,0,0,0,2,5,0,177,0,0,0,0,0,0,8,0,0,0,58,0,0,0,0,0,0,0,0,0,0,0,0,0,0,0,0,6,0,75,1,18,19
33,0,0,0,0,0,199,0,0,0,0,0,4,184,168,0,0,0,0,0,0,0,0,0,123,0,0,0,0,0,0,183,0,0,0,5,0,161,0,0,0,0,0,1,0,0,0,0,0,0,0,0,0,188,0,0,0,0,0,0,2,5,0,177,0,0,0,0,0,0,8,0,0,0,58,0,0,0,0,0,0,0,0,0,0,0,0,0,0,0,0,6,0,75,1,18,19
33.25,0,0,0,0,0,199,0,0,0,0,0,4,184,168,0,0,0,0,0,0,0,0,0,123,0,0,0,0,0,0,183,0,0,0,5,0,161,0,0,0,0,0,1,0,0,0,0,0,0,0,0,0,190,0,0,0,0,0,0,2,5,0,177,0,0,0,0,0,0,8,0,0,0,58,0,0,0,0,0,0,0,0,0,0,0,0,0,0,0,0,6,0,75,1,18,19
33.5,0,0,0,0,0,200,0,0,0,0,0,4,184,168,0,0,0,0,0,0,0,0,0,123,0,0,0,0,0,0,183,0,0,0,5,0,161,0,0,0,0,0,1,0,0,0,0,0,0,0,0,0,190,0,0,0,0,0,0,2,5,0,177,0,0,0,0,0,0,8,0,0,0,58,0,0,0,0,0,0,0,0,0,0,0,0,0,0,0,0,6,0,75,1,18,19
33.75,0,0,0,0,0,200,0,0,0,0,0,4,184,168,0,0,0,0,0,0,0,0,0,123,0,0,0,0,0,0,183,0,0,0,5,0,161,0,0,0,0,0,1,0,0,0,0,0,0,0,0,0,190,0,0,0,0,0,0,2,5,0,177,0,0,0,0,0,0,8,0,0,0,58,0,0,0,0,0,0,0,0,0,0,0,0,0,0,0,0,6,0,75,1,18,19
34,0,0,0,0,0,200,0,0,0,0,0,4,184,168,0,0,0,0,0,0,0,0,0,123,0,0,0,0,0,0,183,0,0,0,5,0,161,0,0,0,0,0,1,0,0,0,0,0,0,0,0,0,190,0,0,0,0,0,0,2,5,0,177,0,0,0,0,0,0,8,0,0,0,58,0,0,0,0,0,0,0,0,0,0,0,0,0,0,0,0,6,0,75,1,18,19
34.25,0,0,0,0,0,200,0,0,0,0,0,4,184,168,0,0,0,0,0,0,0,0,0,123,0,0,0,0,0,0,184,0,0,0,5,0,161,0,0,0,0,0,1,0,0,0,0,0,0,0,0,0,190,0,0,0,0,0,0,2,5,0,177,0,0,0,0,0,0,8,0,0,0,58,0,0,0,0,0,0,0,0,0,0,0,0,0,0,0,0,6,0,75,1,18,19
34.5,0,0,0,0,0,200,0,0,0,0,0,4,184,168,0,0,0,0,0,0,0,0,0,123,0,0,0,0,0,0,184,0,0,0,5,0,161,0,0,0,0,0,1,0,0,0,0,0,0,0,0,0,190,0,0,0,0,0,0,2,5,0,177,0,0,0,0,0,0,8,0,0,0,58,0,0,0,0,0,0,0,0,0,0,0,0,0,0,0,0,6,0,75,1,18,19
34.75,0,0,0,0,0,200,0,0,0,0,0,4,184,168,0,0,0,0,0,0,0,0,0,123,0,0,0,0,0,0,184,0,0,0,5,0,161,0,0,0,0,0,1,0,0,0,0,0,0,0,0,0,190,0,0,0,0,0,0,2,5,0,177,0,0,0,0,0,0,8,0,0,0,58,0,0,0,0,0,0,0,0,0,0,0,0,0,0,0,0,6,0,75,1,18,19
35,0,0,0,0,0,200,0,0,0,0,0,4,184,168,0,0,0,0,0,0,0,0,0,123,0,0,0,0,0,0,184,0,0,0,5,0,161,0,0,0,0,0,1,0,0,0,0,0,0,0,0,0,190,0,0,0,0,0,0,2,5,0,177,0,0,0,0,0,0,8,0,0,0,58,0,0,0,0,0,0,0,0,0,0,0,0,0,0,0,0,6,0,75,1,18,19
35.25,0,0,0,0,0,200,0,0,0,0,0,4,184,168,0,0,0,0,0,0,0,0,0,123,0,0,0,0,0,0,184,0,0,0,5,0,161,0,0,0,0,0,1,0,0,0,0,0,0,0,0,0,190,0,0,0,0,0,0,2,5,0,177,0,0,0,0,0,0,8,0,0,0,58,0,0,0,0,0,0,0,0,0,0,0,0,0,0,0,0,6,0,75,1,18,19
35.5,0,0,0,0,0,200,0,0,0,0,0,4,184,168,0,0,0,0,0,0,0,0,0,123,0,0,0,0,0,0,184,0,0,0,5,0,161,0,0,0,0,0,1,0,0,0,0,0,0,0,0,0,190,0,0,0,0,0,0,2,5,0,177,0,0,0,0,0,0,8,0,0,0,58,0,0,0,0,0,0,0,0,0,0,0,0,0,0,0,0,6,0,75,1,18,19
35.75,0,0,0,0,0,200,0,0,0,0,0,4,184,168,0,0,0,0,0,0,0,0,0,123,0,0,0,0,0,0,184,0,0,0,5,0,161,0,0,0,0,0,1,0,0,0,0,0,0,0,0,0,190,0,0,0,0,0,0,2,5,0,177,0,0,0,0,0,0,8,0,0,0,58,0,0,0,0,0,0,0,0,0,0,0,0,0,0,0,0,6,0,75,1,18,19
36,0,0,0,0,0,200,0,0,0,0,0,4,184,168,0,0,0,0,0,0,0,0,0,123,0,0,0,0,0,0,184,0,0,0,5,0,161,0,0,0,0,0,1,0,0,0,0,0,0,0,0,0,190,0,0,0,0,0,0,2,5,0,177,0,0,0,0,0,0,8,0,0,0,58,0,0,0,0,0,0,0,0,0,0,0,0,0,0,0,0,6,0,75,1,18,19
36.25,0,0,0,0,0,203,0,0,0,0,0,4,184,168,0,0,0,0,0,0,0,0,0,123,0,0,0,0,0,0,189,0,0,0,5,0,161,0,0,0,0,0,1,0,0,0,0,0,0,0,0,0,190,0,0,0,0,0,0,2,5,0,177,0,0,0,0,0,0,8,0,0,0,58,0,0,0,0,0,0,0,0,0,0,0,0,0,0,0,0,6,0,75,1,18,19
36.5,0,0,0,0,0,203,0,0,0,0,0,4,184,168,0,0,0,0,0,0,0,0,0,123,0,0,0,0,0,0,189,0,0,0,5,0,161,0,0,0,0,0,1,0,0,0,0,0,0,0,0,0,190,0,0,0,0,0,0,2,5,0,177,0,0,0,0,0,0,8,0,0,0,58,0,0,0,0,0,0,0,0,0,0,0,0,0,0,0,0,6,0,75,1,18,19
36.75,0,0,0,0,0,203,0,0,0,0,0,4,184,168,0,0,0,0,0,0,0,0,0,123,0,0,0,0,0,0,189,0,0,0,5,0,161,0,0,0,0,0,1,0,0,0,0,0,0,0,0,0,190,0,0,0,0,0,0,2,5,0,177,0,0,0,0,0,0,8,0,0,0,58,0,0,0,0,0,0,0,0,0,0,0,0,0,0,0,0,6,0,75,1,18,19
37,0,0,0,0,0,203,0,0,0,0,0,4,184,168,0,0,3,0,0,0,0,0,0,123,0,0,0,0,0,0,189,0,0,0,5,0,161,0,0,0,0,0,1,0,0,0,0,0,0,0,0,0,190,0,0,0,0,0,0,2,5,0,177,0,0,0,0,0,0,8,0,0,0,58,0,0,0,0,0,0,0,0,0,0,0,0,0,0,0,0,6,0,75,1,18,19
37.25,0,0,0,0,0,203,0,0,0,0,0,4,184,168,0,0,4,0,0,0,0,0,0,123,0,0,0,0,0,0,189,0,0,0,5,0,161,0,0,0,0,0,1,0,0,0,0,0,0,0,0,0,190,0,0,0,0,0,0,2,5,0,177,0,0,0,0,0,0,8,0,0,0,58,0,0,0,0,0,0,0,0,0,0,0,0,0,0,0,0,6,0,75,1,18,19
37.5,0,0,0,0,0,203,0,0,0,0,0,4,184,168,0,0,7,0,0,0,0,0,0,123,0,0,0,0,0,0,189,0,0,0,5,0,161,0,0,0,0,0,1,0,0,0,0,0,0,0,0,0,190,0,0,0,0,0,0,2,5,0,177,0,0,0,0,0,0,8,0,0,0,58,0,0,0,0,0,0,0,0,0,0,0,0,0,0,0,0,6,0,75,1,18,19
37.75,0,0,0,0,0,203,0,0,0,0,0,4,184,168,0,0,7,0,0,0,0,0,0,123,0,0,0,0,0,0,189,0,0,0,5,0,161,0,0,0,0,0,1,0,0,0,0,0,0,0,0,0,190,0,0,0,0,0,0,2,5,0,177,0,0,0,0,0,0,8,0,0,0,58,0,0,0,0,0,0,0,0,0,6,0,0,0,0,0,0,6,0,75,1,18,19
38,0,0,0,0,0,203,0,0,0,0,0,4,184,168,0,0,7,0,0,0,0,0,0,123,0,0,0,0,0,0,189,0,0,0,5,0,161,0,0,0,0,0,1,0,0,0,0,0,0,0,0,0,190,0,0,0,0,0,0,2,5,0,177,0,0,0,0,0,0,8,0,0,0,58,0,0,0,0,0,0,0,0,0,6,0,0,0,0,0,0,6,0,75,1,18,19
38.25,0,0,0,0,0,203,0,0,0,0,0,4,184,168,0,0,13,0,0,0,0,0,0,123,0,0,0,0,0,0,189,0,0,0,5,0,161,0,0,0,0,0,1,0,0,0,0,0,0,0,0,0,190,0,0,0,0,0,0,2,5,0,177,0,0,0,0,0,0,8,0,0,0,58,0,0,0,0,0,0,0,0,0,6,0,0,0,0,0,0,6,0,75,1,18,19
38.5,0,0,0,0,0,203,0,0,0,0,0,4,184,168,0,0,13,0,0,0,0,0,0,123,0,0,0,0,0,0,189,0,0,0,5,0,161,0,0,0,0,0,1,0,0,0,0,0,0,0,0,0,190,0,0,0,0,0,0,2,5,0,177,0,0,0,0,0,0,8,0,0,0,58,0,0,0,0,0,0,0,0,0,12,0,0,0,0,0,0,6,0,75,1,18,19
38.75,0,0,0,0,0,203,0,0,0,0,0,4,184,168,0,0,17,0,0,0,0,0,0,123,0,0,0,0,0,0,189,0,0,0,5,0,161,0,0,0,0,0,1,0,0,0,0,0,0,0,0,0,190,0,0,0,0,0,0,2,5,0,177,0,0,0,0,0,0,8,0,0,0,58,0,0,0,0,0,0,0,0,0,12,0,0,0,0,0,0,6,0,75,1,18,19
39,0,0,0,0,0,203,0,0,0,0,0,4,184,168,0,0,17,0,0,0,0,0,0,123,0,0,0,0,0,0,189,0,0,0,5,0,161,0,0,0,0,0,1,0,0,0,0,0,0,0,0,0,190,0,0,0,0,0,0,2,5,0,177,0,0,0,0,0,0,8,0,0,0,58,0,0,0,0,0,0,0,0,0,12,0,0,0,0,0,0,6,0,75,1,18,19
39.25,0,0,0,0,0,203,0,0,0,0,0,4,184,168,0,0,22,0,0,0,0,0,0,123,0,0,0,0,0,0,190,0,0,0,5,0,161,0,0,0,0,0,1,0,0,0,0,0,0,0,0,0,190,0,0,0,0,0,0,2,5,0,177,0,0,0,0,0,0,8,0,0,0,58,0,0,0,0,0,0,0,0,0,12,0,0,0,0,0,0,6,0,75,1,18,19
39.5,0,0,0,0,0,203,0,0,0,0,0,4,184,168,0,0,22,0,0,0,0,0,0,123,0,0,0,0,0,0,190,0,0,0,5,0,161,0,0,0,0,0,1,0,0,0,0,0,0,0,0,0,190,0,0,0,0,0,0,2,5,0,177,0,0,0,0,0,0,8,0,0,0,58,0,0,0,0,0,0,0,0,0,12,0,0,0,0,0,0,6,0,75,1,18,19
39.75,0,0,0,0,0,203,0,0,0,0,0,4,184,168,0,0,23,0,0,0,0,0,0,123,0,0,0,0,0,0,190,0,0,0,5,0,161,0,0,0,0,0,1,0,0,0,0,0,0,0,0,0,190,0,0,0,0,0,0,2,5,0,177,0,0,0,0,0,0,8,0,0,0,58,0,0,0,0,0,0,0,0,0,12,0,0,0,0,0,0,6,0,75,1,18,19
40,0,0,0,0,0,203,0,0,0,0,0,4,184,168,0,0,27,0,0,0,0,0,0,123,0,0,0,0,0,0,190,0,0,0,5,0,161,0,0,0,0,0,1,0,0,0,0,0,0,0,0,0,190,0,0,0,0,0,0,2,5,0,177,0,0,0,0,0,0,8,0,0,0,58,0,0,0,0,0,0,0,0,0,12,0,0,0,0,0,0,6,0,75,1,18,19
40.25,0,0,0,0,0,203,0,0,0,0,0,4,184,168,0,0,27,0,0,0,0,0,0,123,0,0,0,0,0,0,190,0,0,0,5,0,161,0,0,0,0,0,1,0,0,0,0,0,0,0,0,0,190,0,0,0,0,0,0,2,5,0,177,0,0,0,0,0,0,8,0,0,0,58,0,0,0,0,0,0,0,0,0,12,0,0,0,0,0,0,6,0,75,1,18,19
40.5,0,0,0,0,0,203,0,0,0,0,0,4,184,168,0,0,27,0,0,0,0,0,0,123,0,0,0,0,0,0,190,0,0,0,5,0,161,0,0,0,0,0,1,0,0,0,0,0,0,0,0,0,190,0,0,0,0,0,0,2,5,0,177,0,0,0,0,0,0,8,0,0,0,58,0,0,0,0,0,0,0,0,0,13,0,0,0,0,0,0,6,0,75,1,18,19
40.75,0,0,0,0,0,203,0,0,0,0,0,4,184,168,0,0,34,0,0,0,0,0,0,123,0,0,0,0,0,0,190,0,0,0,5,0,161,0,0,0,0,0,1,0,0,0,0,0,0,0,0,0,190,0,0,0,0,0,0,2,5,0,177,0,0,0,0,0,0,8,0,0,0,58,0,0,0,0,0,0,0,0,0,13,0,0,0,0,0,0,6,0,75,1,18,19
41,0,0,0,0,0,203,0,0,0,0,0,4,184,168,0,0,34,0,0,0,0,0,0,123,0,0,0,0,0,0,190,0,0,0,5,0,161,0,0,0,0,0,1,0,0,0,0,0,0,0,0,0,190,0,0,0,0,0,0,2,5,0,177,0,0,0,0,0,0,8,0,0,0,58,0,0,0,0,0,0,0,0,0,13,0,0,0,0,0,0,6,0,75,1,18,19
41.25,0,0,0,0,0,203,0,0,0,0,0,4,184,168,0,0,35,0,0,0,0,0,0,123,0,0,0,0,0,0,190,0,0,0,5,0,161,0,0,0,0,0,1,0,0,0,0,0,0,0,0,0,190,0,0,0,0,0,0,2,5,0,177,0,0,0,0,0,0,8,0,0,0,58,0,0,0,0,0,0,0,0,0,13,0,0,0,0,0,0,6,0,75,1,18,19
41.5,0,0,0,0,0,203,0,0,0,0,0,4,184,168,0,0,37,0,0,0,0,0,0,123,0,0,0,0,0,0,190,0,0,0,5,0,161,0,0,0,0,0,1,0,0,0,0,0,0,0,0,0,190,0,0,0,0,0,0,2,5,0,177,0,0,0,0,0,0,8,0,0,0,58,0,0,0,0,0,0,0,0,0,13,0,0,0,0,0,0,6,0,75,1,18,19
41.75,0,0,0,0,0,203,0,0,0,0,0,4,184,168,0,0,40,0,0,0,0,0,0,123,0,0,0,0,0,0,190,0,0,0,5,0,161,0,0,0,0,0,1,0,0,0,0,0,0,0,0,0,190,0,0,0,0,0,0,2,5,0,177,0,0,0,0,0,0,8,0,0,0,58,0,0,0,0,0,0,0,0,0,13,0,0,0,0,0,0,6,0,75,1,18,19
42,0,0,0,0,0,203,0,0,0,0,0,4,184,168,0,0,40,0,0,0,0,0,0,123,0,0,0,0,0,0,190,0,0,0,5,0,161,0,0,0,0,0,1,0,0,0,0,0,0,0,0,0,190,0,0,0,0,0,0,2,5,0,177,0,0,0,0,0,0,8,0,0,0,58,0,0,0,0,0,0,0,0,0,13,0,0,0,0,0,0,6,0,75,1,18,19
42.25,0,0,0,0,0,203,0,0,0,0,0,4,184,168,0,0,40,0,0,0,0,0,0,123,0,0,0,0,0,0,190,0,0,0,5,0,161,0,0,0,0,0,1,0,0,0,0,0,0,0,0,0,190,0,0,0,0,0,0,2,5,0,177,0,0,0,0,0,0,8,0,0,0,58,0,0,0,0,0,0,0,0,0,13,0,0,0,0,0,0,6,0,75,1,18,19
42.5,0,0,0,0,0,203,0,1,0,0,0,4,184,168,0,0,40,0,0,0,0,0,0,123,0,0,0,0,0,0,190,0,0,0,5,0,161,0,0,0,0,0,1,0,0,0,0,0,0,0,0,0,190,0,0,0,0,0,0,2,5,0,177,0,0,0,0,0,0,8,0,0,0,58,0,0,0,0,0,0,0,0,0,13,0,0,0,0,0,0,6,0,75,1,20,19
42.75,0,0,0,0,0,203,0,3,0,0,0,4,184,168,0,0,40,0,0,0,0,0,0,123,0,0,0,0,0,0,190,0,0,0,5,0,161,0,0,0,0,0,1,0,0,0,0,0,0,0,0,0,190,0,0,0,0,0,0,2,5,0,177,0,0,0,0,0,0,8,0,0,0,58,0,0,0,0,0,0,0,0,0,14,0,0,0,0,0,0,6,0,75,1,21,19
43,0,0,0,0,0,203,0,3,0,0,0,4,184,168,0,0,45,0,0,0,0,0,0,123,0,0,0,0,0,0,190,0,0,0,5,0,161,0,0,0,0,0,1,0,0,0,0,0,0,0,0,0,190,0,0,0,0,0,0,2,5,0,177,0,0,0,0,0,0,8,0,0,0,58,0,0,0,0,0,0,0,0,0,14,0,0,0,0,0,0,6,0,75,1,21,19
43.25,0,0,0,0,0,203,1,3,0,0,0,4,184,168,0,0,49,0,0,0,0,0,0,123,0,0,0,0,0,0,190,0,0,0,5,0,161,0,0,0,0,0,1,0,0,0,0,0,0,0,0,0,190,0,0,0,0,0,0,2,5,0,177,0,0,0,0,0,0,8,0,0,0,58,0,0,0,0,0,0,0,0,0,17,0,0,0,0,0,0,6,0,75,1,25,19
43.5,0,0,0,0,0,203,2,5,0,0,0,4,184,168,0,0,49,0,0,0,0,0,0,123,0,0,0,0,0,0,190,0,0,0,5,0,161,0,0,0,0,0,1,0,0,0,0,0,0,0,0,0,190,0,0,0,0,0,0,2,5,0,177,0,0,0,0,0,0,8,0,0,0,58,0,0,0,0,0,0,0,0,0,19,0,0,0,0,0,0,6,0,75,1,29,22
43.75,0,0,0,0,0,203,2,5,0,0,0,4,184,168,0,0,50,0,0,0,0,0,0,123,0,0,0,0,0,0,190,0,0,0,5,0,161,0,0,0,0,0,1,0,0,0,0,0,0,0,0,0,190,0,0,0,0,0,0,2,5,0,177,0,0,0,0,0,0,8,0,0,0,58,0,0,0,0,0,0,0,0,0,20,0,0,0,0,0,0,6,0,75,1,29,22
44,0,0,0,0,0,203,2,5,0,0,0,4,184,168,0,0,50,0,0,0,0,0,0,123,0,0,0,0,0,0,190,0,0,0,5,0,161,0,0,0,0,0,1,0,0,0,0,0,0,0,0,0,190,0,0,0,0,0,0,2,5,0,177,0,0,0,0,0,0,8,0,0,0,58,0,0,0,0,0,0,0,0,0,20,0,0,0,0,0,0,6,0,75,1,29,22
44.25,0,0,0,0,0,203,5,10,0,0,0,4,184,168,0,0,50,0,0,0,0,0,0,123,0,0,0,0,0,0,190,0,0,0,5,0,161,0,0,0,0,0,1,0,0,0,0,0,0,0,0,0,190,0,0,0,0,0,0,2,5,0,177,0,0,0,0,0,0,8,0,0,0,58,0,0,0,0,0,0,0,0,0,24,0,0,0,0,0,0,6,0,75,1,29,22
44.5,0,0,0,0,0,203,5,10,0,0,0,4,184,168,0,0,55,0,0,0,0,0,0,123,0,0,0,0,0,0,190,0,0,0,5,0,161,0,0,0,0,0,1,0,0,0,0,0,0,0,0,0,190,0,0,0,0,0,0,2,5,0,177,0,0,0,0,0,0,8,0,0,0,58,0,0,0,0,0,0,0,0,0,24,0,0,0,0,0,0,6,0,75,1,29,22
44.75,0,0,0,0,0,203,5,10,0,0,0,4,184,168,0,0,55,0,0,0,0,0,0,123,0,0,0,0,0,0,190,0,0,0,5,0,161,0,0,0,0,0,1,0,0,0,0,0,0,0,0,0,190,0,0,0,0,0,0,2,5,0,177,0,0,0,0,0,0,8,0,0,0,58,0,0,0,0,0,0,0,0,0,24,0,0,0,0,0,0,6,0,75,1,36,34
45,0,0,0,0,0,203,5,10,0,0,0,4,184,168,0,0,55,0,0,0,0,0,0,123,0,0,0,0,0,0,190,0,0,0,5,0,161,0,0,0,0,0,1,0,0,0,0,0,0,0,0,0,190,0,0,0,0,0,0,2,5,0,177,0,0,0,0,0,0,8,0,0,0,58,0,0,0,0,0,0,0,0,0,24,0,0,0,0,0,0,6,0,75,1,38,34
45.25,0,0,0,0,0,203,6,11,0,0,0,4,184,168,0,0,55,0,0,0,0,0,0,123,0,0,0,0,0,0,190,0,0,0,5,0,161,0,0,0,0,0,1,0,0,0,0,0,0,0,0,0,190,0,0,0,0,0,0,2,5,0,177,0,0,0,0,0,0,8,0,0,0,58,0,0,0,0,0,0,0,0,0,24,0,0,0,0,0,0,6,0,75,1,38,34
45.5,0,0,0,0,0,203,6,11,0,0,0,4,184,168,0,0,61,0,0,0,0,0,0,123,0,0,0,0,0,0,190,0,0,0,5,0,161,0,0,0,0,0,1,0,0,0,0,0,0,0,0,0,192,0,0,0,0,0,0,2,5,0,177,0,0,0,0,0,0,8,0,0,0,58,0,0,0,0,0,0,0,0,0,24,0,0,0,0,0,0,6,0,75,1,38,34
45.75,0,0,0,0,0,203,6,11,0,0,0,4,184,168,0,0,61,0,0,0,0,0,0,123,0,0,0,0,0,0,190,0,0,0,5,0,161,0,0,0,0,0,1,0,0,0,0,0,0,0,0,0,192,0,0,0,0,0,0,2,5,0,177,0,0,0,0,0,0,8,0,0,0,58,0,0,0,0,0,0,0,0,0,24,0,0,0,0,0,0,6,0,75,1,38,34
46,0,0,0,0,0,205,6,11,0,0,0,4,184,168,0,0,67,0,0,0,0,0,0,123,0,0,0,0,0,0,197,0,0,0,5,0,161,0,0,0,0,0,1,0,0,0,0,0,0,0,0,0,192,0,0,0,0,0,0,2,5,0,177,0,0,0,0,0,0,8,0,0,0,58,0,0,0,0,0,0,0,0,0,24,0,0,0,0,0,0,6,0,75,1,38,34
46.25,0,0,0,0,0,205,6,11,0,0,0,4,184,168,0,0,67,0,0,0,0,0,0,123,0,0,0,0,0,0,197,0,0,0,5,0,161,0,0,8,0,0,1,0,0,0,0,0,0,0,0,0,192,0,0,0,0,0,0,2,5,0,177,0,0,0,0,0,0,8,0,0,0,58,0,0,0,0,0,0,0,0,0,24,0,0,0,0,0,0,6,0,75,1,38,34
46.5,0,0,0,0,0,205,6,11,0,0,0,4,184,168,0,0,67,0,0,0,0,0,0,123,0,0,0,0,0,0,197,0,0,0,5,0,161,0,0,8,0,0,1,0,0,0,0,0,0,0,0,0,192,0,0,0,0,0,0,2,5,0,177,0,0,0,0,0,0,8,0,0,0,58,0,0,0,0,0,0,0,0,0,24,0,0,0,0,0,0,6,0,75,1,38,34
46.75,0,0,0,0,0,205,8,11,0,0,0,4,184,168,0,0,67,0,0,0,0,0,0,123,0,0,0,0,0,0,197,0,0,0,5,0,161,0,0,15,0,0,1,0,0,0,0,0,0,0,0,0,192,0,0,0,0,0,0,2,5,0,177,0,0,0,0,0,0,8,0,0,0,58,0,0,0,0,0,0,0,0,0,24,0,0,0,0,0,0,6,0,75,1,38,34
47,0,0,0,0,0,205,8,11,0,0,0,4,184,168,0,0,67,0,0,0,0,0,0,123,0,0,0,0,0,0,197,0,0,0,5,0,161,0,0,19,0,0,1,0,0,0,0,0,0,0,0,0,192,0,0,0,0,0,0,2,5,0,177,0,0,0,0,0,0,8,0,0,0,58,0,0,0,0,0,0,0,0,0,24,0,0,0,0,0,0,6,0,76,1,39,34
47.25,0,0,0,0,0,205,8,11,0,0,0,4,184,168,0,0,69,0,0,0,0,0,0,123,0,0,0,0,0,0,197,0,0,0,5,0,161,0,0,19,0,0,1,0,0,0,0,0,0,0,0,0,192,0,0,0,0,0,0,2,5,0,177,0,0,0,0,0,0,8,0,0,0,58,0,0,0,0,0,0,0,0,0,24,0,0,0,0,0,0,6,0,76,1,39,34
47.5,0,0,0,0,0,205,8,11,0,0,0,4,184,168,0,0,69,0,0,0,0,0,0,123,0,0,0,0,0,0,197,0,0,0,5,0,161,0,0,28,0,0,1,0,0,0,0,0,0,0,0,0,192,0,0,0,0,0,0,2,5,0,177,0,0,0,0,0,0,8,0,0,0,58,0,0,0,0,0,0,0,0,0,25,0,0,0,0,0,0,6,0,76,5,41,34
47.75,0,0,0,0,0,205,8,11,0,0,0,4,184,168,0,0,69,0,0,0,0,0,0,123,0,0,0,0,0,0,197,0,0,0,5,0,161,0,0,31,0,0,1,0,0,0,0,0,0,0,0,0,192,0,0,0,0,1,0,2,5,0,177,0,0,0,0,0,0,8,0,0,0,58,0,0,0,0,0,0,0,0,0,28,0,0,0,0,0,0,6,0,78,5,41,34
