Data File    , C:\Program Files\Biolog\OL_DC_23\PMX\Data_2013\07\PMX_443_130705_A_16.OKA,,,,,,,,,,,,,,,,,,,,,,,,,,,,,,,,,,,,,,,,,,,,,,,,,,,,,,,,,,,,,,,,,,,,,,,,,,,,,,,,,,,,,,,,,,,,,,,
Set up Time  ,Jul 05 2013 11:57 AM,,,,,,,,,,,,,,,,,,,,,,,,,,,,,,,,,,,,,,,,,,,,,,,,,,,,,,,,,,,,,,,,,,,,,,,,,,,,,,,,,,,,,,,,,,,,,,,
Position     , 8-B,,,,,,,,,,,,,,,,,,,,,,,,,,,,,,,,,,,,,,,,,,,,,,,,,,,,,,,,,,,,,,,,,,,,,,,,,,,,,,,,,,,,,,,,,,,,,,,
Plate Type   ,PM 2-A,,,,,,,,,,,,,,,,,,,,,,,,,,,,,,,,,,,,,,,,,,,,,,,,,,,,,,,,,,,,,,,,,,,,,,,,,,,,,,,,,,,,,,,,,,,,,,,
Strain Type  ,---,,,,,,,,,,,,,,,,,,,,,,,,,,,,,,,,,,,,,,,,,,,,,,,,,,,,,,,,,,,,,,,,,,,,,,,,,,,,,,,,,,,,,,,,,,,,,,,
Sample Number,,,,,,,,,,,,,,,,,,,,,,,,,,,,,,,,,,,,,,,,,,,,,,,,,,,,,,,,,,,,,,,,,,,,,,,,,,,,,,,,,,,,,,,,,,,,,,,,
Strain Name  ,rep1,,,,,,,,,,,,,,,,,,,,,,,,,,,,,,,,,,,,,,,,,,,,,,,,,,,,,,,,,,,,,,,,,,,,,,,,,,,,,,,,,,,,,,,,,,,,,,,
Strain Number,219-JUL8,,,,,,,,,,,,,,,,,,,,,,,,,,,,,,,,,,,,,,,,,,,,,,,,,,,,,,,,,,,,,,,,,,,,,,,,,,,,,,,,,,,,,,,,,,,,,,,
Other        ,,,,,,,,,,,,,,,,,,,,,,,,,,,,,,,,,,,,,,,,,,,,,,,,,,,,,,,,,,,,,,,,,,,,,,,,,,,,,,,,,,,,,,,,,,,,,,,,
,,,,,,,,,,,,,,,,,,,,,,,,,,,,,,,,,,,,,,,,,,,,,,,,,,,,,,,,,,,,,,,,,,,,,,,,,,,,,,,,,,,,,,,,,,,,,,,,
Hour,  A01,  A02,  A03,  A04,  A05,  A06,  A07,  A08,  A09,  A10,  A11,  A12,  B01,  B02,  B03,  B04,  B05,  B06,  B07,  B08,  B09,  B10,  B11,  B12,  C01,  C02,  C03,  C04,  C05,  C06,  C07,  C08,  C09,  C10,  C11,  C12,  D01,  D02,  D03,  D04,  D05,  D06,  D07,  D08,  D09,  D10,  D11,  D12,  E01,  E02,  E03,  E04,  E05,  E06,  E07,  E08,  E09,  E10,  E11,  E12,  F01,  F02,  F03,  F04,  F05,  F06,  F07,  F08,  F09,  F10,  F11,  F12,  G01,  G02,  G03,  G04,  G05,  G06,  G07,  G08,  G09,  G10,  G11,  G12,  H01,  H02,  H03,  H04,  H05,  H06,  H07,  H08,  H09,  H10,  H11,  H12
0,0,1,0,0,0,0,0,0,0,0,0,2,0,0,0,0,0,0,0,0,0,0,0,0,0,0,0,0,0,0,0,0,0,0,0,0,0,0,0,0,0,0,0,0,0,0,0,0,0,0,0,0,0,0,0,0,0,0,0,0,0,0,0,0,0,0,0,0,0,0,0,0,0,0,0,0,0,0,0,0,0,0,0,0,0,0,0,0,0,0,0,0,32,0,0,0
0.25,0,1,0,0,0,0,0,0,0,0,0,11,0,0,0,0,0,0,0,0,0,0,0,0,0,0,0,0,0,0,0,0,0,0,0,0,0,0,0,0,0,0,0,0,0,0,0,0,0,0,0,0,0,0,0,0,0,0,0,0,0,0,0,0,0,0,0,0,0,0,0,0,0,0,0,0,0,0,0,0,0,0,0,0,0,0,0,0,0,0,0,0,32,0,0,0
0.5,0,1,0,0,0,0,0,0,0,0,0,11,0,0,0,0,0,0,0,0,0,0,0,0,0,0,0,0,0,0,0,0,0,0,0,0,0,0,0,0,0,0,0,0,0,0,0,0,0,0,0,0,0,0,0,0,0,0,0,0,0,0,0,0,0,0,0,0,0,0,0,0,0,0,0,0,0,0,0,0,0,0,0,0,0,0,0,0,0,0,0,0,32,0,0,0
0.75,0,0,0,0,0,0,0,0,0,0,0,12,0,0,0,0,0,0,0,0,0,0,0,0,0,0,0,0,0,0,0,0,0,0,0,0,0,0,0,0,0,0,0,0,0,0,0,0,0,0,0,0,0,0,0,0,0,0,0,0,0,0,0,0,0,0,0,0,0,0,0,0,0,0,0,0,0,0,0,0,0,0,0,0,0,0,0,0,0,0,0,0,30,0,0,0
1,0,0,0,0,0,0,0,0,0,0,0,6,0,0,0,0,0,0,0,0,0,0,0,0,0,0,0,0,0,0,0,0,0,0,0,0,0,0,0,0,0,0,0,0,0,0,0,0,0,0,0,0,0,0,0,0,0,0,0,0,0,0,0,0,0,0,0,0,0,0,0,0,0,0,0,0,0,0,0,0,0,0,0,0,0,0,0,0,0,0,0,0,23,0,0,0
1.25,0,0,0,0,0,0,0,0,0,0,0,6,0,0,0,0,0,0,0,0,0,0,0,0,0,0,0,0,0,0,0,0,0,0,0,0,0,0,0,0,0,0,0,0,0,0,0,0,0,0,0,0,0,0,0,0,0,0,0,0,0,0,0,0,0,0,0,0,0,0,0,0,0,0,0,0,0,0,0,0,0,0,0,0,0,0,0,0,0,0,0,0,13,0,0,0
1.5,0,0,0,0,0,0,0,0,0,0,1,9,0,0,0,0,0,0,0,0,0,0,0,0,0,0,0,0,0,0,0,0,0,0,0,0,0,0,0,0,0,0,0,0,0,0,0,0,0,0,0,0,0,0,0,0,0,0,0,0,0,0,0,0,0,0,0,0,0,0,0,0,0,0,0,0,0,0,0,0,0,0,0,0,0,0,0,0,0,0,0,0,8,0,0,0
1.75,0,0,0,0,0,3,0,0,0,0,0,6,0,0,0,0,0,0,0,0,0,0,0,0,0,0,0,0,0,0,0,0,0,0,0,0,0,0,0,0,0,0,0,0,0,0,0,0,0,0,0,0,0,0,0,0,0,0,0,0,0,0,0,0,0,0,0,0,0,0,0,0,0,0,0,0,0,0,0,0,0,0,0,0,0,0,0,0,0,0,0,0,1,0,0,0
2,0,0,0,0,0,15,0,0,0,0,0,5,0,0,0,0,0,0,0,0,0,0,0,0,0,0,0,0,0,0,0,0,0,0,0,0,0,0,0,0,0,0,0,0,0,0,0,0,0,0,0,0,0,0,0,0,0,0,0,0,6,0,0,0,0,0,0,0,0,0,0,0,0,0,0,0,0,0,0,0,0,0,0,0,0,0,0,0,0,0,0,0,0,0,0,0
2.25,0,0,0,0,0,23,0,0,0,0,0,4,2,0,0,0,0,0,0,0,0,0,0,0,0,0,0,0,0,0,0,0,0,0,0,0,0,0,0,0,0,0,0,0,0,0,0,0,0,0,0,0,0,0,0,0,0,0,0,0,13,0,0,0,0,0,0,0,0,0,0,0,0,0,0,0,0,0,0,0,0,0,0,0,0,0,0,0,0,0,0,0,0,0,0,0
2.5,0,0,0,0,0,30,0,0,0,0,0,5,7,0,0,0,0,0,0,0,0,0,0,0,0,0,0,0,0,0,0,0,0,0,0,0,0,0,0,0,0,0,0,0,0,0,0,0,0,0,0,0,0,0,0,0,0,0,0,0,21,0,0,0,0,0,0,0,0,0,0,0,0,0,0,0,0,0,0,0,0,0,0,0,0,0,0,0,0,0,0,0,0,0,0,1
2.75,0,0,0,0,0,38,0,0,0,0,0,5,10,0,0,0,0,0,0,0,0,0,0,0,0,0,0,0,0,0,0,0,0,0,0,0,0,0,0,0,0,0,0,0,0,0,0,0,0,0,0,0,0,0,0,0,0,0,0,0,23,0,0,0,0,0,0,0,0,0,0,0,0,0,0,0,0,0,0,0,0,0,0,0,0,0,0,0,0,0,0,0,0,0,0,0
3,0,0,0,0,0,47,0,2,0,0,0,4,16,0,0,0,0,0,0,0,0,0,0,4,0,0,0,0,0,0,1,0,0,0,0,0,0,0,0,0,0,0,0,0,0,0,0,0,0,0,0,0,0,0,0,0,0,0,0,0,27,0,3,0,0,0,0,0,0,0,0,0,0,0,0,0,0,0,0,0,0,0,0,0,0,0,0,0,0,0,0,0,0,0,0,2
3.25,0,0,0,0,0,53,0,2,0,0,0,4,17,3,0,0,0,0,0,0,0,0,0,9,0,0,0,0,0,0,4,0,0,0,0,0,0,0,0,0,0,0,0,0,0,0,0,0,0,0,0,0,0,0,0,0,0,0,0,0,29,0,7,0,0,0,0,0,0,0,0,0,0,0,0,0,0,0,0,0,0,0,0,0,0,0,0,0,0,0,0,0,0,0,0,2
3.5,0,0,0,0,0,59,0,5,0,0,0,8,27,10,0,0,0,0,0,0,0,0,0,15,0,0,0,0,0,0,8,0,0,0,0,0,0,0,0,0,0,0,0,0,0,0,0,0,0,0,0,0,0,0,0,0,0,0,0,0,33,0,15,0,0,0,0,0,0,0,0,0,0,0,0,0,0,0,0,0,0,0,0,0,0,0,0,0,0,0,0,0,0,0,0,6
3.75,0,0,0,0,0,66,0,4,0,0,0,7,31,15,0,0,0,0,0,0,0,0,0,16,0,0,0,0,0,0,9,0,0,0,0,0,0,0,0,0,0,0,0,0,0,0,0,0,0,0,0,0,0,0,0,0,0,0,0,0,33,0,17,0,0,0,0,0,0,0,0,0,0,0,0,0,0,0,0,0,0,0,0,0,0,0,0,0,0,0,0,0,0,0,0,5
4,0,0,0,0,0,70,0,4,0,0,0,7,34,19,0,0,0,0,0,0,0,0,0,18,0,0,0,0,0,0,10,0,0,0,0,0,0,0,0,0,0,0,0,0,0,0,0,0,0,0,0,0,0,0,0,0,0,0,0,0,34,0,23,0,0,0,0,0,0,0,0,0,0,0,0,0,0,0,0,0,0,0,0,0,0,0,0,0,0,0,0,0,0,0,0,5
4.25,0,0,0,0,0,78,0,4,0,0,0,7,37,21,0,0,0,0,0,0,0,0,0,22,0,0,0,0,0,0,11,0,0,0,0,0,0,0,0,0,0,0,0,0,0,0,0,0,0,0,0,0,0,0,0,0,0,0,0,0,34,0,25,0,0,0,0,0,0,0,0,0,0,0,0,0,0,0,0,0,0,0,0,0,0,0,0,0,0,0,0,0,0,0,0,5
4.5,0,0,0,0,0,82,0,3,0,0,0,6,40,29,0,0,0,0,0,0,0,0,0,23,0,0,0,0,0,0,15,0,0,0,0,0,0,0,0,0,0,0,0,0,0,0,0,0,0,0,0,0,0,0,0,0,0,0,0,0,33,0,30,0,0,0,0,0,0,0,0,0,0,0,0,0,0,0,0,0,0,0,0,0,0,0,0,0,0,0,0,0,0,0,0,4
4.75,0,0,0,0,0,86,0,1,0,0,0,4,44,31,0,0,0,0,0,0,0,0,0,24,0,0,0,0,0,0,15,0,0,0,0,0,0,0,0,0,0,0,0,0,0,0,0,0,0,0,0,0,0,0,0,0,0,0,0,0,31,0,32,0,0,0,0,0,0,0,0,0,0,0,0,0,0,0,0,0,0,0,0,0,0,0,0,0,0,0,0,0,0,0,0,2
5,0,0,0,0,0,91,0,6,0,0,0,8,45,35,0,0,0,0,0,0,0,0,0,32,0,0,0,0,0,0,21,0,0,0,0,0,0,0,0,0,0,0,0,0,0,0,0,0,0,0,0,0,7,0,0,0,0,0,0,0,31,0,45,0,0,0,0,0,0,0,0,0,0,0,0,0,0,0,0,0,0,0,0,0,0,0,0,0,0,0,0,0,0,0,0,2
5.25,0,0,0,0,0,91,0,6,0,0,0,8,48,37,0,0,0,0,0,0,0,0,0,32,0,0,0,0,0,0,21,0,0,0,0,0,0,0,0,0,0,0,0,0,0,0,0,0,0,0,0,0,7,0,0,0,0,0,0,0,33,0,45,0,0,0,0,0,0,0,0,0,0,0,0,0,0,0,0,0,0,0,0,0,0,0,0,0,0,0,0,0,0,0,0,2
5.5,0,0,0,0,0,98,0,6,0,0,0,8,54,44,0,0,0,0,0,0,0,0,0,42,0,0,0,0,0,0,27,0,0,0,0,0,0,0,0,0,0,0,0,0,0,0,0,0,0,0,0,0,10,0,0,0,0,0,0,0,34,0,49,0,0,0,0,0,0,0,0,0,0,0,0,0,0,0,0,0,0,0,0,0,0,0,0,0,0,0,0,0,0,0,0,5
5.75,0,0,0,0,0,101,0,6,0,0,0,8,56,50,0,0,0,0,0,0,0,0,0,43,0,0,0,0,0,0,28,0,0,0,0,0,0,0,0,0,0,0,0,0,0,0,0,0,0,0,0,0,14,0,0,0,0,0,0,0,34,0,52,0,0,0,0,0,0,0,0,0,0,0,0,0,0,0,0,0,0,0,0,0,0,0,0,0,0,0,0,0,0,0,0,5
6,0,0,0,0,0,105,0,5,0,0,0,7,58,53,0,0,0,0,0,0,0,0,0,44,0,0,0,0,0,0,31,0,0,0,0,0,0,0,0,0,0,0,0,0,0,0,0,0,0,0,0,0,17,0,0,0,0,0,0,0,33,0,58,0,0,0,0,0,0,0,0,0,0,0,0,0,0,0,0,0,0,0,0,0,0,0,0,0,0,0,0,0,0,0,0,4
6.25,0,0,0,0,0,106,0,5,0,0,0,7,60,56,0,0,0,0,0,0,0,0,0,47,0,0,0,0,0,0,34,0,0,0,0,0,0,0,0,0,0,0,0,0,0,0,0,0,0,0,0,0,19,0,0,0,0,0,0,0,34,0,67,0,0,0,0,0,0,0,0,0,0,0,0,0,0,0,0,0,0,0,0,0,0,0,0,0,0,0,0,0,0,0,0,4
6.5,0,0,0,0,0,109,0,5,0,0,0,7,64,61,0,0,0,0,0,0,0,0,0,50,0,0,0,0,0,0,36,0,0,0,0,0,0,0,0,0,0,0,0,0,0,0,0,0,0,0,0,0,25,0,0,0,0,0,0,0,34,0,69,0,0,0,0,0,0,0,0,0,0,0,0,0,0,0,0,0,0,0,0,0,0,0,0,0,0,0,0,0,0,0,0,4
6.75,0,0,0,0,0,112,0,4,0,0,0,6,68,65,0,0,0,0,0,0,0,0,0,52,0,0,0,0,0,0,36,0,0,0,0,0,0,0,0,0,0,0,0,0,0,0,0,0,0,0,0,0,27,0,0,0,0,0,0,0,33,0,68,0,0,0,0,0,0,0,0,0,0,0,0,0,0,0,0,0,0,0,0,0,0,0,0,0,0,0,0,0,0,0,0,3
7,0,0,0,0,0,114,0,4,0,0,0,6,68,65,0,0,0,0,0,0,0,0,0,55,0,0,0,0,0,0,38,0,0,0,0,0,0,0,0,0,0,0,0,0,0,0,0,0,0,0,0,0,29,0,0,0,0,0,0,0,33,0,76,0,0,0,0,0,0,0,0,0,0,0,0,0,0,0,0,0,0,0,0,0,0,0,0,0,0,0,0,0,0,0,0,3
7.25,0,0,0,0,0,114,0,4,0,0,0,6,73,74,0,0,0,0,0,0,0,0,0,55,0,0,0,0,0,0,41,0,0,0,0,0,0,0,0,0,0,0,0,0,0,0,0,0,0,0,0,0,33,0,0,0,0,0,0,0,33,0,76,0,0,0,0,0,0,0,0,0,0,0,0,0,0,0,0,0,0,0,0,0,0,0,0,0,0,0,0,0,0,0,0,3
7.5,0,0,0,0,0,119,0,4,0,0,0,6,75,76,0,0,0,0,0,0,0,0,0,59,0,0,0,0,0,0,46,0,0,0,0,0,0,0,0,0,0,0,0,0,0,0,0,0,0,0,0,0,38,0,0,0,0,0,0,0,33,0,82,0,0,0,0,0,0,0,0,0,0,0,0,0,0,0,0,0,0,0,0,0,0,0,0,0,0,0,0,0,3,0,0,3
7.75,0,0,0,0,0,119,0,4,0,0,0,6,76,80,1,0,0,0,0,0,0,0,0,59,0,0,0,0,0,0,46,0,0,0,0,0,0,0,0,0,0,0,0,0,0,0,0,0,0,0,0,0,42,0,0,0,0,0,0,0,33,0,88,0,0,0,0,0,0,0,0,0,0,0,0,0,0,0,0,0,0,0,0,0,0,0,0,0,0,0,0,0,3,0,0,3
8,0,0,0,0,0,123,0,4,0,0,0,6,80,80,1,0,0,0,0,0,0,0,0,64,0,0,0,0,0,0,48,0,0,0,0,0,0,0,0,0,0,0,0,0,0,0,0,0,0,0,0,0,45,0,0,0,0,0,0,0,33,0,93,0,0,0,0,0,0,0,0,0,0,0,0,0,0,0,0,0,0,0,0,0,0,0,0,0,0,0,0,0,6,0,0,3
8.25,0,0,0,0,0,125,0,4,0,0,0,6,81,84,5,0,0,0,0,0,0,0,0,69,0,0,0,0,0,0,53,0,0,0,0,0,0,0,0,0,0,1,0,0,0,0,0,0,0,0,0,0,52,0,0,0,0,0,0,0,33,0,101,0,0,0,0,0,0,0,0,0,0,0,0,0,0,0,0,0,0,0,0,0,0,0,0,0,0,0,0,0,10,0,0,3
8.5,0,0,0,0,0,126,0,4,0,0,0,6,82,84,5,0,0,0,0,0,0,0,0,69,0,0,0,0,0,0,53,0,0,0,0,0,0,0,0,0,0,1,0,0,0,0,0,0,0,0,0,0,52,0,0,0,0,0,0,0,33,0,101,0,0,0,0,0,0,0,0,0,0,0,0,0,0,0,0,0,0,0,0,0,0,0,0,0,0,0,0,0,10,0,0,3
8.75,0,0,0,0,0,129,0,4,0,0,0,6,87,87,8,0,0,0,0,0,0,0,0,72,0,0,0,0,0,0,53,0,2,0,0,0,0,0,0,0,0,5,0,0,0,0,0,0,0,0,0,0,61,0,0,0,0,0,0,0,33,0,108,0,0,0,0,0,0,0,0,0,0,0,0,0,0,0,0,0,0,0,0,0,0,0,0,0,0,0,0,0,12,13,0,3
9,0,0,0,0,0,132,0,4,0,0,0,6,93,94,11,0,0,0,0,0,0,0,0,77,0,0,0,0,0,0,60,0,5,0,0,0,0,0,0,0,0,7,0,0,0,0,0,0,0,0,0,0,69,0,0,0,0,0,0,0,33,0,111,0,0,0,0,0,0,0,0,0,0,0,0,0,0,0,0,0,0,0,0,0,0,0,0,0,0,0,0,0,17,13,0,3
9.25,0,0,0,0,0,136,0,8,0,0,0,6,98,95,15,0,0,0,0,0,0,0,0,82,0,0,0,0,0,0,62,0,13,0,0,0,0,0,0,0,0,9,0,0,0,0,0,0,0,0,0,0,78,0,0,0,0,0,0,0,33,0,120,0,0,0,0,0,0,0,0,0,0,0,0,0,0,0,0,0,0,0,0,0,0,0,0,0,0,0,0,0,20,13,0,3
9.5,0,0,0,0,0,136,0,8,0,0,0,6,101,98,15,0,0,0,0,0,0,0,0,82,0,0,0,0,0,0,63,0,13,0,0,0,0,0,0,0,0,9,0,0,0,0,0,0,0,0,0,0,84,0,0,0,0,0,0,0,33,0,120,0,0,0,0,0,0,0,0,0,0,0,0,0,0,0,0,0,0,0,0,0,0,0,0,0,0,0,0,0,20,13,0,3
9.75,0,0,0,0,0,136,0,8,0,0,0,6,105,101,16,0,0,0,0,0,0,0,0,82,0,0,0,0,0,0,66,0,13,0,0,0,0,0,0,0,0,9,0,0,0,0,0,0,0,0,0,0,90,0,0,0,0,0,0,0,33,0,123,0,0,0,0,0,0,0,0,0,0,0,0,0,0,0,0,0,0,0,0,0,0,0,0,0,0,0,0,0,20,13,0,3
10,0,0,0,0,0,136,0,8,0,0,0,6,106,101,17,0,0,0,0,0,0,0,0,82,0,0,0,0,0,0,68,0,15,0,0,0,0,0,0,0,0,9,0,0,0,0,0,0,0,0,0,0,92,0,0,0,0,0,0,0,33,0,129,0,0,0,0,0,0,0,0,0,0,0,0,0,0,0,0,0,0,0,0,0,0,0,0,0,0,0,0,0,23,13,0,3
10.25,0,0,0,0,0,140,0,8,0,0,0,6,112,104,17,0,0,0,0,0,0,0,0,82,0,0,0,0,0,0,71,0,16,0,0,0,0,0,0,0,0,9,0,0,0,0,0,0,0,0,0,0,97,0,0,0,0,0,0,0,33,0,130,0,0,0,0,0,0,0,0,0,0,0,0,0,0,0,0,0,0,0,0,0,0,0,0,0,0,0,0,0,25,13,0,3
10.5,0,0,0,0,0,140,0,8,0,0,0,6,113,106,20,0,0,0,0,0,0,0,0,82,0,0,0,0,0,0,71,0,19,0,0,0,0,0,0,0,0,9,0,0,0,0,0,0,0,0,0,0,100,0,0,0,0,0,0,0,33,0,133,0,0,0,0,0,0,0,0,0,0,0,0,0,0,0,0,0,0,0,0,0,0,0,0,0,0,0,0,0,25,13,0,3
10.75,0,0,0,0,0,144,0,8,0,0,0,6,115,106,20,0,0,0,0,0,0,0,0,83,0,0,0,0,0,0,74,0,24,0,0,0,0,0,0,0,0,9,0,0,0,0,0,0,0,0,0,0,102,0,0,0,0,0,0,0,33,0,137,0,0,0,0,0,0,0,0,0,0,0,0,0,0,0,0,0,0,0,0,0,0,0,0,0,0,0,0,0,25,13,0,3
11,0,0,0,0,0,146,0,8,0,0,0,6,116,107,21,0,0,0,0,0,0,0,0,85,0,0,0,0,0,0,76,0,26,0,0,0,0,0,0,0,0,9,0,0,0,0,0,0,0,0,0,0,105,0,0,0,0,0,0,0,33,0,138,0,0,0,0,0,0,0,0,0,0,0,0,0,0,0,0,0,0,0,0,0,0,0,0,0,0,0,0,0,27,13,0,3
11.25,0,0,0,0,0,146,0,8,0,0,0,6,122,109,25,0,0,0,0,0,0,0,0,93,0,0,0,0,0,0,80,0,32,0,0,0,0,0,0,0,0,9,0,0,0,0,0,0,0,0,0,0,105,0,0,0,0,0,0,0,33,0,144,0,0,0,0,0,0,0,0,0,0,0,0,0,0,0,0,0,0,0,0,0,0,0,0,0,0,0,0,0,31,13,0,3
11.5,0,0,0,0,0,146,0,8,0,0,0,6,124,109,25,0,0,0,0,0,0,0,0,93,0,0,0,0,0,0,82,0,32,0,0,0,0,0,0,0,0,9,0,0,0,0,0,0,0,0,0,0,106,0,0,0,0,0,0,0,33,0,146,0,0,0,0,0,0,0,0,0,0,0,0,0,0,0,0,0,0,0,0,0,0,0,0,0,0,0,0,0,31,13,0,3
11.75,0,0,0,0,0,146,0,8,0,0,0,6,128,115,25,0,0,0,0,0,0,0,0,93,0,0,0,0,0,0,85,0,33,0,0,0,0,0,0,0,0,9,0,0,0,0,0,0,0,0,0,0,110,0,0,0,0,0,0,0,33,0,150,0,0,0,0,0,0,0,0,0,0,0,0,0,0,0,0,0,0,0,0,0,0,0,0,0,0,0,0,0,35,13,0,3
12,0,0,0,0,0,150,0,8,0,0,0,6,128,115,26,0,0,0,0,0,0,0,0,93,0,0,0,0,0,0,86,0,41,0,0,0,0,0,0,0,0,9,0,0,0,0,0,0,0,0,0,0,112,0,0,0,0,0,0,0,33,0,151,0,0,0,0,0,0,0,0,0,0,0,0,0,0,0,0,0,0,0,0,0,0,0,0,0,0,0,0,0,36,13,0,3
12.25,0,0,0,0,0,151,0,8,0,0,0,6,128,115,26,0,0,0,0,0,0,0,0,93,0,0,0,0,0,0,88,0,43,0,0,0,0,0,0,0,0,9,0,0,0,0,0,0,0,0,0,0,115,0,0,0,0,0,0,0,33,0,151,0,0,0,0,0,0,0,0,0,0,0,0,0,0,0,0,0,0,0,0,0,0,0,0,0,0,0,0,0,38,13,0,3
12.5,0,0,1,0,0,152,0,8,0,0,0,6,134,121,30,0,0,0,0,0,0,0,0,93,0,0,0,0,0,0,91,0,44,0,0,0,0,0,0,0,0,9,0,0,0,0,0,0,0,0,0,0,119,0,0,0,0,0,0,0,33,0,156,0,0,0,0,0,0,0,0,0,0,0,0,0,0,0,0,0,0,0,0,0,0,0,0,0,0,0,0,0,41,13,0,3
12.75,0,0,2,0,0,157,0,8,0,0,0,6,134,122,32,0,0,0,0,0,0,0,0,95,0,0,0,0,0,0,96,0,50,0,0,0,0,0,0,0,0,10,0,0,0,0,0,35,0,0,0,0,123,0,0,0,0,0,0,0,33,0,157,0,0,0,0,0,0,0,0,0,0,0,0,0,0,0,0,0,0,0,0,0,0,0,0,0,0,0,0,0,45,13,0,3
13,0,0,2,0,0,157,2,8,0,0,0,6,139,124,32,0,0,0,0,0,0,0,0,98,0,0,0,0,0,0,101,0,56,0,0,0,0,0,0,0,0,10,0,0,0,0,0,35,0,0,0,0,127,0,0,0,0,0,0,0,33,0,162,0,0,0,0,0,0,0,0,0,0,0,0,0,0,0,0,0,0,0,0,0,0,0,0,0,0,0,0,0,51,13,0,3
13.25,0,0,2,0,0,158,2,8,0,0,0,6,139,125,34,0,0,0,0,0,0,0,0,103,0,0,0,0,0,0,103,0,62,0,0,0,0,0,0,0,0,11,0,0,0,0,0,35,0,0,0,0,131,0,0,0,0,0,0,0,33,0,163,0,0,0,0,0,0,0,0,0,0,0,0,0,0,0,0,0,0,0,0,0,0,0,0,0,0,0,0,0,51,13,0,3
13.5,0,0,2,0,0,158,2,8,0,0,0,6,139,126,34,0,0,0,0,0,0,0,0,103,0,0,0,0,0,0,103,0,62,0,0,0,0,0,0,0,0,11,0,0,0,0,0,35,0,0,0,0,133,0,0,0,0,0,0,0,33,0,163,0,0,0,0,0,0,0,0,0,0,0,0,0,0,0,0,0,0,0,0,0,0,0,0,0,0,0,0,0,51,13,0,3
13.75,0,0,2,0,0,158,2,8,0,0,0,6,139,129,34,0,0,0,0,0,0,0,0,103,0,0,0,0,0,0,104,0,63,0,0,0,0,0,0,0,0,11,0,0,0,0,0,35,0,0,0,0,141,0,0,0,0,0,0,0,33,0,165,0,0,0,0,0,0,0,0,0,0,0,0,0,0,0,0,0,0,0,0,0,0,0,0,0,0,0,0,0,53,13,0,3
14,0,0,2,0,0,158,2,8,0,0,0,6,139,133,35,0,0,0,0,0,0,0,0,103,0,0,0,0,0,0,107,0,65,0,0,0,0,0,0,0,0,11,0,0,0,0,0,35,0,0,0,0,146,0,0,0,0,0,0,0,33,0,166,0,0,0,0,0,0,0,0,0,0,0,0,0,0,0,0,0,0,0,0,0,0,0,0,0,0,0,0,0,54,13,0,3
14.25,0,0,2,0,0,160,2,8,0,0,0,6,139,135,35,0,0,0,0,0,0,0,0,103,0,0,0,0,0,0,108,0,70,0,0,0,0,0,0,0,0,11,0,0,0,0,0,35,0,0,0,0,151,0,0,0,0,0,0,0,33,0,168,0,0,0,0,0,0,0,0,0,0,0,0,0,0,0,0,0,0,0,0,0,0,0,0,0,0,0,0,0,55,13,0,3
14.5,0,0,2,0,0,160,2,8,0,0,0,6,142,137,37,0,0,0,0,0,0,0,0,103,0,0,0,0,0,0,114,0,75,0,0,0,0,0,0,0,0,11,0,0,0,0,0,35,0,0,0,0,155,0,0,0,0,0,0,0,33,0,172,0,0,0,0,0,0,0,0,0,0,0,0,0,0,0,0,0,0,0,0,0,0,0,0,0,0,0,0,0,63,13,0,3
14.75,0,0,2,0,0,161,2,8,0,0,0,6,142,137,37,0,0,0,0,0,0,0,0,103,0,0,0,0,0,0,114,0,75,0,0,0,0,0,0,0,0,11,0,0,0,0,0,35,0,0,0,0,157,0,0,0,0,0,0,0,33,0,172,0,0,0,0,0,0,0,0,0,0,0,0,0,0,0,0,0,0,0,0,0,0,0,0,0,0,0,0,0,63,13,0,3
15,0,0,2,0,0,163,2,8,0,0,0,6,142,142,40,0,0,0,0,0,0,0,0,103,0,0,0,0,0,0,116,0,81,0,0,0,0,0,0,0,0,11,0,0,0,0,12,35,0,0,0,0,165,0,0,0,0,0,0,0,33,0,172,0,0,0,0,0,0,0,0,0,0,0,0,0,0,0,0,0,0,0,0,0,0,0,0,0,0,0,0,0,63,13,0,3
15.25,0,0,2,0,0,165,2,8,0,0,0,6,142,144,40,0,0,0,0,0,0,0,0,103,0,0,0,0,0,0,118,0,81,0,0,0,0,0,0,0,0,11,0,0,0,0,13,35,0,0,0,0,167,0,0,0,0,0,0,0,33,0,172,0,0,0,0,0,0,0,0,0,0,0,0,0,0,0,0,0,0,0,0,0,0,0,0,0,0,0,0,0,63,13,0,3
15.5,0,0,2,0,0,165,2,8,0,0,0,6,147,144,43,0,0,0,0,0,0,0,0,103,0,0,0,0,0,0,124,0,86,0,0,0,0,0,0,0,0,11,0,0,0,0,13,35,0,0,0,0,170,0,0,0,0,0,0,0,33,0,177,0,0,0,0,0,0,0,0,0,0,0,0,0,0,0,0,0,0,0,0,0,0,0,0,0,0,0,0,0,70,13,0,3
15.75,0,0,2,0,0,168,2,8,0,0,0,6,147,146,43,0,0,0,0,0,0,0,0,103,0,0,0,0,0,0,124,0,87,0,0,0,0,0,0,0,0,11,0,0,0,0,13,35,0,0,0,0,173,0,0,0,0,0,0,0,33,0,177,0,0,0,0,0,0,0,0,0,0,0,0,0,0,0,0,0,0,0,0,0,0,0,0,0,0,0,0,0,70,13,0,3
16,0,0,2,0,0,168,2,8,0,0,0,6,147,148,43,0,0,0,0,0,0,0,0,103,0,0,0,0,0,0,126,0,87,0,0,0,0,0,0,0,0,11,0,0,0,0,13,35,0,0,0,0,176,0,0,0,0,0,0,0,33,0,177,0,0,0,0,0,0,0,0,0,0,0,0,0,0,0,0,0,0,0,0,0,0,0,0,0,0,0,0,0,70,13,0,3
16.25,0,0,2,0,0,168,2,8,0,0,0,6,147,148,43,0,0,0,0,0,0,0,0,103,0,0,0,0,0,0,126,0,89,0,0,0,0,0,0,0,0,11,0,0,0,0,13,35,0,0,0,0,176,0,0,0,0,0,0,0,33,0,177,0,0,0,0,0,0,0,0,0,0,0,0,0,0,0,0,0,0,0,0,0,0,0,0,0,0,0,0,0,70,13,0,3
16.5,0,0,2,0,0,168,2,8,0,0,0,6,147,150,44,0,0,0,0,0,0,0,0,103,0,0,0,0,0,0,129,0,91,0,0,0,0,0,0,0,0,11,0,0,0,0,36,35,0,0,0,0,179,0,0,0,0,0,0,0,33,0,177,0,0,0,0,0,0,0,0,0,0,0,0,0,0,0,0,0,0,0,0,0,0,0,0,0,0,0,0,0,71,13,0,3
16.75,0,0,2,0,0,168,2,8,0,0,0,6,147,152,44,0,0,0,0,0,0,0,0,103,0,0,0,0,0,0,130,0,93,0,0,0,0,0,0,0,0,11,0,0,0,0,36,35,0,0,0,0,181,0,0,0,0,0,0,0,33,0,177,0,0,0,0,0,0,0,0,0,0,0,0,0,0,0,0,0,0,0,0,0,0,0,0,0,0,0,0,0,72,13,0,3
17,0,0,2,0,0,168,2,8,0,0,0,6,147,152,44,0,0,0,0,0,0,0,0,103,0,0,0,0,0,0,131,0,97,0,0,0,0,0,0,0,0,11,0,0,0,0,36,35,0,0,0,0,181,0,0,0,0,0,0,0,33,0,177,0,0,0,0,0,0,0,0,0,0,0,0,0,0,0,0,0,0,0,0,0,0,0,0,0,0,0,0,0,73,13,0,3
17.25,0,0,2,0,0,170,2,8,0,0,0,6,147,153,48,0,0,0,0,0,0,0,0,103,0,0,0,0,0,0,136,0,101,0,0,0,0,0,0,0,0,11,0,0,0,0,36,35,0,0,0,0,183,0,0,0,0,0,0,0,33,0,177,0,0,0,0,0,0,0,0,0,0,0,0,0,0,0,0,0,0,0,0,0,0,0,0,0,0,0,0,0,76,13,0,3
17.5,0,0,2,0,0,170,2,8,0,0,0,6,154,156,50,0,2,0,0,0,0,0,0,103,0,0,0,0,0,0,142,0,109,0,0,0,0,0,0,0,0,11,0,0,0,0,36,35,0,0,0,0,187,0,0,0,0,0,0,0,33,0,184,0,0,0,0,0,0,0,0,0,0,0,0,0,0,0,0,0,0,0,0,0,0,0,0,0,0,0,0,0,84,13,0,3
17.75,0,0,2,0,0,173,2,8,0,0,0,6,154,156,50,0,2,0,0,0,0,0,0,103,0,0,0,0,0,0,142,0,111,0,0,0,0,0,0,0,0,11,0,0,0,0,36,35,0,0,0,0,187,0,0,0,0,0,0,0,33,0,184,0,0,0,0,0,0,0,0,0,0,0,0,0,0,0,0,0,0,0,0,0,0,0,0,0,0,0,0,0,84,13,0,3
18,0,0,3,0,0,175,2,8,0,0,0,6,154,157,50,0,2,0,0,0,0,0,0,103,0,0,0,0,0,0,142,0,111,0,0,0,0,0,0,0,0,13,0,0,0,0,36,35,0,0,0,0,190,0,0,0,0,0,0,0,33,0,184,0,0,0,0,0,0,0,0,0,0,0,0,0,0,0,0,0,0,0,0,0,0,0,0,0,0,0,0,0,84,13,0,3
18.25,0,0,4,0,2,175,2,8,0,0,0,6,154,162,52,0,4,0,0,0,0,0,0,103,0,0,0,0,0,0,143,0,111,0,0,0,0,0,0,0,0,13,0,0,0,0,36,35,0,0,0,0,192,0,0,0,0,0,0,0,33,0,184,0,0,0,0,0,0,0,0,0,0,0,0,0,0,0,0,0,0,0,0,0,0,0,0,0,0,0,0,0,84,13,0,3
18.5,0,0,4,0,2,175,2,8,0,0,0,6,154,162,52,0,4,0,0,0,0,0,0,103,0,0,0,0,0,0,144,0,111,0,0,0,0,0,0,0,0,13,0,0,0,0,36,35,0,0,0,0,192,0,0,0,0,0,0,0,33,0,184,0,0,0,0,0,0,0,0,0,0,0,0,0,0,0,0,0,0,0,0,0,0,0,0,0,0,0,0,0,84,13,0,3
18.75,0,0,4,0,2,175,2,8,0,0,0,6,154,162,52,0,7,0,0,0,0,0,0,103,0,0,0,0,0,0,148,0,121,0,0,0,0,0,0,0,0,13,0,0,0,0,36,35,0,0,0,0,192,0,0,0,0,0,0,0,33,0,185,0,0,0,0,0,0,0,0,0,0,0,0,0,0,0,0,0,0,0,0,0,0,0,0,0,0,0,0,0,87,13,0,3
19,0,0,4,0,2,175,2,8,0,0,0,6,154,162,52,0,7,0,0,0,0,0,0,103,0,0,0,0,0,0,148,0,123,0,0,0,0,0,0,0,0,13,0,0,0,0,36,35,0,0,0,0,192,0,0,0,0,0,0,0,33,0,185,0,0,0,0,0,0,0,0,0,0,0,0,0,0,0,0,0,0,0,0,0,0,0,0,0,0,0,0,0,87,13,0,3
19.25,0,0,4,0,2,175,2,8,0,0,0,6,154,162,52,0,10,0,0,0,0,0,0,103,0,0,0,0,0,0,151,0,123,0,0,0,0,0,0,0,0,13,0,0,0,0,36,35,0,0,0,0,192,0,0,0,0,0,0,0,33,0,185,0,0,0,0,0,0,0,0,0,0,0,0,0,0,0,0,0,0,0,0,0,0,0,0,0,0,0,0,0,87,13,0,3
19.5,0,0,4,0,2,175,2,8,0,0,0,6,154,162,53,0,14,0,0,0,0,0,0,103,0,0,0,0,0,0,151,0,125,0,0,0,0,0,0,0,0,13,0,0,0,0,36,35,0,0,0,0,194,0,0,0,0,0,0,0,33,0,185,0,0,0,0,0,0,0,0,0,0,0,0,0,0,0,0,0,0,0,0,0,0,0,0,0,0,0,0,0,87,13,0,3
19.75,0,0,4,0,2,175,2,8,0,0,0,6,156,162,54,0,19,0,0,0,0,0,0,103,0,0,0,0,0,0,153,0,131,0,0,0,0,0,0,0,0,13,0,0,0,0,36,35,0,0,0,0,195,0,0,0,0,0,0,0,33,0,185,0,0,0,0,0,0,0,0,0,0,0,0,0,0,0,0,0,0,0,0,0,0,0,0,0,0,0,0,0,88,13,0,3
20,0,0,4,0,2,176,2,8,0,0,0,6,156,162,54,0,20,0,0,0,0,0,0,103,0,0,0,0,0,0,155,0,131,0,0,0,0,0,0,0,0,13,0,0,0,0,36,35,0,0,0,0,195,0,0,0,0,0,0,0,33,0,185,0,0,0,0,0,0,0,0,0,0,0,0,0,0,0,0,0,0,0,0,0,0,0,0,0,0,0,0,0,88,13,0,3
20.25,0,0,4,0,2,176,2,8,0,0,0,6,156,163,56,0,24,0,0,0,0,0,0,103,0,0,0,0,0,0,156,0,131,0,0,0,0,0,0,0,0,13,0,0,0,0,36,35,0,0,0,0,197,0,0,0,0,0,0,0,33,0,185,0,0,0,0,0,0,0,0,0,0,0,0,0,0,0,0,0,0,0,0,0,0,0,0,0,0,0,0,0,88,13,0,3
20.5,0,0,4,0,2,176,2,8,0,0,0,6,156,164,56,0,27,0,0,0,0,0,0,103,0,0,0,0,0,0,159,0,133,0,0,0,0,0,0,0,0,13,0,0,0,0,36,35,0,0,0,0,197,0,0,0,0,0,0,0,33,0,185,0,0,0,0,0,0,0,0,0,0,0,0,0,0,0,0,0,0,0,0,0,0,0,0,0,0,0,0,0,89,13,0,3
20.75,0,0,4,0,2,176,2,8,0,0,0,6,156,164,57,0,30,0,0,0,0,0,0,103,0,0,0,0,0,0,159,0,135,0,0,0,0,0,0,0,0,13,0,0,0,0,36,35,0,0,0,0,197,0,0,0,0,0,0,0,33,0,185,0,0,0,0,0,0,0,0,0,0,0,0,0,0,0,0,0,0,0,0,0,0,0,0,0,0,0,0,0,89,13,0,3
21,0,0,4,0,2,177,2,8,0,0,0,6,156,166,59,0,34,0,0,0,0,0,0,103,0,0,0,0,0,0,161,0,136,0,0,0,0,0,0,0,0,13,0,0,0,0,36,35,0,0,0,0,198,0,0,0,0,0,0,0,33,0,185,0,0,0,0,0,0,0,0,0,0,0,0,0,0,0,0,0,0,0,0,0,0,0,0,0,0,0,0,0,89,13,0,3
21.25,0,0,4,0,2,177,2,8,0,0,0,6,158,166,59,0,39,0,0,0,0,0,0,103,0,0,0,0,0,0,163,0,141,0,0,0,0,0,0,0,0,13,0,0,0,0,36,35,0,0,0,0,198,0,0,0,0,0,0,0,33,0,185,0,0,0,0,0,0,0,0,0,0,0,0,0,0,0,0,0,0,0,0,0,0,0,0,0,0,0,0,0,89,13,0,3
21.5,0,0,4,0,2,177,2,8,0,0,0,6,158,168,66,0,41,0,0,0,0,0,0,103,0,0,0,0,0,0,163,0,141,0,0,0,0,0,0,0,0,13,0,0,0,0,36,35,0,0,0,0,199,0,0,0,0,0,0,0,33,0,185,0,0,0,0,0,0,0,0,0,0,0,0,0,0,0,0,0,0,0,0,0,0,0,0,0,0,0,0,0,89,13,0,3
21.75,0,0,4,0,2,178,2,8,0,0,0,6,158,168,66,0,47,0,0,0,0,0,0,103,0,0,0,0,0,0,164,0,143,0,0,0,0,0,0,0,0,13,0,0,0,0,36,35,0,0,0,0,200,0,0,0,0,0,0,0,33,0,185,0,0,0,0,0,0,0,0,0,0,0,0,0,0,0,0,0,0,0,0,0,0,0,0,0,0,0,0,0,89,13,0,3
22,0,0,4,0,2,178,2,8,0,0,0,6,161,168,67,0,53,0,0,0,0,0,0,103,0,0,0,0,0,0,167,0,150,0,0,0,0,0,0,0,0,13,0,0,0,0,36,35,0,0,0,0,200,0,0,0,0,0,0,0,33,0,185,0,0,0,0,0,0,0,0,0,0,0,0,0,0,0,0,0,0,0,0,0,0,0,0,0,0,0,0,0,91,13,0,3
22.25,0,0,4,0,2,178,2,8,0,0,0,6,161,168,74,0,53,0,0,0,0,0,0,103,0,0,0,0,0,0,167,0,150,0,0,0,0,0,0,0,0,13,0,0,0,0,36,35,0,0,0,0,201,0,0,0,0,0,0,0,33,0,185,0,0,0,0,0,0,0,0,0,0,0,0,0,0,0,0,0,0,0,0,0,0,0,0,0,0,0,0,0,91,13,0,3
22.5,0,0,4,0,2,179,2,8,0,0,0,6,161,169,79,0,57,0,0,0,0,0,0,103,0,0,0,0,0,0,167,0,150,0,0,0,0,0,0,0,0,13,0,0,0,0,36,35,0,0,0,0,201,0,0,0,0,0,0,0,33,0,185,0,0,0,0,0,0,0,0,0,0,0,0,0,0,0,0,0,0,0,0,0,0,0,0,0,0,0,0,0,91,13,0,3
22.75,0,0,4,0,2,179,2,8,0,0,0,6,161,175,90,0,59,0,0,0,0,0,0,103,0,0,0,0,0,0,167,0,150,0,0,0,0,0,0,0,0,13,0,0,0,0,36,35,0,0,0,0,202,0,0,0,0,0,0,0,33,0,185,0,0,0,0,0,0,0,0,0,0,0,0,0,0,0,0,0,0,0,0,0,0,0,0,0,0,0,0,0,91,13,0,3
23,0,0,4,0,2,181,2,8,0,0,0,6,161,175,90,0,66,0,0,0,0,0,0,103,0,0,0,0,0,0,169,0,153,0,0,0,0,0,0,0,0,13,0,0,0,0,36,35,0,0,0,0,203,0,0,0,0,0,0,0,33,0,185,0,0,0,0,0,0,0,0,0,0,0,0,0,0,0,0,0,0,0,0,0,0,0,0,0,0,0,0,0,91,13,0,3
23.25,0,0,4,0,2,181,2,8,0,0,0,6,161,175,99,0,66,0,0,0,0,0,0,103,0,0,0,0,0,0,169,0,153,0,0,0,0,0,0,0,0,13,0,0,0,0,36,35,0,0,0,0,203,0,0,0,0,0,0,0,33,0,185,0,0,0,0,0,0,0,0,0,0,0,0,0,0,0,0,0,0,0,0,0,0,0,0,0,0,0,0,0,91,13,0,3
23.5,0,0,4,0,2,181,2,8,0,0,0,6,161,175,99,0,72,0,0,0,0,0,0,103,0,0,0,0,0,0,169,0,155,0,0,0,0,0,0,0,0,13,0,0,0,0,36,35,0,0,0,0,203,0,0,0,0,0,0,0,33,0,185,0,0,0,0,0,0,0,0,0,0,0,0,0,0,0,0,0,0,0,0,0,0,0,0,0,0,0,0,0,91,13,0,3
23.75,0,0,4,0,2,181,2,8,0,0,0,6,161,175,106,0,75,0,0,0,0,0,0,103,0,0,0,0,0,0,169,0,155,0,0,0,0,0,0,0,0,13,0,0,0,0,36,35,0,0,0,0,203,0,0,0,0,0,0,0,33,0,185,0,0,0,0,0,0,0,0,0,0,0,0,0,0,0,0,0,0,0,0,0,0,0,0,0,0,0,0,0,91,13,0,3
24,0,0,5,0,3,181,2,8,0,0,0,6,170,175,114,0,83,0,0,0,0,0,0,103,0,0,0,0,0,0,175,0,159,0,0,0,0,0,0,0,0,13,0,0,0,0,36,35,0,0,0,0,205,0,0,0,0,0,0,0,33,0,187,0,0,0,0,0,0,0,0,0,0,0,0,0,0,0,0,0,0,0,0,0,0,0,0,0,0,0,0,0,91,13,0,3
24.25,0,0,5,0,3,181,2,8,0,0,0,6,170,175,115,0,83,0,0,0,0,0,0,103,0,0,0,0,0,0,175,0,159,0,0,0,0,0,0,0,0,13,0,0,0,0,36,35,0,0,0,0,205,0,0,0,0,0,0,0,33,0,187,0,0,0,0,0,0,0,0,0,0,0,0,0,0,0,0,0,0,0,0,0,0,0,0,0,0,0,0,0,91,13,0,3
24.5,0,0,5,0,3,181,2,8,0,0,0,6,170,177,124,0,83,0,0,0,0,0,0,103,0,0,0,0,0,0,175,0,159,0,0,0,0,0,0,0,0,13,0,0,0,0,36,35,0,0,0,0,205,0,0,0,0,0,0,0,33,0,187,0,0,0,0,0,0,0,0,0,0,0,0,0,0,0,0,0,0,0,0,0,0,0,0,0,0,0,0,0,91,13,0,3
24.75,0,0,5,0,3,181,2,8,0,0,0,6,170,177,124,0,87,0,0,0,0,0,0,103,0,0,0,0,0,0,175,0,159,0,0,0,0,0,0,0,0,13,0,0,0,0,36,35,0,0,0,0,205,0,0,0,0,0,0,0,33,0,187,0,0,0,0,0,0,0,0,0,0,0,0,0,0,0,0,0,0,0,0,0,0,0,0,0,0,0,0,0,91,13,0,3
25,0,0,5,0,3,181,2,8,0,0,0,6,170,177,128,0,91,0,0,0,0,0,0,103,0,0,0,0,0,0,175,0,159,0,0,0,0,0,0,0,0,13,0,0,0,0,36,35,0,0,0,0,205,0,0,0,0,0,0,0,33,0,187,0,0,0,0,0,0,0,0,0,0,0,0,0,0,0,0,0,0,0,0,0,0,0,0,0,0,0,0,0,91,13,0,3
25.25,0,0,5,0,3,181,2,8,0,0,0,6,170,177,135,0,94,0,0,0,0,0,0,103,0,0,0,0,0,0,175,0,159,0,0,0,0,0,0,0,0,13,0,0,0,0,36,35,0,0,0,0,205,0,0,0,0,0,0,0,33,0,187,0,0,0,0,0,0,0,0,0,0,0,0,0,0,0,0,0,0,0,0,0,0,0,0,0,0,0,0,0,91,13,0,3
25.5,0,0,5,0,3,181,2,8,0,0,0,6,170,177,138,0,96,0,0,0,0,0,0,103,0,0,0,0,0,0,175,0,159,0,0,0,0,0,0,0,0,13,0,0,0,0,36,35,0,0,0,0,205,0,0,0,0,0,0,0,33,0,187,0,0,0,0,0,0,0,0,0,0,0,0,0,0,0,0,0,0,0,0,0,0,0,0,0,0,0,0,0,91,13,0,3
25.75,0,0,5,0,3,181,2,8,0,0,0,6,170,177,138,0,103,0,0,0,0,0,0,103,0,0,0,0,0,0,175,0,159,0,0,0,0,0,0,0,0,13,0,0,0,0,36,35,0,0,0,0,205,0,0,0,0,0,0,0,33,0,187,0,0,0,0,0,0,0,0,0,0,0,0,0,0,0,0,0,0,0,0,0,0,0,0,0,0,0,0,0,91,13,0,3
26,0,0,5,0,3,181,2,8,0,0,0,6,170,178,143,0,103,0,0,0,0,0,0,103,0,0,0,0,0,0,175,0,159,0,0,0,0,0,0,0,0,13,0,0,0,0,36,35,0,0,0,0,206,0,0,0,0,0,0,0,33,0,187,0,0,0,0,0,0,0,0,0,0,0,0,0,0,0,0,0,0,0,0,0,0,0,0,0,0,0,0,0,91,13,0,3
26.25,0,0,5,1,3,186,2,8,0,0,0,6,170,182,144,0,117,0,0,0,0,0,0,103,0,0,0,0,0,0,176,0,164,0,0,0,0,0,0,0,0,13,0,0,0,0,36,35,0,0,0,0,209,0,0,0,0,0,0,0,33,0,187,0,0,0,0,0,0,0,0,0,0,0,0,0,0,0,0,0,0,0,0,0,0,0,0,0,0,0,0,0,91,13,0,3
26.5,0,0,5,1,3,186,2,8,0,0,0,6,170,182,146,0,117,0,0,0,0,0,0,103,0,0,0,0,0,0,176,0,164,0,0,0,0,0,0,0,0,13,0,0,0,0,36,35,0,0,0,0,209,0,0,0,0,0,0,0,33,0,187,0,0,0,0,0,0,0,0,0,0,0,0,0,0,0,0,0,0,0,0,0,0,0,0,0,0,0,0,0,91,13,0,3
26.75,0,0,5,1,3,186,2,8,0,0,0,6,170,182,153,0,117,0,0,0,0,0,0,103,0,0,0,0,0,0,176,0,164,0,0,0,0,0,0,0,0,13,0,0,0,0,36,35,0,0,0,0,209,0,0,0,0,0,0,0,33,0,187,0,0,0,0,0,0,0,0,0,0,0,0,0,0,0,0,0,0,0,0,0,0,0,0,0,0,0,0,0,91,13,0,3
27,0,0,5,1,3,186,2,8,0,0,0,6,170,182,153,0,123,0,0,0,0,0,0,103,0,0,0,0,0,0,176,0,164,0,0,0,0,0,0,0,0,13,0,0,0,0,36,35,0,0,0,0,209,0,0,0,0,0,0,0,33,0,187,0,0,0,0,0,0,0,0,0,0,0,0,0,0,0,0,0,0,0,0,0,0,0,0,0,0,0,0,0,91,13,0,3
27.25,0,0,5,1,3,186,2,8,0,0,0,6,170,184,157,0,123,0,0,0,0,0,0,103,0,0,0,0,0,0,176,0,164,0,0,0,0,0,0,0,0,13,0,0,0,0,36,35,0,0,0,0,209,0,0,0,0,0,0,0,33,0,187,0,0,0,0,0,0,0,0,0,0,0,0,0,0,0,0,0,0,0,0,0,0,0,0,0,0,0,0,0,91,13,0,3
27.5,0,0,5,1,3,186,2,8,0,0,0,6,170,184,157,0,125,0,0,0,0,0,0,103,0,0,0,0,0,0,176,0,164,0,0,0,0,0,0,0,0,13,0,0,0,0,36,35,0,0,0,0,209,0,0,0,0,0,0,0,33,0,187,0,0,0,0,0,0,0,0,0,0,0,0,0,0,0,0,0,0,0,0,0,0,0,0,0,0,0,0,0,91,13,0,3
27.75,0,0,5,1,3,186,2,8,0,0,0,6,170,184,158,0,129,0,0,0,0,0,0,103,0,0,0,0,0,0,176,0,164,0,0,0,0,0,0,0,0,13,0,0,0,0,36,35,0,0,0,0,209,0,0,0,0,0,0,0,33,0,187,0,0,0,0,0,0,0,0,0,0,0,0,0,0,0,0,0,0,0,0,0,0,0,0,0,0,0,0,0,91,13,0,3
28,0,0,5,1,3,186,2,8,0,0,0,6,170,190,167,0,134,0,0,0,0,0,0,103,0,0,0,0,0,0,176,0,164,0,0,0,0,0,0,0,0,13,0,0,0,0,36,35,0,0,0,0,209,0,0,0,0,0,0,0,33,0,187,0,0,0,0,0,0,0,0,0,0,0,0,0,0,0,0,0,0,0,0,0,0,0,0,0,0,0,0,0,91,13,0,3
28.25,0,0,5,1,3,186,2,8,0,0,0,6,170,190,167,0,137,0,0,0,0,0,0,103,0,0,0,0,0,0,176,0,164,0,0,0,0,0,0,0,0,13,0,0,0,0,36,35,0,0,0,0,209,0,0,0,0,0,0,0,33,0,187,0,0,0,0,0,0,0,0,0,0,0,0,0,0,0,0,0,0,0,0,0,0,0,0,0,0,0,0,0,91,13,0,3
28.5,0,0,5,1,4,186,2,8,0,0,0,6,170,190,167,0,142,0,0,0,0,0,0,103,0,0,0,0,0,0,176,0,164,0,0,0,0,0,0,0,0,13,0,0,0,0,36,35,0,0,0,0,210,0,0,0,0,0,0,0,33,0,187,0,0,0,0,0,0,0,0,0,0,0,0,0,0,0,0,0,0,0,0,0,0,0,0,0,0,0,0,0,91,13,0,3
28.75,0,0,5,1,4,186,2,8,0,0,0,6,170,190,167,0,143,0,0,0,0,0,0,103,0,0,0,0,0,0,176,0,164,0,0,0,0,0,0,0,0,13,0,0,0,0,36,35,0,0,0,0,210,0,0,0,0,0,0,0,33,0,187,0,0,0,0,0,0,0,0,0,0,0,0,0,0,0,0,0,0,0,0,0,0,0,0,0,0,0,0,0,91,13,0,3
29,0,0,5,1,4,186,2,8,0,0,0,6,170,190,167,0,144,0,0,0,0,0,0,103,0,0,0,0,0,0,176,0,164,0,0,0,0,0,0,0,0,13,0,0,0,0,36,35,0,0,0,0,210,0,0,0,0,0,0,0,33,0,187,0,0,0,0,0,0,0,0,0,0,0,0,0,0,0,0,0,0,0,0,0,0,0,0,0,0,0,0,0,91,13,0,3
29.25,0,0,5,1,4,186,2,8,0,0,0,6,170,190,167,0,147,0,0,0,0,0,0,103,0,0,0,0,0,0,176,0,164,0,0,0,0,0,0,0,0,13,0,0,0,0,36,35,0,0,0,0,210,0,0,0,0,0,0,0,33,0,187,0,0,0,0,0,0,0,0,0,0,0,0,0,0,0,0,0,0,0,0,0,0,0,0,0,0,0,0,0,91,13,0,3
29.5,0,0,5,1,4,186,2,8,0,0,0,6,170,190,167,0,151,0,0,0,0,0,0,103,0,0,0,0,0,0,176,0,164,0,0,0,0,0,0,0,0,13,0,0,0,0,36,35,0,0,0,0,210,0,0,0,0,0,0,0,33,0,187,0,0,0,0,0,0,0,0,0,0,0,0,0,0,0,0,0,0,0,0,0,0,0,0,0,0,0,0,0,91,13,0,3
29.75,0,0,5,1,4,186,2,8,0,0,0,6,170,190,172,0,153,0,0,0,0,0,0,103,0,0,0,0,0,0,176,0,164,0,0,0,0,0,0,0,0,13,0,0,0,0,36,35,0,0,0,0,210,0,0,0,0,0,0,0,33,0,187,0,0,0,0,0,0,0,0,0,0,0,0,0,0,0,0,0,0,0,0,0,0,0,0,0,0,0,0,0,91,13,0,3
30,0,0,5,1,4,186,2,8,0,0,0,6,170,190,173,0,155,0,0,0,0,0,0,103,0,0,0,0,0,0,176,0,164,0,0,0,0,0,0,0,0,14,0,0,0,0,36,35,0,0,0,0,210,0,0,0,0,0,0,0,33,0,187,0,0,0,0,0,0,0,0,0,0,0,0,0,0,0,0,0,0,0,0,0,0,0,0,0,0,0,0,0,91,13,0,3
30.25,0,0,5,1,4,186,2,8,0,0,0,6,170,190,181,0,155,0,0,0,0,0,0,103,0,0,0,0,0,0,176,0,164,0,0,0,0,0,0,0,0,14,0,0,0,0,36,35,0,0,0,0,210,0,0,0,0,0,0,0,33,0,187,0,0,0,0,0,0,0,0,0,0,0,0,0,0,0,0,0,0,0,0,0,0,0,0,0,0,0,0,0,91,13,0,3
30.5,0,0,5,1,4,186,2,8,0,0,0,6,170,190,181,0,160,0,0,0,0,0,0,103,0,0,0,0,0,0,176,0,164,0,0,0,0,0,0,0,0,14,0,0,0,0,36,35,0,0,0,0,210,0,0,0,0,0,0,0,33,0,187,0,0,0,0,0,0,0,0,0,0,0,0,0,0,0,0,0,0,0,0,0,0,0,0,0,0,0,0,0,91,13,0,4
30.75,0,0,5,1,4,186,2,8,0,0,0,6,170,190,181,0,163,0,0,0,0,0,0,103,0,0,0,0,0,0,176,0,164,0,0,0,0,0,0,0,0,14,0,0,0,0,36,35,0,0,0,0,210,0,0,0,0,0,0,0,33,0,187,0,0,0,0,0,0,0,0,0,0,0,0,0,0,0,0,0,0,0,0,0,0,0,0,0,0,0,0,0,91,13,0,8
31,0,0,5,1,4,187,2,8,0,0,0,6,170,190,181,0,163,0,0,0,0,0,0,103,0,0,0,0,0,0,176,0,164,0,0,0,0,0,0,0,0,14,0,0,0,0,36,35,0,0,0,0,210,0,0,0,0,0,0,0,33,0,187,0,0,0,0,0,0,0,0,0,0,0,0,0,0,0,0,0,0,0,0,0,0,0,0,0,0,0,0,0,91,13,0,8
31.25,0,0,5,1,4,187,2,8,0,0,0,6,170,190,181,0,167,0,0,0,0,0,0,103,0,0,0,0,0,0,176,0,164,0,0,0,0,0,0,0,0,14,0,0,0,0,36,35,0,0,0,0,210,0,0,0,0,0,0,0,33,0,187,0,0,0,0,0,0,0,0,0,0,0,0,0,0,0,0,0,0,0,0,0,0,0,0,0,0,0,0,0,91,13,0,8
31.5,0,0,5,1,4,187,2,8,0,0,0,6,170,190,181,0,167,0,0,0,0,0,0,103,0,0,0,0,0,0,176,0,164,0,0,0,0,0,0,0,0,14,0,0,0,0,36,35,0,0,0,0,210,0,0,0,0,0,0,0,33,0,187,0,0,0,0,0,0,0,0,0,0,0,0,0,0,0,0,0,0,0,0,0,0,0,0,0,0,0,0,0,91,13,0,8
31.75,0,0,5,1,4,187,2,8,0,0,0,6,170,190,181,0,170,0,0,0,0,0,0,103,0,0,0,0,0,0,176,0,164,0,0,0,0,0,0,0,0,14,0,0,0,0,36,35,0,0,0,0,210,0,0,0,0,0,0,0,33,0,187,0,0,0,0,0,0,0,0,0,0,0,0,0,0,0,0,0,0,0,0,3,0,0,0,0,0,0,0,0,91,13,0,8
32,0,0,5,1,4,187,2,8,0,0,0,6,170,190,181,0,170,0,0,0,0,0,0,103,0,0,0,0,0,0,176,0,164,0,0,0,0,0,0,0,0,14,0,0,0,0,36,35,0,0,0,0,210,0,0,0,0,0,0,0,33,0,187,0,0,0,0,0,0,0,0,0,0,0,0,0,0,0,0,0,0,0,0,8,0,0,0,0,0,0,0,0,91,13,0,8
32.25,0,0,5,1,4,187,2,8,0,0,0,6,170,190,181,0,171,0,0,0,0,0,0,103,0,0,0,0,0,0,176,0,164,0,0,0,0,0,0,0,0,14,0,0,0,0,36,35,0,0,0,0,210,0,0,0,0,0,0,0,33,0,187,0,0,0,0,0,0,0,0,0,0,0,0,0,0,0,0,0,0,0,0,13,0,0,0,0,0,0,0,0,91,13,0,8
32.5,0,0,5,1,4,187,2,8,0,0,0,6,170,190,181,0,172,0,0,0,0,0,0,103,0,0,0,0,0,0,176,0,164,0,0,0,0,0,0,0,0,14,0,0,0,0,36,35,0,0,0,0,210,0,0,0,0,0,0,0,33,0,187,0,0,0,0,0,0,0,0,0,0,0,0,0,0,0,0,0,0,0,0,13,0,0,0,0,0,0,0,0,91,13,0,8
32.75,0,0,5,1,4,187,2,8,0,0,0,6,170,190,181,0,176,0,0,0,0,0,0,103,0,0,0,0,0,0,176,0,164,0,0,0,0,0,0,0,0,14,0,0,0,0,36,35,0,0,0,0,210,0,0,0,0,0,0,0,33,0,187,0,0,0,0,0,0,0,0,0,0,0,0,0,0,0,0,0,0,0,0,15,0,0,0,0,0,0,0,0,91,13,0,9
33,0,0,5,1,4,187,2,8,0,0,0,6,170,190,181,0,176,0,0,0,0,0,0,103,0,0,0,0,0,0,176,0,164,0,0,0,0,0,0,0,0,14,0,0,0,0,36,35,0,0,0,0,210,0,0,0,0,0,0,0,33,0,187,0,0,0,0,0,0,0,0,0,0,0,0,0,0,0,0,0,0,0,0,19,0,0,0,0,0,0,0,0,91,13,0,10
33.25,0,0,5,1,4,187,2,8,0,0,0,6,170,190,181,0,176,0,0,0,0,0,0,103,0,0,0,0,0,0,176,0,164,0,0,0,0,0,0,0,0,14,0,0,0,0,36,35,0,0,0,0,210,0,0,0,0,0,0,0,33,0,187,0,0,0,0,0,0,0,0,0,0,0,0,0,0,0,0,0,0,0,0,19,0,0,0,0,0,0,0,0,91,13,0,10
33.5,0,0,5,1,4,187,2,8,0,0,0,6,170,190,181,0,176,0,0,0,0,0,0,103,0,0,0,0,0,0,176,0,164,0,0,0,0,0,0,0,0,14,0,0,0,0,36,35,0,0,0,0,210,0,0,0,0,0,0,0,33,0,187,0,0,0,0,0,0,0,0,0,0,0,0,0,0,0,0,0,0,0,0,19,0,0,0,0,0,0,0,0,91,13,0,12
33.75,0,0,5,1,4,189,2,8,0,0,0,6,170,190,183,0,179,0,0,0,0,0,0,103,0,0,0,0,0,0,176,0,164,0,0,0,0,0,0,0,0,16,0,0,0,0,36,35,0,0,0,0,210,0,0,0,0,0,0,0,33,0,187,0,0,0,0,0,0,0,0,0,0,0,0,0,0,0,0,0,0,0,0,19,0,0,0,0,0,0,0,0,91,13,0,12
34,0,0,5,1,4,189,2,8,0,2,0,6,170,190,183,0,180,0,0,0,0,0,0,103,0,0,0,0,0,0,176,0,164,0,0,0,0,0,0,0,0,16,0,0,0,0,36,35,0,0,0,0,210,0,0,0,0,0,0,0,33,0,187,0,0,0,0,0,0,0,0,0,0,0,0,0,0,0,0,0,0,0,0,19,0,0,0,0,0,0,0,0,91,13,0,12
34.25,0,0,5,1,4,189,2,8,0,2,0,6,170,190,183,0,183,0,0,0,0,0,0,103,0,0,0,0,0,0,176,0,164,0,0,0,0,0,0,0,0,16,0,0,0,0,36,35,0,0,0,0,210,0,0,0,0,0,0,0,33,0,187,0,0,0,0,0,0,0,0,0,0,0,0,0,0,0,0,0,0,0,0,19,0,0,0,0,0,0,0,0,91,13,0,12
34.5,0,0,5,1,4,189,2,8,0,2,0,6,170,192,183,0,183,0,0,0,0,0,0,103,0,0,0,0,0,0,176,0,164,0,0,0,0,0,0,0,0,16,0,0,0,0,36,35,0,0,0,0,210,0,0,0,0,0,0,0,33,0,187,0,0,0,0,0,0,0,0,0,0,0,0,0,0,0,0,0,0,0,0,19,0,0,0,0,0,0,0,0,91,13,0,12
34.75,0,0,5,1,4,189,2,8,0,3,0,6,170,192,183,0,183,0,0,0,0,0,0,103,0,0,0,0,0,0,176,0,164,0,0,0,0,0,0,0,0,16,0,0,0,0,36,35,0,0,0,0,210,0,0,0,0,0,0,0,33,0,187,0,0,0,0,0,0,0,0,0,0,0,0,0,0,0,0,0,0,0,0,19,0,0,0,0,0,0,0,0,91,13,0,14
35,0,0,5,1,4,189,2,8,0,3,0,6,170,192,185,0,183,0,0,0,0,0,0,103,0,0,0,0,0,0,176,0,164,0,0,0,0,0,0,0,0,16,0,0,0,0,36,35,0,0,0,0,210,0,0,0,0,0,0,0,33,0,187,0,0,0,0,0,0,0,0,0,0,0,0,0,0,0,0,0,0,0,0,19,0,0,0,0,0,0,0,0,91,13,0,14
35.25,0,0,5,1,4,189,2,8,0,3,0,6,170,192,185,0,184,0,0,0,0,0,0,103,0,0,0,0,0,0,176,0,164,0,0,0,0,0,0,0,0,16,0,0,0,0,36,35,0,0,0,0,210,0,0,0,0,0,0,0,33,0,187,0,0,0,0,0,0,0,0,0,0,0,0,0,0,0,0,0,0,0,0,21,0,0,0,0,0,0,0,0,91,13,0,17
35.5,0,0,5,1,4,189,2,8,0,3,0,6,170,192,185,0,184,0,0,0,0,0,0,103,0,0,0,0,0,0,176,0,164,0,0,0,0,0,0,0,0,16,0,0,0,0,36,35,0,0,0,0,210,0,0,0,0,0,0,0,33,0,187,0,0,0,0,0,0,0,0,0,0,0,0,0,0,0,0,0,0,0,0,21,0,0,0,0,0,0,0,0,91,13,0,17
35.75,0,0,5,1,4,189,2,8,0,4,0,6,170,192,185,0,187,0,0,0,0,0,0,103,0,0,0,0,0,0,176,0,164,0,0,0,0,0,0,0,0,16,0,0,0,0,36,35,0,0,0,0,210,0,0,0,0,0,0,0,33,0,187,0,0,0,0,0,0,0,0,0,0,0,0,0,0,0,0,0,0,0,0,23,0,0,0,0,0,0,0,0,91,13,0,17
36,0,0,5,1,4,189,2,8,0,4,0,6,170,192,185,0,187,0,0,0,0,0,0,103,0,0,0,0,0,0,176,0,164,0,0,0,0,0,0,0,0,16,0,0,0,0,36,35,0,0,0,0,210,0,0,0,0,0,0,0,33,0,187,0,0,0,0,0,0,0,0,0,0,0,0,0,0,0,0,0,0,0,0,23,0,0,0,0,0,0,0,0,91,13,0,17
36.25,0,0,5,1,4,189,2,8,0,4,0,6,170,192,186,0,187,0,0,0,0,0,0,103,0,0,0,0,0,0,176,0,164,0,0,0,0,0,0,0,0,16,0,0,0,0,36,35,0,0,0,0,210,0,0,0,0,0,0,0,33,0,187,0,0,0,0,0,0,0,0,0,0,0,0,0,0,0,0,0,0,0,0,23,0,0,0,0,0,0,0,0,91,13,0,17
36.5,0,0,5,1,4,189,2,8,0,4,0,6,170,194,189,0,187,0,0,0,0,0,0,103,0,0,0,0,0,0,176,0,164,0,0,0,0,0,0,0,0,16,0,0,0,0,36,35,0,0,0,0,211,0,0,0,0,0,0,0,33,0,187,0,0,0,0,0,0,0,0,0,0,0,0,0,0,0,0,0,0,0,0,23,0,0,0,0,0,0,0,0,91,13,0,17
36.75,0,0,5,1,4,189,2,8,0,4,0,6,170,195,196,0,187,0,0,0,0,0,0,103,0,0,0,0,0,0,176,0,164,0,0,0,0,0,0,0,0,16,0,0,0,0,36,35,0,0,0,0,211,0,0,0,0,0,0,0,33,0,187,0,0,0,0,0,0,0,0,0,0,0,0,0,0,0,0,0,0,0,0,23,0,0,0,0,0,0,0,0,91,13,0,17
37,0,0,5,1,4,189,2,8,0,4,0,6,170,201,197,0,188,0,0,0,0,0,0,103,0,0,0,0,0,0,176,0,164,0,0,0,0,0,0,0,0,16,0,0,0,0,36,35,0,0,0,0,213,0,0,0,0,0,0,0,33,0,187,0,0,0,0,0,0,0,0,0,0,0,0,0,0,0,0,0,0,0,0,23,0,0,0,0,0,0,0,0,91,13,0,17
37.25,0,0,5,1,4,189,2,8,0,4,0,6,170,201,197,0,188,0,0,0,0,0,0,103,0,0,0,0,0,0,176,0,164,0,0,0,0,0,0,0,0,16,0,0,0,0,36,35,0,0,0,0,213,0,0,0,0,0,0,0,33,0,187,0,0,0,0,0,0,0,0,0,0,0,0,0,0,0,0,0,0,0,0,23,0,0,0,0,0,0,0,0,91,13,0,17
37.5,0,0,5,1,4,189,2,8,0,4,0,6,170,201,197,0,188,0,0,0,0,0,0,103,0,0,0,0,0,0,176,0,164,0,0,0,0,0,0,0,0,16,0,0,0,0,36,35,0,0,0,0,213,0,0,0,0,0,0,0,33,0,187,0,0,0,0,0,0,0,0,0,0,0,0,0,0,0,0,0,0,0,0,23,0,0,0,0,0,0,0,0,91,13,0,17
37.75,0,0,5,1,4,189,2,8,0,4,0,6,170,201,197,0,189,0,0,0,0,0,0,103,0,0,0,0,0,0,176,0,164,0,0,0,0,0,0,0,0,16,0,0,0,0,36,35,0,0,0,0,213,0,0,0,0,0,0,0,33,0,187,0,0,0,0,0,0,0,0,0,0,0,0,0,0,0,0,0,0,0,0,23,0,0,0,0,0,0,0,0,91,13,0,17
38,0,0,5,1,4,189,2,8,0,4,0,6,170,201,197,0,189,0,0,0,0,0,0,103,0,0,0,0,0,0,176,0,164,0,0,0,0,0,0,0,0,16,0,0,0,0,36,35,0,0,0,0,213,0,0,0,0,0,0,0,33,0,187,0,0,0,0,0,0,0,0,0,0,0,0,0,0,0,0,0,0,0,0,23,0,0,0,0,0,0,0,0,91,13,0,18
38.25,0,0,5,1,4,189,2,8,0,7,0,6,170,201,197,0,190,0,0,0,0,0,0,103,0,0,0,0,0,0,176,0,164,0,0,0,0,0,0,0,0,16,0,0,0,0,36,35,0,0,0,0,213,0,0,0,0,0,0,0,33,0,187,0,0,0,0,0,0,0,0,0,0,0,0,0,0,0,0,0,0,0,0,25,0,0,0,0,0,0,0,0,91,13,3,22
38.5,0,0,5,1,4,189,2,8,0,7,0,6,170,201,197,0,190,0,0,0,0,0,0,103,0,0,0,0,0,0,176,0,164,0,0,0,0,0,0,0,0,16,0,0,0,0,36,35,0,0,0,0,213,0,0,0,0,0,0,0,33,0,187,0,0,0,0,0,0,0,0,0,0,0,0,0,0,0,0,0,0,0,0,25,0,0,0,0,0,0,0,0,91,13,3,22
38.75,0,0,5,1,4,189,2,8,0,7,0,6,170,201,197,0,190,0,0,0,0,0,0,103,0,0,0,0,0,0,176,0,164,0,0,0,0,0,0,0,0,16,0,0,0,0,36,35,0,0,0,0,213,0,0,0,0,0,0,0,33,0,187,0,0,0,0,0,0,0,0,0,0,0,0,0,0,0,0,0,0,0,0,25,0,0,0,0,0,0,0,0,91,13,3,22
39,0,0,5,1,4,189,2,8,0,7,0,6,170,201,198,0,190,0,0,0,0,0,0,103,0,0,0,0,0,0,176,0,164,0,0,0,0,0,0,0,0,16,0,0,0,0,36,35,0,0,0,0,213,0,0,0,0,0,0,0,33,0,187,0,0,0,0,0,0,0,0,0,0,0,0,0,0,0,0,0,0,0,0,25,0,0,0,0,0,0,0,0,91,13,3,22
39.25,0,0,5,1,4,189,2,8,0,7,0,6,170,201,199,0,190,0,0,0,0,0,0,103,0,0,0,0,0,0,176,0,164,0,0,0,0,0,0,0,0,16,0,0,0,0,36,35,0,0,0,0,213,0,0,0,0,0,0,0,33,0,187,0,0,0,0,0,0,0,0,0,0,0,0,0,0,0,0,0,0,0,0,25,0,0,0,0,0,0,0,0,91,13,3,22
39.5,0,0,5,1,4,189,2,8,0,7,0,6,170,201,199,0,190,0,0,0,0,0,0,103,0,0,0,0,0,0,176,0,164,0,0,0,0,0,0,0,0,16,0,0,0,0,36,35,0,0,0,0,213,0,0,0,0,0,0,0,33,0,187,0,0,0,0,0,0,0,0,0,0,0,0,0,0,0,0,0,0,0,0,25,0,0,0,0,0,0,0,0,91,13,3,22
39.75,0,0,5,1,4,189,2,8,0,7,0,6,170,201,199,0,190,0,0,0,0,0,0,103,0,0,0,0,0,0,176,0,164,0,0,0,0,0,0,0,0,16,0,0,0,0,36,35,0,0,0,0,213,0,0,0,0,0,0,0,33,0,187,0,0,0,0,0,0,0,0,0,0,0,0,0,0,0,0,0,0,0,0,25,0,0,0,0,0,0,0,0,91,13,3,22
40,0,0,5,1,4,189,2,8,0,7,0,6,170,201,199,0,190,0,0,0,0,0,0,103,0,0,0,0,0,0,176,0,164,0,0,0,0,0,0,0,0,16,0,0,0,0,36,35,0,0,0,0,213,0,0,0,0,0,0,0,33,0,187,0,0,0,0,0,0,0,0,0,0,0,0,0,0,0,0,0,0,0,0,25,0,0,0,0,0,0,0,0,91,13,3,22
40.25,0,0,5,1,4,189,2,8,0,7,0,6,170,201,199,0,190,0,0,0,0,0,0,103,0,0,0,0,0,0,176,0,164,0,0,0,0,0,0,0,0,16,0,0,0,0,36,35,0,0,0,0,213,0,0,0,0,0,0,0,33,0,187,0,0,0,0,0,0,0,0,0,0,0,0,0,0,0,0,0,0,0,0,27,0,0,0,0,0,0,0,0,91,13,3,22
40.5,0,0,5,1,4,189,2,8,0,7,0,6,170,201,199,0,190,0,0,0,0,0,0,103,0,0,0,0,0,0,176,0,164,0,0,0,0,0,0,0,0,16,0,0,0,0,36,35,0,0,0,0,213,0,0,0,0,0,0,0,33,0,187,0,0,0,0,0,0,0,0,0,0,0,0,0,0,0,0,0,0,0,0,27,0,0,0,0,0,0,0,0,91,13,4,22
40.75,0,0,5,1,4,189,2,8,0,7,0,6,170,201,199,0,190,0,0,0,0,0,0,103,0,0,0,0,0,0,176,0,164,0,0,0,0,0,0,0,0,16,0,0,0,0,36,35,0,0,0,0,213,0,0,0,0,0,0,0,33,0,187,0,0,0,0,0,0,0,0,0,0,0,0,0,0,0,0,0,0,0,0,28,0,0,0,0,0,0,0,0,91,13,6,22
41,0,0,5,1,4,189,2,8,0,7,0,6,170,201,199,0,190,0,0,0,0,0,0,103,0,0,0,0,0,0,176,0,164,0,0,0,0,0,0,0,0,16,0,0,0,0,36,35,0,0,0,0,213,0,0,0,0,0,0,0,33,0,187,0,0,0,0,0,0,0,0,0,0,0,0,0,0,0,0,0,0,0,0,28,0,0,0,0,0,0,0,0,91,13,6,22
41.25,0,0,5,1,4,189,2,8,0,8,0,6,170,201,199,0,190,0,0,0,0,0,0,103,0,0,0,0,0,0,176,0,164,0,0,0,0,0,0,0,0,16,0,0,0,0,36,35,0,0,0,0,213,0,0,0,0,0,0,0,33,0,187,0,0,0,0,0,0,0,0,0,0,0,0,0,0,0,0,0,0,0,0,28,0,0,0,0,0,0,0,0,91,13,6,22
41.5,0,0,5,1,4,189,2,8,0,8,0,6,170,201,199,0,190,0,0,0,0,0,0,103,0,0,0,0,0,0,176,0,164,0,0,0,0,0,0,0,0,16,0,0,0,0,36,35,0,0,0,0,213,0,0,0,0,0,0,0,33,0,187,0,0,0,0,0,0,0,0,0,0,0,0,0,0,0,0,0,0,0,0,28,0,0,0,0,0,0,0,0,91,13,6,22
41.75,0,0,5,1,4,190,2,8,0,8,0,6,170,201,199,0,190,0,0,0,0,0,0,103,0,0,0,0,0,0,176,0,164,0,0,0,0,0,0,0,0,16,0,0,0,0,36,35,0,0,0,0,213,0,0,0,0,0,0,0,33,0,187,0,0,0,0,0,0,0,0,0,0,0,0,0,0,0,0,0,0,0,0,28,0,0,0,0,0,0,0,0,91,13,6,22
42,0,0,5,1,4,190,2,8,0,8,0,6,170,201,199,0,190,0,0,0,0,0,0,103,0,0,0,0,0,0,176,0,164,0,0,0,0,0,0,0,0,16,0,0,0,0,36,35,0,0,0,0,213,0,0,0,0,0,0,0,33,0,187,0,0,0,0,0,0,0,0,0,0,0,0,0,0,0,0,0,0,0,0,28,0,0,0,0,0,0,0,0,91,13,8,23
42.25,0,0,5,1,4,190,2,8,0,8,0,6,170,201,199,0,190,0,0,0,0,0,0,103,0,0,0,0,0,0,176,0,164,0,0,0,0,0,0,0,0,16,0,0,0,0,36,35,0,0,0,0,213,0,0,0,0,0,0,0,33,0,187,0,0,0,0,0,0,0,0,0,0,0,0,0,0,0,0,0,0,0,0,31,0,0,0,0,0,0,0,0,91,13,8,23
42.5,0,0,5,1,4,190,2,8,0,8,0,6,170,201,199,0,190,0,0,0,0,0,0,103,0,0,0,0,0,0,176,0,164,0,0,0,0,0,0,0,0,16,0,0,0,0,36,35,0,0,0,0,213,0,0,0,0,0,0,0,33,0,187,0,0,0,0,0,0,0,0,0,0,0,0,0,0,0,0,0,0,0,0,31,0,0,0,0,0,0,0,0,91,13,8,23
42.75,0,0,5,1,4,190,2,8,0,8,0,6,170,201,199,0,190,0,0,0,0,0,0,103,0,0,0,0,0,0,176,0,164,0,0,0,0,0,0,0,0,16,0,0,0,0,36,35,0,0,0,0,213,0,0,0,0,0,0,0,33,0,187,0,0,0,0,0,0,0,0,0,0,0,0,0,0,0,0,0,0,0,0,31,0,0,0,0,0,0,0,0,91,13,9,28
43,0,0,5,1,4,190,2,8,0,8,0,6,170,201,199,0,190,0,0,0,0,0,0,103,0,0,0,0,0,0,176,0,164,0,0,0,0,0,0,0,0,16,0,0,0,0,36,37,0,0,0,0,213,0,0,0,0,0,0,0,33,0,187,0,0,0,0,0,0,0,0,0,0,0,0,0,0,0,0,0,0,0,0,32,0,0,0,0,0,0,0,0,91,13,9,28
43.25,0,0,5,1,4,190,2,8,0,8,0,6,170,201,199,0,190,0,0,0,0,0,0,103,0,0,0,0,0,0,176,0,164,0,0,0,0,0,0,0,0,16,0,0,0,0,36,37,0,0,0,0,213,0,0,0,0,0,0,0,33,0,187,0,0,0,0,0,0,0,0,0,0,0,0,0,0,0,0,0,0,0,0,32,0,0,0,0,0,0,0,0,91,13,9,28
43.5,0,0,5,1,4,190,2,8,0,8,0,6,170,201,199,0,190,0,0,0,0,0,0,103,0,0,0,0,0,0,176,0,164,0,0,0,0,0,0,0,0,16,0,0,0,0,36,37,0,0,0,0,213,0,0,0,0,0,0,0,33,0,187,0,0,0,0,0,0,0,0,0,0,0,0,0,0,0,0,0,0,0,0,33,0,0,0,0,0,0,0,0,91,13,9,28
43.75,0,0,5,1,4,190,2,8,0,8,0,6,170,201,199,0,190,0,0,0,0,0,0,103,0,0,0,0,0,0,176,0,164,0,0,0,0,0,0,0,0,16,0,0,0,0,36,37,0,0,0,0,213,0,0,0,0,0,0,0,33,0,187,0,0,0,0,0,0,0,0,0,0,0,0,0,0,0,0,0,0,0,0,33,0,0,0,0,0,0,0,0,91,13,9,28
44,0,0,5,1,4,190,2,8,0,8,0,6,170,201,199,0,190,0,0,0,0,0,0,103,0,0,0,0,0,0,176,0,164,0,0,0,0,0,0,0,0,16,0,0,0,0,36,37,0,0,0,0,213,0,0,0,0,0,0,0,33,0,187,0,0,0,0,0,0,0,0,0,0,0,0,0,0,0,0,0,0,0,0,33,0,0,0,0,0,0,0,0,91,13,9,28
44.25,0,0,5,1,4,190,2,8,0,9,0,6,170,201,199,0,190,0,0,0,0,0,0,103,0,0,0,0,0,0,176,0,164,0,0,0,0,0,0,0,0,16,0,0,0,0,36,37,0,0,0,0,213,0,0,0,0,0,0,0,33,0,187,0,0,0,0,0,0,0,0,0,0,0,0,0,0,0,0,0,0,0,0,33,0,0,0,0,0,0,0,0,91,13,9,28
44.5,0,0,5,1,4,190,2,8,0,9,0,6,170,201,199,0,190,0,0,0,0,0,0,103,0,0,0,0,0,0,176,0,164,0,0,0,0,0,0,0,0,16,0,0,0,0,36,37,0,0,0,0,213,0,0,0,0,0,0,0,33,0,187,0,0,0,0,0,0,0,0,0,0,0,0,0,0,0,0,0,0,0,0,33,0,0,0,0,0,0,0,0,91,13,9,28
44.75,0,0,5,1,4,190,2,8,0,9,0,6,170,201,201,0,190,0,0,0,0,0,0,103,0,0,0,0,0,0,176,0,164,0,0,0,0,0,0,0,0,16,0,0,0,0,36,37,0,0,0,0,213,0,0,0,0,0,0,0,33,0,187,0,0,0,0,0,0,0,0,0,0,0,0,0,0,0,0,0,0,0,0,33,0,0,0,0,0,0,0,0,91,13,9,28
45,0,0,5,1,4,190,2,8,0,11,0,7,170,201,201,0,190,0,0,0,0,0,0,103,0,0,0,0,0,0,176,0,164,0,0,0,0,0,0,0,0,16,0,0,0,0,36,37,3,0,0,0,213,0,0,0,0,0,0,0,33,0,187,0,0,0,0,0,0,0,0,0,0,0,0,0,0,0,0,0,0,0,0,33,0,0,0,0,0,0,0,0,91,13,12,30
45.25,0,0,5,1,4,190,2,8,0,11,0,7,170,201,201,0,190,0,0,0,0,0,0,103,0,0,0,0,0,0,176,0,164,0,0,0,0,0,0,0,0,16,0,0,0,0,36,37,3,0,0,0,213,0,0,0,0,0,0,0,33,0,187,0,0,0,0,0,0,0,0,0,0,0,0,0,0,0,0,0,0,0,0,33,0,0,0,0,0,0,0,0,91,13,12,30
45.5,0,0,5,1,4,190,2,8,0,11,0,7,170,201,201,0,190,0,0,0,0,0,0,103,0,0,0,0,0,0,176,0,164,0,0,0,0,0,0,0,0,16,0,0,0,0,36,37,3,0,0,0,213,0,0,0,0,0,0,0,33,0,187,0,0,0,0,0,0,0,0,0,0,0,0,0,0,0,0,0,0,0,0,33,0,0,0,0,0,0,0,0,91,13,12,30
45.75,0,0,5,1,4,190,2,8,0,11,0,7,170,201,201,0,190,0,0,0,0,0,0,103,0,0,0,0,0,0,176,0,164,0,0,0,0,0,0,0,0,16,0,0,0,0,36,37,3,0,0,0,213,0,0,0,0,0,0,0,33,0,187,0,0,0,0,0,0,0,0,0,0,0,0,0,0,0,0,0,0,0,0,33,0,0,0,0,0,0,0,0,91,13,12,30
46,0,0,5,1,4,190,2,8,0,11,0,7,170,201,201,0,190,0,0,0,0,0,0,103,0,0,0,0,0,0,176,0,164,0,0,0,0,0,0,0,0,16,0,0,0,0,36,37,3,0,0,0,213,0,0,0,0,0,0,0,33,0,187,0,0,0,0,0,0,0,0,0,0,0,0,0,0,0,0,0,0,0,0,33,0,0,0,0,0,0,0,0,91,13,12,30
46.25,0,0,5,1,4,190,2,8,0,11,0,7,170,201,201,0,190,0,0,0,0,0,0,103,0,0,0,0,0,0,176,0,164,0,0,0,0,0,0,0,0,16,0,0,0,0,36,37,3,0,0,0,213,0,0,0,0,0,0,0,33,0,187,0,0,0,0,0,0,0,0,0,0,0,0,0,0,0,0,0,0,0,0,33,0,0,0,0,0,0,0,0,91,13,12,30
46.5,0,0,5,1,4,190,2,8,0,11,0,7,170,201,201,0,190,0,0,0,0,0,0,103,0,0,0,0,0,0,176,0,164,0,0,0,0,0,0,0,0,16,0,0,0,0,36,37,3,0,0,0,213,0,0,0,0,0,0,0,33,0,187,0,0,0,0,0,0,0,0,0,0,0,0,0,0,0,0,0,0,0,0,33,0,0,0,0,0,0,0,0,91,13,12,30
46.75,0,0,5,1,4,190,2,8,0,11,0,7,170,201,201,0,190,0,0,0,0,0,0,103,0,0,0,0,0,0,176,0,164,0,0,0,0,0,0,0,0,16,0,0,0,0,36,37,3,0,0,0,213,0,0,0,0,0,0,0,33,0,187,0,0,0,0,0,0,0,0,0,0,0,0,0,0,0,0,0,0,0,0,33,0,0,0,0,0,0,0,0,91,13,12,30
47,0,0,5,1,4,190,2,8,0,11,0,7,170,201,201,0,190,0,0,0,0,0,0,103,0,0,0,0,0,0,176,0,164,0,0,0,0,0,0,0,0,16,0,0,0,0,36,37,3,0,0,0,213,0,0,0,0,0,0,0,33,0,187,0,0,0,0,0,0,0,0,0,0,0,0,0,0,0,0,0,0,0,0,33,0,0,0,0,0,0,0,0,91,13,12,30
47.25,0,0,5,1,4,190,2,8,0,11,0,7,170,201,201,0,190,0,0,0,0,0,0,103,0,0,0,0,0,0,176,0,164,0,0,0,0,0,0,0,0,16,0,0,0,0,36,37,7,0,0,0,213,0,0,0,0,0,0,0,33,0,187,0,0,0,0,0,0,0,0,0,0,0,0,0,0,0,0,0,0,0,0,33,0,0,0,0,0,0,0,0,91,13,12,30
47.5,0,0,5,1,4,190,2,8,0,11,0,7,170,201,201,0,190,0,0,0,0,0,0,103,0,0,0,0,0,0,176,0,164,0,0,0,0,0,0,0,0,16,0,0,0,0,36,47,7,0,0,0,213,0,0,0,0,0,0,0,33,0,187,0,0,0,0,0,0,0,0,0,0,0,0,0,0,0,0,0,0,0,0,38,0,0,0,0,0,0,0,0,91,13,12,35
47.75,0,0,5,1,4,190,2,8,0,11,0,7,170,201,201,0,190,0,0,0,0,0,0,103,0,0,0,0,0,0,176,0,164,0,0,0,0,0,0,0,0,16,0,0,0,0,36,47,7,0,0,0,213,0,0,0,0,0,0,0,33,0,187,0,0,0,0,0,0,0,0,0,0,0,0,0,0,0,0,0,0,0,0,38,0,0,0,0,0,0,0,0,91,13,12,35
