Data File    , C:\Program Files\Biolog\OL_DC_23\PMX\Data_2013\07\PMX_443_130705_B_30.OKA,,,,,,,,,,,,,,,,,,,,,,,,,,,,,,,,,,,,,,,,,,,,,,,,,,,,,,,,,,,,,,,,,,,,,,,,,,,,,,,,,,,,,,,,,,,,,,,
Set up Time  ,Jul 05 2013 12:22 PM,,,,,,,,,,,,,,,,,,,,,,,,,,,,,,,,,,,,,,,,,,,,,,,,,,,,,,,,,,,,,,,,,,,,,,,,,,,,,,,,,,,,,,,,,,,,,,,
Position     ,15-B,,,,,,,,,,,,,,,,,,,,,,,,,,,,,,,,,,,,,,,,,,,,,,,,,,,,,,,,,,,,,,,,,,,,,,,,,,,,,,,,,,,,,,,,,,,,,,,
Plate Type   ,PM 2-A,,,,,,,,,,,,,,,,,,,,,,,,,,,,,,,,,,,,,,,,,,,,,,,,,,,,,,,,,,,,,,,,,,,,,,,,,,,,,,,,,,,,,,,,,,,,,,,
Strain Type  ,---,,,,,,,,,,,,,,,,,,,,,,,,,,,,,,,,,,,,,,,,,,,,,,,,,,,,,,,,,,,,,,,,,,,,,,,,,,,,,,,,,,,,,,,,,,,,,,,
Sample Number,,,,,,,,,,,,,,,,,,,,,,,,,,,,,,,,,,,,,,,,,,,,,,,,,,,,,,,,,,,,,,,,,,,,,,,,,,,,,,,,,,,,,,,,,,,,,,,,
Strain Name  ,rep3,,,,,,,,,,,,,,,,,,,,,,,,,,,,,,,,,,,,,,,,,,,,,,,,,,,,,,,,,,,,,,,,,,,,,,,,,,,,,,,,,,,,,,,,,,,,,,,
Strain Number,274-JUL 8,,,,,,,,,,,,,,,,,,,,,,,,,,,,,,,,,,,,,,,,,,,,,,,,,,,,,,,,,,,,,,,,,,,,,,,,,,,,,,,,,,,,,,,,,,,,,,,
Other        ,,,,,,,,,,,,,,,,,,,,,,,,,,,,,,,,,,,,,,,,,,,,,,,,,,,,,,,,,,,,,,,,,,,,,,,,,,,,,,,,,,,,,,,,,,,,,,,,
,,,,,,,,,,,,,,,,,,,,,,,,,,,,,,,,,,,,,,,,,,,,,,,,,,,,,,,,,,,,,,,,,,,,,,,,,,,,,,,,,,,,,,,,,,,,,,,,
Hour,  A01,  A02,  A03,  A04,  A05,  A06,  A07,  A08,  A09,  A10,  A11,  A12,  B01,  B02,  B03,  B04,  B05,  B06,  B07,  B08,  B09,  B10,  B11,  B12,  C01,  C02,  C03,  C04,  C05,  C06,  C07,  C08,  C09,  C10,  C11,  C12,  D01,  D02,  D03,  D04,  D05,  D06,  D07,  D08,  D09,  D10,  D11,  D12,  E01,  E02,  E03,  E04,  E05,  E06,  E07,  E08,  E09,  E10,  E11,  E12,  F01,  F02,  F03,  F04,  F05,  F06,  F07,  F08,  F09,  F10,  F11,  F12,  G01,  G02,  G03,  G04,  G05,  G06,  G07,  G08,  G09,  G10,  G11,  G12,  H01,  H02,  H03,  H04,  H05,  H06,  H07,  H08,  H09,  H10,  H11,  H12
0,0,1,0,0,0,0,0,0,0,0,0,22,0,0,0,0,6,0,0,0,0,0,0,0,0,0,0,0,0,0,0,0,0,0,0,0,0,0,0,0,0,0,0,0,0,0,0,0,0,0,0,0,0,0,0,0,0,0,0,0,0,0,0,0,0,0,0,0,0,0,0,0,0,0,0,0,0,0,0,0,0,0,0,0,0,0,0,0,0,0,0,0,42,0,0,0
0.25,0,0,0,0,0,0,0,0,0,0,0,17,0,0,0,0,1,0,0,0,0,0,0,0,0,0,0,0,0,0,0,0,0,0,0,0,0,0,0,0,0,0,0,0,0,0,0,0,0,0,0,0,0,0,0,0,0,0,0,0,0,0,0,0,0,0,0,0,0,0,0,0,0,0,0,0,0,0,0,0,0,0,0,0,0,0,0,0,0,0,0,0,37,0,0,0
0.5,0,0,0,0,0,0,0,0,0,0,0,17,0,0,0,0,1,0,0,0,0,0,0,0,0,0,0,0,0,0,0,0,0,0,0,0,0,0,0,0,0,0,0,0,0,0,0,0,0,0,0,0,0,0,0,0,0,0,0,0,0,0,0,0,0,0,0,0,0,0,0,0,0,0,0,0,0,0,0,0,0,0,0,0,0,0,0,0,0,0,0,0,37,0,0,0
0.75,0,0,0,0,0,0,0,0,0,0,0,17,0,0,0,0,1,0,0,0,0,0,0,0,0,0,0,0,0,0,0,0,0,0,0,0,0,0,0,0,0,0,0,0,0,0,0,0,0,0,0,0,0,0,0,0,0,0,0,0,0,0,0,0,0,0,0,0,0,0,0,0,0,0,0,0,0,0,0,0,0,0,0,0,0,0,0,0,0,0,0,0,37,0,0,0
1,0,0,0,0,0,0,0,0,0,0,0,17,0,0,0,0,1,0,0,0,0,0,0,0,0,0,0,0,0,0,0,0,0,0,0,0,0,0,0,0,0,0,0,0,0,0,0,0,0,0,0,0,0,0,0,0,0,0,0,0,0,0,0,0,0,0,0,0,0,0,0,0,0,0,0,0,0,0,0,0,0,0,0,0,0,0,0,0,0,0,0,0,37,0,0,0
1.25,0,0,0,0,0,0,0,0,0,0,0,11,0,0,0,0,0,0,0,0,0,0,0,0,0,0,0,0,0,0,0,0,0,0,0,0,0,0,0,0,0,0,0,0,0,0,0,0,0,0,0,0,0,0,0,0,0,0,0,0,0,0,0,0,0,0,0,0,0,0,0,0,0,0,0,0,0,0,0,0,0,0,0,0,0,0,0,0,0,0,0,0,31,0,0,0
1.5,0,0,0,0,0,0,0,0,0,0,0,5,0,0,0,0,0,0,0,0,0,0,0,0,0,0,0,0,0,0,0,0,0,0,0,0,0,0,0,0,0,0,0,0,0,0,0,0,0,0,0,0,0,0,0,0,0,0,0,0,0,0,0,0,0,0,0,0,0,0,0,0,0,0,0,0,0,0,0,0,0,0,0,0,0,0,0,0,0,0,0,0,25,0,0,0
1.75,0,0,0,0,0,0,0,0,0,0,0,0,0,0,0,0,0,0,0,0,0,0,0,0,0,0,0,0,0,0,0,0,0,0,0,0,0,0,0,0,0,0,0,0,0,0,0,0,0,0,0,0,0,0,0,0,0,0,0,0,0,0,0,0,0,0,0,0,0,0,0,0,0,0,0,0,0,0,0,0,0,0,0,0,0,0,0,0,0,0,0,0,20,0,0,0
2,0,0,0,0,0,0,0,0,0,0,0,0,0,0,0,0,0,0,0,0,0,0,0,0,0,0,0,0,0,0,0,0,0,0,0,0,0,0,0,0,0,0,0,0,0,0,0,0,0,0,0,0,0,0,0,0,0,0,0,0,0,0,0,0,0,0,0,0,0,0,0,0,0,0,0,0,0,0,0,0,0,0,0,0,0,0,0,0,0,0,0,0,18,0,0,0
2.25,0,0,0,0,0,2,0,0,0,0,0,4,0,2,0,0,2,0,0,0,0,0,0,0,0,0,0,0,0,0,0,0,0,0,0,0,0,0,0,0,0,0,0,0,0,0,0,0,0,0,0,0,0,0,0,0,0,0,0,0,0,0,0,0,0,0,0,0,0,0,0,0,0,0,0,0,0,0,0,0,0,0,0,0,0,0,0,0,0,0,0,0,17,0,0,0
2.5,0,0,0,0,0,5,0,0,0,0,0,4,0,4,0,0,3,0,0,0,0,0,0,0,0,0,0,0,0,0,0,0,0,0,0,0,0,0,0,0,0,0,0,0,0,0,0,0,0,0,0,0,0,0,0,0,0,0,0,0,0,0,0,0,0,0,0,0,0,0,0,0,0,0,0,0,0,0,0,0,0,0,0,0,0,0,0,0,0,0,0,0,17,0,0,0
2.75,0,0,0,0,0,11,0,0,0,0,0,4,0,9,0,0,4,0,0,0,0,0,0,0,0,0,0,0,0,0,0,0,0,0,0,0,5,0,0,0,0,0,0,0,0,0,0,0,0,0,0,0,0,0,0,0,0,0,0,0,0,0,0,0,0,0,0,0,0,0,0,0,0,0,0,0,0,0,0,0,0,0,0,0,0,0,0,0,0,0,0,0,17,0,0,0
3,0,0,0,0,0,15,0,0,0,0,0,0,0,10,0,0,1,0,0,0,0,0,0,0,0,0,0,0,0,0,0,0,0,0,0,0,7,0,0,0,0,0,0,0,0,0,0,0,0,0,0,0,0,0,0,0,0,0,0,0,0,0,0,0,0,0,0,0,0,0,0,0,0,0,0,0,0,0,0,0,0,0,0,0,0,0,0,0,0,0,0,0,12,0,0,0
3.25,0,0,0,0,0,21,0,0,0,0,0,1,0,14,0,0,2,0,0,0,0,0,0,0,0,0,0,0,0,0,0,0,0,0,0,0,12,0,0,0,0,0,0,0,0,0,0,0,0,0,0,0,0,0,0,0,0,0,0,0,0,0,0,0,0,0,0,0,0,0,0,0,0,0,0,0,0,0,0,0,0,0,0,0,0,0,0,0,0,0,0,0,12,0,0,0
3.5,0,0,0,0,0,24,0,0,0,0,0,1,0,18,0,0,2,0,0,0,0,0,0,0,0,0,0,0,0,0,0,0,0,0,0,0,13,0,0,0,0,0,0,0,0,0,0,0,0,0,0,0,0,0,0,0,0,0,0,0,0,0,2,0,0,0,0,0,0,0,0,0,0,0,0,0,0,0,0,0,0,0,0,0,0,0,0,0,0,0,0,0,12,0,0,0
3.75,0,0,0,0,0,30,0,0,0,0,0,1,0,22,0,0,2,0,0,0,0,0,0,0,0,0,0,0,0,0,0,0,0,0,0,0,14,0,0,0,0,0,0,0,0,0,0,0,0,0,0,0,0,0,0,0,0,0,0,0,0,0,3,0,0,0,0,0,0,0,0,0,0,0,0,0,0,0,0,0,0,0,0,0,0,0,0,0,0,0,0,0,9,0,0,0
4,0,0,0,0,0,30,0,0,0,0,0,1,0,24,0,0,2,0,0,0,0,0,0,0,0,0,0,0,0,0,0,0,0,0,0,0,14,0,0,0,0,0,0,0,0,0,0,0,0,0,0,0,0,0,0,0,0,0,0,0,0,0,3,0,0,0,0,0,0,0,0,0,0,0,0,0,0,0,0,0,0,0,0,0,0,0,0,0,0,0,0,0,9,0,0,0
4.25,0,0,0,0,0,37,0,0,0,0,0,1,2,28,0,0,2,0,0,0,0,0,0,0,0,0,0,0,0,0,0,0,0,0,0,0,24,0,0,0,0,0,0,0,0,0,0,0,0,0,0,0,0,0,0,0,0,0,0,0,0,0,13,0,0,0,0,0,0,0,0,0,0,0,0,0,0,0,0,0,0,0,0,0,0,0,0,0,0,0,0,0,9,0,0,1
4.5,0,0,0,0,0,39,0,0,0,0,0,1,2,30,0,0,2,0,0,0,0,0,0,0,0,0,0,0,0,0,0,0,0,0,0,0,24,0,0,0,0,0,0,0,0,0,0,0,0,0,0,0,0,0,0,0,0,0,0,0,0,0,13,0,0,0,0,0,0,0,0,0,0,0,0,0,0,0,0,0,0,0,0,0,0,0,0,0,0,0,0,0,9,0,0,1
4.75,0,0,0,0,0,42,0,0,0,0,0,1,5,35,0,0,2,0,0,0,0,0,0,0,0,0,0,0,0,0,0,0,0,0,0,0,24,0,0,0,0,0,0,0,0,0,0,0,0,0,0,0,0,0,0,0,0,0,0,0,0,0,15,0,0,0,0,0,0,0,0,0,0,0,0,0,0,0,0,0,0,0,0,0,0,0,0,0,0,0,0,0,9,0,0,1
5,0,0,0,0,0,46,0,0,0,0,0,1,7,37,0,0,2,0,0,0,0,0,0,0,0,0,0,0,0,0,0,0,0,0,0,0,24,0,0,0,0,0,0,0,0,0,0,0,0,0,0,0,0,0,0,0,0,0,0,0,0,0,19,0,0,0,0,0,0,0,0,0,0,0,0,0,0,0,0,0,0,0,0,0,0,0,0,0,0,0,0,0,9,0,0,1
5.25,0,0,0,0,0,50,0,0,0,0,0,1,9,39,0,0,2,0,0,0,0,0,0,3,0,0,0,0,0,0,0,0,0,0,0,0,28,0,0,0,0,0,0,0,0,0,0,0,0,0,0,0,0,0,0,0,0,0,0,0,0,0,24,0,0,0,0,0,0,0,0,0,0,0,0,0,0,0,0,0,0,0,0,0,0,0,0,0,0,0,0,0,9,0,0,1
5.5,0,0,0,0,0,54,0,0,0,0,0,1,13,43,0,0,2,0,0,0,0,0,0,3,0,0,0,0,0,0,0,0,0,0,0,0,34,0,0,0,0,0,0,0,0,0,0,0,0,0,0,0,0,0,0,0,0,0,0,0,0,0,28,0,0,0,0,0,0,0,0,0,0,0,0,0,0,0,0,0,0,0,0,0,0,0,0,0,0,0,0,0,9,0,0,1
5.75,0,0,0,0,0,54,0,0,0,0,0,1,15,46,0,0,2,0,0,0,0,0,0,6,0,0,0,0,0,0,0,0,0,0,0,0,34,0,0,0,0,0,0,0,0,0,0,0,0,0,0,0,0,0,0,0,0,0,0,0,0,0,31,0,0,0,0,0,0,0,0,0,0,0,0,0,0,0,0,0,0,0,0,0,0,0,0,0,0,0,0,0,9,0,0,1
6,0,0,0,0,0,59,0,0,0,0,0,1,19,50,0,0,2,0,0,0,0,0,0,9,0,0,0,0,0,0,0,0,0,0,0,0,38,0,0,0,0,0,0,0,0,0,0,0,0,0,0,0,3,0,0,0,0,0,0,0,0,0,35,0,0,0,0,0,0,0,0,0,0,0,0,0,0,0,0,0,0,0,0,0,0,0,0,0,0,0,0,0,9,0,0,1
6.25,0,0,0,0,0,59,0,0,0,0,0,1,19,51,0,0,2,0,0,0,0,0,0,9,0,0,0,0,0,0,0,0,0,0,0,0,38,0,0,0,0,0,0,0,0,0,0,0,0,0,0,0,3,0,0,0,0,0,0,0,0,0,38,0,0,0,0,0,0,0,0,0,0,0,0,0,0,0,0,0,0,0,0,0,0,0,0,0,0,0,0,0,9,0,0,1
6.5,0,0,0,0,0,60,0,0,0,0,0,1,19,52,0,0,2,0,0,0,0,0,0,9,0,0,0,0,0,0,0,0,0,0,0,0,38,0,0,0,0,0,0,0,0,0,0,0,0,0,0,0,3,0,0,0,0,0,0,0,0,0,38,0,0,0,0,0,0,0,0,0,0,0,0,0,0,0,0,0,0,0,0,0,0,0,0,0,0,0,0,0,9,0,0,1
6.75,0,0,0,0,0,64,0,0,0,0,0,1,23,55,0,0,2,0,0,0,0,0,0,9,0,0,0,0,0,0,0,0,0,0,0,0,42,0,0,0,0,0,0,0,0,0,0,0,0,0,0,0,6,0,0,0,0,0,0,0,0,0,43,0,0,0,0,0,0,0,0,0,0,0,0,0,0,0,0,0,0,0,0,0,0,0,0,0,0,0,0,0,9,0,0,1
7,0,0,0,0,0,66,0,0,0,0,0,1,27,61,0,0,2,0,0,0,0,0,0,9,0,0,0,0,0,0,2,0,0,0,0,0,45,0,0,0,0,0,0,0,0,0,0,0,0,0,0,0,8,0,0,0,0,0,0,0,0,0,48,0,0,0,0,0,0,0,0,0,0,0,0,0,0,0,0,0,0,0,0,0,0,0,0,0,0,0,0,0,9,0,0,1
7.25,0,0,0,0,0,68,0,0,0,0,0,1,28,62,0,0,2,0,0,0,0,0,0,9,0,0,0,0,0,0,5,0,0,0,0,0,46,0,0,0,0,0,0,0,0,0,0,0,0,0,0,0,9,0,0,0,0,0,0,0,0,0,51,0,0,0,0,0,0,0,0,0,0,0,0,0,0,0,0,0,0,0,0,0,0,0,0,0,0,0,0,0,9,0,0,1
7.5,0,0,0,0,0,68,0,0,0,0,0,1,28,62,0,0,2,0,0,0,0,0,0,9,0,0,0,0,0,0,6,0,0,0,0,0,48,0,0,0,0,0,0,0,0,0,0,0,0,0,0,0,10,0,0,0,0,0,0,0,0,0,53,0,0,0,0,0,0,0,0,0,0,0,0,0,0,0,0,0,0,0,0,0,0,0,0,0,0,0,0,0,9,0,0,1
7.75,0,0,0,0,0,74,0,0,0,0,0,2,34,68,0,0,2,0,0,0,0,0,0,12,0,0,0,0,0,0,10,0,0,0,0,0,54,0,0,0,0,0,0,0,0,0,0,0,0,0,0,0,13,0,0,0,0,0,0,0,2,0,58,0,0,0,0,0,0,0,0,0,0,0,0,0,0,0,0,0,0,0,0,0,0,0,0,0,0,0,0,0,9,0,0,1
8,0,0,0,0,0,74,0,0,0,0,0,2,34,68,0,0,2,0,0,0,0,0,0,12,0,0,0,0,0,0,10,0,0,0,0,0,54,0,0,0,0,0,0,0,0,0,0,0,0,0,0,0,13,0,0,0,0,0,0,0,2,0,59,0,0,0,0,0,0,0,0,0,0,0,0,0,0,0,0,0,0,0,0,0,0,0,0,0,0,0,0,0,9,0,0,1
8.25,0,0,0,0,0,77,0,0,0,0,0,2,40,73,0,0,2,0,0,0,0,0,0,14,0,0,0,0,0,0,13,0,0,0,0,0,61,0,0,0,0,0,0,0,0,0,0,0,0,0,0,0,20,0,0,0,0,0,0,0,2,0,67,0,0,0,0,0,0,0,0,0,0,0,0,0,0,0,0,0,0,0,0,0,0,0,0,0,0,0,0,0,9,0,0,1
8.5,0,0,0,0,0,77,0,0,0,0,0,2,42,76,0,0,2,0,0,0,0,0,0,14,0,0,0,0,0,0,14,0,0,0,0,0,61,0,0,0,0,0,0,0,0,0,0,0,0,0,0,0,20,0,0,0,0,0,0,0,2,0,71,0,0,0,0,0,0,0,0,0,0,0,0,0,0,0,0,0,0,0,0,0,0,0,0,0,0,0,0,0,9,0,0,1
8.75,0,0,0,0,0,78,0,0,0,0,0,2,43,81,0,0,2,0,0,0,0,0,0,14,0,0,0,0,0,0,14,0,0,0,0,0,62,0,0,0,0,0,0,0,0,0,0,0,0,0,0,0,22,0,0,0,0,0,0,0,2,0,74,0,0,0,0,0,0,0,0,0,0,0,0,0,0,0,0,0,0,0,0,0,0,0,0,0,0,0,0,0,9,0,0,1
9,0,0,0,0,0,84,0,0,0,0,0,2,51,83,0,0,2,0,0,0,0,0,0,14,0,0,0,0,0,0,20,0,0,0,0,0,71,0,0,0,0,0,0,0,0,0,0,0,0,0,0,0,27,0,0,0,0,0,0,0,4,0,83,0,0,0,0,0,0,0,0,0,0,0,0,0,0,0,0,0,0,0,0,0,0,0,0,0,0,0,0,0,9,0,0,1
9.25,0,0,0,0,0,84,0,0,0,0,0,2,51,85,0,0,2,0,0,0,0,0,0,14,0,0,0,0,0,0,20,0,0,0,0,0,71,0,0,0,0,0,0,0,0,0,0,0,0,0,0,0,27,0,0,0,0,0,0,0,4,0,83,0,0,0,0,0,0,0,0,0,0,0,0,0,0,0,0,0,0,0,0,0,0,0,0,0,0,0,0,0,9,0,0,1
9.5,0,0,1,0,0,86,0,3,0,0,0,6,55,85,0,0,2,0,0,0,0,0,0,18,0,0,0,0,0,0,22,0,0,0,0,0,74,0,0,0,0,0,0,0,0,0,0,0,0,0,0,0,30,0,0,0,0,0,0,0,4,0,87,0,0,0,0,0,0,0,0,0,0,0,0,0,0,0,0,0,0,0,0,0,0,0,0,0,0,0,0,0,9,0,0,1
9.75,0,0,1,0,0,87,0,3,0,0,0,6,55,87,0,0,2,0,0,0,0,0,0,18,0,0,0,0,0,0,22,0,0,0,0,0,75,0,0,0,0,0,0,0,0,0,0,0,0,0,0,0,30,0,0,0,0,0,0,0,4,0,90,0,0,0,0,0,0,0,0,0,0,0,0,0,0,0,0,0,0,0,0,0,0,0,0,0,0,0,0,0,9,0,0,1
10,0,0,1,0,0,87,0,3,0,0,0,6,55,91,0,0,2,0,0,0,0,0,0,18,0,0,0,0,0,0,24,0,0,0,0,0,76,0,0,0,0,0,0,0,0,0,0,0,0,0,0,0,30,0,0,0,0,0,0,0,4,0,93,0,0,0,0,0,0,0,0,0,0,0,0,0,0,0,0,0,0,0,0,0,0,0,0,0,0,0,0,0,9,0,0,1
10.25,0,0,1,0,0,87,0,3,0,0,0,6,58,93,0,0,2,0,0,0,0,0,0,18,0,0,0,0,0,0,24,0,0,0,0,0,78,0,0,0,0,0,0,0,0,0,0,0,0,0,0,0,31,0,0,0,0,0,0,0,4,0,96,0,0,0,0,0,0,0,0,0,0,0,0,0,0,0,0,0,0,0,0,0,0,0,0,0,0,0,0,0,9,0,0,1
10.5,0,0,1,0,0,89,0,3,0,0,0,6,62,93,0,0,2,0,0,0,0,0,0,19,0,0,0,0,0,0,25,0,0,0,0,0,83,0,0,0,0,0,0,0,0,0,0,0,0,0,0,0,34,0,0,0,0,0,0,0,4,0,99,0,0,0,0,0,0,0,0,0,0,0,0,0,0,0,0,0,0,0,0,0,0,0,0,0,0,0,0,0,9,0,0,1
10.75,0,0,1,0,0,89,0,3,0,0,0,6,63,97,0,0,2,0,0,0,0,0,0,19,0,0,0,0,0,0,26,0,0,0,0,0,84,0,0,0,0,0,0,0,0,0,0,0,0,0,0,0,34,0,0,0,0,0,0,0,4,0,102,0,0,0,0,0,0,0,0,0,0,0,0,0,0,0,0,0,0,0,0,0,0,0,0,0,0,0,0,0,9,0,0,1
11,0,0,1,0,0,89,0,3,0,0,0,6,63,97,0,0,2,0,0,0,0,0,0,19,0,0,0,0,0,0,26,0,0,0,0,0,84,0,0,0,0,0,0,0,0,0,0,0,0,0,0,0,34,0,0,0,0,0,0,0,4,0,102,0,0,0,0,0,0,0,0,0,0,0,0,0,0,0,0,0,0,0,0,0,0,0,0,0,0,0,0,0,9,0,0,1
11.25,0,0,1,0,0,89,0,3,0,0,0,6,65,98,0,0,2,0,0,0,0,0,0,21,0,0,0,0,0,0,28,0,0,0,0,0,86,0,0,0,0,0,0,0,0,0,0,0,0,0,0,0,35,0,0,0,0,0,0,0,4,0,107,0,0,0,0,0,0,0,0,0,0,0,0,0,0,0,0,0,0,0,0,0,0,0,0,0,0,0,0,0,9,0,0,1
11.5,0,0,1,0,0,93,0,3,0,0,0,6,69,100,0,0,2,0,0,0,0,0,0,21,0,0,0,0,0,0,31,0,0,0,0,0,92,0,0,0,0,0,0,0,0,0,0,0,0,0,0,0,39,0,0,0,0,0,0,0,4,0,111,0,0,0,0,0,0,0,0,0,0,0,0,0,0,0,0,0,0,0,0,0,0,0,0,0,0,0,0,0,9,0,0,1
11.75,0,0,1,0,0,93,0,3,0,0,0,6,69,101,0,0,2,0,0,0,0,0,0,21,0,0,0,0,0,0,31,0,0,0,0,0,92,0,0,0,0,0,0,0,0,0,0,0,0,0,0,0,39,0,0,0,0,0,0,0,4,0,111,0,0,0,0,0,0,0,0,0,0,0,0,0,0,0,0,0,0,0,0,0,0,0,0,0,0,0,0,0,9,0,0,1
12,0,0,1,0,0,93,0,3,0,0,0,6,74,108,0,0,2,0,0,0,0,0,0,21,0,0,0,0,0,0,33,0,0,0,0,0,97,0,0,0,0,0,0,0,0,0,0,0,0,0,0,0,40,0,0,0,0,0,0,0,4,0,117,0,0,0,0,0,0,0,0,0,0,0,0,0,0,0,0,0,0,0,0,0,0,0,0,0,0,0,0,0,9,0,0,1
12.25,0,0,1,0,0,93,0,3,0,0,0,6,74,108,0,0,2,0,0,0,0,0,0,21,0,0,0,0,0,0,35,0,0,0,0,0,98,0,0,0,0,0,0,0,0,0,0,28,0,0,0,0,40,0,0,0,0,0,0,0,4,0,118,0,0,0,0,0,0,0,0,0,0,0,0,0,0,0,0,0,0,0,0,0,0,0,0,0,0,0,0,0,9,0,0,1
12.5,0,0,1,0,0,96,0,3,0,0,0,6,76,109,0,0,2,0,0,0,0,0,0,21,0,0,0,0,0,0,36,0,0,0,0,0,101,0,0,0,0,0,0,0,0,0,0,28,0,0,0,0,43,0,0,0,0,0,0,0,4,0,123,0,0,0,0,0,0,0,0,0,0,0,0,0,0,0,0,0,0,0,0,0,0,0,0,0,0,0,0,0,9,0,0,1
12.75,0,0,1,0,0,98,0,3,0,0,0,6,80,109,0,0,2,0,0,0,0,0,0,21,0,0,0,0,0,0,40,0,0,0,0,0,104,0,0,0,0,0,0,0,0,0,0,28,0,0,0,0,47,0,0,0,0,0,0,0,4,0,128,0,0,0,0,0,0,0,0,0,0,0,0,0,0,0,0,0,0,0,0,0,0,0,0,0,0,0,0,0,9,0,0,1
13,0,0,1,0,0,98,0,3,0,0,0,6,80,110,0,0,2,0,0,0,0,0,0,21,0,0,0,0,0,0,40,0,0,0,0,0,105,0,0,0,0,0,0,0,0,0,0,28,0,0,0,0,47,0,0,0,0,0,0,0,4,0,128,0,0,0,0,0,0,0,0,0,0,0,0,0,0,0,0,0,0,0,0,0,0,0,0,0,0,0,0,0,9,0,0,1
13.25,0,0,1,0,0,98,0,3,0,0,0,6,80,110,0,0,2,0,0,0,0,0,0,21,0,0,0,0,0,0,40,0,0,0,0,0,105,0,0,0,0,0,0,0,0,0,0,28,0,0,0,0,47,0,0,0,0,0,0,0,4,0,129,0,0,0,0,0,0,0,0,0,0,0,0,0,0,0,0,0,0,0,0,0,0,0,0,0,0,0,0,0,9,0,0,1
13.5,0,0,1,0,0,98,0,3,0,0,0,6,80,115,0,0,2,0,0,0,0,0,0,21,0,0,0,0,0,0,40,0,0,0,0,0,109,0,0,0,0,0,0,0,0,0,0,28,0,0,0,0,48,0,0,0,0,0,0,0,4,0,134,0,0,0,0,0,0,0,0,0,0,0,0,0,0,0,0,0,0,0,0,0,0,0,0,0,0,0,0,0,9,0,0,1
13.75,0,0,0,0,0,100,0,0,0,0,0,2,81,111,0,0,0,0,0,0,0,0,0,17,0,0,0,0,0,0,42,0,0,0,0,0,108,0,0,0,0,0,0,0,0,0,0,24,0,0,0,0,49,0,0,0,0,0,0,0,2,0,132,0,0,0,0,0,0,0,0,0,0,0,0,0,0,0,0,0,0,0,0,0,0,0,0,0,0,0,0,0,5,0,0,0
14,0,0,0,0,0,100,0,0,0,0,0,2,81,113,0,0,0,0,0,0,0,0,0,17,0,0,0,0,0,0,42,0,0,0,0,0,111,0,0,0,0,0,0,0,0,0,0,24,0,0,0,0,49,0,0,0,0,0,0,0,2,0,136,0,0,0,0,0,0,0,0,0,0,0,0,0,0,0,0,0,0,0,0,0,0,0,0,0,0,0,0,0,5,0,0,0
14.25,0,0,0,0,0,100,0,0,0,0,0,2,81,114,0,0,0,0,0,0,0,0,0,17,0,0,0,0,0,0,43,0,0,0,0,0,113,0,0,0,0,0,0,0,0,0,0,24,0,0,0,0,49,0,0,0,0,0,0,0,2,0,136,0,0,0,0,0,0,0,0,0,0,0,0,0,0,0,0,0,0,0,0,0,0,0,0,0,0,0,0,0,5,0,0,0
14.5,0,0,0,0,0,100,0,0,0,0,0,2,83,114,0,0,0,0,0,0,0,0,0,17,0,0,0,0,0,0,48,0,0,0,0,0,115,0,0,0,0,0,0,0,0,0,0,24,0,0,0,0,49,0,0,0,0,0,0,0,2,0,139,0,0,0,0,0,0,0,0,0,0,0,0,0,0,0,0,0,0,0,0,0,0,0,0,0,0,0,0,0,5,0,0,0
14.75,0,0,0,0,0,100,0,0,0,0,0,2,84,119,0,0,0,0,0,0,0,0,0,17,0,0,0,0,0,0,48,0,0,0,0,0,117,0,0,0,0,0,0,0,0,0,10,24,0,0,0,0,50,0,0,0,0,0,0,0,2,0,140,0,0,0,0,0,0,0,0,0,0,0,0,0,0,0,0,0,0,0,0,0,0,0,0,0,0,0,0,0,5,0,0,0
15,0,0,0,0,0,100,0,0,0,0,0,2,86,123,0,0,0,0,0,0,0,0,0,17,0,0,0,0,0,0,48,0,0,0,0,0,119,0,0,0,0,0,0,0,0,0,10,24,0,0,0,0,50,0,0,0,0,0,0,0,2,0,141,0,0,0,0,0,0,0,0,0,0,0,0,0,0,0,0,0,0,0,0,0,0,0,0,0,0,0,0,0,5,0,0,0
15.25,0,0,0,0,0,100,0,0,0,0,0,2,86,123,0,0,0,0,0,0,0,0,0,17,0,0,0,0,0,0,51,0,0,0,0,0,121,0,0,0,0,0,0,0,0,0,10,24,0,0,0,0,55,0,0,0,0,0,0,0,2,0,144,0,0,0,0,0,0,0,0,0,0,0,0,0,0,0,0,0,0,0,0,0,0,0,0,0,0,0,0,0,5,0,0,0
15.5,0,0,0,0,0,100,0,0,0,0,0,2,87,123,0,0,0,0,0,0,0,0,0,17,0,0,0,0,0,0,51,0,0,0,0,0,121,0,0,0,0,0,0,0,0,0,10,24,0,0,0,0,55,0,0,0,0,0,0,0,2,0,147,0,0,0,0,0,0,0,0,0,0,0,0,0,0,0,0,0,0,0,0,0,0,0,0,0,0,0,0,0,5,0,0,0
15.75,0,0,0,0,0,100,0,0,0,0,0,2,87,123,0,0,0,0,0,0,0,0,0,17,0,0,0,0,0,0,51,0,0,0,0,0,122,0,0,0,0,0,0,0,0,0,10,24,0,0,0,0,55,0,0,0,0,0,0,0,2,0,147,0,0,0,0,0,0,0,0,0,0,0,0,0,0,0,0,0,0,0,0,0,0,0,0,0,0,0,0,0,5,0,0,0
16,0,0,0,0,0,100,0,0,0,0,0,2,89,123,0,0,0,0,0,0,0,0,0,17,0,0,0,0,0,0,52,0,0,0,0,0,126,0,0,0,0,0,0,0,0,0,10,24,0,0,0,0,58,0,0,0,0,0,0,0,2,0,150,0,0,0,0,0,0,0,0,0,0,0,0,0,0,0,0,0,0,0,0,0,0,0,0,0,0,0,0,0,5,0,0,0
16.25,0,0,0,0,0,100,0,0,0,0,0,2,89,124,0,0,0,0,0,0,0,0,0,17,0,0,0,0,0,0,55,0,0,0,0,0,128,0,0,0,0,0,0,0,0,0,10,24,0,0,0,0,58,0,0,0,0,0,0,0,2,0,151,0,0,0,0,0,0,0,0,0,0,0,0,0,0,0,0,0,0,0,0,0,0,0,0,0,0,0,0,0,5,0,0,0
16.5,0,0,0,0,0,100,0,0,0,0,0,2,89,124,0,0,0,0,0,0,0,0,0,17,0,0,0,0,0,0,55,0,0,0,0,0,128,0,0,0,0,0,0,0,0,0,21,24,0,0,0,0,59,0,0,0,0,0,0,0,2,0,151,0,0,0,0,0,0,0,0,0,0,0,0,0,0,0,0,0,0,0,0,0,0,0,0,0,0,0,0,0,5,0,0,0
16.75,0,0,0,0,0,100,0,0,0,0,0,2,90,132,0,0,0,0,0,0,0,0,0,17,0,0,0,0,0,0,57,0,0,0,0,0,131,0,0,0,0,0,0,0,0,0,21,24,0,0,0,0,59,0,0,0,0,0,0,0,2,0,153,0,0,0,0,0,0,0,0,0,0,0,0,0,0,0,0,0,0,0,0,0,0,0,0,0,0,0,0,0,5,0,0,0
17,0,0,0,0,0,102,0,0,0,0,0,2,93,132,0,0,0,0,0,0,0,0,0,17,0,0,0,0,0,0,58,0,0,0,0,0,131,0,0,0,0,0,0,0,0,0,21,24,0,0,0,0,65,0,0,0,0,0,0,0,2,0,157,0,0,0,0,0,0,0,0,0,0,0,0,0,0,0,0,0,0,0,0,0,0,0,0,0,0,0,0,0,5,0,0,0
17.25,0,0,0,0,0,102,0,0,0,0,0,2,93,132,0,0,0,0,0,0,0,0,0,17,0,0,0,0,0,0,61,0,0,0,0,0,134,0,0,0,0,0,0,0,0,0,21,24,0,0,0,0,65,0,0,0,0,0,0,0,2,0,157,0,0,0,0,0,0,0,0,0,0,0,0,0,0,0,0,0,0,0,0,0,0,0,0,0,0,0,0,0,5,0,0,0
17.5,0,0,0,0,0,102,0,0,0,0,0,2,95,132,0,0,0,0,0,0,0,0,0,17,0,0,0,0,0,0,62,0,0,0,0,0,134,0,0,0,0,0,0,0,0,0,21,24,0,0,0,0,66,0,0,0,0,0,0,0,2,0,159,0,0,0,0,0,0,0,0,0,0,0,0,0,0,0,0,0,0,0,0,0,0,0,0,0,0,0,0,0,5,0,0,0
17.75,0,0,0,0,0,102,0,0,0,0,0,2,95,132,0,0,0,0,0,0,0,0,0,17,0,0,0,0,0,0,62,0,0,0,0,0,137,0,0,0,0,0,0,0,0,0,21,24,0,0,0,0,66,0,0,0,0,0,0,0,2,0,161,0,0,0,0,0,0,0,0,0,0,0,0,0,0,0,0,0,0,0,0,0,0,0,0,0,0,0,0,0,5,0,0,0
18,0,0,0,0,0,102,0,0,0,0,0,2,95,132,0,0,0,0,0,0,0,0,0,17,0,0,0,0,0,0,62,0,0,0,0,0,137,0,0,0,0,0,0,0,0,0,21,24,0,0,0,0,66,0,0,0,0,0,0,0,2,0,161,0,0,0,0,0,0,0,0,0,0,0,0,0,0,0,0,0,0,0,0,0,0,0,0,0,0,0,0,0,5,0,0,0
18.25,0,0,0,0,0,102,0,0,0,0,0,2,98,132,0,0,0,0,0,0,0,0,0,17,0,0,0,0,0,0,65,0,0,0,0,0,137,0,0,0,0,0,0,0,0,0,21,24,0,0,0,0,72,0,0,0,0,0,0,0,2,0,164,0,0,0,0,0,0,0,0,0,0,0,0,0,0,0,0,0,0,0,0,0,0,0,0,0,0,0,0,0,5,0,0,0
18.5,0,0,0,0,0,102,0,0,0,0,0,2,98,132,0,0,0,0,0,0,0,0,0,17,0,0,0,0,0,0,65,0,0,0,0,0,137,0,0,0,0,0,0,0,0,0,21,24,0,0,0,0,72,0,0,0,0,0,0,0,2,0,164,0,0,0,0,0,0,0,0,0,0,0,0,0,0,0,0,0,0,0,0,0,0,0,0,0,0,0,0,0,5,0,0,0
18.75,0,0,0,0,0,102,0,0,0,0,0,2,98,134,0,0,0,0,0,0,0,0,0,17,0,0,0,0,0,0,65,0,0,0,0,0,138,0,0,0,0,0,0,0,0,0,21,24,0,0,0,0,72,0,0,0,0,0,0,0,2,0,164,0,0,0,0,0,0,0,0,0,0,0,0,0,0,0,0,0,0,0,0,0,0,0,0,0,0,0,0,0,5,0,0,0
19,0,0,0,0,0,102,0,0,0,0,0,2,98,134,0,0,0,0,0,0,0,0,0,17,0,0,0,0,0,0,67,0,0,0,0,0,138,0,0,0,0,0,0,0,0,0,21,24,0,0,0,0,75,0,0,0,0,0,0,0,2,0,170,0,0,0,0,0,0,0,0,0,0,0,0,0,0,0,0,0,0,0,0,0,0,0,0,0,0,0,0,0,5,0,0,0
19.25,0,0,0,0,0,102,0,0,0,0,0,2,98,139,0,0,0,0,0,0,0,0,0,17,0,0,0,0,0,0,67,0,0,0,0,0,141,0,0,0,0,0,0,0,0,0,21,24,0,0,0,0,75,0,0,0,0,0,0,0,2,0,170,0,0,0,0,0,0,0,0,0,0,0,0,0,0,0,0,0,0,0,0,0,0,0,0,0,0,0,0,0,5,0,0,0
19.5,0,0,0,0,0,102,0,0,0,0,0,2,98,139,0,0,0,0,0,0,0,0,0,17,0,0,0,0,0,0,68,0,0,0,0,0,144,0,0,0,0,0,0,0,0,0,21,24,0,0,0,0,75,0,0,0,0,0,0,0,2,0,170,0,0,0,0,0,0,0,0,0,0,0,0,0,0,0,0,0,0,0,0,0,0,0,0,0,0,0,0,0,5,0,0,0
19.75,0,0,0,0,0,102,0,0,0,0,0,2,98,142,0,0,0,0,0,0,0,0,0,17,0,0,0,0,0,0,68,0,0,0,0,0,145,0,0,0,0,0,0,0,0,0,21,24,0,0,0,0,75,0,0,0,0,0,0,0,2,0,170,0,0,0,0,0,0,0,0,0,0,0,0,0,0,0,0,0,0,0,0,0,0,0,0,0,0,0,0,0,5,0,0,0
20,0,0,0,0,0,102,0,0,0,0,0,2,100,142,0,0,0,0,0,0,0,0,0,17,0,0,0,0,0,0,70,0,0,0,0,0,145,0,0,0,0,0,0,0,0,0,21,24,0,0,0,0,75,0,0,0,0,0,0,0,2,0,170,0,0,0,0,0,0,0,0,0,0,0,0,0,0,0,0,0,0,0,0,0,0,0,0,0,0,0,0,0,5,0,0,0
20.25,0,0,0,0,0,102,0,0,0,0,0,2,100,142,0,0,0,0,0,0,0,0,0,17,0,0,0,0,0,0,72,0,0,0,0,0,145,0,0,0,0,0,0,0,0,0,21,24,0,0,0,0,77,0,0,0,0,0,0,0,2,0,172,0,0,0,0,0,0,0,0,0,0,0,0,0,0,0,0,0,0,0,0,0,0,0,0,0,0,0,0,0,5,0,0,0
20.5,0,0,0,0,0,102,0,0,0,0,0,2,103,142,0,0,0,0,0,0,0,0,0,17,0,0,0,0,0,0,75,0,0,0,0,0,145,0,0,0,0,0,0,0,0,0,21,31,0,0,0,0,81,0,0,0,0,0,0,0,2,0,176,0,0,0,0,0,0,0,0,0,0,0,0,0,0,0,0,0,0,0,0,0,0,0,0,0,0,0,0,0,5,0,0,0
20.75,0,0,0,0,0,102,0,0,0,0,0,2,103,142,0,0,0,0,0,0,0,0,0,17,0,0,0,0,0,0,75,0,0,0,0,0,146,0,0,0,0,0,0,0,0,0,21,31,0,0,0,0,83,0,0,0,0,0,0,0,2,0,176,0,0,0,0,0,0,0,0,0,0,0,0,0,0,0,0,0,0,0,0,0,0,0,0,0,0,0,0,0,5,0,0,0
21,0,0,0,0,0,102,0,0,0,0,0,2,103,142,0,0,0,0,0,0,0,0,0,17,0,0,0,0,0,0,75,0,0,0,0,0,148,0,0,0,0,0,0,0,0,0,21,31,0,0,0,0,83,0,0,0,0,0,0,0,2,0,176,0,0,0,0,0,0,0,0,0,0,0,0,0,0,0,0,0,0,0,0,0,0,0,0,0,0,0,0,0,5,0,0,0
21.25,0,0,0,0,0,102,0,0,0,0,0,2,104,142,0,0,0,0,0,0,0,0,0,17,0,0,0,0,0,0,77,0,0,0,0,0,148,0,0,0,0,0,0,0,0,0,21,31,0,0,0,0,85,0,0,0,0,0,0,0,2,0,180,0,0,0,0,0,0,0,0,0,0,0,0,0,0,0,0,0,0,0,0,0,0,0,0,0,0,0,0,0,5,0,0,0
21.5,0,0,0,0,0,102,0,0,0,0,0,2,106,142,0,0,0,0,0,0,0,0,0,17,0,0,0,0,0,0,77,0,0,0,0,0,148,0,0,0,0,0,0,0,0,0,21,31,0,0,0,0,85,0,0,0,0,0,0,0,2,0,180,0,0,0,0,0,0,0,0,0,0,0,0,0,0,0,0,0,0,0,0,0,0,0,0,0,0,0,0,0,5,0,0,0
21.75,0,0,0,0,0,102,0,0,0,0,0,2,106,142,0,0,0,0,0,0,0,0,0,17,0,0,0,0,0,0,78,0,0,0,0,0,151,0,0,0,0,0,0,0,0,0,21,31,0,0,0,0,85,0,0,0,0,0,0,0,2,0,180,0,0,0,0,0,0,0,0,0,0,0,0,0,0,0,0,0,0,0,0,0,0,0,0,0,0,0,0,0,5,0,0,0
22,0,0,0,0,0,102,0,0,0,0,0,2,106,142,0,0,0,0,0,0,0,0,0,17,0,0,0,0,0,0,79,0,0,0,0,0,151,0,0,0,0,0,0,0,0,0,21,31,0,0,0,0,85,0,0,0,0,0,0,0,2,0,180,0,0,0,0,0,0,0,0,0,0,0,0,0,0,0,0,0,0,0,0,0,0,0,0,0,0,0,0,0,5,0,0,0
22.25,0,0,0,0,0,102,0,0,0,0,0,2,106,142,0,0,0,0,0,0,0,0,0,17,0,0,0,0,0,0,79,0,0,0,0,0,151,0,0,0,0,0,0,0,0,0,21,31,0,0,0,0,85,0,0,0,0,0,0,0,2,0,180,0,0,0,0,0,0,0,0,0,0,0,0,0,0,0,0,0,0,0,0,0,0,0,0,0,0,0,0,0,5,0,0,0
22.5,0,0,0,0,0,102,0,0,0,0,0,2,106,142,0,0,0,0,0,0,0,0,0,17,0,0,0,0,0,0,80,0,0,0,0,0,153,0,0,0,0,0,0,0,0,0,21,31,0,0,0,0,85,0,0,0,0,0,0,0,2,0,180,0,0,0,0,0,0,0,0,0,0,0,0,0,0,0,0,0,0,0,0,0,0,0,0,0,0,0,0,0,5,0,0,0
22.75,0,0,0,0,0,102,0,0,0,0,0,2,106,142,0,0,0,0,0,0,0,0,0,17,0,0,0,0,0,0,80,0,0,0,0,0,153,0,0,0,0,0,0,0,0,0,21,31,0,0,0,0,86,0,0,0,0,0,0,0,2,0,180,0,0,0,0,0,0,0,0,0,0,0,0,0,0,0,0,0,0,0,0,0,0,0,0,0,0,0,0,0,5,0,0,0
23,0,0,0,0,0,102,0,0,0,0,0,2,106,142,0,0,0,0,0,0,0,0,0,17,0,0,0,0,0,0,80,0,0,0,0,0,153,0,0,0,0,0,0,0,0,0,21,31,0,0,0,0,86,0,0,0,0,0,0,0,2,0,180,0,0,0,0,0,0,0,0,0,0,0,0,0,0,0,0,0,0,0,0,0,0,0,0,0,0,0,0,0,5,0,0,0
23.25,0,0,0,0,0,102,0,0,0,0,0,2,106,142,0,0,0,0,0,0,0,0,0,17,0,0,0,0,0,0,81,0,0,0,0,0,153,0,0,0,0,0,0,0,0,0,21,31,0,0,0,0,86,0,0,0,0,0,0,0,2,0,180,0,0,0,0,0,0,0,0,0,0,0,0,0,0,0,0,0,0,0,0,0,0,0,0,0,0,0,0,0,5,0,0,0
23.5,0,0,0,0,0,102,0,0,0,0,0,2,111,142,0,0,0,0,0,0,0,0,0,17,0,0,0,0,0,0,88,0,0,0,0,0,157,0,0,0,0,0,0,0,0,0,21,31,0,0,0,0,94,0,0,0,0,0,0,0,2,0,187,0,0,0,0,0,0,0,0,0,0,0,0,0,0,0,0,0,0,0,0,0,0,0,0,0,0,0,0,0,5,0,0,0
23.75,0,0,0,0,0,102,0,0,0,0,0,2,111,142,0,0,0,0,0,0,0,0,0,17,0,0,0,0,0,0,88,0,0,0,0,0,157,0,0,0,0,0,0,0,0,0,21,31,0,0,0,0,94,0,0,0,0,0,0,0,2,0,187,0,0,0,0,0,0,0,0,0,0,0,0,0,0,0,0,0,0,0,0,0,0,0,0,0,0,0,0,0,5,0,0,0
24,0,0,0,0,0,102,0,0,0,0,0,2,111,142,0,0,0,0,0,0,0,0,0,17,0,0,0,0,0,0,88,0,0,0,0,0,157,0,0,0,0,0,0,0,0,0,21,31,0,0,0,0,94,0,0,0,0,0,0,0,2,0,187,0,0,0,0,0,0,0,0,0,0,0,0,0,0,0,0,0,0,0,0,0,0,0,0,0,0,0,0,0,5,0,0,0
24.25,0,0,0,0,0,102,0,0,0,0,0,2,111,144,0,0,0,0,0,0,0,0,0,17,0,0,0,0,0,0,88,0,0,0,0,0,161,0,0,0,0,0,0,0,0,0,21,31,0,0,0,0,94,0,0,0,0,0,0,0,2,0,187,0,0,0,0,0,0,0,0,0,0,0,0,0,0,0,0,0,0,0,0,0,0,0,0,0,0,0,0,0,5,0,0,0
24.5,0,0,0,0,0,102,0,0,0,0,0,2,111,146,0,0,0,0,0,0,0,0,0,17,0,0,0,0,0,0,88,0,0,0,0,0,161,0,0,0,0,0,0,0,0,0,21,31,0,0,0,0,94,0,0,0,0,0,0,0,2,0,187,0,0,0,0,0,0,0,0,0,0,0,0,0,0,0,0,0,0,0,0,0,0,0,0,0,0,0,0,0,5,0,0,0
24.75,0,0,0,0,0,102,0,0,0,0,0,2,111,146,0,0,0,0,0,0,0,0,0,17,0,0,0,0,0,0,88,0,0,0,0,0,161,0,0,0,0,0,0,0,0,0,21,31,0,0,0,0,94,0,0,0,0,0,0,0,2,0,187,0,0,0,0,0,0,0,0,0,0,0,0,0,0,0,0,0,0,0,0,25,0,0,0,0,0,0,0,0,5,0,0,0
25,0,0,0,0,0,102,0,0,0,0,0,2,112,146,0,0,0,0,0,0,0,0,0,17,0,0,0,0,0,0,88,0,0,0,0,0,161,0,0,0,0,0,0,0,0,0,21,31,0,0,0,0,94,0,0,0,0,0,0,0,2,0,187,0,0,0,0,0,0,0,0,0,0,0,0,0,0,0,0,0,0,0,0,34,0,0,0,0,0,0,0,0,5,0,0,0
25.25,0,0,0,0,0,102,0,0,0,0,0,2,114,146,0,0,0,0,0,0,0,0,0,17,0,0,0,0,0,0,88,0,0,0,0,0,161,0,0,0,0,0,0,0,0,0,21,31,0,0,0,0,94,0,0,0,0,0,0,0,2,0,187,0,0,0,0,0,0,0,0,0,0,0,0,0,0,0,0,0,0,0,0,36,0,0,0,0,0,0,0,0,5,0,0,0
25.5,0,0,0,0,0,102,0,0,0,0,0,2,114,147,0,0,0,0,0,0,0,0,0,17,0,0,0,0,0,0,88,0,0,0,0,0,161,0,0,0,0,0,0,0,0,0,21,31,0,0,0,0,94,0,0,0,0,0,0,0,2,0,187,0,0,0,0,0,0,0,0,0,0,0,0,0,0,0,0,0,0,0,0,38,0,0,0,0,0,0,0,0,5,0,0,0
25.75,0,0,0,0,0,102,0,0,0,0,0,5,124,147,0,0,0,0,0,0,0,0,0,17,0,0,0,0,0,0,93,0,0,0,0,0,163,0,0,0,0,0,0,0,0,0,21,31,0,0,0,0,102,0,0,0,0,0,0,0,2,0,191,0,0,0,0,0,0,0,0,0,0,0,0,0,0,0,0,0,0,0,0,40,0,0,0,0,0,0,0,0,5,0,0,0
26,0,0,0,0,0,102,0,0,0,0,0,5,124,151,0,0,0,0,0,0,0,0,0,17,0,0,0,0,0,0,93,0,0,0,0,0,165,0,0,0,0,0,0,0,0,0,21,31,0,0,0,0,102,0,0,0,0,0,0,0,2,0,191,0,0,0,0,0,0,0,0,0,0,0,0,0,0,0,0,0,0,0,0,42,0,0,0,0,0,0,0,0,5,0,0,0
26.25,0,0,0,0,0,102,0,0,0,0,0,5,124,151,0,0,0,0,0,0,0,0,0,17,0,0,0,0,0,0,93,0,0,0,0,0,165,0,0,0,0,0,0,0,0,0,21,31,0,0,0,0,102,0,0,0,0,0,0,0,2,0,191,0,0,0,0,0,0,0,0,0,0,0,0,0,0,0,0,0,0,0,0,45,0,0,0,0,0,0,0,0,5,0,0,0
26.5,0,0,0,0,0,102,0,0,0,0,0,5,124,151,0,0,0,0,0,0,0,0,0,17,0,0,0,0,0,0,93,0,0,0,0,0,165,0,0,0,0,0,0,0,0,0,21,31,0,0,0,0,102,0,0,0,0,0,0,0,2,0,191,0,0,0,0,0,0,0,0,0,0,0,0,0,0,0,0,0,0,0,0,45,0,0,0,0,0,0,0,0,5,0,0,0
26.75,0,0,0,0,0,102,0,0,0,0,0,5,124,152,0,0,0,0,0,0,0,0,0,17,0,0,0,0,0,0,93,0,0,0,0,0,165,0,0,0,0,0,0,0,0,0,21,31,0,0,0,0,102,0,0,0,0,0,0,0,2,0,191,0,0,0,0,0,0,0,0,0,0,0,0,0,0,0,0,0,0,0,0,48,0,0,0,0,0,0,0,0,5,0,0,0
27,0,0,0,0,0,102,0,0,0,0,0,5,124,152,0,0,0,0,0,0,0,0,0,17,0,0,0,0,0,0,93,0,0,0,0,0,165,0,0,0,0,0,0,0,0,0,21,31,0,0,0,0,102,0,0,0,0,0,0,0,2,0,191,0,0,0,0,0,0,0,0,0,0,0,0,0,0,0,0,0,0,0,0,48,0,0,0,0,0,0,0,0,5,0,0,0
27.25,0,0,0,0,0,102,0,0,0,0,0,5,128,152,0,0,0,0,0,0,0,0,0,17,0,0,0,0,0,0,94,0,0,0,0,0,165,0,0,0,0,0,0,0,0,0,21,31,0,0,0,0,104,0,0,0,0,0,0,0,2,0,192,0,0,0,0,0,0,0,0,0,0,0,0,0,0,0,0,0,0,0,0,48,0,0,0,0,0,0,0,0,5,0,0,0
27.5,0,0,0,0,0,102,0,0,0,0,0,5,130,152,0,0,0,0,0,0,0,0,0,17,0,0,0,0,0,0,94,0,0,0,0,0,166,0,0,0,0,0,0,0,0,0,21,31,0,0,0,0,104,0,0,0,0,0,0,0,2,0,192,0,0,0,0,0,0,0,0,0,0,0,0,0,0,0,0,0,0,0,0,50,0,0,0,0,0,0,0,0,5,0,0,0
27.75,0,0,0,0,0,102,0,0,0,0,0,5,130,152,0,0,0,0,0,0,0,0,0,17,0,0,0,0,0,0,94,0,0,0,0,0,166,0,0,0,0,0,0,0,0,0,21,31,0,0,0,0,104,0,0,0,0,0,0,0,2,0,192,0,0,0,0,0,0,0,0,0,0,0,0,0,0,0,0,0,0,0,0,50,0,0,0,0,0,0,0,0,5,0,0,0
28,0,0,0,0,0,102,0,0,0,0,0,5,134,156,0,0,0,0,0,0,0,0,0,17,0,0,0,0,0,0,94,0,0,0,0,0,169,0,0,0,0,0,0,0,0,0,21,31,0,0,0,0,104,0,0,0,0,0,0,0,2,0,192,0,0,0,0,0,0,0,0,0,0,0,0,0,0,0,0,0,0,0,0,50,0,0,0,0,0,0,0,0,5,0,0,0
28.25,0,0,0,0,0,102,0,0,0,0,0,5,134,156,0,0,0,0,0,0,0,0,0,17,0,0,0,0,0,0,94,0,0,0,0,0,169,0,0,0,0,0,0,0,0,0,21,31,0,0,0,0,104,0,0,0,0,0,0,0,2,0,192,0,0,0,0,0,0,0,0,0,0,0,0,0,0,0,0,0,0,0,0,50,0,0,0,0,0,0,0,0,5,0,0,0
28.5,0,0,0,0,0,102,0,0,0,0,0,5,138,156,0,0,0,0,0,0,0,0,0,17,0,0,0,0,0,0,94,0,0,0,0,0,169,0,0,0,0,0,0,0,0,0,21,31,0,0,0,0,105,0,0,0,0,0,0,0,2,0,192,0,0,0,0,0,0,0,0,0,0,0,0,0,0,0,0,0,0,0,0,50,0,0,0,0,0,0,0,0,5,0,0,0
28.75,0,0,0,0,0,102,0,0,0,0,0,5,138,158,0,0,0,0,0,0,0,0,0,17,0,0,0,0,0,0,94,0,0,0,0,0,169,0,0,0,0,0,0,0,0,0,21,31,0,0,0,0,105,0,0,0,0,0,0,0,2,0,192,0,0,0,0,0,0,0,0,0,0,0,0,0,0,0,0,0,0,0,0,52,0,0,0,0,0,0,0,0,5,0,0,0
29,0,0,0,0,0,102,0,0,0,0,0,5,139,158,0,0,0,0,0,0,0,0,0,17,0,0,0,0,0,0,94,0,0,0,0,0,169,0,0,0,0,0,0,0,0,0,21,31,0,0,0,0,105,0,0,0,0,0,0,0,2,0,192,0,0,0,0,0,0,0,0,0,0,0,0,0,0,0,0,0,0,0,0,52,0,0,0,0,0,0,0,0,5,0,0,0
29.25,0,0,0,0,0,102,0,0,0,0,0,5,139,159,0,0,0,0,0,0,0,0,0,17,0,0,0,0,0,0,94,0,0,0,0,0,169,0,0,0,0,0,0,0,0,0,21,31,0,0,0,0,105,0,0,0,0,0,0,0,2,0,192,0,0,0,0,0,0,0,0,0,0,0,0,0,0,0,0,0,0,0,0,52,0,0,0,0,0,0,0,0,5,0,0,0
29.5,0,0,0,0,0,102,0,0,0,0,0,5,143,159,0,0,0,0,0,0,0,0,0,17,0,0,0,0,0,0,94,0,0,0,0,0,169,0,0,0,0,0,0,0,0,0,21,31,0,0,0,0,105,0,0,0,0,0,0,0,2,0,192,0,0,0,0,0,0,0,0,0,0,0,0,0,0,0,0,0,0,0,0,52,0,0,0,0,0,0,0,0,5,0,0,0
29.75,0,0,0,0,0,102,0,0,0,0,0,5,143,161,0,0,0,0,0,0,0,0,0,17,0,0,0,0,0,0,94,0,0,0,0,0,169,0,0,0,0,0,0,0,0,0,21,31,0,0,0,0,105,0,0,0,0,0,0,0,2,0,192,0,0,0,0,0,0,0,0,0,0,0,0,0,0,0,0,0,0,0,0,52,0,0,0,0,0,0,0,0,5,0,0,0
30,0,0,0,0,0,102,0,0,0,0,0,5,144,161,0,0,0,0,0,0,0,0,0,17,0,0,0,0,0,0,94,0,0,0,0,0,169,0,0,0,0,0,0,0,0,0,21,31,0,0,0,0,106,0,0,0,0,0,0,0,2,0,192,0,0,0,0,0,0,0,0,0,0,0,0,0,0,0,0,0,0,0,0,52,0,0,0,0,0,0,0,0,5,0,0,0
30.25,0,0,0,0,0,102,0,0,0,0,0,5,144,165,0,0,0,0,0,0,0,0,0,17,0,0,0,0,0,0,94,0,0,0,0,0,169,0,0,0,0,0,0,0,0,0,21,31,0,0,0,0,106,0,0,0,0,0,0,0,2,0,192,0,0,0,0,0,0,0,0,0,0,0,0,0,0,0,0,0,0,0,0,52,0,0,0,0,0,0,0,0,5,0,0,0
30.5,0,0,0,0,0,102,0,0,0,0,0,5,147,165,0,0,0,0,0,0,0,0,0,17,0,0,0,0,0,0,94,0,0,0,0,0,169,0,0,0,0,0,0,0,0,0,21,31,0,0,0,0,106,0,0,0,0,0,0,0,2,0,192,0,0,0,0,0,0,0,0,0,0,0,0,0,0,0,0,0,3,0,0,52,0,0,0,0,0,0,0,0,5,0,0,0
30.75,0,0,0,0,0,102,0,0,0,0,0,5,148,165,0,0,0,0,0,0,0,0,0,17,0,0,0,0,0,0,94,0,0,0,0,0,169,0,0,0,0,0,0,0,0,0,21,31,0,0,0,0,106,0,0,0,0,0,0,0,2,0,192,0,0,0,0,0,0,0,0,0,0,0,0,0,0,0,0,0,3,0,0,52,0,0,0,0,0,0,0,0,5,0,0,0
31,0,0,0,0,0,102,0,0,0,0,0,5,149,165,0,0,0,0,0,0,0,0,0,17,0,0,0,0,0,0,94,0,0,0,0,0,169,0,0,0,0,0,0,0,0,0,21,31,0,0,0,0,106,0,0,0,0,0,0,0,2,0,192,0,0,0,0,0,0,0,0,0,0,0,0,0,0,0,0,0,4,0,0,52,0,0,0,0,0,0,0,0,5,0,0,0
31.25,0,0,0,0,0,102,0,0,0,0,0,5,151,166,0,0,0,0,0,0,0,0,0,17,0,0,0,0,0,0,94,0,0,0,0,0,169,0,0,0,0,0,0,0,0,0,21,31,0,0,0,0,106,0,0,0,0,0,0,0,2,0,192,0,0,0,0,0,0,0,0,0,0,0,0,0,0,0,0,0,6,0,0,52,0,0,0,0,0,0,0,0,5,0,0,0
31.5,0,0,0,0,0,102,0,0,0,0,0,5,151,173,0,0,0,0,0,0,0,0,0,17,0,0,0,0,0,0,94,0,0,0,0,0,169,0,0,0,0,0,0,0,0,0,21,31,0,0,0,0,106,0,0,0,0,0,0,0,2,0,192,0,0,0,0,0,0,0,0,0,0,0,0,0,0,0,0,0,6,0,0,52,0,0,0,0,0,0,0,0,5,0,0,0
31.75,0,0,0,0,0,102,0,0,0,0,0,6,155,174,0,0,0,0,0,0,0,0,0,17,0,0,0,0,0,0,94,0,0,0,0,0,169,0,0,0,0,0,0,0,0,0,21,31,0,0,0,0,106,0,0,0,0,0,0,0,2,0,192,0,0,0,0,0,0,0,0,0,0,0,0,0,0,0,0,0,10,0,0,59,0,0,0,0,0,0,0,0,5,0,0,0
32,0,0,0,0,0,102,0,0,0,0,0,6,155,174,0,0,0,0,0,0,0,0,0,17,0,0,0,0,0,0,94,0,0,0,0,0,169,0,0,0,0,0,0,0,0,0,21,31,0,0,0,0,106,0,0,0,0,0,0,0,2,0,192,0,0,0,0,0,0,0,0,0,0,0,0,0,0,0,0,0,10,0,0,59,0,0,0,0,0,0,0,0,5,0,0,0
32.25,0,0,0,0,0,102,0,0,0,0,0,6,155,174,0,0,0,0,0,0,0,0,0,17,0,0,0,0,0,0,94,0,0,0,0,0,169,0,0,0,0,0,0,0,0,0,21,31,0,0,0,0,106,0,0,0,0,0,0,0,2,0,192,0,0,0,0,0,0,0,0,0,0,0,0,0,0,0,0,0,10,0,0,59,0,0,0,0,0,0,0,0,5,0,0,0
32.5,0,0,0,0,0,102,0,0,0,0,0,7,161,174,0,0,0,0,0,0,0,0,0,17,0,0,0,0,0,0,94,0,0,0,0,0,169,0,0,0,0,0,0,0,0,0,21,31,0,0,0,0,106,0,0,0,0,0,0,0,2,0,192,0,0,0,0,0,0,0,0,0,0,0,0,0,0,0,0,0,10,0,0,59,0,0,0,0,0,0,0,0,5,0,0,0
32.75,0,0,0,0,0,102,0,0,0,0,0,7,161,174,0,0,0,0,0,0,0,0,0,17,0,0,0,0,0,0,94,0,0,0,0,0,169,0,0,0,0,0,0,0,0,0,21,31,0,0,0,0,106,0,0,0,0,0,0,0,2,0,192,0,0,0,0,0,0,0,0,0,0,0,0,0,0,0,0,0,10,0,0,59,0,0,0,0,0,0,0,0,5,0,0,0
33,0,0,0,0,0,102,0,0,0,0,0,7,161,177,0,0,0,0,0,0,0,0,0,17,0,0,0,0,0,0,94,0,0,0,0,0,170,0,0,0,0,0,0,0,0,0,21,31,0,0,0,0,106,0,0,0,0,0,0,0,2,0,192,0,0,0,0,0,0,0,0,0,0,0,0,0,0,0,0,0,10,0,0,59,0,0,0,0,0,0,0,0,5,0,0,0
33.25,0,0,0,0,0,102,0,0,0,0,0,8,164,177,0,0,0,0,0,0,0,0,0,17,0,0,0,0,0,0,94,0,0,0,0,0,171,0,0,0,0,0,0,0,0,0,21,31,0,0,0,0,106,0,0,0,0,0,0,0,2,0,192,0,0,0,0,0,0,0,0,0,0,0,0,0,0,0,0,0,11,0,0,59,0,0,0,0,0,0,0,0,5,0,0,0
33.5,0,0,0,0,0,102,0,0,0,0,0,8,164,181,0,0,0,0,0,0,0,0,0,17,0,0,0,0,0,0,94,0,0,0,0,0,171,0,0,0,0,0,0,0,0,0,21,31,0,0,0,0,106,0,0,0,0,0,0,0,2,0,192,0,0,0,0,0,0,0,0,0,0,0,0,0,0,0,0,0,11,0,0,59,0,0,0,0,0,0,0,0,5,0,0,0
33.75,0,0,0,0,0,102,0,0,0,0,0,8,166,181,0,0,0,0,0,0,0,0,0,17,0,0,0,0,0,0,94,0,0,0,0,0,171,0,0,0,0,0,0,0,0,0,21,31,0,0,0,0,106,0,0,0,0,0,0,0,2,0,192,0,0,0,0,0,0,0,0,0,0,0,0,0,0,0,0,0,11,0,0,59,0,0,0,0,0,0,0,0,5,0,0,0
34,0,0,0,0,0,102,0,0,0,0,0,8,166,182,0,0,0,0,0,0,0,0,0,17,0,0,0,0,0,0,94,0,0,0,0,0,173,0,0,0,0,0,0,0,0,0,21,31,0,0,0,0,106,0,0,0,0,0,0,0,2,0,192,0,0,0,0,0,0,0,0,0,0,0,0,0,0,0,0,0,11,0,0,59,0,0,0,0,0,0,0,0,5,0,0,0
34.25,0,0,0,0,0,102,0,0,0,0,0,8,169,182,0,0,0,0,0,0,0,0,0,17,0,0,0,0,0,0,94,0,0,0,0,0,173,0,0,0,0,0,0,0,0,0,21,31,0,0,0,0,106,0,0,0,0,0,0,0,2,0,192,0,0,0,0,0,0,0,0,0,0,0,0,0,0,0,0,0,11,0,0,59,0,0,0,0,0,0,0,0,5,0,0,7
34.5,0,0,0,0,0,102,0,0,0,0,0,8,169,186,0,0,0,0,0,0,0,0,0,17,0,0,0,0,0,0,94,0,0,0,0,0,173,0,0,0,0,0,0,0,0,0,21,31,0,0,0,0,106,0,0,0,0,0,0,0,2,0,192,0,0,0,0,0,0,0,0,0,0,0,0,0,0,0,0,0,11,0,0,59,0,0,0,0,0,0,0,0,5,0,0,7
34.75,0,0,0,0,0,102,0,0,0,0,0,8,169,189,0,0,0,0,0,0,0,0,0,17,0,0,0,0,0,0,94,0,0,0,0,0,173,0,0,0,0,0,0,0,0,0,21,31,0,0,0,0,106,0,0,0,0,0,0,0,2,0,192,0,0,0,0,0,0,0,0,0,0,0,0,0,0,0,0,0,11,0,0,59,0,0,0,0,0,0,0,0,5,0,0,8
35,0,0,0,0,0,102,0,0,0,0,0,8,170,189,0,0,0,0,0,0,0,0,0,17,0,0,0,0,0,0,94,0,0,0,0,0,173,0,0,0,0,0,0,0,0,0,21,31,0,0,0,0,106,0,0,0,0,0,0,0,2,0,192,0,0,0,0,0,0,0,0,0,0,0,0,0,0,0,0,0,11,0,0,59,0,0,0,0,0,0,0,0,5,0,0,8
35.25,0,0,0,0,0,102,0,0,0,0,0,8,171,189,0,0,0,0,0,0,0,0,0,17,0,0,0,0,0,0,94,0,0,0,0,0,173,0,0,0,0,0,0,0,0,0,21,31,0,0,0,0,106,0,0,0,0,0,0,0,2,0,192,0,0,0,0,0,0,0,0,0,0,0,0,0,0,0,0,0,11,0,0,59,0,0,0,0,0,0,0,0,5,0,0,9
35.5,0,0,0,0,0,102,0,0,0,0,0,8,171,191,0,0,0,0,0,0,0,0,0,17,0,0,0,0,0,0,94,0,0,0,0,0,173,0,0,0,0,0,0,0,0,0,21,44,0,0,0,0,106,0,0,0,0,0,0,0,2,0,192,0,0,0,0,0,0,0,0,0,0,0,0,0,0,0,0,0,13,0,0,59,0,0,0,0,0,0,0,0,5,0,0,9
35.75,0,0,0,0,0,102,0,0,0,0,0,8,171,195,0,0,0,0,0,0,0,0,0,17,0,0,0,0,0,0,94,0,0,0,0,0,173,0,0,0,0,0,0,0,0,0,21,44,0,0,0,0,106,0,0,0,0,0,0,0,2,0,192,0,0,0,0,0,0,0,0,0,0,0,0,0,0,0,0,0,13,0,0,59,0,0,0,0,0,0,0,0,5,0,0,11
36,0,0,0,0,0,102,0,0,0,0,0,8,173,195,0,0,0,0,0,0,0,0,0,17,0,0,0,0,0,0,94,0,0,0,0,0,173,0,0,0,0,0,0,0,0,0,21,44,0,0,0,0,106,0,0,0,0,0,0,0,2,0,192,0,0,0,0,0,0,0,0,0,0,0,0,0,0,0,0,0,14,0,0,59,0,0,0,0,0,0,0,0,5,0,0,11
36.25,0,0,0,0,0,102,0,0,0,0,0,8,173,196,0,0,0,0,0,0,0,0,0,17,0,0,0,0,0,0,94,0,0,0,0,0,173,0,0,0,0,0,0,0,0,0,21,44,0,0,0,0,106,0,0,0,0,0,0,0,2,0,192,0,0,0,0,0,0,0,0,0,0,0,0,0,0,0,0,0,16,0,0,59,0,0,0,0,0,0,0,0,5,0,0,11
36.5,0,0,0,0,0,102,0,0,0,0,0,8,173,196,0,0,0,0,0,0,0,0,0,17,0,0,0,0,0,0,94,0,0,0,0,0,173,0,0,0,0,0,0,0,0,0,21,44,0,0,0,0,106,0,0,0,0,0,0,0,2,0,192,0,0,0,0,0,0,0,0,0,0,0,0,0,0,0,0,0,16,0,0,59,0,0,0,0,0,0,0,0,5,0,0,11
36.75,0,0,0,0,0,102,0,0,0,0,0,8,173,202,0,0,0,0,0,0,0,0,0,17,0,0,0,0,0,0,94,0,0,0,0,0,173,0,0,0,0,0,0,0,0,0,21,44,0,0,0,0,106,0,0,0,0,0,0,0,2,0,192,0,0,0,0,0,0,0,0,0,0,0,0,0,0,0,0,0,16,0,0,59,0,0,0,0,0,0,0,0,5,0,0,11
37,0,0,0,0,0,102,0,0,0,4,0,10,175,202,0,0,0,0,0,0,0,0,0,17,0,0,0,0,0,0,94,0,0,0,0,0,173,0,0,0,0,0,0,0,0,0,21,44,0,0,0,0,106,0,0,0,0,0,0,0,2,0,192,0,0,0,0,0,0,0,0,0,0,0,0,0,0,0,0,0,16,0,0,59,0,0,0,0,0,0,0,0,9,0,0,13
37.25,0,0,0,0,0,102,0,0,0,4,0,10,175,202,0,0,0,0,0,0,0,0,0,17,0,0,0,0,0,0,94,0,0,0,0,0,173,0,0,0,0,0,0,0,0,0,21,44,0,0,0,0,106,0,0,0,0,0,0,0,2,0,192,0,0,0,0,0,0,0,0,0,0,0,0,0,0,0,0,0,18,0,0,59,0,0,0,0,0,0,0,0,9,0,0,13
37.5,0,0,0,0,0,102,0,0,0,4,0,10,175,202,0,0,0,0,0,0,0,0,0,17,0,0,0,0,0,0,94,0,0,0,0,0,173,0,0,0,0,0,0,0,0,0,21,47,0,0,0,0,106,0,0,0,0,0,0,0,2,0,192,0,0,0,0,0,0,0,0,0,0,0,0,0,0,0,0,0,18,0,0,59,0,0,0,0,0,0,0,0,9,0,0,13
37.75,0,0,0,0,0,102,0,0,0,4,0,10,177,202,0,0,0,0,0,0,0,0,0,17,0,0,0,0,0,0,94,0,0,0,0,0,173,0,0,0,0,0,0,0,0,0,21,47,0,0,0,0,106,0,0,0,0,0,0,0,2,0,192,0,0,0,0,0,0,0,0,0,0,0,0,0,0,0,0,0,18,0,0,59,0,0,0,0,0,0,0,0,9,0,0,13
38,0,0,0,0,0,102,0,0,0,4,0,10,177,203,0,0,0,0,0,0,0,0,0,17,0,0,0,0,0,0,94,0,0,0,0,0,173,0,0,0,0,0,0,0,0,0,21,47,0,0,0,0,106,0,0,0,0,0,0,0,2,0,192,0,0,0,0,0,0,0,0,0,0,0,0,0,0,0,0,0,23,0,0,61,0,0,0,0,0,0,0,0,9,0,0,13
38.25,0,0,0,0,0,102,0,0,0,4,0,10,177,203,0,0,0,0,0,0,0,0,0,17,0,0,0,0,0,0,94,0,0,0,0,0,173,0,0,0,0,0,0,0,0,0,21,47,0,0,0,0,106,0,0,0,0,0,0,0,2,0,192,0,0,0,0,0,0,0,0,0,0,0,0,0,0,0,0,0,23,0,0,61,0,0,0,0,0,0,0,0,9,0,0,13
38.5,0,0,0,0,0,102,0,0,0,4,0,10,177,205,0,0,0,0,0,0,0,0,0,17,0,0,0,0,0,0,94,0,0,0,0,0,173,0,0,0,0,0,0,0,0,0,21,47,0,0,0,0,106,0,0,0,0,0,0,0,2,0,192,0,0,0,0,0,0,0,0,0,0,0,0,0,0,0,0,0,23,0,0,61,0,0,0,0,0,0,0,0,9,0,0,13
38.75,0,0,0,0,0,102,0,0,0,4,0,10,177,207,0,0,0,0,0,0,0,0,0,17,0,0,0,0,0,0,94,0,0,0,0,0,173,0,0,0,0,0,0,0,0,0,21,47,0,0,0,0,106,0,0,0,0,0,0,0,2,0,192,0,0,0,0,0,0,0,0,0,0,0,0,0,0,0,0,0,23,0,0,61,0,0,0,0,0,0,0,0,9,0,0,14
39,0,0,0,0,0,102,0,0,0,4,0,10,177,207,0,0,0,0,0,0,0,0,0,17,0,0,0,0,0,0,94,0,0,0,0,0,173,0,0,0,0,0,0,0,0,0,21,47,0,0,0,0,106,0,0,0,0,0,0,0,2,0,192,0,0,0,0,0,0,0,0,0,0,0,0,0,0,0,0,0,23,0,0,61,0,0,0,0,0,0,0,0,11,0,0,14
39.25,0,0,0,0,0,102,0,0,0,4,0,10,177,208,0,0,0,0,0,0,0,0,0,17,0,0,0,0,0,0,94,0,0,0,0,0,173,0,0,0,0,0,0,0,0,0,21,47,0,0,0,0,106,0,0,0,0,0,0,0,2,0,192,0,0,0,0,0,0,0,0,0,0,0,0,0,0,0,0,0,23,0,0,61,0,0,0,0,0,0,0,0,20,0,0,17
39.5,0,0,0,0,0,102,0,0,0,4,0,10,177,208,0,0,0,0,0,0,0,0,0,17,0,0,0,0,0,0,94,0,0,0,0,0,173,0,0,0,0,0,0,0,0,0,21,50,0,0,0,0,106,0,0,0,0,0,0,0,2,0,192,0,0,0,0,0,0,0,0,0,0,0,0,0,0,0,0,0,23,0,0,61,0,0,0,0,0,0,0,0,20,0,0,17
39.75,0,0,0,0,0,102,0,0,0,4,0,10,177,208,0,0,0,0,0,0,0,0,0,17,0,0,0,0,0,0,94,0,0,0,0,0,173,0,0,0,0,0,0,0,0,0,21,50,0,0,0,0,106,0,0,0,0,0,0,0,2,0,192,0,0,0,0,0,0,0,0,0,0,0,0,0,0,0,0,0,23,0,0,61,0,0,0,0,0,0,0,0,20,0,0,17
40,0,0,0,0,0,102,0,0,0,4,0,10,177,208,0,0,0,0,0,0,0,0,0,17,0,0,0,0,0,0,94,0,0,0,0,0,173,0,0,0,0,0,0,0,0,0,21,61,0,0,0,0,106,0,0,0,0,0,0,0,2,0,192,0,0,0,0,0,0,0,0,0,0,0,0,0,0,0,0,0,23,0,0,61,0,0,0,0,0,0,0,0,20,0,0,17
40.25,0,0,0,0,0,102,0,0,0,4,0,10,177,208,0,0,0,0,0,0,0,0,0,17,0,0,0,0,0,0,94,0,0,0,0,0,173,0,0,0,0,0,0,0,0,0,21,62,0,0,0,0,108,0,0,0,0,0,0,0,2,0,192,0,0,0,0,0,0,0,0,0,0,0,0,0,0,0,0,0,23,0,0,61,0,0,0,0,0,0,0,0,23,0,0,17
40.5,0,0,0,0,0,102,0,0,0,4,0,10,177,210,0,0,0,0,0,0,0,0,0,17,0,0,0,0,0,0,94,0,0,0,0,0,173,0,0,0,0,0,0,0,0,0,21,65,0,0,0,0,108,0,0,0,0,0,0,0,2,0,192,0,0,0,0,0,0,0,0,0,0,0,0,0,0,0,0,0,23,0,0,61,0,0,0,0,0,0,0,0,23,0,0,17
40.75,0,0,0,0,0,102,0,1,0,7,0,14,177,210,0,0,0,0,0,0,0,0,0,17,0,0,0,0,0,0,94,0,0,0,0,0,173,0,0,0,0,0,0,0,0,0,21,85,0,0,0,0,108,0,0,0,0,0,0,0,2,0,192,0,0,0,0,0,0,0,0,0,0,0,0,0,0,0,0,0,23,0,0,61,0,0,0,0,0,0,0,0,26,0,0,22
41,0,0,0,0,0,102,0,1,0,7,0,14,177,210,0,0,0,0,0,0,0,0,0,17,0,0,0,0,0,0,94,0,0,0,0,0,173,0,0,0,0,0,0,0,0,0,21,85,0,0,0,0,108,0,0,0,0,0,0,0,2,0,192,0,0,0,0,0,0,0,0,0,0,0,0,0,0,0,0,0,23,0,0,61,0,0,0,0,0,0,0,0,26,0,0,22
41.25,0,0,0,0,0,102,0,1,0,7,0,14,177,215,0,0,0,0,0,0,0,0,0,17,0,0,0,0,0,0,94,0,0,0,0,0,173,0,0,0,0,0,0,0,0,0,21,85,0,0,0,0,108,0,0,0,0,0,0,0,2,0,192,0,0,0,0,0,0,0,0,0,0,0,0,0,0,0,0,0,23,0,0,61,0,0,0,0,0,0,0,0,26,0,0,22
41.5,0,0,0,0,0,102,0,1,0,7,0,14,177,215,0,0,0,0,0,0,0,0,0,17,0,0,0,0,0,0,94,0,0,0,0,0,173,0,0,0,0,0,0,0,0,0,21,85,0,0,0,0,108,0,0,0,0,0,0,0,2,0,192,0,0,0,0,0,0,0,0,0,0,0,0,0,0,0,0,0,23,0,0,61,0,0,0,0,0,0,0,0,26,0,0,22
41.75,0,0,0,0,0,102,0,1,0,7,0,14,177,215,0,0,0,0,0,0,0,0,0,17,0,0,0,0,0,0,94,0,0,0,0,0,173,0,0,0,0,0,0,0,0,0,21,85,0,0,0,0,108,0,0,0,0,0,0,0,2,0,192,0,0,0,0,0,0,0,0,0,0,0,0,0,0,0,0,0,25,0,0,62,0,0,0,0,0,0,0,0,26,0,0,22
42,0,0,0,0,0,102,0,1,0,7,0,14,177,215,0,0,0,0,0,0,0,0,0,17,0,0,0,0,0,0,94,0,0,0,0,0,173,0,0,0,0,0,0,0,0,0,21,85,0,0,0,0,108,0,0,0,0,0,0,0,2,0,192,0,0,0,0,0,0,0,0,0,0,0,0,0,0,0,0,0,25,0,0,62,0,0,0,0,0,0,0,0,26,0,0,22
42.25,0,0,0,0,0,102,0,1,0,7,0,14,177,215,0,0,0,0,0,0,0,0,0,17,0,0,0,0,0,0,94,0,0,0,0,0,173,0,0,0,0,0,0,0,0,0,21,85,0,0,0,0,108,0,0,0,0,0,0,0,2,0,192,0,0,0,0,0,0,0,0,0,0,0,0,0,0,0,0,0,25,0,0,62,0,0,0,0,0,0,0,0,26,0,0,22
42.5,0,0,0,0,0,102,0,1,0,7,0,14,177,215,0,0,0,0,0,0,0,0,0,17,0,0,0,0,0,0,94,0,0,0,0,0,173,0,0,0,0,0,0,0,0,0,21,85,0,0,0,0,108,0,0,0,0,0,0,0,2,0,192,0,0,0,0,0,0,0,0,0,0,0,0,0,0,0,0,0,25,0,0,62,0,0,0,0,0,0,0,0,26,0,0,22
42.75,0,0,0,0,0,102,0,1,0,7,0,14,177,215,0,0,0,0,0,0,0,0,0,17,0,0,0,0,0,0,94,0,0,0,0,0,173,0,0,0,0,0,0,0,0,0,21,85,0,0,0,0,108,0,0,0,0,0,0,0,2,0,192,0,0,0,0,0,0,0,0,0,0,0,0,0,0,0,0,0,25,0,0,62,0,0,0,0,0,0,0,0,26,0,0,22
43,0,0,0,0,0,102,0,1,0,7,0,14,177,215,0,0,0,0,0,0,0,0,0,17,0,0,0,0,0,0,94,0,0,0,0,0,173,0,0,0,0,0,0,0,0,0,21,85,0,0,0,0,108,0,0,0,0,0,0,0,2,0,192,0,0,0,0,0,0,0,0,0,0,0,0,0,0,0,0,0,28,0,0,64,0,0,0,0,0,0,0,0,26,0,0,22
43.25,0,0,0,0,0,102,0,1,0,7,0,14,177,215,0,0,0,0,0,0,0,0,0,17,0,0,0,0,0,0,94,0,0,0,0,0,173,0,0,0,0,0,0,0,0,0,21,85,0,0,0,0,108,0,0,0,0,0,0,0,2,0,192,0,0,0,0,0,0,0,0,0,0,0,0,0,0,0,0,0,28,0,0,64,0,0,0,0,0,0,0,0,26,0,0,22
43.5,0,0,0,0,0,102,0,1,0,7,0,14,177,215,0,0,0,0,0,0,0,0,0,17,0,0,0,0,0,0,94,0,0,0,0,0,173,0,0,0,0,0,0,0,0,0,21,85,0,0,0,0,108,0,0,0,0,0,0,0,2,0,192,0,0,0,0,0,0,0,0,0,0,0,0,0,0,0,0,0,28,0,0,64,0,0,0,0,0,0,0,0,26,0,0,22
43.75,0,0,0,0,0,102,0,1,0,7,0,14,177,215,0,0,0,0,0,0,0,0,0,17,0,0,0,0,0,0,94,0,0,0,0,0,173,0,0,0,0,0,0,0,0,0,21,85,0,0,0,0,108,0,0,0,0,0,0,0,2,0,192,0,0,0,0,0,0,0,0,0,0,0,0,0,0,0,0,0,28,0,0,64,0,0,0,0,0,0,0,0,26,0,0,22
44,0,0,0,0,0,102,0,1,0,7,0,14,177,215,0,0,0,0,0,0,0,0,0,17,0,0,0,0,0,0,94,0,0,0,0,0,173,0,0,0,0,0,0,0,0,0,21,85,0,0,0,0,108,0,0,0,0,0,0,0,2,0,192,0,0,0,0,0,0,0,0,0,0,0,0,0,0,0,0,0,28,0,0,64,0,0,0,0,0,0,0,0,26,0,0,22
44.25,0,0,0,0,0,102,0,1,0,7,0,14,177,215,0,0,0,0,0,0,0,0,0,17,0,0,0,0,0,0,94,0,0,0,0,0,173,0,0,0,0,0,0,0,0,0,21,85,0,0,0,0,108,0,0,0,0,0,0,0,2,0,192,0,0,0,0,0,0,0,0,0,0,0,0,0,0,0,0,0,28,0,0,64,0,0,0,0,0,0,0,0,26,0,0,22
44.5,0,0,0,0,0,102,0,1,0,7,0,14,177,215,0,0,0,0,0,0,0,0,0,17,0,0,0,0,0,0,94,0,0,0,0,0,173,0,0,0,0,0,0,0,0,0,21,85,0,0,0,0,108,0,0,0,0,0,0,0,2,0,192,0,0,0,0,0,0,0,0,0,0,0,0,0,0,0,0,0,28,0,0,64,0,0,0,0,0,0,0,0,26,0,0,22
44.75,0,0,0,0,0,102,0,1,0,7,0,14,177,215,0,0,0,0,0,0,0,0,0,17,0,0,0,0,0,0,94,0,0,0,0,0,173,0,0,0,0,0,0,0,0,0,21,85,0,0,0,0,108,0,0,0,0,0,0,0,2,0,192,0,0,0,0,0,0,0,0,0,0,0,0,0,0,0,0,0,28,0,0,64,0,0,0,0,0,0,0,0,26,0,0,22
45,0,0,0,0,0,102,0,1,0,7,0,14,177,215,0,0,0,0,0,0,0,0,0,17,0,0,0,0,0,0,94,0,0,0,0,0,173,0,0,0,0,0,0,0,0,0,21,85,0,0,0,0,108,0,0,0,0,0,0,0,2,0,192,0,0,0,0,0,0,0,0,0,0,0,0,0,0,0,0,0,28,0,0,64,0,0,0,0,0,0,0,0,26,0,0,22
45.25,0,0,0,0,0,102,0,1,0,7,0,14,177,215,0,0,0,0,0,0,0,0,0,17,0,0,0,0,0,0,94,0,0,0,0,0,173,0,0,0,0,0,0,0,0,0,21,85,0,0,0,0,108,0,0,0,0,0,0,0,2,0,192,0,0,0,0,0,0,0,0,0,0,0,0,0,0,0,0,0,28,0,0,64,0,0,0,0,0,0,0,0,26,0,0,22
45.5,0,0,0,0,0,102,0,1,0,7,0,14,177,215,0,0,0,0,0,0,0,0,0,17,0,0,0,0,0,0,94,0,0,0,0,0,173,0,0,0,0,0,0,0,0,0,21,85,0,0,0,0,108,0,0,0,0,0,0,0,2,0,192,0,0,0,0,0,0,0,0,0,0,0,0,0,0,0,0,0,28,0,0,67,0,0,0,0,0,0,0,0,26,1,0,22
45.75,0,0,0,0,0,102,0,1,0,7,0,14,177,215,0,0,0,0,0,0,0,0,0,17,0,0,0,0,0,0,94,0,0,0,0,0,173,0,0,0,0,0,0,0,0,0,21,85,0,0,0,0,108,0,0,0,0,0,0,0,2,0,192,0,0,0,0,0,0,0,0,0,0,0,0,0,0,0,0,0,28,0,0,67,0,0,0,0,0,0,0,0,26,1,0,22
46,0,0,0,0,0,102,0,1,0,7,0,14,177,215,0,0,0,0,0,0,0,0,0,17,0,0,0,0,0,0,94,0,0,0,0,0,173,0,0,0,0,0,0,0,0,0,21,85,0,0,0,0,108,0,0,0,0,0,0,0,2,0,192,0,0,0,0,0,0,0,0,0,0,0,0,0,0,0,0,0,28,0,0,69,0,0,0,0,0,0,0,0,26,1,0,22
46.25,0,0,0,0,0,102,0,1,0,8,0,14,177,215,0,0,0,0,0,0,0,0,0,17,0,0,0,0,0,0,94,0,0,0,0,0,173,0,0,0,0,0,0,0,0,0,21,85,0,0,0,0,114,0,0,0,0,0,0,0,2,0,192,0,0,0,0,0,0,0,0,0,0,0,0,0,0,0,0,0,28,0,0,69,0,0,0,0,0,0,0,0,30,1,0,23
46.5,0,0,0,0,0,102,0,1,0,8,0,14,177,215,0,0,0,0,0,0,0,0,0,17,0,0,0,0,0,0,94,0,0,0,0,0,173,0,0,0,0,0,0,0,0,0,21,85,0,0,0,0,114,0,0,0,0,0,0,0,2,0,192,0,0,0,0,0,0,0,0,0,0,0,0,0,0,0,0,0,28,0,0,69,0,0,0,0,0,0,0,0,30,1,0,23
46.75,0,0,0,0,0,102,0,1,0,8,0,14,177,215,0,0,0,0,0,0,0,0,0,17,0,0,0,0,0,0,94,0,0,0,0,0,173,0,0,0,0,0,0,0,0,0,21,85,0,0,0,0,114,0,0,0,0,0,0,0,2,0,192,0,0,0,0,0,0,0,0,0,0,0,0,0,0,0,0,0,28,0,0,69,0,0,0,0,0,0,0,0,30,1,0,23
47,0,0,0,0,0,102,0,1,0,8,0,14,177,215,0,0,0,0,0,0,0,0,0,17,0,0,0,0,0,0,94,0,0,0,0,0,173,0,0,0,0,0,0,0,0,0,21,85,0,0,0,0,114,0,0,0,0,0,0,0,2,0,192,0,0,0,0,0,0,0,0,0,0,0,0,0,0,0,0,0,28,0,0,69,0,0,0,0,0,0,0,0,30,1,0,23
47.25,0,0,0,0,0,102,0,3,0,8,0,14,177,215,0,0,0,0,0,0,0,0,0,17,0,0,0,0,0,0,94,0,0,0,0,0,173,0,0,0,0,0,0,0,0,0,21,85,0,0,0,0,114,0,0,0,0,0,0,0,2,0,192,0,0,0,0,0,0,0,0,0,0,0,0,0,0,0,0,0,28,0,0,69,0,0,0,0,0,0,0,0,30,1,0,23
47.5,0,0,0,0,0,102,0,3,0,8,0,14,177,215,0,0,0,0,0,0,0,0,0,17,0,0,0,0,0,0,94,0,0,0,0,0,173,0,0,0,0,0,0,0,0,0,21,85,0,0,0,0,114,0,0,0,0,0,0,0,2,0,192,0,0,0,0,0,0,0,0,0,0,0,0,0,0,0,0,0,28,0,0,69,0,0,0,0,0,0,0,0,30,1,0,23
47.75,0,0,0,0,0,102,0,3,0,8,0,14,177,215,0,0,0,0,0,0,0,0,0,17,0,0,0,0,0,0,94,0,0,0,0,0,173,0,0,0,0,0,0,0,0,0,21,85,0,0,0,0,114,0,0,0,0,0,0,0,2,0,192,0,0,0,0,0,0,0,0,0,0,0,0,0,0,0,0,0,28,0,0,69,0,0,0,0,0,0,0,0,30,2,1,25
