Data File    , C:\Program Files\Biolog\OL_DC_23\PMX\Data_2013\07\PMX_443_130705_A_05.OKA,,,,,,,,,,,,,,,,,,,,,,,,,,,,,,,,,,,,,,,,,,,,,,,,,,,,,,,,,,,,,,,,,,,,,,,,,,,,,,,,,,,,,,,,,,,,,,,
Set up Time  ,Jul 05 2013 11:57 AM,,,,,,,,,,,,,,,,,,,,,,,,,,,,,,,,,,,,,,,,,,,,,,,,,,,,,,,,,,,,,,,,,,,,,,,,,,,,,,,,,,,,,,,,,,,,,,,
Position     , 3-A,,,,,,,,,,,,,,,,,,,,,,,,,,,,,,,,,,,,,,,,,,,,,,,,,,,,,,,,,,,,,,,,,,,,,,,,,,,,,,,,,,,,,,,,,,,,,,,
Plate Type   ,PM 2-A,,,,,,,,,,,,,,,,,,,,,,,,,,,,,,,,,,,,,,,,,,,,,,,,,,,,,,,,,,,,,,,,,,,,,,,,,,,,,,,,,,,,,,,,,,,,,,,
Strain Type  ,---,,,,,,,,,,,,,,,,,,,,,,,,,,,,,,,,,,,,,,,,,,,,,,,,,,,,,,,,,,,,,,,,,,,,,,,,,,,,,,,,,,,,,,,,,,,,,,,
Sample Number,,,,,,,,,,,,,,,,,,,,,,,,,,,,,,,,,,,,,,,,,,,,,,,,,,,,,,,,,,,,,,,,,,,,,,,,,,,,,,,,,,,,,,,,,,,,,,,,
Strain Name  ,rep2,,,,,,,,,,,,,,,,,,,,,,,,,,,,,,,,,,,,,,,,,,,,,,,,,,,,,,,,,,,,,,,,,,,,,,,,,,,,,,,,,,,,,,,,,,,,,,,
Strain Number,299-JUL8,,,,,,,,,,,,,,,,,,,,,,,,,,,,,,,,,,,,,,,,,,,,,,,,,,,,,,,,,,,,,,,,,,,,,,,,,,,,,,,,,,,,,,,,,,,,,,,
Other        ,,,,,,,,,,,,,,,,,,,,,,,,,,,,,,,,,,,,,,,,,,,,,,,,,,,,,,,,,,,,,,,,,,,,,,,,,,,,,,,,,,,,,,,,,,,,,,,,
,,,,,,,,,,,,,,,,,,,,,,,,,,,,,,,,,,,,,,,,,,,,,,,,,,,,,,,,,,,,,,,,,,,,,,,,,,,,,,,,,,,,,,,,,,,,,,,,
Hour,  A01,  A02,  A03,  A04,  A05,  A06,  A07,  A08,  A09,  A10,  A11,  A12,  B01,  B02,  B03,  B04,  B05,  B06,  B07,  B08,  B09,  B10,  B11,  B12,  C01,  C02,  C03,  C04,  C05,  C06,  C07,  C08,  C09,  C10,  C11,  C12,  D01,  D02,  D03,  D04,  D05,  D06,  D07,  D08,  D09,  D10,  D11,  D12,  E01,  E02,  E03,  E04,  E05,  E06,  E07,  E08,  E09,  E10,  E11,  E12,  F01,  F02,  F03,  F04,  F05,  F06,  F07,  F08,  F09,  F10,  F11,  F12,  G01,  G02,  G03,  G04,  G05,  G06,  G07,  G08,  G09,  G10,  G11,  G12,  H01,  H02,  H03,  H04,  H05,  H06,  H07,  H08,  H09,  H10,  H11,  H12
0,0,0,0,0,0,0,0,0,0,0,0,3,0,0,0,0,0,0,0,0,0,0,0,0,0,0,0,0,0,0,0,0,0,0,0,0,0,0,0,0,0,0,0,0,0,0,0,0,0,0,0,0,0,0,0,0,0,0,0,0,0,0,0,0,0,0,0,0,0,0,0,0,0,0,0,0,0,0,0,0,0,0,0,0,0,0,0,0,0,0,0,0,54,0,11,6
0.25,0,0,0,0,0,0,0,0,0,0,0,3,0,0,0,0,0,0,0,0,0,0,0,0,0,0,0,0,0,0,0,0,0,0,0,0,0,0,0,0,0,0,0,0,0,0,0,0,0,0,0,0,0,0,0,0,0,0,0,0,0,0,0,0,0,0,0,0,0,0,0,0,0,0,0,0,0,0,0,0,0,0,0,0,0,0,0,0,0,0,0,0,54,0,11,6
0.5,0,0,0,0,0,0,0,0,0,0,0,4,0,0,0,0,0,0,0,0,0,0,0,0,0,0,0,0,0,0,0,0,0,0,0,0,0,0,0,0,0,0,0,0,0,0,0,0,0,0,0,0,0,0,0,0,0,0,0,0,0,0,0,0,0,0,0,0,0,0,0,0,0,0,0,0,0,0,0,0,0,0,0,0,0,0,0,0,0,0,0,0,52,0,9,4
0.75,0,0,0,0,0,0,0,0,0,0,0,10,0,0,0,0,0,0,0,0,0,0,0,0,0,0,0,0,0,0,0,0,0,0,0,0,0,0,0,0,0,0,0,0,0,0,0,0,0,0,0,0,0,0,0,0,0,0,0,0,0,0,0,0,0,0,0,0,0,0,0,0,0,0,0,0,0,0,0,0,0,0,0,0,0,0,0,0,0,0,0,0,50,0,7,2
1,0,0,0,0,0,0,0,0,0,0,0,7,0,0,0,0,0,0,0,0,0,0,0,0,0,0,0,0,0,0,0,0,0,0,0,0,0,0,0,0,0,0,0,0,0,0,0,0,0,0,0,0,0,0,0,0,0,0,0,0,0,0,0,0,0,0,0,0,0,0,0,0,0,0,0,0,0,0,0,0,0,0,0,0,0,0,0,0,0,0,0,0,47,0,4,0
1.25,0,0,0,0,0,0,0,0,0,0,0,12,0,0,0,0,0,0,0,0,0,0,0,0,0,0,0,0,0,0,0,0,0,0,0,0,0,0,0,0,0,0,0,0,0,0,0,0,0,0,0,0,0,0,0,0,0,0,0,0,0,0,0,0,0,0,0,0,0,0,0,0,0,0,0,0,0,0,0,0,0,0,0,0,0,0,0,0,0,0,0,0,46,0,12,14
1.5,0,0,0,0,0,0,0,0,0,0,0,18,0,0,0,0,0,0,0,0,0,0,0,0,0,0,0,0,0,0,0,0,0,0,0,0,0,0,0,0,0,0,0,0,0,0,0,0,0,0,0,0,0,0,0,0,0,0,0,7,0,0,0,0,0,0,0,0,0,0,0,1,0,0,0,0,0,0,0,0,0,0,0,6,0,0,0,0,0,0,1,0,45,7,18,26
1.75,0,0,0,0,0,0,0,0,0,0,0,18,0,0,0,0,0,0,0,0,0,0,0,0,0,0,0,0,0,0,0,0,0,0,0,0,0,0,0,0,0,0,0,0,0,0,0,0,0,0,0,0,0,0,0,0,0,0,0,10,0,0,0,0,0,0,0,0,0,0,0,0,0,0,0,0,0,0,0,0,0,0,0,8,0,0,0,0,0,0,2,0,44,8,17,29
2,0,0,0,0,0,0,0,0,0,0,0,18,0,0,0,0,0,0,0,0,0,0,0,0,0,0,0,0,0,0,0,0,0,0,0,0,0,0,0,0,0,0,0,0,0,0,0,0,0,0,0,0,0,0,0,0,0,0,0,11,0,0,0,0,0,0,0,0,0,0,0,1,0,0,0,0,0,0,0,0,0,0,0,7,0,0,0,0,0,0,3,0,44,7,16,29
2.25,0,0,0,0,0,0,0,0,0,0,0,18,0,0,0,0,0,0,0,0,0,0,2,12,0,0,0,0,0,0,0,0,0,0,0,0,0,0,0,0,0,0,0,0,0,0,0,0,0,0,0,0,0,0,0,0,0,0,0,12,0,0,0,0,0,0,0,0,0,0,0,3,0,0,0,0,0,0,0,0,0,0,0,9,0,0,0,0,0,0,5,0,43,10,22,34
2.5,0,0,0,0,0,7,0,0,0,0,0,18,0,0,0,0,0,0,0,0,0,0,2,16,0,0,0,0,0,0,0,0,0,0,3,0,0,0,0,0,0,0,0,0,0,0,0,0,0,0,0,0,0,0,0,0,0,0,0,15,0,0,0,0,0,0,0,0,0,0,0,3,0,0,0,0,0,0,0,0,0,0,0,11,0,0,0,0,0,0,5,0,43,10,22,34
2.75,0,0,0,0,0,11,0,0,0,0,0,18,0,0,0,0,0,0,0,0,0,0,2,16,0,0,0,0,0,0,0,0,0,0,3,0,0,0,0,0,0,0,0,0,0,0,0,0,0,0,0,0,0,0,0,0,0,0,0,15,0,0,0,0,0,0,0,0,0,0,0,3,0,0,0,0,0,0,0,0,0,0,0,11,0,0,0,0,0,0,5,0,43,10,22,34
3,0,0,0,0,0,14,0,0,0,0,0,18,4,0,0,0,0,0,0,0,0,0,2,21,0,0,0,0,0,0,0,0,0,0,3,0,0,0,0,0,0,0,0,0,0,0,0,0,0,0,0,0,0,0,0,0,0,0,0,15,0,0,0,0,0,0,0,0,0,0,0,3,0,0,0,0,0,0,0,0,0,0,0,11,0,0,0,0,0,0,5,0,43,10,22,34
3.25,0,0,0,0,0,16,0,0,0,0,0,17,5,5,0,0,0,0,0,0,0,0,2,28,0,0,0,0,0,0,0,0,0,0,2,0,1,0,0,0,0,0,1,0,0,0,0,0,0,0,0,0,0,0,0,0,0,0,0,14,0,0,0,0,0,0,0,0,0,0,0,2,0,0,0,0,0,0,0,0,0,0,0,10,0,0,0,0,0,0,4,0,42,9,21,33
3.5,0,0,0,0,0,24,0,0,0,0,0,18,5,8,0,0,0,0,0,0,0,0,4,33,0,0,0,0,0,0,0,0,0,0,3,2,4,0,0,0,0,0,2,0,0,0,0,0,0,0,0,0,0,0,0,0,0,0,0,16,0,0,0,0,0,0,0,0,0,1,0,2,0,0,0,0,0,0,0,0,0,0,0,10,0,0,0,0,0,0,4,0,42,9,21,33
3.75,0,0,0,0,0,23,0,0,0,0,0,16,6,8,0,0,0,0,0,0,0,0,2,35,0,0,0,0,0,0,0,0,0,0,3,1,5,0,0,0,0,0,0,0,0,0,0,0,0,0,0,0,0,0,0,0,0,0,0,14,0,0,0,0,0,0,0,0,0,0,0,0,0,0,0,0,0,0,0,0,0,0,0,8,0,0,0,0,0,0,2,0,40,7,19,31
4,0,0,0,0,0,29,0,0,0,0,0,17,9,13,0,0,0,0,0,0,0,0,3,37,0,0,0,0,0,0,0,0,0,0,4,5,9,0,0,0,0,0,1,0,0,0,0,0,0,0,0,0,0,0,0,0,0,0,0,15,0,0,0,0,0,0,0,0,0,1,0,0,0,0,0,0,0,0,0,0,0,0,0,8,0,0,0,0,0,0,2,0,40,7,19,31
4.25,0,0,0,0,0,29,0,0,0,0,0,17,10,13,0,0,0,0,0,0,0,0,3,40,0,0,0,0,0,0,0,0,0,0,4,5,9,0,0,0,0,0,1,0,0,0,0,0,0,0,0,0,0,0,0,0,0,0,0,15,0,0,0,0,0,0,0,0,0,1,0,0,0,0,0,0,0,0,0,0,0,0,0,8,0,0,0,0,0,0,2,0,40,7,19,31
4.5,0,0,0,0,0,30,0,0,0,0,0,17,10,15,0,0,0,0,0,0,0,0,3,44,0,0,0,0,0,0,0,0,0,0,4,5,9,0,0,0,0,0,1,0,0,0,0,0,0,0,0,0,0,0,0,0,0,0,0,15,0,0,0,0,0,0,0,0,0,2,0,0,0,0,0,0,0,0,0,0,0,0,0,8,0,0,0,0,0,0,2,0,40,7,19,31
4.75,0,0,0,0,0,36,0,0,0,0,0,17,11,15,0,0,0,0,0,0,0,0,3,45,0,0,0,0,0,0,0,0,0,0,4,5,9,0,0,0,0,0,1,0,0,0,0,0,0,0,0,0,0,0,0,0,0,0,0,15,0,0,0,0,0,0,0,0,0,2,0,0,0,0,0,0,0,0,0,0,0,0,0,8,0,0,0,0,0,0,2,0,40,7,19,31
5,0,0,0,0,0,39,0,0,0,0,0,17,13,19,0,0,0,0,0,0,0,0,3,49,0,0,0,0,0,0,6,0,0,0,4,5,9,0,0,0,0,0,1,0,0,0,0,0,0,0,0,0,0,0,0,0,0,0,0,15,0,0,2,0,0,0,0,0,0,2,0,0,0,0,0,0,0,0,0,0,0,0,0,8,0,0,0,0,0,0,2,0,40,7,19,31
5.25,0,0,0,0,0,40,0,0,0,0,0,17,13,20,0,0,0,0,0,0,0,0,3,52,0,0,0,0,0,0,7,0,0,0,4,5,13,0,0,0,0,0,1,0,0,0,0,0,0,0,0,0,0,0,0,0,0,0,0,15,0,0,5,0,0,0,0,0,0,2,0,0,0,0,0,0,0,0,0,0,0,0,0,8,0,0,0,0,0,0,2,0,40,7,19,31
5.5,0,0,0,0,0,44,0,0,0,0,0,17,16,24,0,0,0,0,0,0,0,0,3,55,0,0,0,0,0,0,10,0,0,0,4,5,16,0,0,0,0,0,2,0,0,0,0,0,0,0,0,0,2,0,0,0,0,0,0,15,0,0,10,0,0,0,0,0,0,2,0,0,0,0,0,0,0,0,0,0,0,0,0,8,0,0,0,0,0,0,2,0,40,7,19,31
5.75,0,0,0,0,0,50,0,0,0,0,0,17,18,29,0,0,0,0,0,0,0,0,6,59,0,0,0,0,0,0,16,0,0,0,4,6,20,0,0,0,0,0,3,0,0,0,0,0,0,0,0,0,4,0,0,0,0,0,0,15,0,0,13,0,0,0,0,0,0,3,0,0,0,0,0,0,0,0,0,0,0,0,0,8,0,0,0,0,0,0,2,0,40,7,19,31
6,0,0,0,0,0,50,0,0,0,0,0,17,18,29,0,0,0,0,0,0,0,0,6,60,0,0,0,0,0,0,16,0,0,0,4,6,20,0,0,0,0,0,3,0,0,0,0,0,0,0,0,0,5,0,0,0,0,0,0,15,0,0,14,0,0,0,0,0,0,3,0,0,0,0,0,0,0,0,0,0,0,0,0,8,0,0,0,0,0,0,2,0,40,7,19,31
6.25,0,0,0,0,0,51,0,0,0,0,0,17,18,29,0,0,0,0,0,0,0,0,6,66,0,0,0,0,0,0,17,0,0,0,4,6,20,0,0,0,0,0,3,0,0,0,0,0,0,0,0,0,9,0,0,0,0,0,0,15,0,0,18,0,0,0,0,0,0,4,0,0,0,0,0,0,0,0,0,0,0,0,0,8,0,0,0,0,0,0,2,0,40,7,19,31
6.5,0,0,0,0,0,55,0,0,0,0,0,17,21,35,0,0,0,0,0,0,0,0,6,68,0,0,0,0,0,0,23,0,0,0,6,6,24,0,0,0,0,0,5,0,0,0,0,0,0,0,0,0,14,0,0,0,0,0,0,16,0,0,23,0,0,0,0,0,0,5,0,2,0,0,0,0,0,0,0,0,0,0,0,8,0,0,0,0,0,0,2,0,40,7,19,31
6.75,0,0,0,0,0,56,0,0,0,0,0,17,21,35,0,0,0,0,0,0,0,0,6,71,0,0,0,0,0,0,24,0,0,0,6,6,24,0,0,0,0,0,5,0,0,0,0,0,0,0,0,0,14,0,0,0,0,0,0,16,0,0,23,0,0,0,0,0,0,5,0,2,0,0,0,0,0,0,0,0,0,0,0,8,0,0,0,0,0,0,2,0,40,7,19,31
7,0,0,0,0,0,56,0,0,0,0,0,17,21,35,0,0,0,0,0,0,0,0,6,72,0,0,0,0,0,0,24,0,0,0,6,6,24,0,0,0,0,0,5,0,0,0,0,0,0,0,0,0,14,0,0,0,0,0,0,16,0,0,23,0,0,0,0,0,0,5,0,2,0,0,0,0,0,0,0,0,0,0,0,8,0,0,0,0,0,0,2,0,40,7,19,31
7.25,0,0,0,0,0,57,0,0,0,0,0,17,24,37,0,0,0,0,0,0,0,0,6,75,0,0,0,0,0,0,25,0,0,0,6,6,27,0,0,0,0,0,5,0,0,0,0,0,0,0,0,0,14,0,0,0,0,0,0,16,0,0,24,0,0,0,0,0,0,5,0,2,0,0,0,0,0,0,0,0,0,0,0,8,0,0,0,0,0,0,2,0,40,7,19,31
7.5,0,0,0,0,0,58,0,0,0,0,0,17,24,37,0,0,0,0,0,0,0,0,6,76,0,0,0,0,0,0,28,0,0,0,6,6,27,0,0,0,0,0,5,0,0,0,0,0,0,0,0,0,14,0,0,0,0,0,0,16,0,0,26,0,0,0,0,0,0,5,0,2,0,0,0,0,0,0,0,0,0,0,0,8,0,0,0,0,0,0,2,0,40,7,19,31
7.75,0,0,0,0,0,66,0,0,0,0,0,17,24,39,0,0,0,0,0,0,0,0,6,82,0,0,0,0,0,0,30,0,0,0,6,6,27,0,0,0,0,0,5,0,0,0,0,0,0,0,0,0,18,0,0,0,0,0,0,16,0,0,32,0,0,0,0,0,0,5,0,2,0,0,0,0,0,0,0,0,0,0,0,8,0,0,0,0,0,0,2,0,40,7,19,31
8,0,0,0,0,0,66,0,0,0,0,0,17,24,39,0,0,0,0,0,0,0,0,6,82,0,0,0,0,0,0,30,0,0,0,6,6,27,0,0,0,0,0,5,0,0,0,0,0,0,0,0,0,18,0,0,0,0,0,0,16,0,0,32,0,0,0,0,0,0,5,0,2,0,0,0,0,0,0,0,0,0,0,0,8,0,0,0,0,0,0,2,0,40,7,19,31
8.25,0,0,0,0,0,66,0,0,0,0,0,17,27,43,0,0,0,0,0,0,0,0,6,84,0,0,0,0,0,0,31,0,0,0,6,6,29,0,0,0,0,0,5,0,0,0,0,0,0,0,0,0,21,0,0,0,0,0,0,16,0,0,33,0,0,0,0,0,0,5,0,2,0,0,0,0,0,0,0,0,0,0,0,8,0,0,0,0,0,0,2,0,40,7,19,31
8.5,0,0,0,0,0,66,0,0,0,0,0,17,27,43,0,0,0,0,0,0,0,0,6,86,0,0,0,0,0,0,31,0,0,0,6,6,29,0,0,0,0,0,5,0,0,0,0,0,0,0,0,0,21,0,0,0,0,0,0,16,0,0,33,0,0,0,0,0,0,5,0,2,0,0,0,0,0,0,0,0,0,0,0,8,0,0,0,0,0,0,2,0,40,7,19,31
8.75,0,0,0,0,0,67,0,0,0,0,0,17,27,45,0,0,0,0,0,0,0,0,6,91,0,0,0,0,0,0,35,0,0,0,6,6,32,0,0,0,0,0,5,0,0,0,0,0,0,0,0,0,23,0,0,0,0,0,0,16,0,0,39,0,0,0,0,0,0,5,0,2,0,0,0,0,0,0,0,0,0,0,0,8,0,0,0,0,0,0,2,0,40,7,19,31
9,0,0,0,0,0,70,0,0,0,0,0,17,27,46,0,0,0,0,0,0,0,0,6,96,0,0,0,0,0,0,37,0,0,0,6,6,33,0,0,0,0,0,5,0,0,0,0,0,0,0,0,0,27,0,0,0,0,0,0,16,0,0,42,0,0,0,0,0,0,5,0,2,0,0,0,0,0,0,0,0,0,0,0,8,0,0,0,0,0,0,2,0,40,7,19,31
9.25,0,0,0,0,0,71,0,0,0,0,0,17,29,48,0,0,0,0,0,0,0,0,6,98,0,0,0,0,0,0,38,0,0,0,6,6,38,0,0,0,0,0,5,0,0,0,0,0,0,0,0,0,28,0,0,0,0,0,0,16,0,0,45,0,0,0,0,0,0,5,0,2,0,0,0,0,0,0,0,0,0,0,0,8,0,0,0,0,0,0,2,0,40,7,19,31
9.5,0,0,0,0,0,71,0,0,0,0,0,17,29,48,0,0,0,0,0,0,0,0,6,98,0,0,0,0,0,0,38,0,0,0,6,6,38,0,0,0,0,0,5,0,0,0,0,0,0,0,0,0,28,0,0,0,0,0,0,16,0,0,45,0,0,0,0,0,0,5,0,2,0,0,0,0,0,0,0,0,0,0,0,8,0,0,0,0,0,0,2,0,40,7,19,31
9.75,0,0,0,0,0,74,0,0,0,0,0,17,33,52,0,0,0,0,0,0,0,0,6,102,0,0,0,0,0,0,44,0,0,0,6,6,40,0,0,0,0,0,5,0,0,0,0,0,0,0,0,0,32,0,0,0,0,0,0,16,0,0,49,0,0,0,0,0,0,5,0,2,0,0,0,0,0,0,0,0,0,0,0,8,0,0,0,0,0,0,2,0,40,7,19,31
10,0,0,0,0,0,74,0,0,0,0,0,17,33,52,0,0,0,0,0,0,0,0,6,105,0,0,0,0,0,0,44,0,0,0,6,6,40,0,0,0,0,0,5,0,0,0,0,0,0,0,0,0,32,0,0,0,0,0,0,16,0,0,50,0,0,0,0,0,0,5,0,2,0,0,0,0,0,0,0,0,0,0,0,8,0,0,0,0,0,0,2,0,40,7,19,31
10.25,0,0,0,0,0,77,0,0,0,0,0,17,33,53,0,0,0,0,0,0,0,0,6,110,0,0,0,0,0,0,45,0,0,0,6,6,43,0,0,0,0,0,5,0,0,0,0,0,0,0,0,0,34,0,0,0,0,0,0,16,0,0,54,0,0,0,0,0,0,5,0,2,0,0,0,0,0,0,0,0,0,0,0,8,0,0,0,0,0,0,2,0,40,7,19,31
10.5,0,0,0,0,0,77,0,0,0,0,0,17,33,54,0,0,0,0,0,0,0,0,6,112,0,0,0,0,0,0,47,0,0,0,6,6,47,0,0,0,0,0,5,0,0,0,0,0,0,0,0,0,38,0,0,0,0,0,0,16,0,0,58,0,0,0,0,0,0,5,0,2,0,0,0,0,0,0,0,0,0,0,0,8,0,0,0,0,0,0,2,0,40,7,19,31
10.75,0,0,0,0,0,79,0,0,0,0,0,17,33,54,0,0,0,0,0,0,0,0,6,112,0,0,0,0,0,0,47,0,0,0,6,6,47,0,0,0,0,0,5,0,0,0,0,0,0,0,0,0,38,0,0,0,0,0,0,16,0,0,58,0,0,0,0,0,0,5,0,2,0,0,0,0,0,0,0,0,0,0,0,8,0,0,0,0,0,0,2,0,40,7,19,31
11,0,0,0,0,0,81,0,0,0,0,0,17,33,54,0,0,0,0,0,0,0,0,6,117,0,0,0,0,0,0,50,0,0,0,6,6,47,0,0,0,0,0,5,0,0,0,0,0,0,0,0,0,39,0,0,0,0,0,0,16,0,0,61,0,0,0,0,0,0,5,0,2,0,0,0,0,0,0,0,0,0,0,0,8,0,0,0,0,0,0,2,0,40,7,19,31
11.25,0,0,0,0,0,81,0,0,0,0,0,17,33,55,0,0,0,0,0,0,0,0,6,118,0,0,0,0,0,0,51,0,0,0,6,6,47,0,0,0,0,0,5,0,0,0,0,0,0,0,0,0,39,0,0,0,0,0,0,16,0,0,61,0,0,0,0,0,0,5,0,2,0,0,0,0,0,0,0,0,0,0,0,8,0,0,0,0,0,0,2,0,40,7,19,31
11.5,0,0,0,0,0,81,0,0,0,0,0,17,33,56,0,0,0,0,0,0,0,0,6,122,0,0,0,0,0,0,51,0,0,0,6,6,47,0,0,0,0,0,5,0,0,0,0,0,0,0,0,0,41,0,0,0,0,0,0,16,0,0,64,0,0,0,0,0,0,5,0,2,0,0,0,0,0,0,0,0,0,0,0,8,0,0,0,0,0,0,2,0,40,7,19,31
11.75,0,0,0,0,0,82,0,0,0,0,0,17,33,56,0,0,0,0,0,0,0,0,6,122,0,0,0,0,0,0,52,0,0,0,6,6,47,0,0,0,0,0,5,0,0,0,0,0,0,0,0,0,41,0,0,0,0,0,0,16,0,0,65,0,0,0,0,0,0,5,0,2,0,0,0,0,0,0,0,0,0,0,0,8,0,0,0,0,0,0,2,0,40,7,19,31
12,0,0,0,0,0,82,0,0,0,0,0,17,33,58,0,0,0,0,0,0,0,0,6,127,0,0,0,0,0,0,53,0,0,0,6,6,47,0,0,0,0,0,5,0,0,0,0,0,0,0,0,0,43,0,0,0,0,0,0,16,0,0,66,0,0,0,0,0,0,5,0,2,0,0,0,0,0,0,0,0,0,0,0,8,0,0,0,0,0,0,2,0,40,7,19,31
12.25,0,0,0,0,0,84,0,0,0,0,0,17,33,58,0,0,0,0,0,0,0,0,6,128,0,0,0,0,0,0,54,0,0,0,6,6,47,0,0,0,0,0,5,0,0,0,0,0,0,0,0,0,43,0,0,0,0,0,0,16,0,0,67,0,0,0,0,0,0,5,0,2,0,0,0,0,0,0,0,0,0,0,0,8,0,0,0,0,0,0,2,0,40,7,19,31
12.5,0,0,0,0,0,85,0,0,0,0,0,17,35,62,0,0,0,0,0,0,0,0,6,134,0,0,0,0,0,0,59,0,0,0,6,6,48,0,0,0,0,0,5,0,0,0,0,0,0,0,0,0,46,0,0,0,0,0,0,16,0,0,72,0,0,0,0,0,0,5,0,2,0,0,0,0,0,0,0,0,0,0,0,8,0,0,0,0,0,0,2,0,40,7,19,31
12.75,0,0,0,0,0,87,0,0,0,0,0,17,35,62,0,0,0,0,0,0,0,0,6,135,0,0,0,0,0,0,59,0,0,0,6,6,48,0,0,0,0,0,5,0,0,0,0,0,0,0,0,0,46,0,0,0,0,0,0,16,0,0,74,0,0,0,0,0,0,5,0,2,0,0,0,0,0,0,0,0,0,0,0,8,0,0,0,0,0,0,2,0,40,7,19,31
13,0,0,0,0,0,89,0,0,0,0,0,17,35,62,0,0,0,0,0,0,0,0,6,137,0,0,0,0,0,0,59,0,0,0,6,6,48,0,0,0,0,0,5,0,0,0,0,0,0,0,0,0,48,0,0,0,0,0,0,16,0,0,77,0,0,0,0,0,0,5,0,2,0,0,0,0,0,0,0,0,0,0,0,8,0,0,0,0,0,0,2,0,40,7,19,31
13.25,0,0,0,0,0,89,0,0,0,0,0,17,35,63,0,0,0,0,0,0,0,0,6,139,0,0,0,0,0,0,63,0,0,0,6,6,49,0,0,0,0,0,5,0,0,0,0,0,0,0,0,0,49,0,0,0,0,0,0,16,0,0,78,0,0,0,0,0,0,5,0,2,0,0,0,0,0,0,0,0,0,0,0,8,0,0,0,0,0,0,2,0,40,7,19,31
13.5,0,0,0,0,0,89,0,0,0,0,0,17,35,63,0,0,0,0,0,0,0,0,6,139,0,0,0,0,0,0,63,0,0,0,6,6,51,0,0,0,0,0,5,0,0,0,0,0,0,0,0,0,50,0,0,0,0,0,0,16,0,0,80,0,0,0,0,0,0,5,0,2,0,0,0,0,0,0,0,0,0,0,0,8,0,0,0,0,0,0,2,0,40,7,19,31
13.75,0,0,0,0,0,89,0,0,0,0,0,17,35,63,0,0,0,0,0,0,0,0,6,143,0,0,0,0,0,0,63,0,0,0,6,6,51,0,0,0,0,0,5,0,0,0,0,0,0,0,0,0,51,0,0,0,0,0,0,16,0,0,81,0,0,0,0,0,0,5,0,2,0,0,0,0,0,0,0,0,0,0,0,8,0,0,0,0,0,0,2,0,40,7,19,31
14,0,0,0,0,0,89,0,0,0,0,0,17,35,63,0,0,0,0,0,0,0,0,6,144,0,0,0,0,0,0,65,0,0,0,6,6,51,0,0,0,0,0,5,0,0,0,0,0,0,0,0,0,51,0,0,0,0,0,0,16,0,0,82,0,0,0,0,0,0,5,0,2,0,0,0,0,0,0,0,0,0,0,0,8,0,0,0,0,0,0,2,0,40,7,19,31
14.25,0,0,0,0,0,90,0,0,0,0,0,17,37,66,0,0,0,0,0,0,0,0,6,147,0,0,0,0,0,0,68,0,0,0,6,6,51,0,0,0,0,0,5,0,0,0,0,0,0,0,0,0,55,0,0,0,0,0,0,16,0,0,86,0,0,0,0,0,0,5,0,2,0,0,0,0,0,0,0,0,0,0,0,8,0,0,0,0,0,0,2,0,40,7,19,31
14.5,0,0,0,0,0,90,0,0,0,0,0,17,37,66,0,0,0,0,0,0,0,0,6,148,0,0,0,0,0,0,70,0,0,0,6,6,51,0,0,0,0,0,5,0,0,0,0,0,0,0,0,0,55,0,0,0,0,0,0,16,0,0,87,0,0,0,0,0,0,5,0,2,0,0,0,0,0,0,0,0,0,0,0,8,0,0,0,0,0,0,2,0,40,7,19,31
14.75,0,0,0,0,0,90,0,0,0,0,0,17,37,66,0,0,0,0,0,0,0,0,6,150,0,0,0,0,0,0,70,0,0,0,6,6,51,0,0,0,0,0,5,0,0,0,0,0,0,0,0,0,56,0,0,0,0,0,0,16,0,0,90,0,0,0,0,0,0,5,0,2,0,0,0,0,0,0,0,0,0,0,0,8,0,0,0,0,0,0,2,0,40,7,19,31
15,0,0,0,0,0,93,0,0,0,0,0,17,37,68,0,0,0,0,0,0,0,0,6,152,0,0,0,0,0,0,73,0,0,0,6,6,51,0,0,0,0,0,5,0,0,0,0,0,0,0,0,0,56,0,0,0,0,0,0,16,0,0,90,0,0,0,0,0,0,5,0,2,0,0,0,0,0,0,0,0,0,0,0,8,0,0,0,0,0,0,2,0,40,7,19,31
15.25,0,0,0,0,0,93,0,0,0,0,0,17,37,68,0,0,0,0,0,0,0,0,6,155,0,0,0,0,0,0,74,0,0,0,6,6,51,0,0,0,0,0,5,0,0,0,0,0,0,0,0,0,57,0,0,0,0,0,0,16,0,0,92,0,0,0,0,0,0,5,0,2,0,0,0,0,0,0,0,0,0,0,0,8,0,0,0,0,0,0,2,0,40,7,19,31
15.5,0,0,0,0,0,93,0,0,0,0,0,17,37,68,0,0,0,0,0,0,0,0,6,157,0,0,0,0,0,0,76,0,0,0,6,6,51,0,0,0,0,0,5,0,0,0,0,0,0,0,0,0,60,0,0,0,0,0,0,16,0,0,92,0,0,0,0,0,0,5,0,2,0,0,0,0,0,0,0,0,0,0,0,8,0,0,0,0,0,0,2,0,40,7,19,31
15.75,0,0,0,0,0,94,0,0,0,0,0,17,37,68,0,0,0,0,0,0,0,0,6,159,0,0,0,0,0,0,76,0,0,0,6,6,51,0,0,0,0,0,5,0,0,0,0,0,0,0,0,0,61,0,0,0,0,0,0,16,0,0,96,0,0,0,0,0,0,5,0,2,0,0,0,0,0,0,0,0,0,0,0,8,0,0,0,0,0,0,2,0,40,7,19,31
16,0,0,0,0,0,92,0,0,0,0,0,15,35,66,0,0,0,0,0,0,0,0,4,159,0,0,0,0,0,0,75,0,0,0,4,4,49,0,0,0,0,0,3,0,0,0,0,0,0,0,0,0,61,0,0,0,0,0,0,14,0,0,98,0,0,0,0,0,0,3,0,0,0,0,0,0,0,0,0,0,0,0,0,6,0,0,0,0,0,0,0,0,38,5,17,29
16.25,0,0,0,0,0,92,0,0,0,0,0,15,35,66,0,0,0,0,0,0,0,0,4,159,0,0,0,0,0,0,75,0,0,0,4,4,49,0,0,0,0,0,3,0,0,0,0,0,0,0,0,0,61,0,0,0,0,0,0,14,0,0,98,0,0,0,0,0,0,3,0,0,0,0,0,0,0,0,0,0,0,0,0,6,0,0,0,0,0,0,0,0,38,5,17,29
16.5,0,0,0,0,0,92,0,0,0,0,0,15,35,66,0,0,0,0,0,0,0,0,4,161,0,0,0,0,0,0,76,0,0,0,4,4,49,0,0,0,0,0,3,0,0,0,0,0,0,0,0,0,61,0,0,0,0,0,0,14,0,0,98,0,0,0,0,0,0,3,0,0,0,0,0,0,0,0,0,0,0,0,0,6,0,0,0,0,0,0,0,0,38,5,17,29
16.75,0,0,0,0,0,93,0,0,0,0,0,15,35,66,0,0,0,0,0,0,0,0,4,166,0,0,0,0,0,0,78,0,0,0,4,4,49,0,0,0,0,0,3,0,0,0,0,0,0,0,0,0,62,0,0,0,0,0,0,14,0,0,98,0,0,0,0,0,0,3,0,0,0,0,0,0,0,0,0,0,0,0,0,6,0,0,0,0,0,0,0,0,38,5,17,29
17,0,0,0,0,0,93,0,0,0,0,0,15,35,66,0,0,0,0,0,0,0,0,4,166,0,0,0,0,0,0,78,0,0,0,4,4,49,0,0,0,0,0,3,0,0,0,0,0,0,0,0,0,62,0,0,0,0,0,0,14,0,0,102,0,0,0,0,0,0,3,0,0,0,0,0,0,0,0,0,0,0,0,0,6,0,0,0,0,0,0,0,0,38,5,17,29
17.25,0,0,0,0,0,93,0,0,0,0,0,15,35,66,0,0,0,0,0,0,0,0,4,169,0,0,0,0,0,0,80,0,0,0,4,4,49,0,0,0,0,0,3,0,0,0,0,0,0,0,0,0,65,0,0,0,0,0,0,14,0,0,102,0,0,0,0,0,0,3,0,0,0,0,0,0,0,0,0,0,0,0,0,6,0,0,0,0,0,0,0,0,38,5,17,29
17.5,0,0,0,0,0,93,0,0,0,0,0,15,35,67,0,0,0,0,0,0,0,0,4,172,0,0,0,0,0,0,81,0,0,0,4,4,49,0,0,0,0,0,3,0,0,0,0,0,0,0,0,0,68,0,0,0,0,0,0,14,0,0,103,0,0,0,0,0,0,3,0,0,0,0,0,0,0,0,0,0,0,0,0,6,0,0,0,0,0,0,0,0,38,5,17,29
17.75,0,0,0,0,0,94,0,0,0,0,0,15,35,69,0,0,0,0,0,0,0,0,5,172,0,0,0,0,0,0,83,0,0,0,4,4,49,0,0,0,0,0,3,0,0,0,0,0,0,0,0,0,70,0,0,0,0,0,0,14,0,0,107,0,0,0,0,0,0,3,0,0,0,0,0,0,0,0,0,0,0,0,0,6,0,0,0,0,0,0,0,0,38,5,17,29
18,0,0,0,0,0,94,0,0,0,0,0,15,35,70,0,0,0,0,0,0,0,0,5,174,0,0,0,0,0,0,83,0,0,0,4,4,49,0,0,0,0,0,3,0,0,0,0,0,0,0,0,0,75,0,0,0,0,0,0,14,0,0,113,0,0,0,0,0,0,3,0,0,0,0,0,0,0,0,0,0,0,0,0,6,0,0,0,0,0,0,0,0,38,5,17,29
18.25,0,0,0,0,0,94,0,0,0,0,0,15,35,70,0,0,0,0,0,0,0,0,5,174,0,0,0,0,0,0,83,0,0,0,4,4,49,0,0,0,0,0,3,0,0,0,0,0,0,0,0,0,75,0,0,0,0,0,0,14,0,0,113,0,0,0,0,0,0,3,0,0,0,0,0,0,0,0,0,0,0,0,0,6,0,0,0,0,0,0,0,0,38,5,17,29
18.5,0,0,0,0,0,94,0,0,0,0,0,15,35,70,0,0,0,0,0,0,0,0,5,174,0,0,0,0,0,0,83,0,0,0,4,4,49,0,0,0,0,0,3,0,0,0,0,0,0,0,0,0,75,0,0,0,0,0,0,14,0,0,113,0,0,0,0,0,0,3,0,0,0,0,0,0,0,0,0,0,0,0,0,6,0,0,0,0,0,0,0,0,38,5,17,29
18.75,0,0,0,0,0,94,0,0,0,0,0,15,35,72,0,0,0,0,0,0,0,0,5,175,0,0,0,0,0,0,85,0,0,0,4,4,49,0,0,0,0,0,3,0,0,0,0,0,0,0,0,0,77,0,0,0,0,0,0,14,0,0,113,0,0,0,0,0,0,3,0,0,0,0,0,0,0,0,0,0,0,0,0,6,0,0,0,0,0,0,0,0,38,5,17,29
19,0,0,0,0,0,94,0,0,0,0,0,15,35,72,0,0,0,0,0,0,0,0,5,176,0,0,0,0,0,0,85,0,0,0,4,4,49,0,0,0,0,0,3,0,0,0,0,0,0,0,0,0,77,0,0,0,0,0,0,14,0,0,113,0,0,0,0,0,0,3,0,0,0,0,0,0,0,0,0,0,0,0,0,6,0,0,0,0,0,0,0,0,38,5,17,29
19.25,0,0,0,0,0,94,0,0,0,0,0,15,35,72,0,0,0,0,0,0,0,0,5,177,0,0,0,0,0,0,87,0,0,0,4,4,49,0,0,0,0,0,3,0,0,0,0,0,0,0,0,0,77,0,0,0,0,0,0,14,0,0,113,0,0,0,0,0,0,3,0,0,0,0,0,0,0,0,0,0,0,0,0,6,0,0,0,0,0,0,0,0,38,5,17,29
19.5,0,0,0,0,0,94,0,0,0,0,0,15,35,72,0,0,0,0,0,0,0,0,5,180,0,0,0,0,0,0,88,0,0,0,4,4,49,0,0,0,0,0,3,0,0,0,0,0,0,0,0,0,77,0,0,0,0,0,0,14,0,0,113,0,0,0,0,0,0,3,0,0,0,0,0,0,0,0,0,0,0,0,0,6,0,0,0,0,0,0,0,0,38,5,17,29
19.75,0,0,0,0,0,94,0,0,0,0,0,15,35,72,0,0,0,0,0,0,0,0,5,180,0,0,0,0,0,0,89,0,0,0,4,4,49,0,0,0,0,0,3,0,0,0,0,0,0,0,0,0,79,0,0,0,0,0,0,14,0,0,113,0,0,0,0,0,0,3,0,0,0,0,0,0,0,0,0,0,0,0,0,6,0,0,0,0,0,0,0,0,38,5,17,29
20,0,0,0,0,0,94,0,0,0,0,0,15,35,72,0,0,0,0,0,0,0,0,5,180,0,0,0,0,0,0,89,0,0,0,4,4,49,0,0,0,0,0,3,0,0,0,0,0,0,0,0,0,79,0,0,0,0,0,0,14,0,0,113,0,0,0,0,0,0,3,0,0,0,0,0,0,0,0,0,0,0,0,0,6,0,0,0,0,0,0,0,0,38,5,17,29
20.25,0,0,0,0,0,94,0,0,0,0,0,15,35,72,0,0,0,0,0,0,0,0,5,180,0,0,0,0,0,0,90,0,0,0,4,4,49,0,0,0,0,0,3,0,0,0,0,0,0,0,0,0,82,0,0,0,0,0,0,14,0,0,115,0,0,0,0,0,0,3,0,0,0,0,0,0,0,0,0,0,0,0,0,6,0,0,0,0,0,0,0,0,38,5,17,29
20.5,0,0,0,0,0,94,0,0,0,0,0,15,35,72,0,0,0,0,0,0,0,0,5,180,0,0,0,0,0,0,92,0,0,0,4,4,49,0,0,0,0,0,3,0,0,0,0,0,0,0,0,0,82,0,0,0,0,0,0,14,0,0,115,0,0,0,0,0,0,3,0,0,0,0,0,0,0,0,0,0,0,0,0,6,0,0,0,0,0,0,0,0,38,5,17,29
20.75,0,0,0,0,0,94,0,0,0,0,0,15,35,72,0,0,0,0,0,0,0,0,5,180,0,0,0,0,0,0,92,0,0,0,4,4,49,0,0,0,0,0,3,0,0,0,0,0,0,0,0,0,82,0,0,0,0,0,0,14,0,0,115,0,0,0,0,0,0,3,0,0,0,0,0,0,0,0,0,0,0,0,0,6,0,0,0,0,0,0,0,0,38,5,17,29
21,0,0,0,0,0,94,0,0,0,0,0,15,35,72,0,0,0,0,0,0,0,0,5,180,0,0,0,0,0,0,94,0,0,0,4,4,49,0,0,0,0,0,3,0,0,0,0,0,0,0,0,0,86,0,0,0,0,0,0,14,0,0,116,0,0,0,0,0,0,3,0,0,0,0,0,0,0,0,0,0,0,0,0,6,0,0,0,0,0,0,0,0,38,5,17,29
21.25,0,0,0,0,0,94,0,0,0,0,0,15,35,72,0,0,0,0,0,0,0,0,5,181,0,0,0,0,0,0,94,0,0,0,4,4,49,0,0,0,0,0,3,0,0,0,0,0,0,0,0,0,86,0,0,0,0,0,0,14,0,0,116,0,0,0,0,0,0,3,0,0,0,0,0,0,0,0,0,0,0,0,0,6,0,0,0,0,0,0,0,0,38,5,17,29
21.5,0,0,0,0,0,94,0,0,0,0,0,15,35,72,0,0,0,0,0,0,0,0,5,183,0,0,0,0,0,0,94,0,0,0,4,4,49,0,0,0,0,0,3,0,0,0,0,0,0,0,0,0,86,0,0,0,0,0,0,14,0,0,116,0,0,0,0,0,0,3,0,0,0,0,0,0,0,0,0,0,0,0,0,6,0,0,0,0,0,0,0,0,38,5,17,29
21.75,0,0,0,0,0,94,0,0,0,0,0,15,35,72,0,0,0,0,0,0,0,0,5,183,0,0,0,0,0,0,97,0,0,0,4,4,49,0,0,0,0,0,3,0,0,0,0,0,0,0,0,0,86,0,0,0,0,0,0,14,0,0,116,0,0,0,0,0,0,3,0,0,0,0,0,0,0,0,0,0,0,0,0,6,0,0,0,0,0,0,0,0,38,5,17,29
22,0,0,0,0,0,94,0,0,0,0,0,15,35,72,0,0,0,0,0,0,0,0,5,183,0,0,0,0,0,0,97,0,0,0,4,4,49,0,0,0,0,0,3,0,0,0,0,0,0,0,0,0,86,0,0,0,0,0,0,14,0,0,116,0,0,0,0,0,0,3,0,0,0,0,0,0,0,0,0,0,0,0,0,6,0,0,0,0,0,0,0,0,38,5,17,29
22.25,0,0,0,0,0,94,0,0,0,0,0,15,35,72,0,0,0,0,0,0,0,0,5,184,0,0,0,0,0,0,97,0,0,0,4,4,49,0,0,0,0,0,3,0,0,0,0,0,0,0,0,0,86,0,0,0,0,0,0,14,0,0,116,0,0,0,0,0,0,3,0,0,0,0,0,0,0,0,0,0,0,0,0,6,0,0,0,0,0,0,0,0,38,5,17,29
22.5,0,0,0,0,0,94,0,0,0,0,0,15,35,72,0,0,0,0,0,0,0,0,5,185,0,0,0,0,0,0,98,0,0,0,4,4,49,0,0,0,0,0,3,0,0,0,0,0,0,0,0,0,86,0,0,0,0,0,0,14,0,0,116,0,0,0,0,0,0,3,0,0,0,0,0,0,0,0,0,0,0,0,0,6,0,0,0,0,0,0,0,0,38,5,17,29
22.75,0,0,0,0,0,94,0,0,0,0,0,15,35,72,0,0,0,0,0,0,0,0,5,185,0,0,0,0,0,0,98,0,0,0,4,4,49,0,0,0,0,0,3,0,0,0,0,0,0,0,0,0,86,0,0,0,0,0,0,14,0,0,116,0,0,0,0,0,0,3,0,0,0,0,0,0,0,0,0,0,0,0,0,6,0,0,0,0,0,0,0,0,38,5,17,29
23,0,0,0,0,0,94,0,0,0,0,0,15,35,72,0,0,0,0,0,0,0,0,5,187,0,0,0,0,0,0,103,0,0,0,4,4,49,0,0,0,0,0,3,0,0,0,0,0,0,0,0,0,87,0,0,0,0,0,0,14,0,0,116,0,0,0,0,0,0,3,0,0,0,0,0,0,0,0,0,0,0,0,0,6,0,0,0,0,0,0,0,0,38,5,17,29
23.25,0,0,0,0,0,94,0,0,0,0,0,15,35,72,0,0,0,0,0,0,0,0,5,187,0,0,0,0,0,0,103,0,0,0,4,4,49,0,0,0,0,0,3,0,0,0,0,0,0,0,0,0,87,0,0,0,0,0,0,14,0,0,116,0,0,0,0,0,0,3,0,0,0,0,0,0,0,0,0,0,0,0,0,6,0,0,0,0,0,0,0,0,38,5,17,29
23.5,0,0,0,0,0,94,0,0,0,0,0,15,35,72,0,0,0,0,0,0,0,0,5,187,0,0,0,0,0,0,103,0,0,0,4,4,49,0,0,0,0,0,3,0,0,0,0,0,0,0,0,0,87,0,0,0,0,0,0,14,0,0,116,0,0,0,0,0,0,3,0,0,0,0,0,0,0,0,0,0,0,0,0,6,0,0,0,0,0,0,0,0,38,5,17,29
23.75,0,0,0,0,0,94,0,0,0,0,0,15,35,72,0,0,0,0,0,0,0,0,5,187,0,0,0,0,0,0,103,0,0,0,4,4,49,0,0,0,0,0,3,0,0,0,0,0,0,0,0,0,90,0,0,0,0,0,0,14,0,0,116,0,0,0,0,0,0,3,0,0,0,0,0,0,0,0,0,0,0,0,0,6,0,0,0,0,0,0,0,0,38,5,17,29
24,0,0,0,0,0,94,0,0,0,0,0,15,35,72,0,0,0,0,0,0,0,0,5,191,0,0,0,0,0,0,104,0,0,0,4,4,49,0,0,0,0,0,3,0,0,0,0,0,0,0,0,0,94,0,0,0,0,0,0,14,0,0,116,0,0,0,0,0,0,3,0,0,0,0,0,0,0,0,0,0,0,0,0,6,0,0,0,0,0,0,0,0,38,5,17,29
24.25,0,0,0,0,0,94,0,0,0,0,0,15,35,72,0,0,0,0,0,0,0,0,5,191,0,0,0,0,0,0,104,0,0,0,4,4,49,0,0,0,0,0,3,0,0,0,0,0,0,0,0,0,94,0,0,0,0,0,0,14,0,0,116,0,0,0,0,0,0,3,0,0,0,0,0,0,0,0,0,0,0,0,0,6,0,0,0,0,0,0,0,0,38,5,17,29
24.5,0,0,0,0,0,94,0,0,0,0,0,15,35,72,0,0,0,0,0,0,0,0,5,191,0,0,0,0,0,0,104,0,0,0,4,4,49,0,0,0,0,0,3,0,0,0,0,0,0,0,0,0,94,0,0,0,0,0,0,14,0,0,116,0,0,0,0,0,0,3,0,0,0,0,0,0,0,0,0,0,0,0,0,6,0,0,0,0,0,0,0,0,38,5,17,29
24.75,0,0,0,0,0,94,0,0,0,0,0,15,35,72,0,0,0,0,0,0,0,0,5,191,0,0,0,0,0,0,104,0,0,0,4,4,49,0,0,0,0,0,3,0,0,0,0,0,0,0,0,0,94,0,0,0,0,0,0,14,0,0,116,0,0,0,0,0,0,3,0,0,0,0,0,0,0,0,0,0,0,0,0,6,0,0,0,0,0,0,0,0,38,5,17,29
25,0,0,0,0,0,94,0,0,0,0,0,15,35,72,0,0,0,0,0,0,0,0,5,191,0,0,0,0,0,0,105,0,0,0,4,4,49,0,0,0,0,0,3,0,0,0,0,0,0,0,0,0,97,0,0,0,0,0,0,14,0,0,116,0,0,0,0,0,0,3,0,0,0,0,0,0,0,0,0,0,0,0,0,6,0,0,0,0,0,0,0,0,38,5,17,29
25.25,0,0,0,0,0,94,0,0,0,0,0,15,35,72,0,0,0,0,0,0,0,0,5,191,0,0,0,0,0,0,107,0,0,0,4,4,49,0,0,0,0,0,3,0,0,0,0,0,0,0,0,0,97,0,0,0,0,0,0,14,0,0,116,0,0,0,0,0,0,3,0,0,0,0,0,0,0,0,0,0,0,0,0,6,0,0,0,0,0,0,0,0,38,5,17,29
25.5,0,0,0,0,0,94,0,0,0,0,0,15,35,72,0,0,0,0,0,0,0,0,5,191,0,0,0,0,0,0,107,0,0,0,4,4,49,0,0,0,0,0,3,0,0,0,0,0,0,0,0,0,97,0,0,0,0,0,0,14,0,0,116,0,0,0,0,0,0,3,0,0,0,0,0,0,0,0,0,0,0,0,0,6,0,0,0,0,0,0,0,0,38,5,17,29
25.75,0,0,0,0,0,94,0,0,0,0,0,15,35,72,0,0,0,0,0,0,0,0,5,191,0,0,0,0,0,0,107,0,0,0,4,4,49,0,0,0,0,0,3,0,0,0,0,0,0,0,0,0,99,0,0,0,0,0,0,14,0,0,116,0,0,0,0,0,0,3,0,0,0,0,0,0,0,0,0,0,0,0,0,6,0,0,0,0,0,0,0,0,38,5,17,29
26,0,0,0,0,0,94,0,0,0,0,0,15,35,72,0,0,0,0,0,0,0,0,5,192,0,0,0,0,0,0,107,0,0,0,4,4,49,0,0,0,0,0,3,0,0,0,0,0,0,0,0,0,99,0,0,0,0,0,0,14,0,0,116,0,0,0,0,0,0,3,0,0,0,0,0,0,0,0,0,0,0,0,0,6,0,0,0,0,0,0,0,0,38,5,17,29
26.25,0,0,0,0,0,89,0,0,0,0,0,10,30,67,0,0,0,0,0,0,0,0,0,191,0,0,0,0,0,0,106,0,0,0,0,0,44,0,0,0,0,0,0,0,0,0,0,0,0,0,0,0,103,0,0,0,0,0,0,9,0,0,111,0,0,0,0,0,0,0,0,0,0,0,0,0,0,0,0,0,0,0,0,1,0,0,0,0,0,0,0,0,33,0,12,24
26.5,0,0,0,0,0,89,0,0,0,0,0,10,30,67,0,0,0,0,0,0,0,0,0,191,0,0,0,0,0,0,106,0,0,0,0,0,44,0,0,0,0,0,0,0,0,0,0,0,0,0,0,0,103,0,0,0,0,0,0,9,0,0,111,0,0,0,0,0,0,0,0,0,0,0,0,0,0,0,0,0,0,0,0,1,0,0,0,0,0,0,0,0,33,0,12,24
26.75,0,0,0,0,0,89,0,0,0,0,0,10,30,67,0,0,0,0,0,0,0,0,0,191,0,0,0,0,0,0,106,0,0,0,0,0,44,0,0,0,0,0,0,0,0,0,0,0,0,0,0,0,103,0,0,0,0,0,0,9,0,0,111,0,0,0,0,0,0,0,0,0,0,0,0,0,0,0,0,0,0,0,0,1,0,0,0,0,0,0,0,0,33,0,12,24
27,0,0,0,0,0,89,0,0,0,0,0,10,30,67,0,0,0,0,0,0,0,0,0,191,0,0,0,0,0,0,106,0,0,0,0,0,44,0,0,0,0,0,0,0,0,0,0,0,0,0,0,0,103,0,0,0,0,0,0,9,0,0,111,0,0,0,0,0,0,0,0,0,0,0,0,0,0,0,0,0,0,0,0,1,0,0,0,0,0,0,0,0,33,0,12,24
27.25,0,0,0,0,0,89,0,0,0,0,0,10,30,67,0,0,0,0,0,0,0,0,0,191,0,0,0,0,0,0,106,0,0,0,0,0,44,0,0,0,0,0,0,0,0,0,0,0,0,0,0,0,107,0,0,0,0,0,0,9,0,0,111,0,0,0,0,0,0,3,0,0,0,0,0,0,0,0,0,0,0,0,0,1,0,0,0,0,0,0,0,0,33,0,12,24
27.5,0,0,0,0,0,89,0,0,0,0,0,10,30,67,0,0,0,0,0,0,0,0,0,191,0,0,0,0,0,0,106,0,0,0,0,0,44,0,0,0,0,0,0,0,0,0,0,0,0,0,0,0,107,0,0,0,0,0,0,9,0,0,111,0,0,0,0,0,0,3,0,0,0,0,0,0,0,0,0,0,0,0,0,1,0,0,0,0,0,0,0,0,33,0,12,24
27.75,0,0,0,0,0,89,0,0,0,0,0,10,30,67,0,0,0,0,0,0,0,0,0,191,0,0,0,0,0,0,106,0,0,0,0,0,44,0,0,0,0,0,0,0,0,0,0,0,0,0,0,0,111,0,0,0,0,0,0,9,0,0,111,0,0,0,0,0,0,3,0,0,0,0,0,0,0,0,0,0,0,0,0,1,0,0,0,0,0,0,0,0,33,0,12,24
28,0,0,0,0,0,89,0,0,0,0,0,10,30,67,0,0,0,0,0,0,0,0,0,192,0,0,0,0,0,0,106,0,0,0,0,0,44,0,0,0,0,0,0,0,0,0,0,0,0,0,0,0,111,0,0,0,0,0,0,9,0,0,111,0,0,0,0,0,0,3,0,0,0,0,0,0,0,0,0,0,0,0,0,1,0,0,0,0,0,0,0,0,33,0,12,24
28.25,0,0,0,0,0,88,0,0,0,0,0,9,29,66,0,0,0,0,0,0,0,0,0,191,0,0,0,0,0,0,105,0,0,0,0,0,43,0,0,0,0,0,0,0,0,0,0,0,0,0,0,0,110,0,0,0,0,0,0,8,0,0,110,0,0,0,0,0,0,2,0,0,0,0,0,0,0,0,0,0,0,0,0,0,0,0,0,0,0,0,0,0,32,0,11,23
28.5,0,0,0,0,0,88,0,0,0,0,0,9,29,66,0,0,0,0,0,0,0,0,0,194,0,0,0,0,0,0,106,0,0,0,0,0,43,0,0,0,0,0,0,0,0,0,0,0,0,0,0,0,110,0,0,0,0,0,0,8,0,0,110,0,0,0,0,0,0,2,0,0,0,0,0,0,0,0,0,0,0,0,0,0,0,0,0,0,0,0,0,0,32,0,11,23
28.75,0,0,0,0,0,86,0,0,0,0,0,7,27,64,0,0,0,0,0,0,0,0,0,192,0,0,0,0,0,0,104,0,0,0,0,0,41,0,0,0,0,0,0,0,0,0,0,0,0,0,0,0,108,0,0,0,0,0,0,6,0,0,108,0,0,0,0,0,0,8,0,0,0,0,0,0,0,0,0,0,0,0,0,0,0,0,0,0,0,0,0,0,30,0,9,21
29,0,0,0,0,0,86,0,0,0,0,0,7,27,64,0,0,0,0,0,0,0,0,0,192,0,0,0,0,0,0,104,0,0,0,0,0,41,0,0,0,0,0,0,0,0,0,0,0,0,0,0,0,108,0,0,0,0,0,0,6,0,0,108,0,0,0,0,0,0,8,0,0,0,0,0,0,0,0,0,0,0,0,0,0,0,0,0,0,0,0,0,0,30,0,9,21
29.25,0,0,0,0,0,86,0,0,0,0,0,7,27,64,0,0,0,0,0,0,0,0,0,192,0,0,0,0,0,0,104,0,0,0,0,0,41,0,0,0,0,0,0,0,0,0,0,0,0,0,0,0,108,0,0,0,0,0,0,6,0,0,108,0,0,0,0,0,0,8,0,0,0,0,0,0,0,0,0,0,0,0,0,0,0,0,0,0,0,0,0,0,30,0,9,21
29.5,0,0,0,0,0,86,0,0,0,0,0,7,27,64,0,0,0,0,0,0,0,0,0,192,0,0,0,0,0,0,104,0,0,0,0,0,41,0,0,0,0,0,0,0,0,0,0,0,0,0,0,0,108,0,0,0,0,0,0,6,0,0,108,0,0,0,0,0,0,8,0,0,0,0,0,0,0,0,0,0,0,0,0,0,0,0,0,0,0,0,0,0,30,0,9,21
29.75,0,0,0,0,0,86,0,0,0,0,0,7,27,64,0,0,0,0,0,0,0,0,0,192,0,0,0,0,0,0,104,0,0,0,0,0,41,0,0,0,0,0,0,0,0,0,0,0,0,0,0,0,108,0,0,0,0,0,0,6,0,0,108,0,0,0,0,0,0,8,0,0,0,0,0,0,0,0,0,0,0,0,0,0,0,0,0,0,0,0,0,0,30,0,9,21
30,0,0,0,0,0,86,0,0,0,0,0,7,27,64,0,0,0,0,0,0,0,0,0,193,0,0,0,0,0,0,104,0,0,0,0,0,41,0,0,0,0,0,0,0,0,0,0,0,0,0,0,0,108,0,0,0,0,0,0,6,0,0,108,0,0,0,0,0,0,8,0,0,0,0,0,0,0,0,0,0,0,0,0,0,0,0,0,0,0,0,0,0,30,0,9,21
30.25,0,0,0,0,0,86,0,0,0,0,0,7,27,64,0,0,0,0,0,0,0,0,0,193,0,0,0,0,0,0,104,0,0,0,0,0,41,0,0,0,0,0,0,0,0,0,0,0,0,0,0,0,108,0,0,0,0,0,0,6,0,0,108,0,0,0,0,0,0,8,0,0,0,0,0,0,0,0,0,0,0,0,0,0,0,0,0,0,0,0,0,0,30,0,9,21
30.5,0,0,0,0,0,86,0,0,0,0,0,7,27,64,0,0,0,0,0,0,0,0,0,193,0,0,0,0,0,0,104,0,0,0,0,0,41,0,0,0,0,0,0,0,0,0,0,0,0,0,0,0,108,0,0,0,0,0,0,6,0,0,108,0,0,0,0,0,0,8,0,0,0,0,0,0,0,0,0,0,0,0,0,0,0,0,0,0,0,0,0,0,30,0,9,22
30.75,0,0,0,0,0,85,0,0,0,0,0,6,26,63,0,0,0,0,0,0,0,0,0,194,0,0,0,0,0,0,103,0,0,0,0,0,40,0,0,0,0,0,0,0,0,0,0,0,0,0,0,0,107,0,0,0,0,0,0,5,0,0,107,0,0,0,0,0,0,7,0,0,0,0,0,0,0,0,0,0,0,0,0,0,0,0,0,0,0,0,0,0,29,0,8,21
31,0,0,0,0,0,85,0,0,0,0,0,6,26,63,0,0,0,0,0,0,0,0,0,194,0,0,0,0,0,0,103,0,0,0,0,0,40,0,0,0,0,0,0,0,0,0,0,0,0,0,0,0,107,0,0,0,0,0,0,5,0,0,107,0,0,0,0,0,0,7,0,0,0,0,0,0,0,0,0,0,0,0,0,0,0,0,0,0,0,0,0,0,29,0,8,21
31.25,0,0,0,0,0,85,0,0,0,0,0,6,26,63,0,0,0,0,0,0,0,0,0,194,0,0,0,0,0,0,103,0,0,0,0,0,40,0,0,0,0,0,0,0,0,0,0,0,0,0,0,0,107,0,0,0,0,0,0,5,0,0,107,0,0,0,0,0,0,7,0,0,0,0,0,0,0,0,0,0,0,0,0,0,0,0,0,0,0,0,0,0,29,0,8,21
31.5,0,0,0,0,0,85,0,0,0,0,0,6,26,63,0,0,0,0,0,0,0,0,0,195,0,0,0,0,0,0,103,0,0,0,0,0,40,0,0,0,0,0,0,0,0,0,0,0,0,0,0,0,107,0,0,0,0,0,0,5,0,0,107,0,0,0,0,0,0,7,0,0,0,0,0,0,0,0,0,0,0,0,0,0,0,0,0,0,0,0,0,0,29,0,8,21
31.75,0,0,0,0,0,85,0,0,0,0,0,6,26,63,0,0,0,0,0,0,0,0,0,195,0,0,0,0,0,0,103,0,0,0,0,0,40,0,0,0,0,0,0,0,0,0,0,0,0,0,0,0,107,0,0,0,0,0,0,5,0,0,107,0,0,0,0,0,0,7,0,0,0,0,0,0,0,0,0,0,0,0,0,0,0,0,0,0,0,0,0,0,29,0,8,21
32,0,0,0,0,0,85,0,0,0,0,0,6,26,63,0,0,0,0,0,0,0,0,0,195,0,0,0,0,0,0,103,0,0,0,0,0,40,0,0,0,0,0,0,0,0,0,0,0,0,0,0,0,107,0,0,0,0,0,0,5,0,0,107,0,0,0,0,0,0,7,0,0,0,0,0,0,0,0,0,0,0,0,0,0,0,0,0,0,0,0,0,0,29,0,8,21
32.25,0,0,0,0,0,80,0,0,0,0,0,1,21,58,0,0,0,0,0,0,0,0,0,190,0,0,0,0,0,0,98,0,0,0,0,0,35,0,0,0,0,0,0,0,0,0,0,0,0,0,0,0,102,0,0,0,0,0,0,0,0,0,102,0,0,0,0,0,0,2,0,0,0,0,0,0,0,0,0,0,0,0,0,0,0,0,0,0,0,0,0,0,24,0,3,16
32.5,0,0,0,0,0,80,0,0,0,0,0,1,21,58,0,0,0,0,0,0,0,0,0,190,0,0,0,0,0,0,98,0,0,0,0,0,35,0,0,0,0,0,0,0,0,0,0,0,0,0,0,0,102,0,0,0,0,0,0,0,0,0,102,0,0,0,0,0,0,2,0,0,0,0,0,0,0,0,0,0,0,0,0,0,0,0,0,0,0,0,0,0,24,0,3,16
32.75,0,0,0,0,0,80,0,0,0,0,0,1,21,58,0,0,0,0,0,0,0,0,0,191,0,0,0,0,0,0,104,0,0,0,0,0,35,0,0,0,0,0,0,0,0,0,0,0,0,0,0,0,102,0,0,0,0,0,0,0,0,0,102,0,0,0,0,0,0,2,0,0,0,0,0,0,0,0,0,0,0,0,0,0,0,0,0,0,0,0,0,0,24,0,3,16
33,0,0,0,0,0,80,0,0,0,0,0,1,21,58,0,0,0,0,0,0,0,0,0,193,0,0,0,0,0,0,106,0,0,0,0,0,35,0,0,0,0,0,0,0,0,0,0,0,0,0,0,0,102,0,0,0,0,0,0,0,0,0,102,0,0,0,0,0,0,2,0,0,0,0,0,0,0,0,0,0,0,0,0,0,0,0,0,0,0,0,0,0,24,0,3,16
33.25,0,0,0,0,0,80,0,0,0,0,0,1,21,58,0,0,0,0,0,0,0,0,0,193,0,0,0,0,0,0,106,0,0,0,0,0,35,0,0,0,0,0,0,0,0,0,0,0,0,0,0,0,102,0,0,0,0,0,0,0,0,0,102,0,0,0,0,0,0,2,0,0,0,0,0,0,0,0,0,0,0,0,0,0,0,0,0,0,0,0,0,0,24,0,3,16
33.5,0,0,0,0,0,80,0,0,0,0,0,1,21,58,0,0,0,0,0,0,0,0,0,193,0,0,0,0,0,0,106,0,0,0,0,0,35,0,0,0,0,0,0,0,0,0,0,0,0,0,0,0,102,0,0,0,0,0,0,0,0,0,102,0,0,0,0,0,0,2,0,0,0,0,0,0,0,0,0,0,0,0,0,0,0,0,0,0,0,0,0,0,24,0,3,19
33.75,0,0,0,0,0,80,0,0,0,0,0,1,21,58,0,0,0,0,0,0,0,0,0,193,0,0,0,0,0,0,106,0,0,0,0,0,35,0,0,0,0,0,0,0,0,0,0,0,0,0,0,0,102,0,0,0,0,0,0,0,0,0,102,0,0,0,0,0,0,2,0,0,0,0,0,0,0,0,0,0,0,0,0,0,0,0,0,0,0,0,0,0,24,0,3,19
34,0,0,0,0,0,80,0,0,0,0,0,1,21,58,0,0,0,0,0,0,0,0,0,193,0,0,0,0,0,0,106,0,0,0,0,0,35,0,0,0,0,0,0,0,0,0,0,0,0,0,0,0,102,0,0,0,0,0,0,0,0,0,102,0,0,0,0,0,0,2,0,0,0,0,0,0,0,0,0,0,0,0,0,0,0,0,0,0,0,0,0,0,24,0,3,19
34.25,0,0,0,0,0,80,0,0,0,0,0,1,21,58,0,0,0,0,0,0,0,0,0,194,0,0,0,0,0,0,107,0,0,0,0,0,35,0,0,0,0,0,0,0,0,0,0,0,0,0,0,0,102,0,0,0,0,0,0,0,0,0,102,0,0,0,0,0,0,2,0,0,0,0,0,0,0,0,0,0,0,0,0,0,0,0,0,0,0,0,0,0,24,0,3,19
34.5,0,0,0,0,0,80,0,0,0,0,0,1,21,58,0,0,0,0,0,0,0,0,0,194,0,0,0,0,0,0,107,0,0,0,0,0,35,0,0,0,0,0,0,0,0,0,0,0,0,0,0,0,102,0,0,0,0,0,0,0,0,0,102,0,0,0,0,0,0,2,0,0,0,0,0,0,0,0,0,0,0,0,0,0,0,0,0,0,0,0,0,0,24,0,3,19
34.75,0,0,0,0,0,80,0,0,0,0,0,1,21,58,0,0,0,0,0,0,0,0,0,194,0,0,0,0,0,0,107,0,0,0,0,0,35,0,0,0,0,0,0,0,0,0,0,0,0,0,0,0,102,0,0,0,0,0,0,0,0,0,102,0,0,0,0,0,0,2,0,0,0,0,0,0,0,0,0,0,0,0,0,0,0,0,0,0,0,0,0,0,24,0,3,20
35,0,0,0,0,0,80,0,0,0,0,0,1,21,58,0,0,0,0,0,0,0,0,0,194,0,0,0,0,0,0,107,0,0,0,0,0,35,0,0,0,0,0,0,0,0,0,0,0,0,0,0,0,102,0,0,0,0,0,0,0,0,0,102,0,0,0,0,0,0,2,0,0,0,0,0,0,0,0,0,0,0,0,0,0,0,0,0,0,0,0,0,0,24,0,3,20
35.25,0,0,0,0,0,80,0,0,0,0,0,1,21,58,0,0,0,0,0,0,0,0,0,194,0,0,0,0,0,0,107,0,0,0,0,0,35,0,0,0,0,0,0,0,0,0,0,0,0,0,0,0,102,0,0,0,0,0,0,0,0,0,102,0,0,0,0,0,0,2,0,0,0,0,0,0,0,0,0,0,0,0,0,0,0,0,0,0,0,0,0,0,24,0,3,20
35.5,0,0,0,0,0,80,0,0,0,0,0,1,21,58,0,0,0,0,0,0,0,0,0,194,0,0,0,0,0,0,107,0,0,0,0,0,35,0,0,0,0,0,0,0,0,0,0,0,0,0,0,0,102,0,0,0,0,0,0,0,0,0,102,0,0,0,0,0,0,2,0,0,0,0,0,0,0,0,0,0,0,0,0,0,0,0,0,0,0,0,0,0,24,0,7,24
35.75,0,0,0,0,0,80,0,0,0,0,0,1,21,58,0,0,0,0,0,0,0,0,0,195,0,0,0,0,0,0,111,0,0,0,0,0,35,0,0,0,0,0,0,0,0,0,0,0,0,0,0,0,102,0,0,0,0,0,0,0,0,0,102,0,0,0,0,0,0,2,0,0,0,0,0,0,0,0,0,0,0,0,0,0,0,0,0,0,0,0,0,0,24,0,7,24
36,0,0,0,0,0,80,0,0,0,0,0,1,21,58,0,0,0,0,0,0,0,0,0,195,0,0,0,0,0,0,111,0,0,0,0,0,35,0,0,0,0,0,0,0,0,0,0,0,0,0,0,0,102,0,0,0,0,0,0,0,0,0,102,0,0,0,0,0,0,2,0,0,0,0,0,0,0,0,0,0,0,0,0,0,0,0,0,0,0,0,0,0,24,0,7,24
36.25,0,0,0,0,0,80,0,0,0,0,0,1,21,58,0,0,0,0,0,0,0,0,0,195,0,0,0,0,0,0,111,0,0,0,0,0,35,0,0,0,0,0,0,0,0,0,0,0,0,0,0,0,102,0,0,0,0,0,0,0,0,0,102,0,0,0,0,0,0,2,0,0,0,0,0,0,0,0,0,0,0,0,0,0,0,0,0,0,0,0,0,0,24,0,7,24
36.5,0,0,0,0,0,80,0,0,0,0,0,1,21,58,0,0,0,0,0,0,0,0,0,195,0,0,0,0,0,0,111,0,0,0,0,0,35,0,0,0,0,0,0,0,0,0,0,0,0,0,0,0,102,0,0,0,0,0,0,0,0,0,102,0,0,0,0,0,0,2,0,0,0,0,0,0,0,0,0,0,0,0,0,0,0,0,0,0,0,0,0,0,24,0,7,24
36.75,0,0,0,0,0,80,0,0,0,0,0,1,21,58,0,0,0,0,0,0,0,0,0,195,0,0,0,0,0,0,111,0,0,0,0,0,35,0,0,0,0,0,0,0,0,0,0,0,0,0,0,0,102,0,0,0,0,0,0,0,0,0,102,0,0,0,0,0,0,2,0,0,0,0,0,0,0,0,0,0,0,0,0,0,0,0,0,0,0,0,0,0,24,0,7,24
37,0,0,0,0,0,80,0,0,0,0,0,1,21,58,0,0,0,0,0,0,0,0,0,198,0,0,0,0,0,0,111,0,0,0,0,0,35,0,0,0,0,0,0,0,0,0,0,0,0,0,0,0,102,0,0,0,0,0,0,0,0,0,102,0,0,0,0,0,0,2,0,0,0,0,0,0,0,0,0,0,0,0,0,0,0,0,0,0,0,0,0,0,24,0,7,24
37.25,0,0,0,0,0,79,0,0,0,0,0,0,20,57,0,0,0,0,0,0,0,0,0,197,0,0,0,0,0,0,110,0,0,0,0,0,34,0,0,0,0,0,0,0,0,0,0,0,0,0,0,0,101,0,0,0,0,0,0,0,0,0,101,0,0,0,0,0,0,1,0,0,0,0,0,0,0,0,0,0,0,0,0,0,0,0,0,0,0,0,0,0,23,0,6,23
37.5,0,0,0,0,0,79,0,0,0,0,0,0,20,57,0,0,0,0,0,0,0,0,0,197,0,0,0,0,0,0,110,0,0,0,0,0,34,0,0,0,0,0,0,0,0,0,0,0,0,0,0,0,101,0,0,0,0,0,0,0,0,0,101,0,0,0,0,0,0,1,0,0,0,0,0,0,0,0,0,0,0,0,0,0,0,0,0,0,0,0,0,0,23,0,6,23
37.75,0,0,0,0,0,79,0,0,0,0,0,0,20,57,0,0,0,0,0,0,0,0,0,197,0,0,0,0,0,0,110,0,0,0,0,0,34,0,0,0,0,0,0,0,0,0,0,0,0,0,0,0,101,0,0,0,0,0,0,0,0,0,101,0,0,0,0,0,0,1,0,0,0,0,0,0,0,0,0,0,0,0,0,0,0,0,0,0,0,0,0,0,23,0,6,23
38,0,0,0,0,0,79,0,0,0,0,0,0,20,57,0,0,0,0,0,0,0,0,0,197,0,0,0,0,0,0,110,0,0,0,0,0,34,0,0,0,0,0,0,0,0,0,0,0,0,0,0,0,101,0,0,0,0,0,0,0,0,0,101,0,0,0,0,0,0,1,0,0,0,0,0,0,0,0,0,0,0,0,0,0,0,0,0,0,0,0,0,0,23,0,6,27
38.25,0,0,0,0,0,78,0,0,0,0,0,0,19,56,0,0,0,0,0,0,0,0,0,196,0,0,0,0,0,0,109,0,0,0,0,0,33,0,0,0,0,0,0,0,0,0,0,0,0,0,0,0,100,0,0,0,0,0,0,0,0,0,100,0,0,0,0,0,0,0,0,0,0,0,0,0,0,0,0,0,0,0,0,0,0,0,0,0,0,0,0,0,22,0,5,26
38.5,0,0,0,0,0,76,0,0,0,0,0,0,17,54,0,0,0,0,0,0,0,0,0,194,0,0,0,0,0,0,107,0,0,0,0,0,31,0,0,0,0,0,0,0,0,0,0,0,0,0,0,0,98,0,0,0,0,0,0,0,0,0,98,0,0,0,0,0,0,0,0,0,0,0,0,0,0,0,0,0,0,0,0,0,0,0,0,0,0,0,0,0,20,0,3,24
38.75,0,0,0,0,0,76,0,0,0,0,0,0,17,54,0,0,0,0,0,0,0,0,0,194,0,0,0,0,0,0,107,0,0,0,0,0,31,0,0,0,0,0,0,0,0,0,0,0,0,0,0,0,98,0,0,0,0,0,0,0,0,0,98,0,0,0,0,0,0,0,0,0,0,0,0,0,0,0,0,0,0,0,0,0,0,0,0,0,0,0,0,0,20,0,3,24
39,0,0,0,0,0,76,0,0,0,0,0,0,17,54,0,0,0,0,0,0,0,0,0,203,0,0,0,0,0,0,107,0,0,0,0,0,31,0,0,0,0,0,0,0,0,0,0,0,0,0,0,0,98,0,0,0,0,0,0,0,0,0,98,0,0,0,0,0,0,0,0,0,0,0,0,0,0,0,0,0,0,0,0,0,0,0,0,0,0,0,0,0,20,0,3,24
39.25,0,0,0,0,0,74,0,0,0,0,0,0,15,52,0,0,0,0,0,0,0,0,0,201,0,0,0,0,0,0,105,0,0,0,0,0,29,0,0,0,0,0,0,0,0,0,0,0,0,0,0,0,96,0,0,0,0,0,0,0,0,0,96,0,0,0,0,0,0,0,0,0,0,0,0,0,0,0,0,0,0,0,0,0,0,0,0,0,0,0,0,0,18,0,1,22
39.5,0,0,0,0,0,74,0,0,0,0,0,0,15,52,0,0,0,0,0,0,0,0,0,201,0,0,0,0,0,0,105,0,0,0,0,0,29,0,0,0,0,0,0,0,0,0,0,0,0,0,0,0,96,0,0,0,0,0,0,0,0,0,96,0,0,0,0,0,0,0,0,0,0,0,0,0,0,0,0,0,0,0,0,0,0,0,0,0,0,0,0,0,18,0,1,22
39.75,0,0,0,0,0,74,0,0,0,0,0,0,15,52,0,0,0,0,0,0,0,0,0,201,0,0,0,0,0,0,105,0,0,0,0,0,29,0,0,0,0,0,0,0,0,0,0,0,0,0,0,0,96,0,0,0,0,0,0,0,0,0,96,0,0,0,0,0,0,0,0,0,0,0,0,0,0,0,0,0,0,0,0,0,0,0,0,0,0,0,0,0,18,0,3,27
40,0,0,0,0,0,74,0,0,0,0,0,0,15,52,0,0,0,0,0,0,0,0,0,201,0,0,0,0,0,0,105,0,0,0,0,0,29,0,0,0,0,0,0,0,0,0,0,0,0,0,0,0,96,0,0,0,0,0,0,0,0,0,96,0,0,0,0,0,0,0,0,0,0,0,0,0,0,0,0,0,0,0,0,0,0,0,0,0,0,0,0,0,18,0,3,27
40.25,0,0,0,0,0,74,0,0,0,0,0,0,15,52,0,0,0,0,0,0,0,0,0,201,0,0,0,0,0,0,105,0,0,0,0,0,29,0,0,0,0,0,0,0,0,0,0,0,0,0,0,0,96,0,0,0,0,0,0,0,0,0,96,0,0,0,0,0,0,0,0,0,0,0,0,0,0,0,0,0,0,0,0,0,0,0,0,0,0,0,0,0,18,0,3,27
40.5,0,0,0,0,0,74,0,0,0,0,0,0,15,52,0,0,0,0,0,0,0,0,0,201,0,0,0,0,0,0,105,0,0,0,0,0,29,0,0,0,0,0,0,0,0,0,0,0,0,0,0,0,96,0,0,0,0,0,0,0,0,0,96,0,0,0,0,0,0,0,0,0,0,0,0,0,0,0,0,0,0,0,0,0,0,0,0,0,0,0,0,0,18,0,3,27
40.75,0,0,0,0,0,74,0,0,0,0,0,0,15,52,0,0,0,0,0,0,0,0,0,201,0,0,0,0,0,0,105,0,0,0,0,0,29,0,0,0,0,0,0,0,0,0,0,0,0,0,0,0,96,0,0,0,0,0,0,0,0,0,96,0,0,0,0,0,0,0,0,0,0,0,0,0,0,0,0,0,0,0,0,0,0,0,0,0,0,0,0,0,18,0,3,27
41,0,0,0,0,0,74,0,0,0,0,0,0,15,52,0,0,0,0,0,0,0,0,0,201,0,0,0,0,0,0,105,0,0,0,0,0,29,0,0,0,0,0,0,0,0,0,0,0,0,0,0,0,96,0,0,0,0,0,0,0,0,0,96,0,0,0,0,0,0,0,0,0,0,0,0,0,0,0,0,0,0,0,0,0,0,0,0,0,0,0,0,0,18,0,3,27
41.25,0,0,0,0,0,74,0,0,0,0,0,0,15,52,0,0,0,0,0,0,0,0,0,201,0,0,0,0,0,0,105,0,0,0,0,0,29,0,0,0,0,0,0,0,0,0,0,0,0,0,0,0,96,0,0,0,0,1,0,0,0,0,96,0,0,0,0,0,0,0,0,0,0,0,0,0,0,0,0,0,0,0,0,0,0,0,0,0,0,0,0,0,18,0,3,27
41.5,0,0,0,0,0,74,0,0,0,0,0,0,15,52,0,0,0,0,0,0,0,0,0,205,0,0,0,0,0,0,105,0,0,0,0,0,29,0,0,0,0,0,0,0,0,0,0,0,0,0,0,0,96,0,0,0,0,10,0,0,0,0,96,0,0,0,0,0,0,0,0,0,0,0,0,0,0,0,0,0,0,0,0,0,0,0,0,0,0,0,0,0,18,0,3,27
41.75,0,0,0,0,0,74,0,0,0,0,0,0,15,52,0,0,0,0,0,0,0,0,0,205,0,0,0,0,0,0,105,0,0,0,0,0,29,0,0,0,0,0,0,0,0,0,0,0,0,0,0,0,96,0,0,0,0,20,0,0,0,0,96,0,0,0,0,0,0,0,0,0,0,0,0,0,0,0,0,0,0,0,0,0,0,0,0,0,0,0,0,0,18,0,3,27
42,0,0,0,0,0,74,0,0,0,0,0,0,15,52,0,0,0,0,0,0,0,0,0,205,0,0,0,0,0,0,105,0,0,0,0,0,29,0,0,0,0,0,0,0,0,0,0,0,0,0,0,0,96,0,0,0,0,27,0,0,0,0,96,0,0,0,0,0,0,0,0,0,0,0,0,0,0,0,0,0,0,0,0,0,0,0,0,0,0,0,0,0,18,0,6,30
42.25,0,0,0,0,0,74,0,0,0,0,0,0,15,52,0,0,0,0,0,0,0,0,0,205,0,0,0,0,0,0,105,0,0,0,0,0,29,0,0,0,0,0,0,0,0,0,0,0,0,0,0,0,96,0,0,0,0,28,0,0,0,0,96,0,0,0,0,0,0,0,0,0,0,0,0,0,0,0,0,0,0,0,0,0,0,0,0,0,0,0,0,0,18,0,6,30
42.5,0,0,0,0,0,73,0,0,0,0,0,0,14,51,0,0,0,0,0,0,0,0,0,204,0,0,0,0,0,0,104,0,0,0,0,0,28,0,0,0,0,0,0,0,0,0,0,0,0,0,0,0,95,0,0,0,0,30,0,0,0,0,95,0,0,0,0,0,0,0,0,0,0,0,0,0,0,0,0,0,0,0,0,0,0,0,0,0,0,0,0,0,17,0,5,29
42.75,0,0,0,0,0,73,0,0,0,0,0,0,14,51,0,0,0,0,0,0,0,0,0,204,0,0,0,0,0,0,104,0,0,0,0,0,28,0,0,0,0,0,0,0,0,0,0,0,0,0,0,0,95,0,0,0,0,31,0,0,0,0,95,0,0,0,0,0,0,0,0,0,0,0,0,0,0,0,0,0,0,0,0,0,0,0,0,0,0,0,0,0,17,0,5,29
43,0,0,0,0,0,73,0,0,0,0,0,0,14,51,0,0,0,0,0,0,0,0,0,204,0,0,0,0,0,0,104,0,0,0,0,0,28,0,0,0,0,0,0,0,0,0,0,0,0,0,0,0,95,0,0,0,0,31,0,0,0,0,95,0,0,0,0,0,0,0,0,0,0,0,0,0,0,0,0,0,0,0,0,0,0,0,0,0,0,0,0,0,17,0,5,29
43.25,0,0,0,0,0,73,0,0,0,0,0,0,14,51,0,0,0,0,0,0,0,0,0,204,0,0,0,0,0,0,104,0,0,0,0,0,28,0,0,0,0,0,0,0,0,0,0,0,0,0,0,0,95,0,0,0,0,35,0,0,0,0,95,0,0,0,0,0,0,0,0,0,0,0,0,0,0,0,0,0,0,0,0,0,0,0,0,0,0,0,0,0,17,0,5,29
43.5,0,0,0,0,0,73,0,0,0,0,0,0,14,51,0,0,0,0,0,0,0,0,0,204,0,0,0,0,0,0,104,0,0,0,0,0,28,0,0,0,0,0,0,0,0,0,0,0,0,0,0,0,95,0,0,0,0,35,0,0,0,0,95,0,0,0,0,0,0,0,0,0,0,0,0,0,0,0,0,0,0,0,0,0,0,0,0,0,0,0,0,0,17,0,5,29
43.75,0,0,0,0,0,73,0,0,0,0,0,0,14,51,0,0,0,0,0,0,0,0,0,204,0,0,0,0,0,0,104,0,0,0,0,0,28,0,0,0,0,0,0,0,0,0,0,0,0,0,0,0,95,0,0,0,0,42,0,0,0,0,95,0,0,0,0,0,0,0,0,0,0,0,0,0,0,0,0,0,0,0,0,0,0,0,0,0,0,0,0,0,17,0,5,29
44,0,0,0,0,0,73,0,0,0,0,0,0,14,51,0,0,0,0,0,0,0,0,0,204,0,0,0,0,0,0,104,0,0,0,0,0,28,0,0,0,0,0,0,0,0,0,0,0,0,0,0,0,95,0,0,0,0,44,0,0,0,0,95,0,0,0,0,0,0,0,0,0,0,0,0,0,0,0,0,0,0,0,0,0,0,0,0,0,0,0,0,0,17,0,5,31
44.25,0,0,0,0,0,73,0,0,0,0,0,0,14,51,0,0,0,0,0,0,0,0,0,204,0,0,0,0,0,0,104,0,0,0,0,0,28,0,0,0,0,0,0,0,0,0,0,0,0,0,0,0,95,0,0,0,0,44,0,0,0,0,95,0,0,0,0,0,0,0,0,0,0,0,0,0,0,0,0,0,0,0,0,0,0,0,0,0,0,0,0,0,17,0,5,31
44.5,0,0,0,0,0,73,0,0,0,0,0,0,14,51,0,0,0,0,0,0,0,0,0,204,0,0,0,0,0,0,104,0,0,0,0,0,28,0,0,0,0,0,0,0,0,0,0,0,0,0,0,0,95,0,0,0,0,44,0,0,0,0,95,0,0,0,0,0,0,0,0,0,0,0,0,0,0,0,0,0,0,0,0,0,0,0,0,0,0,0,0,0,17,0,5,31
44.75,0,0,0,0,0,73,0,0,0,0,0,0,14,51,0,0,0,0,0,0,0,0,0,204,0,0,0,0,0,0,104,0,0,0,0,0,28,0,0,0,0,0,0,0,0,0,0,0,0,0,0,0,95,0,0,0,0,44,0,0,0,0,95,0,0,0,0,0,0,0,0,0,0,0,0,0,0,0,0,0,0,0,0,0,0,0,0,0,0,0,0,0,17,0,5,31
45,0,0,0,0,0,73,0,0,0,0,0,0,14,51,0,0,0,0,0,0,0,0,0,204,0,0,0,0,0,0,104,0,0,0,0,0,28,0,0,0,0,0,0,0,0,0,0,0,0,0,0,0,95,0,0,0,0,45,0,0,0,0,95,0,0,0,0,0,0,0,0,0,0,0,0,0,0,0,0,0,0,0,0,0,0,0,0,0,0,0,0,0,17,0,5,31
45.25,0,0,0,0,0,73,0,0,0,0,0,0,14,51,0,0,0,0,0,0,0,0,0,204,0,0,0,0,0,0,104,0,0,0,0,0,28,0,0,0,0,0,0,0,0,0,0,0,0,0,0,0,95,0,0,0,0,45,0,0,0,0,95,0,0,0,0,0,0,0,0,0,0,0,0,0,0,0,0,0,0,0,0,0,0,0,0,0,0,0,0,0,17,0,5,31
45.5,0,0,0,0,0,73,0,0,0,0,0,0,14,51,0,0,0,0,0,0,0,0,0,204,0,0,0,0,0,0,104,0,0,0,0,0,28,0,0,0,0,0,0,0,0,0,0,0,0,0,0,0,95,0,0,0,0,47,0,0,0,0,95,0,0,0,0,0,0,0,0,0,0,0,0,0,0,0,0,0,0,0,0,0,0,0,0,0,0,0,0,0,17,0,6,31
45.75,0,0,0,0,0,73,0,0,0,0,0,0,14,51,0,0,0,0,0,0,0,0,0,204,0,0,0,0,0,0,104,0,0,0,0,0,28,0,0,0,0,0,0,0,0,0,0,0,0,0,0,0,95,0,0,0,0,47,0,0,0,0,95,0,0,0,0,0,0,0,0,0,0,0,0,0,0,0,0,0,0,0,0,0,0,0,0,0,0,0,0,0,17,0,6,31
46,0,0,0,0,0,73,0,0,0,0,0,0,14,51,0,0,0,0,0,0,0,0,0,204,0,0,0,0,0,0,104,0,0,0,0,0,28,0,0,0,0,0,0,0,0,0,0,0,0,0,0,0,95,0,0,0,0,47,0,0,0,0,95,0,0,0,0,0,0,0,0,0,0,0,0,0,0,0,0,0,0,0,0,0,0,0,0,0,0,0,0,0,17,0,6,31
46.25,0,0,0,0,0,73,0,0,0,0,0,0,14,51,0,0,0,0,0,0,0,0,0,204,0,0,0,0,0,0,104,0,0,0,0,0,28,0,0,0,0,0,0,0,0,0,0,0,0,0,0,0,95,0,0,0,0,49,0,0,0,0,95,0,0,0,0,0,0,0,0,0,0,0,0,0,0,0,0,0,0,0,0,0,0,0,0,0,0,0,0,0,17,0,6,33
46.5,0,0,0,0,0,73,0,0,0,0,0,0,14,51,0,0,0,0,0,0,0,0,0,204,0,0,0,0,0,0,104,0,0,0,0,0,28,0,0,0,0,0,0,0,0,0,0,0,0,0,0,0,95,0,0,0,0,49,0,0,0,0,95,0,0,0,0,0,0,0,0,0,0,0,0,0,0,0,0,0,0,0,0,0,0,0,0,0,0,0,0,0,17,0,6,33
46.75,0,0,0,0,0,73,0,0,0,0,0,0,14,51,0,0,0,0,0,0,0,0,0,204,0,0,0,0,0,0,104,0,0,0,0,0,28,0,0,0,0,0,0,0,0,0,0,0,0,0,0,0,95,0,0,0,0,53,0,0,0,0,95,0,0,0,0,0,0,0,0,0,0,0,0,0,0,0,0,0,0,0,0,0,0,0,0,0,0,0,0,0,17,0,6,34
47,0,0,0,0,0,73,0,0,0,0,0,0,14,51,0,0,0,0,0,0,0,0,0,204,0,0,0,0,0,0,104,0,0,0,0,0,28,0,0,0,0,0,0,0,0,0,0,0,0,0,0,0,95,0,0,0,0,53,0,0,0,0,95,0,0,0,0,0,0,0,0,0,0,0,0,0,0,0,0,0,0,0,0,0,0,0,0,0,0,0,0,0,17,0,6,34
47.25,0,0,0,0,0,73,0,0,0,0,0,0,14,51,0,0,0,0,0,0,0,0,0,204,0,0,0,0,0,0,104,0,0,0,0,0,28,0,0,0,0,0,0,0,0,0,0,0,0,0,0,0,95,0,0,0,0,53,0,0,0,0,95,0,0,0,0,0,0,0,0,0,0,0,0,0,0,0,0,0,0,0,0,0,0,0,0,0,0,0,0,0,17,0,6,35
47.5,0,0,0,0,0,73,0,0,0,0,0,0,14,51,0,0,0,0,0,0,0,0,0,204,0,0,0,0,0,0,104,0,0,0,0,0,28,0,0,0,0,0,0,0,0,0,0,0,0,0,0,0,95,0,0,0,0,53,0,0,0,0,95,0,0,0,0,0,0,0,0,0,0,0,0,0,0,0,0,0,0,0,0,0,0,0,0,0,0,0,0,0,17,0,6,35
47.75,0,0,0,0,0,71,0,0,0,0,0,1,12,49,0,0,0,0,0,0,0,0,0,202,0,0,0,0,0,0,102,0,0,0,0,0,26,0,0,0,0,0,0,0,0,0,0,0,0,0,0,0,93,0,0,0,0,52,0,0,0,0,93,0,0,0,0,0,0,0,0,0,0,0,0,0,0,0,0,0,0,0,0,0,0,0,0,0,0,0,0,0,15,0,4,33
