"Setup Time"	"Position"	"File"
"Jul 05 2013 12:22 PM,,,,,,,,,,,,,,,,,,,,,,,,,,,,,,,,,,,,,,,,,,,,,,,,,,,,,,,,,,,,,,,,,,,,,,,,,,,,,,,,,,,,,,,,,,,,,,"	"11-B,,,,,,,,,,,,,,,,,,,,,,,,,,,,,,,,,,,,,,,,,,,,,,,,,,,,,,,,,,,,,,,,,,,,,,,,,,,,,,,,,,,,,,,,,,,,,,"	".//10-Krysty-PM2-342-JUL26-REP-1-kinetic.csv"
"Jul 05 2013 12:22 PM,,,,,,,,,,,,,,,,,,,,,,,,,,,,,,,,,,,,,,,,,,,,,,,,,,,,,,,,,,,,,,,,,,,,,,,,,,,,,,,,,,,,,,,,,,,,,,"	"12-A,,,,,,,,,,,,,,,,,,,,,,,,,,,,,,,,,,,,,,,,,,,,,,,,,,,,,,,,,,,,,,,,,,,,,,,,,,,,,,,,,,,,,,,,,,,,,,"	".//10-Krysty-PM2-342-JUL26-REP-2-kinetic.csv"
"Jul 05 2013 12:22 PM,,,,,,,,,,,,,,,,,,,,,,,,,,,,,,,,,,,,,,,,,,,,,,,,,,,,,,,,,,,,,,,,,,,,,,,,,,,,,,,,,,,,,,,,,,,,,,"	"12-B,,,,,,,,,,,,,,,,,,,,,,,,,,,,,,,,,,,,,,,,,,,,,,,,,,,,,,,,,,,,,,,,,,,,,,,,,,,,,,,,,,,,,,,,,,,,,,"	".//10-Krysty-PM2-342-JUL26-REP-3-kinetic.csv"
"Jun 06 2013 11:36 AM"	"4-B"	".//1-h224-pm2-rep1-kinetic.csv"
"Jun 06 2013 11:36 AM"	"5-B"	".//1-h224-pm2-rep2-kinetic.csv"
"Jun 06 2013 11:36 AM"	"6-B"	".//1-h224-pm2-rep3-kinetic.csv"
"Jun 06 2013 12:22 PM"	"13-B"	".//2-k107f-pm2-rep1-kinetic.csv"
"Jun 06 2013 12:22 PM"	"14-B"	".//2-k107f-pm2-rep2-kinetic.csv"
"Jun 06 2013 12:22 PM"	"15-B"	".//2-k107f-pm2-rep3-kinetic.csv"
"Jun 06 2013 12:22 PM"	"7-B"	".//3-k196f-pm2-rep1-kinetic.csv"
"Jun 06 2013 12:22 PM"	"8-B"	".//3-k196f-pm2-rep2-kinetic.csv"
"Jun 06 2013 12:22 PM"	"9-B"	".//3-k196f-pm2-rep3-kinetic.csv"
"Jun 06 2013 11:36 AM"	"1-B"	".//4-k366f-pm2-rep1-kinetic.csv"
"Jun 06 2013 11:36 AM"	"2-B"	".//4-k366f-pm2-rep2-kinetic.csv"
"Jun 06 2013 11:36 AM"	"3-B"	".//4-k366f-pm2-rep3-kinetic.csv"
"Jun 06 2013 12:22 PM"	"10-B"	".//5-k945f-pm2-rep1-kinetic.csv"
"Jun 06 2013 12:22 PM"	"11-B"	".//5-k945f-pm2-rep2-kinetic.csv"
"Jun 06 2013 12:22 PM"	"12-B"	".//5-k945f-pm2-rep3-kinetic.csv"
"Jul 05 2013 11:57 AM,,,,,,,,,,,,,,,,,,,,,,,,,,,,,,,,,,,,,,,,,,,,,,,,,,,,,,,,,,,,,,,,,,,,,,,,,,,,,,,,,,,,,,,,,,,,,,"	"8-B,,,,,,,,,,,,,,,,,,,,,,,,,,,,,,,,,,,,,,,,,,,,,,,,,,,,,,,,,,,,,,,,,,,,,,,,,,,,,,,,,,,,,,,,,,,,,,"	".//6-Krysty-PM2-219-JUL8-REP-1-kinetic.csv"
"Jul 05 2013 11:57 AM,,,,,,,,,,,,,,,,,,,,,,,,,,,,,,,,,,,,,,,,,,,,,,,,,,,,,,,,,,,,,,,,,,,,,,,,,,,,,,,,,,,,,,,,,,,,,,"	"9-A,,,,,,,,,,,,,,,,,,,,,,,,,,,,,,,,,,,,,,,,,,,,,,,,,,,,,,,,,,,,,,,,,,,,,,,,,,,,,,,,,,,,,,,,,,,,,,"	".//6-Krysty-PM2-219-JUL8-REP-2-kinetic.csv"
"Jul 05 2013 11:57 AM,,,,,,,,,,,,,,,,,,,,,,,,,,,,,,,,,,,,,,,,,,,,,,,,,,,,,,,,,,,,,,,,,,,,,,,,,,,,,,,,,,,,,,,,,,,,,,"	"9-B,,,,,,,,,,,,,,,,,,,,,,,,,,,,,,,,,,,,,,,,,,,,,,,,,,,,,,,,,,,,,,,,,,,,,,,,,,,,,,,,,,,,,,,,,,,,,,"	".//6-Krysty-PM2-219-JUL8-REP-3-kinetic.csv"
"Jul 05 2013 12:22 PM,,,,,,,,,,,,,,,,,,,,,,,,,,,,,,,,,,,,,,,,,,,,,,,,,,,,,,,,,,,,,,,,,,,,,,,,,,,,,,,,,,,,,,,,,,,,,,"	"14-B,,,,,,,,,,,,,,,,,,,,,,,,,,,,,,,,,,,,,,,,,,,,,,,,,,,,,,,,,,,,,,,,,,,,,,,,,,,,,,,,,,,,,,,,,,,,,,"	".//7-Krysty-PM2-274-JUL8-REP-1-kinetic.csv"
"Jul 05 2013 12:22 PM,,,,,,,,,,,,,,,,,,,,,,,,,,,,,,,,,,,,,,,,,,,,,,,,,,,,,,,,,,,,,,,,,,,,,,,,,,,,,,,,,,,,,,,,,,,,,,"	"15-A,,,,,,,,,,,,,,,,,,,,,,,,,,,,,,,,,,,,,,,,,,,,,,,,,,,,,,,,,,,,,,,,,,,,,,,,,,,,,,,,,,,,,,,,,,,,,,"	".//7-Krysty-PM2-274-JUL8-REP-2-kinetic.csv"
"Jul 05 2013 12:22 PM,,,,,,,,,,,,,,,,,,,,,,,,,,,,,,,,,,,,,,,,,,,,,,,,,,,,,,,,,,,,,,,,,,,,,,,,,,,,,,,,,,,,,,,,,,,,,,"	"15-B,,,,,,,,,,,,,,,,,,,,,,,,,,,,,,,,,,,,,,,,,,,,,,,,,,,,,,,,,,,,,,,,,,,,,,,,,,,,,,,,,,,,,,,,,,,,,,"	".//7-Krysty-PM2-274-JUL8-REP-3-kinetic.csv"
"Jul 05 2013 11:57 AM,,,,,,,,,,,,,,,,,,,,,,,,,,,,,,,,,,,,,,,,,,,,,,,,,,,,,,,,,,,,,,,,,,,,,,,,,,,,,,,,,,,,,,,,,,,,,,"	"5-B,,,,,,,,,,,,,,,,,,,,,,,,,,,,,,,,,,,,,,,,,,,,,,,,,,,,,,,,,,,,,,,,,,,,,,,,,,,,,,,,,,,,,,,,,,,,,,"	".//8-Krysty-PM2-287-JUL8-REP-1-kinetic.csv"
"Jul 05 2013 11:57 AM,,,,,,,,,,,,,,,,,,,,,,,,,,,,,,,,,,,,,,,,,,,,,,,,,,,,,,,,,,,,,,,,,,,,,,,,,,,,,,,,,,,,,,,,,,,,,,"	"6-A,,,,,,,,,,,,,,,,,,,,,,,,,,,,,,,,,,,,,,,,,,,,,,,,,,,,,,,,,,,,,,,,,,,,,,,,,,,,,,,,,,,,,,,,,,,,,,"	".//8-Krysty-PM2-287-JUL8-REP-2-kinetic.csv"
"Jul 05 2013 11:57 AM,,,,,,,,,,,,,,,,,,,,,,,,,,,,,,,,,,,,,,,,,,,,,,,,,,,,,,,,,,,,,,,,,,,,,,,,,,,,,,,,,,,,,,,,,,,,,,"	"6-B,,,,,,,,,,,,,,,,,,,,,,,,,,,,,,,,,,,,,,,,,,,,,,,,,,,,,,,,,,,,,,,,,,,,,,,,,,,,,,,,,,,,,,,,,,,,,,"	".//8-Krysty-PM2-287-JUL8-REP-3-kinetic.csv"
"Jul 05 2013 11:57 AM"	"2-B"	".//9-Krysty-PM2-299-JUL8-REP-1-kinetic.csv"
"Jul 05 2013 11:57 AM,,,,,,,,,,,,,,,,,,,,,,,,,,,,,,,,,,,,,,,,,,,,,,,,,,,,,,,,,,,,,,,,,,,,,,,,,,,,,,,,,,,,,,,,,,,,,,"	"3-A,,,,,,,,,,,,,,,,,,,,,,,,,,,,,,,,,,,,,,,,,,,,,,,,,,,,,,,,,,,,,,,,,,,,,,,,,,,,,,,,,,,,,,,,,,,,,,"	".//9-Krysty-PM2-299-JUL8-REP-2-kinetic.csv"
"Jul 05 2013 11:57 AM,,,,,,,,,,,,,,,,,,,,,,,,,,,,,,,,,,,,,,,,,,,,,,,,,,,,,,,,,,,,,,,,,,,,,,,,,,,,,,,,,,,,,,,,,,,,,,"	"3-B,,,,,,,,,,,,,,,,,,,,,,,,,,,,,,,,,,,,,,,,,,,,,,,,,,,,,,,,,,,,,,,,,,,,,,,,,,,,,,,,,,,,,,,,,,,,,,"	".//9-Krysty-PM2-299-JUL8-REP-3-kinetic.csv"
