PH	1	2	3	4	5	6	7	8	9	10
PH_3.5	11488	11358	8337	10874	7879	7802	11497	8467	11303	11871
PH_4	9436	8990	6903	8930	6983	6552	8555	7366	9759	9955
PH_4.5	39114	38053	17545	31409	21808	17907	31331	17584	31062	39874
PH_5	50052	35580	46288	48581	48364	46760	49744	46898	47519	50227
PH_5.5	51888	52966	49215	50662	49077	50277	51168	48919	49021	51549
PH_6	52032	53053	49691	51594	49573	48945	51120	49015	50934	51972
PH_7	52169	53124	48753	51577	49601	48910	51274	49052	51601	51778
PH_8	51657	53240	48873	51121	47158	48891	50830	48241	50913	51614
PH_8.5 	50746	52096	47633	49613	45102	48407	50076	47533	49109	50994
PH_9	48373	49622	33799	42386	41171	46569	49594	47247	47275	49167
PH_9.5	18925	51022	35634	39853	30014	43844	49420	46030	43169	48665
PH_10	40549	51181	30033	39516	35651	32290	47586	38133	37384	42403