Data File    , C:\Program Files\Biolog\OL_DC_23\PMX\Data_2013\07\PMX_443_130705_A_15.OKA,,,,,,,,,,,,,,,,,,,,,,,,,,,,,,,,,,,,,,,,,,,,,,,,,,,,,,,,,,,,,,,,,,,,,,,,,,,,,,,,,,,,,,,,,,,,,,,
Set up Time  ,Jul 05 2013 11:57 AM,,,,,,,,,,,,,,,,,,,,,,,,,,,,,,,,,,,,,,,,,,,,,,,,,,,,,,,,,,,,,,,,,,,,,,,,,,,,,,,,,,,,,,,,,,,,,,,
Position     , 8-A,,,,,,,,,,,,,,,,,,,,,,,,,,,,,,,,,,,,,,,,,,,,,,,,,,,,,,,,,,,,,,,,,,,,,,,,,,,,,,,,,,,,,,,,,,,,,,,
Plate Type   ,PM 1-,,,,,,,,,,,,,,,,,,,,,,,,,,,,,,,,,,,,,,,,,,,,,,,,,,,,,,,,,,,,,,,,,,,,,,,,,,,,,,,,,,,,,,,,,,,,,,,
Strain Type  ,---,,,,,,,,,,,,,,,,,,,,,,,,,,,,,,,,,,,,,,,,,,,,,,,,,,,,,,,,,,,,,,,,,,,,,,,,,,,,,,,,,,,,,,,,,,,,,,,
Sample Number,,,,,,,,,,,,,,,,,,,,,,,,,,,,,,,,,,,,,,,,,,,,,,,,,,,,,,,,,,,,,,,,,,,,,,,,,,,,,,,,,,,,,,,,,,,,,,,,
Strain Name  ,rep3,,,,,,,,,,,,,,,,,,,,,,,,,,,,,,,,,,,,,,,,,,,,,,,,,,,,,,,,,,,,,,,,,,,,,,,,,,,,,,,,,,,,,,,,,,,,,,,
Strain Number,219-JUL8,,,,,,,,,,,,,,,,,,,,,,,,,,,,,,,,,,,,,,,,,,,,,,,,,,,,,,,,,,,,,,,,,,,,,,,,,,,,,,,,,,,,,,,,,,,,,,,
Other        ,,,,,,,,,,,,,,,,,,,,,,,,,,,,,,,,,,,,,,,,,,,,,,,,,,,,,,,,,,,,,,,,,,,,,,,,,,,,,,,,,,,,,,,,,,,,,,,,
,,,,,,,,,,,,,,,,,,,,,,,,,,,,,,,,,,,,,,,,,,,,,,,,,,,,,,,,,,,,,,,,,,,,,,,,,,,,,,,,,,,,,,,,,,,,,,,,
Hour,  A01,  A02,  A03,  A04,  A05,  A06,  A07,  A08,  A09,  A10,  A11,  A12,  B01,  B02,  B03,  B04,  B05,  B06,  B07,  B08,  B09,  B10,  B11,  B12,  C01,  C02,  C03,  C04,  C05,  C06,  C07,  C08,  C09,  C10,  C11,  C12,  D01,  D02,  D03,  D04,  D05,  D06,  D07,  D08,  D09,  D10,  D11,  D12,  E01,  E02,  E03,  E04,  E05,  E06,  E07,  E08,  E09,  E10,  E11,  E12,  F01,  F02,  F03,  F04,  F05,  F06,  F07,  F08,  F09,  F10,  F11,  F12,  G01,  G02,  G03,  G04,  G05,  G06,  G07,  G08,  G09,  G10,  G11,  G12,  H01,  H02,  H03,  H04,  H05,  H06,  H07,  H08,  H09,  H10,  H11,  H12
0,0.01,0,0.01,0,0.01,0,0.01,0,0.01,0,0.01,0,0.01,0,0.01,0,0.01,0,0.01,0,0.01,0,0.01,0,0.01,0,0.01,0,0.01,0,0.01,0,0.01,0,0.01,0,0.01,0,0.01,0,0.01,0,0.01,0,0.01,0,0.01,0,0.01,0,0.01,0,0.01,0,0.01,0,0.01,0,0.01,3,0.01,0,0.01,0,0.01,0,0.01,0,0.01,0,0.01,1,0.01,0,0.01,0,0.01,0,0.01,0,3,0.01,0,8,0.01,0,0.01,0,0.01,12,14,7,10,10,28,27
0.25,0.01,0,0.01,0,0.01,0,0.01,0,0.01,0,2,2,0.01,0,0.01,0,0.01,0,0.01,0,0.01,0,0.01,0,0.01,0,0.01,0,0.01,0,0.01,0,0.01,0,0.01,0,0.01,0,0.01,0,0.01,0,0.01,0,0.01,0,0.01,0,0.01,0,0.01,0,0.01,0,0.01,0,0.01,0,0.01,0,0.01,0,0.01,0,0.01,0,0.01,0,0.01,0,0.01,0,0.01,0,0.01,0,0.01,0,0.01,0,0.01,0,0.01,1,0.01,0,0.01,0,0.01,6,3,0.01,1,0.01,17,16
0.5,0.01,0,0.01,0,0.01,0,0.01,0,0.01,0,0.01,0,0.01,0,0.01,0,0.01,0,0.01,0,0.01,0,0.01,0,0.01,0,0.01,0,0.01,0,0.01,0,0.01,0,0.01,0,0.01,0,0.01,0,0.01,0,0.01,0,0.01,0,0.01,0,0.01,0,0.01,0,0.01,0,0.01,0,0.01,0,0.01,0,0.01,0,0.01,0,0.01,0,0.01,0,0.01,0,0.01,0,0.01,0,0.01,0,0.01,0,0.01,0,0.01,0,0.01,0,0.01,0,0.01,0,0.01,2,0.01,0,0.01,0,13,12
0.75,0.01,0,0.01,0,0.01,0,0.01,0,0.01,0,0.01,0,0.01,0,0.01,0,0.01,0,0.01,0,0.01,0,0.01,0,0.01,0,0.01,0,0.01,0,0.01,0,0.01,0,0.01,0,0.01,0,0.01,0,0.01,0,0.01,0,0.01,0,0.01,0,0.01,0,0.01,0,0.01,0,0.01,0,0.01,0,0.01,0,0.01,0,0.01,0,0.01,0,0.01,0,0.01,0,0.01,0,0.01,0,0.01,0,0.01,0,0.01,0,0.01,0,0.01,0,0.01,0,0.01,0,0.01,4,0.01,0,0.01,0,13,12
1,0.01,0,0.01,0,0.01,0,0.01,0,0.01,0,0.01,0,0.01,0,0.01,0,0.01,0,0.01,0,0.01,0,0.01,0,0.01,0,0.01,0,0.01,0,0.01,0,0.01,0,0.01,0,0.01,0,0.01,0,0.01,0,0.01,0,0.01,0,0.01,0,0.01,0,0.01,0,0.01,0,0.01,0,0.01,0,0.01,0,0.01,0,0.01,0,0.01,0,0.01,0,0.01,0,0.01,0,0.01,0,0.01,0,0.01,0,0.01,0,0.01,0,0.01,0,0.01,0,0.01,0,0.01,8,0.01,0,1,0.01,13,12
1.25,0.01,0,0.01,0,0.01,0,0.01,0,0.01,0,0.01,0,0.01,0,0.01,0,0.01,0,0.01,0,0.01,0,0.01,0,0.01,0,0.01,0,0.01,0,0.01,0,0.01,0,0.01,0,0.01,0,0.01,0,0.01,0,0.01,0,0.01,0,0.01,0,0.01,0,0.01,0,0.01,0,0.01,0,0.01,0,0.01,0,0.01,0,0.01,0,0.01,0,0.01,0,0.01,0,0.01,0,0.01,0,0.01,0,0.01,0,0.01,0,0.01,0,0.01,0,0.01,0,0.01,0,0.01,4,0.01,0,0.01,0,9,8
1.5,0.01,0,0.01,0,0.01,0,0.01,0,0.01,0,0.01,0,0.01,0,0.01,0,0.01,0,0.01,0,0.01,0,0.01,0,0.01,0,0.01,0,0.01,0,0.01,0,0.01,0,0.01,0,0.01,0,0.01,0,0.01,0,0.01,0,0.01,0,0.01,0,0.01,0,0.01,0,0.01,0,0.01,0,0.01,0,0.01,0,0.01,0,0.01,0,0.01,0,0.01,0,0.01,0,0.01,0,0.01,0,0.01,0,0.01,0,0.01,0,0.01,0,0.01,0,0.01,0,0.01,0,0.01,1,0.01,0,1,0.01,12,15
1.75,0.01,0,0.01,0,0.01,0,0.01,0,0.01,0,0.01,1,0.01,0,0.01,0,0.01,0,0.01,0,3,0.01,0,0.01,0,0.01,0,0.01,0,0.01,0,0.01,0,0.01,0,0.01,0,0.01,0,0.01,0,0.01,0,0.01,0,0.01,0,0.01,0,0.01,0,0.01,0,0.01,0,0.01,0,0.01,0,1,0.01,0,0.01,0,0.01,0,0.01,0,0.01,0,0.01,1,0.01,0,0.01,0,0.01,0,0.01,3,2,0.01,0,4,0.01,0,0.01,0,0.01,0,5,0.01,4,1,15,14
2,0.01,0,0.01,0,3,0.01,4,2,3,0.01,1,6,0.01,0,0.01,0,0.01,0,5,0.01,12,0.01,0,0.01,0,0.01,0,0.01,0,0.01,0,0.01,0,0.01,0,0.01,0,0.01,0,0.01,0,0.01,0,0.01,0,0.01,0,0.01,0,0.01,0,0.01,0,0.01,0,0.01,0,0.01,0,3,0.01,0,0.01,0,0.01,0,0.01,0,0.01,0,0.01,3,0.01,0,0.01,0,0.01,0,0.01,8,3,0.01,0,6,0.01,0,0.01,0,0.01,0,10,0.01,3,0.01,11,10
2.25,0.01,0,0.01,0,6,3,8,4,3,0.01,1,6,1,0.01,0,0.01,0,0.01,12,0.01,16,0.01,0,0.01,0,0.01,0,0.01,0,0.01,0,0.01,0,0.01,0,0.01,0,0.01,0,0.01,0,0.01,0,0.01,0,0.01,0,0.01,0,0.01,0,0.01,0,0.01,0,0.01,0,0.01,0,10,0.01,0,0.01,0,0.01,0,0.01,0,0.01,0,0.01,3,0.01,0,0.01,0,0.01,0,0.01,10,4,0.01,0,7,0.01,0,0.01,0,0.01,0,16,0.01,3,0.01,11,10
2.5,0.01,0,0.01,0,6,4,8,4,3,0.01,1,6,3,0.01,3,0.01,0,0.01,14,0.01,18,0.01,0,0.01,0,0.01,0,0.01,0,0.01,0,0.01,0,0.01,1,0.01,0,0.01,0,0.01,0,0.01,0,0.01,0,0.01,0,0.01,0,0.01,0,0.01,0,0.01,0,0.01,0,0.01,0,14,0.01,0,0.01,0,0.01,0,0.01,0,0.01,0,0.01,5,0.01,0,0.01,0,0.01,0,0.01,12,6,0.01,0,8,0.01,0,0.01,0,0.01,0,19,0.01,5,0.01,11,10
2.75,0.01,0,0.01,0,18,14,16,10,9,6,3,6,9,11,17,0.01,0,0.01,29,0.01,35,5,0.01,0,0.01,0,6,6,0.01,0,0.01,6,0.01,6,11,10,0.01,0,0.01,0,0.01,0,0.01,8,0.01,1,0.01,9,0.01,0,8,0.01,0,0.01,9,0.01,0,0.01,0,31,1,0.01,0,0.01,2,0.01,0,5,2,0.01,0,23,0.01,0,10,0.01,0,6,12,24,15,0.01,5,20,2,0.01,0,0.01,2,0.01,25,1,12,5,11,10
3,0.01,0,0.01,0,18,17,18,11,12,7,7,6,17,12,23,0.01,0,0.01,34,0.01,42,10,0.01,0,0.01,0,13,17,0.01,0,0.01,11,0.01,13,17,18,0.01,0,0.01,0,0.01,0,2,14,0.01,4,0.01,15,0.01,0,13,0.01,0,0.01,14,3,0.01,3,7,39,8,0.01,0,0.01,11,1,0.01,12,8,0.01,0,35,7,0.01,24,0.01,9,10,16,29,20,0.01,15,27,13,0.01,0,0.01,8,0.01,29,13,20,17,15,13
3.25,0.01,0,0.01,0,24,27,21,11,12,12,13,6,24,13,25,0.01,0,0.01,38,0.01,47,13,0.01,0,0.01,0,14,17,0.01,0,0.01,11,0.01,14,18,18,0.01,0,0.01,0,0.01,0,2,15,0.01,4,0.01,18,0.01,0,16,0.01,0,0.01,14,3,0.01,3,7,44,8,0.01,0,0.01,11,1,0.01,12,8,0.01,0,38,7,0.01,24,0.01,9,12,16,29,20,0.01,15,27,13,0.01,0,0.01,8,0.01,29,13,20,17,15,13
3.5,0.01,0,0.01,0,24,27,23,12,16,14,15,6,31,18,34,2,0.01,0,47,1,57,18,0.01,0,0.01,0,22,25,0.01,0,0.01,18,0.01,15,25,23,5,0.01,0,0.01,0,0.01,6,24,0.01,4,0.01,18,0.01,0,21,0.01,0,0.01,18,3,0.01,6,16,49,11,0.01,0,0.01,17,5,3,19,13,0.01,0,49,10,0.01,35,0.01,11,19,16,32,22,0.01,18,32,17,0.01,0,0.01,8,0.01,34,19,25,21,15,13
3.75,0.01,0,0.01,0,25,28,23,9,16,12,15,3,35,20,38,0.01,0,0.01,50,0.01,62,17,0.01,0,0.01,0,22,28,0.01,0,0.01,19,0.01,15,23,25,5,0.01,0,0.01,0,0.01,5,26,2,2,0.01,17,0.01,0,24,0.01,0,0.01,17,2,0.01,4,18,53,14,0.01,0,0.01,18,4,0.01,22,15,0.01,0,51,10,0.01,42,0.01,11,17,13,32,21,0.01,21,31,20,0.01,0,0.01,9,0.01,34,23,28,26,12,10
4,0.01,0,0.01,2,25,28,25,13,24,14,23,6,35,23,45,4,0.01,0,53,3,71,17,5,0.01,5,0.01,26,31,0.01,0,0.01,22,0.01,15,25,32,12,0.01,0,0.01,0,0.01,5,29,2,2,0.01,24,0.01,0,26,0.01,0,0.01,18,2,0.01,7,23,58,18,0.01,0,0.01,24,6,3,26,16,2,0.01,57,13,0.01,48,0.01,17,20,13,32,24,2,24,37,22,0.01,0,0.01,9,0.01,34,27,30,33,12,10
4.25,0.01,0,0.01,9,39,35,31,14,31,19,26,6,46,27,55,7,6,0.01,59,4,76,21,5,0.01,23,3,32,32,0.01,0,0.01,22,0.01,20,27,32,12,0.01,0,0.01,0,0.01,6,35,6,2,0.01,26,0.01,0,31,0.01,0,0.01,20,2,0.01,11,25,65,18,0.01,0,0.01,24,7,3,27,19,2,0.01,61,13,0.01,49,0.01,19,21,13,32,24,4,24,37,22,0.01,0,0.01,9,0.01,34,27,33,33,12,10
4.5,0.01,4,0.01,13,39,35,33,16,36,22,32,6,49,33,63,17,10,0.01,63,10,85,23,7,0.01,58,8,37,45,0.01,0,0.01,27,0.01,20,33,39,22,0.01,0,0.01,0,0.01,8,41,9,2,0.01,33,0.01,0,36,5,0.01,0,22,3,0.01,18,35,69,23,0.01,0,0.01,35,17,8,40,23,8,0.01,69,18,0.01,63,0.01,32,28,15,33,25,13,34,46,33,0.01,0,0.01,10,0.01,35,41,37,44,12,10
4.75,0.01,8,0.01,19,46,36,37,17,41,26,33,6,56,36,71,18,17,4,69,14,92,25,11,0.01,82,12,42,53,0.01,0,0.01,33,0.01,29,36,41,27,0.01,0,0.01,0,0.01,8,47,14,2,0.01,34,0.01,0,42,28,0.01,0,28,4,0.01,23,42,77,23,0.01,0,0.01,38,21,11,44,29,13,0.01,72,19,0.01,68,0.01,37,33,16,36,26,20,37,47,33,0.01,0,0.01,10,0.01,40,52,43,49,12,10
5,0.01,12,5,28,54,38,42,19,50,29,39,7,62,41,79,24,22,13,74,18,100,29,12,0.01,102,17,46,59,0.01,0,0.01,33,2,30,42,46,31,0.01,0,0.01,0,0.01,9,51,14,2,0.01,38,0.01,0,46,53,0.01,0,28,4,0.01,30,47,81,25,0.01,0,0.01,44,26,13,49,30,15,0.01,77,19,0.01,72,1,42,38,16,36,27,30,40,51,35,0.01,0,0.01,12,0.01,40,67,45,51,12,10
5.25,0.01,11,4,30,55,43,43,18,49,30,38,6,70,40,83,23,28,18,76,17,99,32,11,0.01,109,19,48,59,0.01,0,0.01,32,3,32,41,45,30,0.01,0,0.01,0,0.01,8,51,16,1,0.01,37,0.01,0,45,67,0.01,0,27,3,0.01,30,46,86,24,0.01,0,0.01,43,25,12,48,30,14,0.01,78,18,0.01,71,0.01,41,37,15,35,26,36,39,50,34,0.01,0,0.01,11,0.01,39,71,46,50,11,9
5.5,0.01,15,11,32,58,45,49,18,53,33,41,8,70,43,89,31,39,34,82,24,106,32,18,2,122,26,55,74,0.01,0,5,36,7,38,49,55,41,0.01,0,0.01,0,0.01,11,59,18,3,0.01,43,2,0.01,51,88,0.01,0,31,5,0.01,36,59,88,30,0.01,0,0.01,52,34,18,62,36,22,0.01,87,24,0.01,87,1,47,44,19,38,27,55,50,59,43,0.01,0,0.01,13,0.01,40,93,53,64,14,11
5.75,0.01,12,10,37,63,53,50,15,54,34,38,5,78,43,96,31,53,49,86,21,103,33,15,0.01,127,27,56,72,0.01,0,2,34,7,42,47,52,38,0.01,0,0.01,0,0.01,8,59,18,0.01,0,40,0.01,0,51,97,0.01,0,28,2,0.01,38,56,94,27,0.01,0,0.01,49,31,15,59,38,20,0.01,84,21,0.01,84,0.01,44,41,16,35,24,57,47,56,40,0.01,0,0.01,10,0.01,37,92,51,64,11,8
6,0.01,16,17,40,63,53,52,20,66,34,42,7,78,46,96,36,61,61,86,29,110,33,21,0.01,134,30,60,82,0.01,0,8,40,7,44,51,61,47,0.01,0,0.01,0,0.01,8,64,18,0.01,0,44,2,0.01,55,110,0.01,0,29,5,0.01,40,64,94,31,0.01,0,0.01,59,39,16,67,39,23,0.01,90,21,0.01,91,0.01,52,51,20,38,25,72,55,63,42,0.01,0,0.01,10,0.01,37,107,55,84,11,9
6.25,0.01,16,17,40,63,53,53,20,66,34,44,7,78,46,96,36,69,70,87,29,110,33,22,0.01,134,31,62,85,0.01,0,8,40,7,44,52,61,49,0.01,0,0.01,0,0.01,8,67,18,0.01,0,45,2,0.01,56,113,0.01,0,29,5,0.01,41,67,95,31,0.01,0,0.01,60,42,16,70,39,24,0.01,95,24,0.01,96,0.01,52,52,20,38,25,77,59,66,43,0.01,0,0.01,10,0.01,37,113,56,95,11,9
6.5,0.01,22,20,57,83,70,64,20,66,41,44,7,104,51,100,41,99,94,97,29,111,39,22,0.01,150,40,70,87,0.01,0,9,41,12,58,56,61,49,0.01,0,0.01,0,0.01,8,74,26,1,0.01,45,2,0.01,66,125,0.01,0,29,5,0.01,54,70,108,31,0.01,0,0.01,68,42,20,74,48,27,0.01,99,24,0.01,96,0.01,52,52,20,38,25,82,59,66,43,0.01,0,0.01,10,0.01,37,117,64,103,11,9
6.75,0.01,30,25,58,86,72,68,20,71,41,50,7,105,58,108,46,102,100,101,35,122,40,29,0.01,154,47,74,94,0.01,0,15,45,12,62,62,64,54,0.01,0,0.01,0,0.01,9,77,26,1,0.01,50,2,0.01,71,132,0.01,0,35,5,0.01,56,77,109,31,0.01,0,0.01,73,47,23,78,50,31,0.01,101,24,0.01,101,0.01,60,57,20,38,26,92,62,71,43,0.01,0,0.01,10,0.01,37,123,66,114,11,9
7,0.01,30,25,66,92,80,74,20,71,43,50,7,117,58,112,49,115,111,104,35,123,40,29,0.01,159,52,78,97,0.01,0,15,45,13,67,62,64,54,0.01,0,0.01,0,0.01,9,82,28,1,0.01,50,2,0.01,73,137,0.01,0,35,5,0.01,61,78,113,31,0.01,0,0.01,74,48,23,82,53,31,0.01,103,24,0.01,101,0.01,60,57,20,38,26,94,62,71,43,0.01,0,0.01,10,0.01,37,125,68,115,11,9
7.25,0.01,30,25,66,92,80,74,20,71,43,50,7,117,58,112,49,115,111,104,36,123,40,32,0.01,159,52,79,100,0.01,0,15,45,13,67,67,72,59,0.01,0,0.01,0,0.01,9,84,28,2,0.01,52,2,0.01,73,137,0.01,0,35,5,0.01,61,83,113,32,0.01,0,0.01,78,57,23,91,53,31,0.01,108,25,0.01,111,0.01,60,62,21,38,26,101,74,80,45,0.01,0,0.01,10,0.01,37,134,72,125,12,9
7.5,0.01,37,30,71,98,86,80,20,79,45,58,10,123,64,120,56,124,124,112,41,131,43,36,0.01,165,61,89,106,0.01,0,18,51,15,71,73,74,64,0.01,0,0.01,0,0.01,11,90,28,2,0.01,56,2,0.01,80,148,0.01,0,37,6,0.01,67,90,119,33,0.01,0,0.01,87,60,27,95,58,35,0.01,109,25,0.01,113,0.01,68,65,21,38,26,106,74,81,45,0.01,0,0.01,10,0.01,37,140,78,132,12,9
7.75,0.01,37,30,81,104,92,84,20,79,50,58,10,134,66,124,58,135,135,118,42,131,48,36,0.01,165,66,95,107,0.01,0,19,51,16,76,76,74,64,0.01,0,0.01,0,0.01,11,95,32,2,0.01,56,2,0.01,85,151,0.01,0,37,6,0.01,71,90,126,33,0.01,0,0.01,90,60,28,104,64,35,0.01,113,25,0.01,116,0.01,68,65,21,38,26,108,74,84,45,0.01,0,0.01,10,0.01,37,141,81,136,12,9
8,0.01,38,30,81,104,92,84,20,79,50,58,10,134,66,124,58,136,138,120,43,132,48,37,0.01,165,68,97,112,0.01,0,21,54,17,77,79,75,67,0.01,0,0.01,0,0.01,11,97,32,2,0.01,56,2,0.01,88,154,0.01,0,37,6,0.01,71,95,127,33,0.01,0,0.01,94,66,28,115,65,38,0.01,118,25,0.01,121,0.01,68,68,21,38,26,112,79,89,45,0.01,0,0.01,10,0.01,38,147,85,144,12,9
8.25,0.01,41,30,85,108,96,89,20,79,51,60,12,139,70,127,61,143,146,124,49,135,49,40,0.01,165,72,104,113,0.01,0,22,56,19,81,86,79,69,0.01,0,0.01,0,0.01,12,100,35,2,0.01,56,2,0.01,97,156,0.01,0,37,6,0.01,76,99,132,33,0.01,0,0.01,98,67,31,127,70,40,0.01,118,25,0.01,124,0.01,68,69,21,38,26,114,84,92,45,0.01,0,0.01,10,0.01,39,149,89,147,12,9
8.5,0.01,41,30,97,118,101,89,20,79,51,60,12,149,70,127,61,152,152,124,49,135,49,40,0.01,168,75,104,113,0.01,0,22,56,19,84,86,79,69,0.01,0,0.01,0,0.01,12,100,35,2,0.01,56,2,0.01,110,156,0.01,0,37,6,0.01,85,99,132,33,0.01,0,0.01,98,67,31,130,70,40,0.01,118,25,0.01,124,0.01,68,69,21,38,26,114,84,92,45,0.01,0,0.01,10,0.01,39,149,89,147,12,9
8.75,0.01,45,30,97,118,101,89,20,87,51,63,28,149,70,127,61,152,152,124,49,136,49,43,0.01,168,79,104,118,0.01,0,23,56,19,84,94,88,74,0.01,0,0.01,0,0.01,12,102,35,2,0.01,65,3,0.01,113,156,0.01,0,37,7,0.01,85,103,132,36,0.01,0,0.01,100,76,31,137,70,42,0.01,124,25,0.01,132,0.01,77,76,21,39,26,118,96,98,45,0.01,0,0.01,10,0.01,39,151,91,152,12,9
9,0.01,54,34,98,117,100,93,19,91,50,69,31,148,73,130,65,151,151,127,52,143,49,48,0.01,167,92,109,123,0.01,0,26,59,19,85,100,88,79,0.01,0,0.01,0,0.01,12,110,36,1,0.01,67,2,0.01,132,160,0.01,0,40,8,0.01,88,110,136,37,0.01,0,0.01,109,80,34,145,78,47,0.01,126,24,0.01,136,0.01,82,80,21,38,26,127,97,102,44,0.01,0,0.01,9,0.01,38,157,99,159,11,8
9.25,0.01,64,39,108,117,100,95,19,97,50,71,38,148,74,133,69,151,151,127,55,146,49,50,1,171,101,109,126,3,0.01,26,61,19,85,102,93,86,0.01,0,0.01,0,0.01,13,110,36,1,0.01,72,2,0.01,134,161,0.01,0,40,9,0.01,88,110,136,43,0.01,0,0.01,111,84,34,145,78,47,0.01,126,25,0.01,140,1,89,83,24,39,26,127,102,103,47,0.01,0,0.01,12,0.01,38,157,99,160,11,8
9.5,0.01,69,40,139,142,118,113,19,97,60,71,38,166,78,142,73,167,172,137,55,152,56,50,1,177,115,121,127,3,0.01,28,66,23,99,107,93,86,0.01,0,0.01,0,0.01,13,120,42,1,0.01,72,2,0.01,156,171,0.01,0,40,9,0.01,108,115,145,43,0.01,0,0.01,119,84,38,157,91,48,0.01,131,25,0.01,140,1,89,83,24,39,26,129,102,105,47,0.01,0,0.01,12,0.01,38,157,103,164,11,8
9.75,0.01,73,42,146,145,120,115,19,97,63,72,38,169,82,145,76,172,176,141,55,152,59,50,1,178,124,127,129,3,0.01,28,66,23,101,108,93,86,0.01,0,0.01,0,0.01,13,121,47,1,0.01,72,2,0.01,164,171,0.01,0,40,9,0.01,113,118,147,43,0.01,0,0.01,123,84,39,161,96,48,0.01,131,25,0.01,140,1,89,83,24,39,26,129,102,107,47,0.01,0,0.01,12,0.01,38,157,105,164,11,8
10,0.01,73,42,148,145,120,116,19,97,63,73,38,169,82,145,76,172,177,141,57,152,59,50,1,178,128,131,130,3,0.01,29,67,25,101,110,93,86,0.01,0,0.01,0,0.01,13,122,47,1,0.01,72,2,0.01,166,171,0.01,0,40,9,0.01,113,120,150,43,0.01,0,0.01,123,88,40,163,97,48,0.01,132,25,0.01,140,1,89,83,24,39,26,133,102,111,47,0.01,0,0.01,12,0.01,38,158,111,165,11,8
10.25,0.01,84,48,148,145,121,118,19,106,63,80,54,169,83,146,77,172,177,144,64,158,60,55,1,178,135,131,136,3,0.01,33,71,25,101,113,94,93,0.01,0,0.01,0,0.01,17,128,47,1,0.01,79,2,0.01,170,175,0.01,0,43,9,0.01,113,126,150,43,0.01,0,0.01,126,94,44,166,99,50,0.01,137,25,0.01,144,1,95,89,24,39,26,136,111,115,47,0.01,0,0.01,12,0.01,38,163,116,170,11,8
10.5,0.01,84,49,148,145,121,118,19,106,63,80,57,169,83,146,77,172,177,144,66,158,60,57,1,178,135,133,137,3,0.01,33,71,25,101,115,99,94,0.01,0,0.01,0,0.01,17,129,47,1,0.01,79,2,0.01,170,175,0.01,0,43,10,0.01,113,126,150,43,0.01,0,0.01,126,101,44,167,99,50,0.01,140,25,0.01,149,1,95,94,24,39,26,138,117,120,47,0.01,0,0.01,12,0.01,38,164,120,172,11,8
10.75,0.01,85,61,148,145,121,118,19,112,63,82,67,169,83,146,77,172,177,144,66,159,60,60,1,181,139,133,139,3,0.01,33,72,25,101,115,99,101,0.01,0,0.01,0,0.01,17,129,47,1,0.01,82,2,0.01,170,175,0.01,0,43,10,0.01,113,127,150,47,0.01,0,0.01,128,101,44,167,99,50,0.01,140,25,0.01,150,1,106,96,24,39,26,138,119,120,47,0.01,0,0.01,12,0.01,38,164,120,172,11,8
11,0.01,85,66,148,145,121,118,19,114,63,84,67,169,83,146,77,172,177,144,70,159,60,60,1,181,139,133,141,3,0.01,33,73,25,101,116,102,101,0.01,0,0.01,0,0.01,17,130,47,1,0.01,84,2,0.01,170,175,0.01,0,43,10,0.01,113,131,150,47,0.01,0,0.01,129,104,44,169,100,51,0.01,141,25,0.01,153,1,106,100,24,40,26,140,126,121,47,0.01,0,0.01,12,0.01,38,165,124,176,11,8
11.25,0.01,94,87,154,150,127,126,19,118,63,89,71,169,88,153,82,172,177,150,75,162,62,63,1,182,149,143,145,3,0.01,34,77,25,101,120,102,105,0.01,0,0.01,0,0.01,18,135,47,1,0.01,86,2,0.01,175,178,0.01,0,43,10,0.01,124,136,152,47,0.01,0,0.01,134,106,47,171,107,52,0.01,142,25,0.01,153,1,108,101,24,40,26,142,126,125,47,0.01,0,0.01,12,0.01,38,166,128,176,11,8
11.5,0.01,94,95,159,154,130,133,19,118,67,89,71,170,90,153,83,174,185,154,76,162,65,63,1,182,149,148,146,3,0.01,34,79,28,107,122,102,105,0.01,0,0.01,0,0.01,18,139,51,1,0.01,86,2,0.01,177,179,0.01,0,43,10,0.01,128,138,158,47,0.01,0,0.01,137,106,48,177,116,52,0.01,143,25,0.01,153,1,108,101,24,40,26,142,126,126,47,0.01,0,0.01,12,0.01,38,166,134,176,11,8
11.75,0.01,97,112,173,166,138,139,19,118,71,92,74,179,94,158,89,181,191,159,79,162,68,63,1,182,158,155,149,3,0.01,36,84,31,111,124,102,106,0.01,0,0.01,0,0.01,20,142,54,1,0.01,86,2,0.01,181,183,0.01,0,43,10,0.01,135,143,160,47,0.01,0,0.01,142,107,52,179,122,52,0.01,148,25,0.01,154,1,108,102,24,40,26,143,126,132,47,0.01,0,0.01,12,0.01,38,168,138,178,11,8
12,0.01,97,126,182,172,142,144,19,118,73,92,74,184,94,158,93,186,193,159,79,162,68,63,1,182,160,159,149,3,0.01,36,85,31,113,124,102,106,0.01,0,0.01,0,0.01,20,144,56,1,0.01,86,2,0.01,184,183,0.01,0,43,10,0.01,140,144,160,47,0.01,0,0.01,144,107,52,179,127,52,0.01,148,25,0.01,154,1,108,102,24,40,26,143,126,132,47,0.01,0,0.01,12,0.01,38,168,138,178,11,8
12.25,0.01,97,126,182,172,142,144,19,127,73,95,90,184,94,158,93,186,193,159,82,162,68,68,1,182,160,159,152,3,0.01,36,85,31,113,124,107,112,0.01,0,0.01,0,0.01,20,144,56,1,0.01,92,3,0.01,184,183,0.01,0,43,10,0.01,140,147,160,54,0.01,0,0.01,144,111,52,179,127,54,0.01,149,25,0.01,162,1,117,109,24,40,26,146,139,133,47,0.01,0,0.01,12,0.01,38,170,139,179,11,8
12.5,0.01,103,144,190,178,150,152,19,127,78,101,90,185,98,163,99,190,197,163,85,167,75,68,1,185,169,166,153,3,0.01,39,94,36,119,129,107,112,0.01,0,0.01,0,0.01,21,151,60,2,0.01,92,3,0.01,189,184,0.01,0,43,10,0.01,146,153,164,54,0.01,0,0.01,150,112,60,185,134,54,0.01,152,25,0.01,162,1,117,110,24,40,26,148,139,140,47,0.01,0,0.01,12,0.01,39,171,147,181,11,8
12.75,0.01,101,142,188,176,148,150,17,132,76,102,103,183,100,161,97,188,195,161,88,165,73,70,0.01,183,167,164,156,3,0.01,42,92,34,117,128,111,119,0.01,0,0.01,0,0.01,20,149,58,3,0.01,94,1,0.01,187,182,0.01,0,45,10,0.01,144,153,162,55,0.01,0,0.01,148,114,58,183,132,58,0.01,154,23,0.01,163,0.01,122,115,22,41,24,146,145,138,45,0.01,0,0.01,10,0.01,40,172,145,180,11,6
13,0.01,101,142,188,176,148,150,17,137,76,106,108,183,100,161,101,188,195,161,91,166,73,72,0.01,183,167,164,159,3,0.01,42,94,34,117,129,111,119,0.01,0,0.01,0,0.01,23,151,58,3,0.01,95,1,0.01,187,184,0.01,0,45,11,0.01,144,155,162,55,0.01,0,0.01,148,116,59,183,132,58,0.01,155,23,0.01,163,0.01,122,117,22,41,24,150,145,141,45,0.01,0,0.01,10,0.01,40,175,152,182,11,6
13.25,0.01,101,142,188,176,148,150,17,139,76,106,113,183,100,161,101,188,195,161,91,166,73,72,0.01,183,167,164,159,4,0.01,42,94,34,117,129,113,122,0.01,0,0.01,0,0.01,23,151,58,3,0.01,100,6,2,187,184,0.01,0,45,11,0.01,144,155,162,61,0.01,0,0.01,148,116,59,183,132,58,0.01,155,23,0.01,165,0.01,130,118,22,41,24,150,146,141,45,0.01,0,0.01,10,0.01,40,175,152,182,11,6
13.5,0.01,101,142,188,176,148,150,17,140,76,106,116,183,100,161,103,188,195,161,91,166,73,72,0.01,183,167,164,159,4,0.01,42,94,34,117,129,113,123,0.01,0,0.01,0,0.01,23,151,58,3,0.01,100,6,2,187,184,0.01,0,45,11,0.01,144,155,162,61,0.01,0,0.01,148,116,59,183,132,58,0.01,155,23,0.01,165,0.01,130,121,22,41,24,150,146,141,45,0.01,0,0.01,10,0.01,40,175,152,182,11,6
13.75,0.01,105,150,188,176,148,150,17,143,76,107,122,183,102,161,110,188,195,161,92,171,73,74,0.01,184,167,164,162,4,0.01,42,96,34,117,129,113,127,0.01,0,0.01,0,0.01,23,152,58,3,0.01,100,6,2,187,186,0.01,0,45,11,0.01,145,157,162,61,0.01,0,0.01,153,117,60,183,132,58,0.01,155,23,0.01,165,0.01,130,125,22,41,24,152,146,141,45,0.01,0,0.01,10,0.01,40,175,152,183,11,6
14,0.01,105,154,188,176,148,154,17,147,76,111,129,183,105,164,114,188,195,161,97,171,75,75,0.01,184,168,169,164,4,0.01,42,101,34,117,129,113,127,0.01,0,0.01,0,0.01,23,156,59,3,0.01,100,6,2,187,188,0.01,0,45,11,0.01,150,158,162,61,0.01,0,0.01,156,117,64,185,140,58,0.01,156,23,0.01,165,0.01,130,125,22,41,24,152,146,143,45,0.01,0,0.01,10,0.01,40,175,153,183,11,6
14.25,0.01,105,154,188,176,148,154,17,149,76,112,133,183,105,164,116,188,195,161,99,171,76,77,0.01,184,168,169,165,4,0.01,43,102,34,117,130,113,129,0.01,0,0.01,0,0.01,25,156,59,3,0.01,101,6,2,187,188,0.01,0,46,11,0.01,150,160,162,63,0.01,0,0.01,156,119,67,186,140,58,0.01,159,23,0.01,165,0.01,132,130,22,41,24,155,147,145,45,0.01,0,0.01,10,0.01,40,177,158,184,11,6
14.5,0.01,107,154,188,176,148,157,17,152,76,115,138,183,109,164,118,188,195,161,100,171,79,79,0.01,184,168,169,168,5,0.01,45,105,41,119,131,116,131,0.01,0,0.01,0,0.01,26,157,63,3,0.01,104,6,2,187,188,0.01,0,47,13,0.01,150,162,162,68,0.01,0,0.01,157,119,68,187,140,59,0.01,161,23,0.01,167,0.01,140,132,22,42,24,156,153,148,45,0.01,0,0.01,10,0.01,40,178,158,185,11,6
14.75,0.01,107,155,188,176,148,157,17,153,76,115,138,183,109,164,118,188,195,161,100,171,79,79,0.01,184,168,169,168,5,0.01,45,105,41,119,131,116,134,0.01,0,0.01,0,0.01,26,157,63,3,0.01,104,6,3,187,188,0.01,0,47,13,0.01,150,162,162,68,0.01,0,0.01,157,119,68,187,140,59,0.01,161,23,0.01,167,0.01,140,132,22,42,24,156,153,148,45,0.01,0,0.01,10,0.01,40,178,158,185,11,6
15,0.01,106,154,187,175,147,156,16,156,75,114,141,182,108,163,117,187,194,160,99,170,78,78,0.01,183,167,168,167,5,0.01,45,104,47,118,130,119,133,0.01,0,0.01,0,0.01,25,156,63,2,0.01,107,5,7,186,187,0.01,0,46,12,0.01,149,162,161,72,0.01,0,0.01,156,119,67,186,139,58,0.01,160,22,0.01,167,0.01,141,132,21,41,23,155,156,149,44,0.01,0,0.01,9,0.01,39,177,157,184,10,5
15.25,0.01,107,157,187,175,147,156,16,156,75,114,141,182,108,163,119,187,194,160,99,170,78,80,0.01,183,167,168,167,5,0.01,47,104,49,118,130,119,140,0.01,0,0.01,0,0.01,25,156,63,2,0.01,107,5,10,186,187,0.01,0,46,12,0.01,149,162,161,74,0.01,0,0.01,156,119,67,186,139,59,0.01,160,22,0.01,168,0.01,147,136,21,41,23,155,156,149,44,0.01,0,0.01,9,0.01,39,177,157,184,10,5
15.5,0.01,107,157,187,175,147,157,16,161,75,114,145,182,108,163,123,187,194,160,103,171,78,81,0.01,183,167,168,169,6,0.01,57,108,59,118,132,120,140,0.01,0,0.01,0,0.01,27,159,70,2,0.01,108,5,10,186,187,0.01,0,46,12,0.01,149,163,161,77,0.01,0,0.01,158,119,69,186,139,62,0.01,164,22,0.01,168,0.01,147,137,21,41,23,155,156,151,44,0.01,0,0.01,9,0.01,39,178,159,185,10,5
15.75,0.01,107,157,187,175,147,157,16,162,75,116,145,182,108,163,125,187,194,160,103,171,78,82,0.01,183,167,168,169,6,0.01,59,108,62,118,132,120,142,0.01,0,0.01,0,0.01,27,159,71,2,0.01,108,5,11,186,189,0.01,0,47,12,0.01,149,163,161,78,0.01,0,0.01,159,119,72,186,140,62,0.01,164,22,0.01,169,0.01,150,140,21,41,23,158,156,151,44,0.01,0,0.01,9,0.01,39,180,159,185,10,5
16,0.01,118,170,187,182,155,169,16,165,75,121,148,182,113,170,132,187,194,163,108,177,83,83,0.01,183,176,175,171,6,0.01,67,115,71,124,132,120,144,0.01,0,0.01,0,0.01,27,163,80,2,0.01,108,5,11,186,192,0.01,0,47,12,0.01,157,164,161,78,0.01,0,0.01,164,119,75,187,148,63,0.01,165,22,0.01,169,0.01,150,141,21,41,23,158,156,151,44,0.01,0,0.01,9,0.01,39,180,162,186,10,5
16.25,0.01,118,170,187,182,155,169,16,165,75,121,148,182,113,170,132,187,194,163,108,177,83,83,0.01,183,176,175,171,6,0.01,68,115,71,124,132,120,144,0.01,0,0.01,0,0.01,27,163,80,2,0.01,108,5,13,186,192,0.01,0,47,12,0.01,157,164,161,79,0.01,0,0.01,164,119,75,187,148,63,0.01,165,22,0.01,169,0.01,152,143,21,41,23,158,156,151,44,0.01,0,0.01,9,0.01,39,180,162,186,10,5
16.5,0.01,118,170,187,182,155,169,16,169,77,121,150,182,113,170,132,187,194,163,109,177,84,88,0.01,183,176,175,172,6,0.01,76,116,82,124,132,124,145,0.01,0,0.01,0,0.01,29,164,88,7,0.01,110,5,14,186,192,0.01,0,47,12,0.01,157,165,161,83,0.01,0,0.01,164,119,77,187,148,68,0.01,166,22,0.01,170,0.01,154,144,21,41,23,159,160,151,44,0.01,0,0.01,9,0.01,39,180,166,186,10,5
16.75,0.01,118,170,187,182,155,169,16,170,77,121,151,182,113,170,132,187,194,163,109,177,84,88,0.01,183,176,175,172,6,0.01,80,116,84,124,132,124,146,0.01,0,0.01,0,0.01,29,164,88,11,0.01,113,5,15,186,192,0.01,0,47,12,0.01,157,165,161,83,0.01,0,0.01,164,119,77,187,148,68,0.01,167,22,0.01,170,0.01,155,147,21,41,23,160,160,151,44,0.01,0,0.01,9,0.01,39,181,166,186,10,5
17,0.01,118,170,187,182,155,169,16,171,77,121,152,182,113,170,132,187,194,163,109,177,84,88,0.01,183,176,175,172,6,0.01,82,116,86,124,132,125,146,0.01,0,0.01,0,0.01,29,164,88,11,0.01,113,5,15,186,192,0.01,0,47,12,0.01,157,165,161,85,0.01,0,0.01,164,119,77,187,148,68,0.01,167,22,0.01,170,0.01,155,147,21,41,23,160,160,151,44,0.01,0,0.01,9,0.01,39,181,166,186,10,5
17.25,0.01,118,170,187,182,155,169,16,174,77,121,155,182,113,170,137,187,194,163,112,177,85,90,0.01,183,176,175,174,6,0.01,89,117,90,124,133,126,152,0.01,0,0.01,0,0.01,30,164,94,14,0.01,114,5,21,186,192,0.01,0,47,12,0.01,157,165,161,89,0.01,0,0.01,165,119,77,187,148,70,0.01,167,22,0.01,170,0.01,161,151,21,41,23,160,160,151,44,0.01,0,0.01,9,0.01,39,181,166,186,10,5
17.5,0.01,120,172,186,181,154,176,15,176,81,124,157,181,118,173,142,186,193,162,117,176,92,94,0.01,182,175,177,176,7,0.01,98,123,101,129,136,127,153,0.01,0,0.01,0,0.01,34,169,105,22,0.01,114,4,21,185,192,0.01,0,47,15,1,157,166,160,91,0.01,0,0.01,168,118,83,190,152,73,0.01,171,21,0.01,170,0.01,161,152,21,41,22,162,161,150,43,0.01,0,0.01,8,0.01,40,181,167,187,9,4
17.75,0.01,120,172,186,181,154,176,15,176,81,124,157,181,118,173,142,186,193,162,117,176,92,94,3,182,175,177,176,7,0.01,98,123,101,129,136,130,153,0.01,0,0.01,0,0.01,34,169,105,25,0.01,117,7,24,185,192,0.01,0,47,15,2,157,166,160,94,0.01,0,0.01,168,119,83,190,152,73,0.01,171,21,0.01,170,0.01,161,153,21,42,22,162,161,150,43,0.01,0,0.01,8,0.01,40,181,168,188,9,4
18,0.01,120,172,186,181,154,176,15,177,81,124,157,181,118,173,142,186,193,162,117,176,92,94,3,182,175,177,176,7,0.01,99,123,101,129,136,130,153,0.01,0,0.01,0,0.01,34,169,105,28,0.01,117,7,26,185,192,1,0.01,47,15,2,157,166,160,97,0.01,0,0.01,168,119,83,190,152,75,0.01,171,21,0.01,170,0.01,164,155,21,42,22,162,161,150,43,0.01,0,0.01,8,0.01,40,181,168,188,9,4
18.25,0.01,122,179,186,191,164,187,15,180,85,126,158,181,122,177,149,187,200,169,126,179,97,96,3,182,181,183,179,7,0.01,114,133,119,136,139,130,156,0.01,0,0.01,0,0.01,37,175,121,33,0.01,117,7,26,188,196,1,0.01,47,15,2,168,167,160,97,0.01,0,0.01,174,119,97,195,168,77,0.01,171,21,0.01,170,0.01,164,156,21,42,22,164,161,150,43,0.01,0,0.01,8,0.01,40,181,173,188,9,4
18.5,0.01,122,179,186,191,164,187,15,180,85,126,158,181,122,177,149,187,200,169,126,179,97,96,3,182,181,183,179,7,0.01,114,133,119,136,139,130,157,0.01,0,0.01,0,0.01,37,175,121,33,0.01,117,7,26,188,196,1,0.01,47,15,2,168,167,160,97,0.01,0,0.01,174,119,97,195,168,77,0.01,171,21,0.01,170,0.01,164,159,21,42,22,164,161,150,43,0.01,0,0.01,8,0.01,40,181,173,188,9,4
18.75,0.01,122,179,186,191,164,187,15,180,85,126,160,181,122,177,149,187,200,169,127,179,97,98,3,182,181,183,179,7,0.01,114,133,119,136,139,131,157,0.01,0,0.01,0,0.01,37,175,121,38,0.01,118,7,28,188,196,1,0.01,47,15,2,168,167,160,99,0.01,0,0.01,174,119,97,195,168,79,0.01,171,21,0.01,170,0.01,167,159,21,42,22,164,161,150,43,0.01,0,0.01,8,0.01,40,181,173,188,9,4
19,0.01,126,179,186,191,164,187,15,181,85,126,160,181,122,177,149,187,200,169,130,179,97,98,3,182,181,183,179,7,0.01,114,133,119,136,139,131,159,0.01,0,0.01,0,0.01,37,175,121,38,0.01,118,7,31,188,196,1,0.01,47,15,2,168,167,160,99,0.01,0,0.01,174,119,97,195,168,79,0.01,171,21,0.01,170,0.01,169,162,21,42,22,164,161,150,43,0.01,0,0.01,8,0.01,40,181,173,188,9,4
19.25,0.01,126,179,186,191,164,187,15,182,85,126,160,181,122,177,149,187,200,169,134,179,97,101,3,182,181,183,179,7,0.01,114,133,119,136,139,132,159,0.01,0,0.01,0,0.01,37,175,121,43,0.01,118,7,31,188,196,1,0.01,47,15,2,168,167,160,102,0.01,0,0.01,174,119,97,195,168,80,0.01,171,21,0.01,170,0.01,169,162,21,42,22,164,161,150,43,0.01,0,0.01,8,0.01,40,181,173,188,9,4
19.5,0.01,126,179,186,191,164,187,15,182,85,126,160,181,122,177,149,187,200,169,135,179,97,101,3,182,181,183,179,7,0.01,114,133,119,136,139,132,161,0.01,0,0.01,0,0.01,37,175,121,43,0.01,118,7,35,188,196,1,0.01,47,15,2,168,167,160,103,0.01,0,0.01,174,119,97,195,168,81,0.01,171,21,0.01,170,0.01,171,164,21,42,22,164,161,150,43,0.01,0,0.01,8,0.01,40,181,173,188,9,4
19.75,0.01,126,179,186,191,164,187,15,182,85,126,160,181,122,177,149,187,200,169,137,179,97,101,5,182,181,183,179,7,0.01,114,133,119,136,139,136,161,0.01,0,0.01,0,0.01,37,175,121,50,0.01,119,7,35,188,196,1,0.01,47,15,2,168,167,160,103,0.01,0,0.01,174,119,97,195,168,82,0.01,171,21,0.01,170,0.01,171,164,21,42,22,164,161,150,43,0.01,0,0.01,8,0.01,40,181,173,188,9,4
20,0.01,126,179,186,191,164,187,15,182,85,126,160,181,122,177,149,187,200,169,137,179,97,101,5,182,181,183,179,7,0.01,114,133,119,136,139,136,162,0.01,0,0.01,0,0.01,37,175,121,50,0.01,119,7,39,188,196,1,0.01,47,15,2,168,167,160,103,0.01,0,0.01,174,119,97,195,168,83,0.01,171,21,0.01,170,0.01,174,167,21,42,22,164,161,150,43,0.01,0,0.01,8,0.01,40,181,173,188,9,4
20.25,0.01,126,179,186,191,164,187,15,185,92,126,160,181,122,177,149,187,200,169,145,179,97,103,5,182,181,183,179,7,0.01,121,133,119,136,139,136,162,0.01,0,0.01,0,0.01,39,175,123,52,0.01,119,7,39,188,196,1,0.01,47,15,2,168,167,160,104,0.01,0,0.01,174,119,98,195,168,88,0.01,174,21,0.01,170,0.01,174,169,21,42,22,164,161,150,43,0.01,0,0.01,8,0.01,40,182,176,189,9,4
20.5,0.01,126,179,186,191,164,187,15,188,103,127,162,181,122,177,151,187,200,169,149,179,98,105,5,182,181,183,179,7,0.01,125,134,125,136,139,136,162,0.01,0,0.01,0,0.01,39,175,127,61,0.01,119,7,39,188,196,1,0.01,47,15,2,168,167,160,107,0.01,0,0.01,174,119,99,195,168,89,0.01,174,21,0.01,170,0.01,174,169,21,42,22,164,161,150,43,0.01,0,0.01,8,0.01,40,182,177,189,9,4
20.75,0.01,129,182,186,191,164,187,15,188,103,127,163,181,122,177,153,187,200,169,149,179,98,105,5,182,181,183,179,7,0.01,126,136,125,137,139,136,164,0.01,0,0.01,0,0.01,41,175,128,61,0.01,119,7,39,188,196,1,0.01,47,15,2,168,167,160,107,0.01,0,0.01,175,119,99,195,168,91,0.01,174,21,0.01,170,0.01,175,171,21,42,22,164,161,150,43,0.01,0,0.01,8,0.01,40,182,177,189,9,4
21,0.01,129,182,186,191,164,187,15,188,105,127,163,181,122,177,153,187,200,169,151,179,98,107,5,182,181,183,179,7,0.01,126,136,125,138,139,136,164,0.01,0,0.01,0,0.01,41,175,129,66,0.01,119,7,39,188,196,1,0.01,47,15,2,168,167,160,110,0.01,0,0.01,175,119,99,195,168,92,0.01,174,21,0.01,170,0.01,175,171,21,42,22,164,161,150,43,0.01,0,0.01,8,0.01,40,182,177,192,9,4
21.25,0.01,129,182,186,191,164,187,15,188,109,127,163,181,122,177,153,187,200,169,152,179,98,107,5,182,181,183,179,7,0.01,127,136,125,139,139,136,164,0.01,0,0.01,0,0.01,42,175,130,70,0.01,119,7,39,188,196,1,0.01,47,15,2,168,167,160,110,0.01,0,0.01,175,119,99,195,168,92,0.01,174,21,0.01,170,0.01,175,171,21,42,22,164,161,150,43,0.01,0,0.01,8,0.01,40,182,177,192,9,4
21.5,0.01,129,182,186,191,164,187,15,190,115,131,163,181,122,177,154,187,200,169,157,179,103,109,5,182,181,183,179,7,0.01,130,136,130,142,139,136,164,0.01,0,0.01,0,0.01,42,175,132,73,0.01,119,7,39,188,196,1,0.01,47,17,2,168,167,160,111,0.01,0,0.01,175,119,99,195,168,94,0.01,174,21,0.01,170,0.01,176,171,21,42,22,164,161,150,43,0.01,0,0.01,8,0.01,41,182,177,192,9,4
21.75,0.01,129,182,186,191,164,187,15,190,115,131,163,181,122,177,154,187,200,169,157,179,103,109,5,182,181,183,179,7,0.01,130,136,130,142,139,136,164,0.01,0,0.01,0,0.01,42,175,132,73,0.01,119,7,41,188,196,1,0.01,47,19,2,168,167,160,111,0.01,0,0.01,175,119,99,195,168,97,0.01,174,21,0.01,170,0.01,176,171,21,42,22,164,161,150,43,0.01,0,0.01,8,0.01,41,182,177,192,9,4
22,0.01,129,182,186,191,164,187,15,190,115,132,163,181,122,177,154,187,200,169,157,179,103,112,5,182,181,183,179,7,0.01,131,137,130,144,139,136,164,0.01,0,0.01,0,0.01,43,175,135,78,0.01,119,7,41,188,196,1,0.01,47,21,2,168,167,160,111,0.01,0,0.01,175,119,103,195,168,98,0.01,174,21,0.01,170,0.01,177,173,21,42,22,164,161,150,43,0.01,0,0.01,8,0.01,41,182,177,192,9,4
22.25,0.01,129,182,186,191,164,187,15,190,115,133,163,181,122,177,154,187,200,169,157,179,103,112,5,182,181,183,179,7,0.01,131,137,130,144,139,136,169,0.01,0,0.01,0,0.01,43,175,135,78,0.01,119,7,48,188,196,1,0.01,47,23,2,168,167,160,111,0.01,0,0.01,177,119,103,195,168,98,0.01,174,21,0.01,170,0.01,180,176,21,42,22,164,161,150,43,0.01,0,0.01,8,0.01,41,182,177,192,9,4
22.5,0.01,130,182,186,191,164,187,15,190,118,136,163,181,122,177,155,187,200,169,157,179,103,112,5,182,181,183,179,7,0.01,131,137,130,144,139,136,169,0.01,0,0.01,0,0.01,44,175,135,80,0.01,119,7,49,188,196,1,0.01,47,26,2,168,167,160,111,0.01,0,0.01,177,119,103,195,168,100,0.01,174,21,0.01,170,0.01,182,176,21,42,22,164,161,150,43,0.01,0,0.01,8,0.01,41,182,177,192,9,4
22.75,0.01,139,194,186,191,168,190,15,190,120,136,163,181,123,180,163,187,200,169,158,183,103,112,5,182,186,183,179,7,0.01,137,144,132,146,139,136,170,0.01,0,0.01,0,0.01,49,175,138,84,0.01,119,7,49,188,196,1,0.01,47,29,2,172,167,160,111,0.01,0,0.01,183,119,111,195,168,100,0.01,174,21,0.01,170,0.01,182,179,21,42,22,164,161,150,43,0.01,0,0.01,8,0.01,41,182,177,192,9,4
23,0.01,139,194,186,191,168,190,15,190,124,140,163,181,124,180,163,187,200,169,160,183,103,113,5,182,186,183,179,7,0.01,137,144,132,147,139,136,172,0.01,0,0.01,0,0.01,49,175,138,88,0.01,119,7,53,188,196,1,0.01,47,31,2,172,167,160,112,0.01,0,0.01,183,119,111,195,168,101,0.01,174,21,0.01,170,0.01,185,180,21,42,22,164,161,150,43,0.01,0,0.01,8,0.01,41,182,177,192,9,4
23.25,0.01,139,194,186,191,168,190,15,191,126,140,163,181,124,180,163,187,200,169,165,183,106,114,5,182,186,183,180,7,0.01,137,144,139,153,139,136,172,0.01,0,0.01,0,0.01,50,178,143,99,0.01,119,7,53,188,196,1,0.01,47,34,2,172,168,160,112,0.01,0,0.01,183,119,111,195,168,103,0.01,174,21,0.01,170,0.01,185,180,21,42,22,164,161,150,43,0.01,0,0.01,8,0.01,43,182,181,192,9,4
23.5,0.01,139,194,186,191,168,190,15,191,126,141,163,181,124,180,163,187,200,169,165,183,106,114,5,182,186,183,180,7,0.01,137,144,139,153,139,136,172,0.01,0,0.01,0,0.01,50,178,143,99,0.01,119,7,53,188,196,1,0.01,47,34,2,172,168,160,112,0.01,0,0.01,183,119,111,195,168,103,0.01,174,21,0.01,170,0.01,185,180,21,42,22,164,161,150,43,0.01,0,0.01,8,0.01,43,182,181,192,9,4
23.75,0.01,139,194,186,191,168,190,15,192,127,144,163,181,124,180,163,187,200,169,165,183,107,115,5,182,186,183,180,7,0.01,138,144,139,154,139,139,172,0.01,0,0.01,0,0.01,50,178,143,105,0.01,119,7,53,188,196,1,0.01,47,37,2,172,168,160,112,0.01,0,0.01,183,119,111,195,168,103,0.01,174,21,0.01,170,0.01,185,180,21,42,22,164,161,150,43,0.01,0,0.01,8,0.01,43,182,181,193,9,4
24,0.01,146,195,185,190,170,196,14,192,133,147,162,180,128,180,169,186,199,168,170,186,109,117,4,181,185,182,184,6,0.01,147,153,145,158,141,138,171,0.01,0,0.01,0,0.01,56,180,150,111,0.01,118,6,52,187,197,0.01,0,49,46,2,175,170,159,111,0.01,0,0.01,186,119,121,194,174,107,0.01,173,20,0.01,169,0.01,185,185,21,42,21,166,160,149,42,0.01,0,0.01,7,0.01,45,183,183,192,8,3
24.25,0.01,146,195,185,190,170,196,14,192,133,147,162,180,128,180,169,186,199,168,170,186,109,117,4,181,185,182,184,6,0.01,147,153,145,158,141,138,171,0.01,0,0.01,0,0.01,56,180,150,112,0.01,119,6,52,187,197,0.01,0,49,46,2,175,170,159,111,0.01,0,0.01,186,119,121,194,174,107,0.01,173,20,0.01,169,0.01,185,185,21,42,21,166,160,149,42,0.01,0,0.01,7,0.01,45,183,183,192,8,3
24.5,0.01,146,195,185,190,170,196,14,192,133,147,162,180,128,180,169,186,199,168,170,186,109,117,4,181,185,182,184,6,0.01,147,153,145,158,141,138,171,0.01,0,0.01,0,0.01,56,180,150,112,0.01,119,6,52,187,197,0.01,0,49,46,2,175,170,159,111,0.01,0,0.01,186,119,121,194,174,107,0.01,173,20,0.01,169,0.01,185,185,21,42,21,166,160,149,42,0.01,0,0.01,7,0.01,45,183,183,193,8,3
24.75,0.01,146,195,185,190,170,196,14,192,133,147,162,180,128,180,169,186,199,168,170,186,109,117,4,181,185,182,184,6,0.01,147,153,145,158,141,139,171,0.01,0,0.01,0,0.01,56,180,150,113,0.01,119,6,52,187,197,0.01,0,49,46,2,175,170,159,111,0.01,0,0.01,186,119,121,194,174,107,0.01,173,20,0.01,169,0.01,185,185,21,42,21,166,160,149,42,0.01,0,0.01,7,0.01,45,183,183,193,8,3
25,0.01,146,195,185,190,170,196,14,192,133,147,162,180,128,180,169,186,199,168,170,186,109,117,4,181,185,182,184,6,0.01,147,153,145,158,141,139,171,0.01,0,0.01,0,0.01,56,180,150,113,0.01,119,6,60,187,197,0.01,0,49,46,2,175,170,159,111,0.01,0,0.01,186,119,121,194,174,107,0.01,173,20,0.01,169,0.01,187,185,21,42,21,166,160,149,42,0.01,0,0.01,7,0.01,45,183,183,193,8,3
25.25,0.01,152,203,192,197,182,207,14,192,144,151,162,180,131,183,173,189,201,173,176,186,115,117,4,181,189,182,184,6,0.01,153,159,155,165,141,139,171,0.01,0,0.01,0,0.01,59,183,159,127,0.01,119,6,60,187,197,0.01,0,49,53,2,180,170,159,111,0.01,0,0.01,186,119,126,194,178,107,0.01,173,20,0.01,169,0.01,187,185,21,42,21,166,160,149,42,0.01,0,0.01,7,0.01,45,183,183,193,8,3
25.5,0.01,152,203,192,197,182,207,14,192,144,151,162,180,131,183,173,189,201,173,176,186,115,117,4,181,189,182,184,6,0.01,153,159,155,165,141,139,171,0.01,0,0.01,0,0.01,59,183,159,127,0.01,119,6,60,187,197,0.01,0,49,53,2,180,170,160,111,0.01,0,0.01,186,119,126,194,178,107,0.01,173,20,0.01,169,0.01,187,185,21,42,21,166,160,149,42,0.01,0,0.01,7,0.01,45,183,183,193,8,3
25.75,0.01,152,203,192,197,182,207,14,192,144,154,162,180,131,183,173,189,201,173,181,186,118,118,4,181,189,182,184,6,0.01,153,159,155,168,141,139,171,0.01,0,0.01,0,0.01,59,183,159,130,0.01,119,6,60,187,197,0.01,0,49,55,2,180,170,162,111,0.01,0,0.01,186,119,126,194,178,107,0.01,174,20,0.01,169,0.01,187,185,21,42,21,166,160,149,42,0.01,0,0.01,7,0.01,48,183,183,195,8,3
26,0.01,152,203,192,197,182,207,14,192,144,154,162,180,131,183,173,189,201,173,181,186,118,120,4,181,189,182,184,6,0.01,153,159,155,168,141,139,171,0.01,0,0.01,0,0.01,59,183,159,130,0.01,119,6,60,187,197,0.01,0,49,55,2,180,170,162,111,0.01,0,0.01,186,119,126,194,178,107,0.01,174,20,0.01,169,0.01,187,185,21,42,21,166,160,149,42,0.01,0,0.01,7,0.01,48,183,183,195,8,3
26.25,0.01,147,198,187,192,177,202,9,187,139,149,157,175,126,178,168,184,196,168,176,181,113,118,0.01,176,184,177,179,1,0.01,148,154,150,163,139,135,166,0.01,0,0.01,0,0.01,55,178,154,125,0.01,115,3,55,182,192,0.01,0,44,56,0.01,175,166,159,106,0.01,0,0.01,181,114,121,189,173,103,0.01,172,15,0.01,164,0.01,182,180,18,39,16,161,155,144,37,0.01,0,0.01,2,0.01,49,178,181,192,3,0
26.5,0.01,147,198,187,192,177,202,9,187,139,149,157,175,126,178,168,184,196,168,176,181,113,118,0.01,176,184,177,179,1,0.01,148,154,150,163,139,135,166,0.01,0,0.01,0,0.01,55,178,154,125,0.01,115,3,55,182,192,0.01,0,44,56,0.01,175,166,159,106,0.01,0,0.01,181,114,121,189,173,103,0.01,172,15,0.01,164,0.01,182,180,18,39,16,161,155,144,37,0.01,0,0.01,2,0.01,49,178,181,192,3,0
26.75,0.01,147,198,187,192,177,202,9,187,139,150,157,175,126,178,168,184,196,168,176,181,113,118,0.01,176,184,177,179,1,0.01,148,154,150,163,139,135,166,0.01,0,0.01,0,0.01,55,178,154,125,0.01,115,3,55,182,192,0.01,0,44,56,0.01,175,166,159,106,0.01,0,0.01,181,114,121,189,173,104,0.01,172,15,0.01,164,0.01,182,181,18,39,16,161,155,144,37,0.01,0,0.01,2,0.01,49,178,181,192,3,0
27,0.01,147,198,187,192,177,202,9,187,139,150,157,175,126,178,168,184,196,168,176,181,113,118,0.01,176,184,177,179,1,0.01,148,154,150,163,139,135,166,0.01,0,0.01,0,0.01,55,178,154,125,0.01,115,3,55,182,192,0.01,0,44,57,0.01,175,166,159,106,0.01,0,0.01,181,114,121,189,173,105,0.01,172,15,0.01,164,0.01,185,181,18,39,16,161,155,144,37,0.01,0,0.01,2,0.01,49,180,181,192,3,0
27.25,0.01,147,198,187,192,177,202,9,187,139,150,157,175,126,178,168,184,196,168,176,181,113,118,0.01,176,184,177,179,1,0.01,148,154,150,163,139,135,166,0.01,0,0.01,0,0.01,55,178,154,125,0.01,115,3,55,182,192,0.01,0,44,57,0.01,175,166,159,106,0.01,0,0.01,181,114,121,189,173,105,0.01,172,15,0.01,164,0.01,185,181,18,39,16,161,155,144,37,0.01,0,0.01,2,0.01,49,180,181,192,3,0
27.5,0.01,147,198,187,192,177,202,10,187,139,150,157,175,126,178,168,184,196,168,176,181,113,118,0.01,176,184,177,179,1,0.01,148,154,150,163,139,135,166,0.01,0,0.01,0,0.01,55,178,154,127,0.01,115,3,55,182,192,0.01,0,44,58,0.01,175,166,159,106,0.01,0,0.01,181,114,121,189,173,105,0.01,172,15,0.01,164,0.01,185,181,18,39,16,161,155,144,37,0.01,0,0.01,2,0.01,49,180,181,192,3,0
27.75,0.01,155,198,187,192,177,202,12,187,144,154,157,175,130,178,170,184,196,168,179,181,114,120,0.01,176,184,177,179,1,0.01,150,154,150,165,142,135,166,0.01,0,0.01,0,0.01,59,178,154,131,0.01,115,3,55,182,192,0.01,0,44,63,0.01,175,167,160,106,0.01,0,0.01,182,114,124,189,173,107,0.01,172,15,0.01,164,0.01,185,181,18,39,16,161,155,144,37,0.01,0,0.01,2,0.01,49,180,181,192,3,0
28,0.01,155,198,187,192,177,202,15,187,144,154,157,175,130,178,170,184,196,168,179,181,114,120,0.01,176,184,177,179,1,0.01,150,154,150,165,142,135,166,0.01,0,0.01,0,0.01,59,178,154,131,0.01,115,3,55,182,192,0.01,0,44,63,0.01,175,168,160,106,0.01,0,0.01,182,114,124,189,173,107,0.01,172,15,0.01,164,0.01,185,181,18,39,16,162,155,144,37,0.01,0,0.01,2,0.01,51,180,181,192,3,0
28.25,0.01,155,198,187,192,177,202,21,187,144,154,157,175,130,178,170,184,196,168,179,181,114,121,0.01,176,184,177,179,1,0.01,150,154,150,165,142,135,166,0.01,0,0.01,0,0.01,59,178,154,135,0.01,115,3,55,182,192,0.01,0,44,64,0.01,175,168,161,106,0.01,0,0.01,182,114,125,189,173,107,0.01,172,15,0.01,164,0.01,185,181,18,39,16,162,155,144,37,0.01,0,0.01,2,0.01,54,180,181,193,5,0
28.5,0.01,155,198,187,192,177,202,28,188,149,156,157,175,131,178,171,184,196,168,184,181,120,126,0.01,176,184,177,179,2,0.01,155,159,157,171,146,135,166,0.01,0,0.01,0,0.01,63,182,160,140,0.01,115,3,55,182,192,0.01,0,44,70,0.01,175,169,162,106,0.01,0,0.01,182,114,131,189,174,107,0.01,172,15,0.01,164,0.01,185,181,20,39,16,162,155,144,37,0.01,0,0.01,2,0.01,56,180,181,197,5,0
28.75,0.01,156,198,187,192,182,204,30,188,153,156,157,175,134,178,175,184,196,171,187,181,123,126,0.01,176,184,177,181,2,0.01,157,162,162,173,146,135,166,0.01,0,0.01,0,0.01,63,185,163,141,0.01,115,3,55,182,192,0.01,0,44,72,0.01,175,169,162,106,0.01,0,0.01,183,114,131,192,177,107,0.01,172,15,0.01,164,0.01,185,181,20,39,16,163,155,144,37,0.01,0,0.01,2,0.01,56,180,181,197,5,0
29,0.01,156,198,187,192,182,204,31,188,153,156,157,175,134,178,175,184,196,171,187,181,123,126,0.01,176,184,177,181,2,0.01,157,162,162,173,146,135,166,0.01,0,0.01,0,0.01,63,185,163,141,0.01,115,3,55,182,192,0.01,0,44,72,0.01,175,169,162,106,0.01,0,0.01,183,114,131,192,177,107,0.01,172,15,0.01,164,0.01,185,181,20,39,16,163,155,144,37,0.01,0,0.01,2,0.01,56,180,181,197,5,0
29.25,0.01,159,198,187,192,182,204,34,188,153,156,157,175,134,178,175,184,196,171,187,181,123,126,0.01,176,184,177,181,2,0.01,157,162,162,173,146,135,166,0.01,0,0.01,0,0.01,63,185,163,141,0.01,115,3,55,182,192,0.01,0,44,72,0.01,175,169,162,106,0.01,0,0.01,184,114,131,192,177,111,0.01,172,15,0.01,164,0.01,185,183,20,39,16,163,155,144,37,0.01,0,0.01,2,0.01,56,184,181,197,5,0
29.5,0.01,159,199,187,192,182,204,39,188,153,156,157,175,134,178,175,184,196,171,187,181,123,126,0.01,176,184,177,181,2,0.01,157,162,162,173,146,135,166,0.01,0,0.01,0,0.01,64,185,163,141,0.01,115,3,55,182,192,0.01,0,44,75,0.01,175,169,162,106,0.01,0,0.01,186,114,132,192,177,112,0.01,172,15,0.01,164,0.01,185,184,20,39,16,164,155,144,37,0.01,0,0.01,2,0.01,56,184,181,197,5,0
29.75,0.01,164,204,187,192,191,207,43,188,155,156,157,175,135,179,180,184,199,171,187,182,123,126,0.01,176,187,177,183,2,0.01,161,165,163,175,146,135,166,0.01,0,0.01,0,0.01,69,185,164,141,0.01,115,3,55,182,192,0.01,0,44,79,0.01,177,170,162,106,0.01,0,0.01,187,114,137,192,180,112,0.01,172,15,0.01,164,0.01,185,184,20,39,16,164,155,144,37,0.01,0,0.01,2,0.01,56,184,181,197,5,0
30,0.01,164,204,187,192,191,207,47,188,155,156,157,175,135,179,180,184,199,171,187,182,123,126,0.01,176,187,177,183,2,0.01,161,165,163,175,146,135,166,0.01,0,0.01,0,0.01,69,185,164,141,0.01,115,3,55,182,192,0.01,0,44,79,0.01,177,170,162,106,0.01,0,0.01,187,114,137,192,180,112,0.01,172,15,0.01,164,0.01,187,184,21,39,16,164,155,144,37,0.01,0,0.01,2,0.01,58,184,181,197,5,0
30.25,0.01,164,204,187,192,191,207,53,188,155,156,157,175,135,179,180,184,199,171,187,182,123,126,0.01,176,187,177,183,2,0.01,161,165,163,175,147,135,166,0.01,0,0.01,0,0.01,69,185,164,141,0.01,115,3,55,182,192,0.01,0,44,79,0.01,177,172,162,106,0.01,0,0.01,187,114,137,192,180,112,0.01,172,15,0.01,164,0.01,187,184,21,39,16,164,155,144,37,0.01,0,0.01,2,0.01,60,184,181,197,5,0
30.5,0.01,166,204,187,192,191,207,56,188,155,156,157,175,135,179,180,184,199,171,187,182,123,126,0.01,176,187,177,183,2,0.01,161,165,163,175,147,135,166,0.01,0,0.01,0,0.01,69,185,164,141,0.01,115,3,55,182,192,0.01,0,44,79,0.01,177,172,162,106,0.01,0,0.01,187,114,137,192,180,112,0.01,172,15,0.01,164,0.01,187,184,23,39,16,164,155,144,37,0.01,0,0.01,2,0.01,61,185,181,197,5,0
30.75,0.01,166,204,187,192,191,207,60,188,155,156,157,175,135,179,180,184,199,171,187,182,123,127,0.01,176,187,177,183,2,0.01,161,165,163,175,149,135,166,0.01,0,0.01,0,0.01,69,185,164,141,0.01,115,3,55,182,192,0.01,0,44,79,0.01,177,172,162,106,0.01,0,0.01,187,114,137,192,180,112,0.01,172,15,0.01,164,0.01,187,184,23,39,16,164,155,144,37,0.01,0,0.01,2,0.01,63,185,181,197,5,0
31,0.01,166,204,187,192,191,207,62,188,155,156,157,175,135,179,180,184,199,171,187,182,123,127,0.01,176,187,177,183,2,0.01,161,165,163,175,149,135,166,0.01,0,0.01,0,0.01,69,185,164,141,0.01,115,3,55,182,192,0.01,0,44,79,0.01,177,172,162,106,0.01,0,0.01,187,114,137,192,180,112,0.01,172,15,0.01,164,0.01,187,184,23,40,16,164,155,144,37,0.01,0,0.01,2,0.01,65,185,181,197,5,0
31.25,0.01,166,204,187,192,191,207,62,188,155,156,157,175,135,179,180,184,199,171,187,182,123,127,0.01,176,187,177,183,2,0.01,161,165,163,175,149,135,166,0.01,0,0.01,0,0.01,69,185,164,141,0.01,115,3,55,182,192,0.01,0,44,79,0.01,177,172,162,106,0.01,0,0.01,187,114,137,192,180,112,0.01,172,15,0.01,164,0.01,187,184,23,40,16,164,155,144,37,0.01,0,0.01,2,0.01,65,185,181,197,5,0
31.5,0.01,166,204,187,192,191,207,64,188,155,156,157,175,135,179,180,184,199,171,187,182,123,127,0.01,176,187,177,183,2,0.01,161,165,163,175,149,135,166,0.01,0,0.01,0,0.01,69,185,164,141,0.01,115,3,55,182,192,0.01,0,44,80,0.01,177,172,162,106,0.01,0,0.01,187,114,137,192,180,112,0.01,172,15,0.01,164,0.01,187,184,23,40,16,164,155,144,37,0.01,0,0.01,2,0.01,65,185,181,197,5,0
31.75,0.01,166,204,187,192,191,207,71,188,155,156,157,175,135,179,180,184,199,171,187,182,123,127,0.01,176,187,177,183,2,0.01,161,165,163,175,149,135,166,0.01,0,0.01,0,0.01,69,185,164,141,0.01,115,3,55,182,192,0.01,0,44,83,0.01,177,172,162,106,0.01,0,0.01,187,114,137,192,180,112,0.01,172,15,0.01,164,0.01,187,184,23,40,16,164,155,144,37,0.01,0,0.01,2,0.01,65,185,181,197,5,0
32,0.01,166,204,187,192,191,207,74,188,155,156,157,175,135,179,180,184,199,171,187,182,123,127,0.01,176,187,177,183,2,0.01,161,165,163,175,149,135,166,0.01,0,0.01,0,0.01,69,185,164,141,0.01,115,3,55,182,192,0.01,0,44,83,0.01,177,172,162,106,0.01,0,0.01,187,114,137,192,180,112,0.01,172,15,0.01,164,0.01,187,184,23,40,16,164,155,144,37,0.01,0,0.01,2,0.01,65,185,181,197,5,0
32.25,0.01,166,204,187,192,191,207,74,188,155,156,157,175,136,179,180,184,199,171,187,182,123,127,0.01,176,187,177,183,2,0.01,161,165,163,175,149,135,166,0.01,0,0.01,0,0.01,69,185,164,141,0.01,115,3,59,182,192,0.01,0,44,89,0.01,177,172,162,106,0.01,0,0.01,187,114,137,192,180,115,0.01,172,15,0.01,164,0.01,187,184,24,41,16,165,155,144,37,0.01,0,0.01,2,0.01,65,185,181,197,5,0
32.5,0.01,166,204,187,192,191,207,86,188,155,156,157,175,136,179,180,184,199,171,187,182,123,127,0.01,176,187,177,183,2,0.01,161,165,163,175,152,135,166,0.01,0,0.01,0,0.01,69,185,164,141,0.01,115,3,59,182,192,0.01,0,44,89,0.01,177,172,162,106,0.01,0,0.01,187,114,138,192,180,115,0.01,172,15,0.01,164,0.01,187,184,24,41,16,165,155,144,37,0.01,0,0.01,2,0.01,65,185,181,197,5,0
32.75,0.01,169,205,191,192,195,213,99,188,167,156,157,175,143,182,187,190,203,175,201,183,130,127,0.01,176,189,179,183,2,0.01,169,177,177,183,156,135,166,0.01,0,0.01,0,0.01,77,190,175,151,0.01,115,3,59,182,193,0.01,0,44,99,0.01,181,173,162,106,0.01,0,0.01,187,114,150,196,188,115,0.01,172,15,0.01,164,0.01,187,184,24,41,16,165,155,144,37,0.01,0,0.01,2,0.01,65,185,181,197,5,0
33,0.01,169,205,191,192,195,213,99,188,167,156,157,175,143,182,187,190,203,175,201,183,130,130,0.01,176,189,179,183,2,0.01,169,177,177,183,157,135,166,0.01,0,0.01,0,0.01,77,190,175,151,0.01,115,3,59,182,193,0.01,0,44,99,0.01,181,173,162,106,0.01,0,0.01,187,114,150,196,188,115,0.01,172,15,0.01,164,0.01,187,184,25,41,16,165,155,144,37,0.01,0,0.01,2,0.01,65,185,181,197,5,0
33.25,0.01,169,205,191,192,195,213,99,188,167,156,157,175,143,182,187,190,203,175,201,183,130,130,0.01,176,189,179,183,2,0.01,169,177,177,183,157,135,166,0.01,0,0.01,0,0.01,77,190,175,151,0.01,115,3,59,182,193,0.01,0,44,99,0.01,181,173,162,106,0.01,0,0.01,187,114,150,196,188,115,0.01,172,15,0.01,164,0.01,187,184,25,41,16,165,155,144,37,0.01,0,0.01,2,0.01,65,185,181,197,5,0
33.5,0.01,169,205,191,192,195,213,99,188,167,156,157,175,143,182,187,190,203,175,201,183,130,130,0.01,176,189,179,183,2,0.01,169,177,177,183,157,135,166,0.01,0,0.01,0,0.01,77,190,175,151,0.01,115,3,59,182,193,0.01,0,44,99,0.01,181,173,162,106,0.01,0,0.01,187,114,150,196,188,115,0.01,172,15,0.01,164,0.01,187,184,25,41,16,165,155,144,37,0.01,0,0.01,2,0.01,65,185,181,197,5,0
33.75,0.01,169,205,191,192,195,213,99,188,167,156,157,175,143,182,187,190,203,175,201,183,130,130,0.01,176,189,179,183,2,0.01,169,177,177,183,157,135,166,0.01,0,0.01,0,0.01,77,190,175,151,0.01,115,3,59,182,193,0.01,0,44,99,0.01,181,173,162,106,0.01,0,0.01,187,114,150,196,188,115,0.01,172,15,0.01,164,0.01,187,184,26,41,16,165,155,144,37,0.01,0,0.01,2,0.01,65,185,181,197,5,0
34,0.01,169,205,191,192,195,213,99,188,167,156,157,175,143,182,187,190,203,175,201,183,130,130,0.01,176,189,179,183,2,0.01,169,177,177,183,157,135,166,0.01,0,0.01,0,0.01,77,190,175,151,0.01,115,3,59,182,193,0.01,0,44,99,0.01,181,173,162,106,0.01,0,0.01,187,114,150,196,188,115,0.01,172,15,0.01,164,0.01,187,184,27,44,16,165,155,144,37,0.01,0,0.01,2,0.01,65,185,181,197,5,0
34.25,0.01,169,205,191,192,195,213,108,188,167,156,157,175,143,182,187,190,203,175,201,183,130,130,0.01,176,189,179,183,2,0.01,169,177,177,183,157,135,166,0.01,0,0.01,0,0.01,77,190,175,151,0.01,115,3,59,182,193,0.01,0,44,99,0.01,181,176,162,106,0.01,0,0.01,187,114,150,196,188,115,0.01,172,15,0.01,164,0.01,187,184,27,44,16,166,155,144,37,0.01,0,0.01,2,0.01,65,185,181,197,5,0
34.5,0.01,170,205,191,192,195,213,108,188,167,156,157,175,143,182,187,190,203,175,201,183,130,130,0.01,176,189,179,183,2,0.01,169,177,177,183,157,135,166,0.01,0,0.01,0,0.01,77,190,175,151,0.01,115,3,59,182,193,0.01,0,44,101,0.01,181,176,162,106,0.01,0,0.01,189,114,150,196,188,115,0.01,172,15,0.01,164,0.01,187,184,27,44,16,166,155,144,37,0.01,0,0.01,2,0.01,65,185,181,197,5,0
34.75,0.01,170,205,191,192,195,213,115,188,167,156,157,175,143,182,187,190,203,175,201,183,130,130,0.01,176,189,179,183,2,0.01,169,177,177,183,158,135,166,0.01,0,0.01,0,0.01,77,190,175,151,0.01,115,3,59,182,193,0.01,0,44,102,0.01,181,177,162,106,0.01,0,0.01,189,114,150,196,188,115,0.01,172,15,0.01,164,0.01,187,184,27,44,16,167,155,144,37,0.01,0,0.01,2,0.01,65,185,181,197,5,0
35,0.01,170,205,191,192,195,213,115,188,167,156,157,175,143,182,187,190,203,175,201,183,130,130,0.01,176,189,179,183,2,0.01,169,177,177,183,158,135,166,0.01,0,0.01,0,0.01,77,190,175,151,0.01,115,3,59,182,193,0.01,0,44,102,0.01,181,177,162,106,0.01,0,0.01,189,114,150,196,188,115,0.01,172,15,0.01,164,0.01,187,184,28,44,16,168,155,144,37,0.01,0,0.01,2,0.01,65,185,181,197,5,0
35.25,0.01,170,205,191,192,195,213,118,188,167,156,157,175,143,182,187,190,203,175,201,183,130,132,0.01,176,189,179,183,2,0.01,169,177,177,183,159,135,166,0.01,0,0.01,0,0.01,77,190,175,151,0.01,115,3,59,182,193,0.01,0,44,102,0.01,181,177,162,106,0.01,0,0.01,189,114,150,196,188,115,0.01,172,15,0.01,164,0.01,187,184,28,44,16,168,155,144,37,0.01,0,0.01,2,0.01,65,185,181,197,5,0
35.5,0.01,170,205,191,192,195,213,125,188,167,156,157,175,143,182,187,190,203,175,201,183,130,133,0.01,176,189,179,183,2,0.01,169,177,177,183,160,135,166,0.01,0,0.01,0,0.01,77,190,175,151,0.01,115,3,59,182,193,0.01,0,44,102,0.01,181,177,162,106,0.01,0,0.01,189,114,150,196,188,115,0.01,172,15,0.01,164,0.01,187,184,28,44,16,168,155,144,37,0.01,0,0.01,2,0.01,65,185,181,197,5,0
35.75,0.01,170,205,191,192,195,213,125,188,167,156,157,175,143,182,187,190,203,175,201,183,130,133,0.01,176,189,179,183,2,0.01,169,177,177,183,160,135,166,0.01,0,0.01,0,0.01,77,190,175,151,0.01,115,3,59,182,193,0.01,0,44,102,0.01,181,178,162,106,0.01,0,0.01,189,114,150,196,188,115,0.01,172,15,0.01,164,0.01,187,184,29,45,16,168,155,144,37,0.01,0,0.01,2,0.01,65,185,181,197,5,0
36,0.01,170,205,191,192,195,213,127,188,167,156,157,175,143,182,187,190,203,175,201,183,130,133,0.01,176,189,179,183,2,0.01,169,177,177,183,161,135,166,0.01,0,0.01,0,0.01,77,190,175,151,0.01,115,3,59,182,193,0.01,0,44,102,0.01,181,178,162,106,0.01,0,0.01,189,114,150,196,188,115,0.01,172,15,0.01,164,0.01,187,184,29,45,16,168,155,144,37,0.01,0,0.01,2,0.01,65,185,181,197,5,0
36.25,0.01,170,205,191,192,195,213,127,188,167,156,157,175,143,182,187,190,203,175,201,183,130,133,0.01,176,189,179,183,2,0.01,169,177,177,183,161,135,166,0.01,0,0.01,0,0.01,77,190,175,151,0.01,115,3,59,182,193,0.01,0,44,102,0.01,181,178,162,106,0.01,0,0.01,189,114,150,196,188,115,0.01,172,15,0.01,164,0.01,187,184,33,45,16,168,155,144,37,0.01,0,0.01,2,0.01,65,185,181,197,5,0
36.5,0.01,173,205,191,192,195,213,127,188,167,156,157,175,143,182,187,190,203,175,201,183,130,133,0.01,176,192,179,183,2,0.01,169,177,177,183,161,135,166,0.01,0,0.01,0,0.01,77,190,175,151,0.01,115,3,59,182,193,0.01,0,44,108,0.01,181,178,162,106,0.01,0,0.01,190,114,150,196,188,115,0.01,172,15,0.01,164,0.01,187,184,33,45,16,168,155,144,37,0.01,0,13,2,0.01,65,185,181,197,5,0
36.75,0.01,173,205,191,192,195,213,127,188,167,156,157,175,143,182,187,190,203,175,201,183,130,133,0.01,176,192,179,183,2,0.01,169,177,177,183,161,135,166,0.01,0,0.01,0,0.01,77,190,175,151,0.01,115,3,63,182,193,0.01,0,44,108,0.01,181,178,162,106,0.01,0,0.01,190,114,150,196,188,115,0.01,172,15,0.01,164,0.01,187,184,33,45,16,168,155,144,37,0.01,0,15,2,0.01,65,185,181,197,5,0
37,0.01,173,205,191,192,195,213,132,188,167,156,157,175,146,182,187,190,203,175,201,184,130,133,0.01,176,192,179,183,2,0.01,169,177,177,183,161,135,166,0.01,0,0.01,0,0.01,77,190,175,151,0.01,115,3,63,182,193,0.01,0,44,110,0.01,181,178,162,106,0.01,0,0.01,190,114,152,197,188,115,0.01,172,15,0.01,164,0.01,187,184,33,45,16,168,155,144,37,0.01,0,15,2,0.01,65,185,181,197,5,0
37.25,0.01,173,205,191,192,195,213,138,188,167,156,157,175,146,182,187,190,203,175,201,184,130,133,0.01,176,192,179,183,2,0.01,169,177,177,183,161,135,166,0.01,0,0.01,0,0.01,77,190,175,151,0.01,115,3,63,182,193,0.01,0,44,110,0.01,181,178,162,106,0.01,0,0.01,190,114,153,198,188,115,0.01,172,15,0.01,164,0.01,187,184,33,47,16,168,155,144,37,0.01,0,15,2,0.01,65,185,181,197,5,0
37.5,0.01,173,205,191,192,195,213,143,188,167,156,157,175,146,182,187,190,203,175,201,184,130,133,0.01,176,192,179,183,2,0.01,169,177,177,183,162,135,166,0.01,0,0.01,0,0.01,77,190,175,151,0.01,115,3,63,182,193,0.01,0,44,110,0.01,181,178,162,106,0.01,0,0.01,190,114,153,198,188,115,0.01,172,15,0.01,164,0.01,187,184,33,47,16,168,155,144,37,0.01,0,24,2,0.01,65,185,181,197,5,0
37.75,0.01,173,205,191,192,195,213,143,188,167,156,157,175,147,182,187,190,203,175,201,184,130,133,0.01,176,192,179,184,2,0.01,169,177,177,183,162,135,166,0.01,0,0.01,0,0.01,77,190,175,151,0.01,115,3,63,182,193,0.01,0,44,115,0.01,182,178,162,106,0.01,0,0.01,190,114,153,198,188,115,0.01,172,15,0.01,164,0.01,187,184,33,47,16,168,155,144,37,0.01,0,24,2,0.01,65,185,181,197,5,0
38,0.01,173,205,191,192,195,213,143,188,167,156,157,175,147,182,187,190,203,175,201,184,130,133,0.01,176,192,179,184,2,0.01,169,177,177,183,162,135,166,0.01,0,0.01,0,0.01,77,190,175,151,0.01,115,3,63,182,193,0.01,0,44,115,0.01,182,178,162,106,0.01,0,0.01,190,114,153,198,188,115,0.01,172,15,0.01,164,0.01,187,184,37,50,17,168,155,144,37,0.01,0,24,2,0.01,65,185,181,197,5,0
38.25,0.01,173,205,191,192,195,213,157,188,172,156,157,175,152,182,187,190,203,175,206,186,133,133,0.01,176,192,179,184,2,0.01,169,182,177,187,162,135,166,0.01,0,0.01,0,0.01,77,191,175,153,0.01,115,3,63,182,193,0.01,0,44,115,0.01,182,179,162,106,0.01,0,0.01,190,114,157,199,188,115,0.01,172,15,0.01,164,0.01,187,184,37,50,17,168,155,144,37,0.01,0,24,2,0.01,65,185,181,197,5,0
38.5,0.01,173,205,191,192,195,213,157,188,172,156,157,175,152,182,187,190,203,175,206,186,133,133,0.01,176,192,179,184,2,0.01,169,182,177,187,162,135,166,0.01,0,0.01,0,0.01,77,191,175,153,0.01,115,3,63,182,193,0.01,0,44,115,0.01,182,179,162,106,0.01,0,0.01,190,114,157,199,188,115,0.01,172,15,0.01,164,0.01,187,184,37,50,19,168,155,144,37,0.01,0,26,2,0.01,65,185,181,197,5,0
38.75,0.01,173,205,191,192,195,213,157,188,172,156,157,175,152,182,187,190,203,175,206,186,133,133,0.01,176,192,179,184,2,0.01,169,182,177,187,162,135,166,0.01,0,0.01,0,0.01,77,191,175,153,0.01,115,3,63,182,193,0.01,0,44,115,0.01,182,179,162,106,0.01,0,0.01,190,114,157,199,188,115,0.01,172,15,0.01,164,0.01,187,184,40,51,19,168,155,144,37,0.01,0,26,2,0.01,65,185,181,197,5,0
39,0.01,179,217,206,205,208,217,157,188,178,156,157,175,152,189,198,194,210,178,208,189,133,133,0.01,176,192,183,186,2,0.01,181,189,188,187,162,135,166,0.01,0,0.01,0,0.01,91,197,185,161,0.01,115,3,63,182,195,0.01,0,44,129,0.01,193,179,162,106,0.01,0,0.01,190,114,160,204,193,115,0.01,172,15,0.01,164,0.01,187,184,40,51,19,168,155,144,37,0.01,0,26,2,0.01,65,185,181,197,5,0
39.25,0.01,179,217,206,205,208,217,157,188,178,156,157,175,152,189,198,194,210,178,208,189,133,133,0.01,176,192,183,186,2,0.01,181,189,188,187,162,135,166,0.01,0,0.01,0,0.01,91,197,185,161,0.01,115,3,63,182,195,0.01,0,44,129,0.01,193,179,162,106,0.01,0,0.01,190,114,160,204,193,115,0.01,172,15,0.01,164,0.01,187,184,40,51,19,168,155,144,37,0.01,0,26,2,0.01,65,185,181,197,5,0
39.5,0.01,179,217,206,205,208,217,160,188,178,156,157,175,152,189,198,194,210,178,208,189,133,133,0.01,176,192,183,186,2,0.01,181,189,188,187,162,135,166,0.01,0,0.01,0,0.01,91,197,185,161,0.01,115,3,63,182,195,0.01,0,44,129,0.01,193,179,162,106,0.01,0,0.01,190,114,160,204,193,115,0.01,172,15,0.01,164,0.01,187,184,40,51,19,168,155,144,37,0.01,0,26,2,0.01,65,185,181,197,5,0
39.75,0.01,179,217,206,205,208,217,160,188,178,156,157,175,152,189,198,194,210,178,208,189,133,133,0.01,176,192,183,186,2,0.01,181,189,188,187,162,135,166,0.01,0,0.01,0,0.01,91,197,185,161,0.01,115,3,63,182,195,0.01,0,44,129,0.01,193,179,162,106,0.01,0,0.01,190,114,160,204,193,115,0.01,172,15,0.01,164,0.01,187,184,40,51,19,168,155,144,37,0.01,0,26,2,0.01,65,185,181,197,5,0
40,0.01,179,217,206,205,208,217,162,188,178,156,157,175,152,189,198,194,210,178,208,189,133,133,0.01,176,192,183,186,2,0.01,181,189,188,187,162,135,166,0.01,0,0.01,0,0.01,91,197,185,161,0.01,115,3,63,182,195,0.01,0,44,129,0.01,193,179,162,106,0.01,0,0.01,190,114,160,204,193,115,0.01,172,15,0.01,164,0.01,187,184,40,53,21,168,155,144,37,0.01,0,26,2,0.01,65,185,181,197,5,0
40.25,0.01,179,217,206,205,208,217,162,188,178,156,157,175,152,189,198,194,210,178,208,189,133,133,0.01,176,192,183,186,2,0.01,181,189,188,187,162,135,166,0.01,0,0.01,0,0.01,91,197,185,161,0.01,115,3,63,182,195,0.01,0,44,129,0.01,193,179,162,106,0.01,0,0.01,190,114,160,204,193,115,0.01,172,15,0.01,164,0.01,187,184,43,53,21,168,155,144,37,0.01,0,26,2,0.01,65,185,181,197,5,0
40.5,0.01,179,217,206,205,208,217,162,188,178,156,157,175,152,189,198,194,210,178,208,189,133,133,0.01,176,192,183,186,2,0.01,181,189,188,187,162,135,166,0.01,0,0.01,0,0.01,91,197,185,161,0.01,115,3,63,182,195,0.01,0,44,129,0.01,193,179,162,106,0.01,0,0.01,190,114,160,204,193,115,0.01,172,15,0.01,164,0.01,187,184,43,53,21,168,155,144,37,0.01,0,28,2,0.01,65,185,181,197,5,0
40.75,0.01,179,217,206,205,208,217,162,188,178,156,157,175,152,189,198,194,210,178,208,189,133,133,0.01,176,192,183,186,2,0.01,181,189,188,187,162,135,166,0.01,0,0.01,0,0.01,91,197,185,161,0.01,115,3,63,182,195,0.01,0,44,129,0.01,193,179,162,106,0.01,0,0.01,190,114,160,204,193,115,0.01,172,15,0.01,164,0.01,187,184,43,53,21,168,155,144,37,0.01,0,28,2,0.01,65,185,181,197,5,0
41,0.01,179,217,206,205,208,217,162,188,178,156,157,175,152,189,198,194,210,178,208,189,133,133,0.01,176,192,183,186,2,0.01,181,189,188,187,162,135,166,0.01,0,0.01,0,0.01,91,197,185,161,0.01,115,3,63,182,195,0.01,0,44,129,0.01,193,179,162,106,0.01,0,0.01,190,114,160,204,193,115,0.01,172,15,0.01,164,0.01,187,184,45,53,21,168,155,144,37,0.01,0,29,2,0.01,65,185,181,197,5,0
41.25,0.01,179,217,206,205,208,217,167,188,178,156,157,175,153,189,198,194,210,178,208,189,133,133,0.01,176,192,183,186,2,0.01,181,189,188,187,162,135,166,0.01,0,0.01,0,0.01,91,197,185,161,0.01,115,3,63,182,195,0.01,0,44,129,0.01,193,179,162,106,0.01,0,0.01,190,114,160,204,193,115,0.01,172,15,0.01,164,0.01,187,184,45,53,21,168,155,144,37,0.01,0,29,2,0.01,65,185,181,197,5,0
41.5,0.01,179,217,206,205,208,217,171,188,178,156,157,175,153,189,198,194,210,178,208,189,133,133,0.01,176,192,183,186,2,0.01,181,189,188,187,162,135,166,0.01,0,0.01,0,0.01,91,197,185,161,0.01,115,3,63,182,195,0.01,0,44,129,0.01,193,179,162,106,0.01,0,0.01,190,114,166,204,193,115,0.01,173,15,0.01,164,0.01,187,184,45,53,23,168,155,144,37,0.01,0,34,2,0.01,65,185,181,197,5,0
41.75,0.01,179,217,206,205,208,217,171,188,178,156,157,175,153,189,198,194,210,178,208,189,133,133,0.01,176,192,183,186,2,0.01,181,189,188,187,162,135,166,0.01,0,0.01,0,0.01,91,197,185,161,0.01,115,3,63,182,195,0.01,0,44,129,0.01,193,179,162,106,0.01,0,0.01,190,114,166,204,193,115,0.01,173,15,0.01,164,0.01,187,184,47,53,23,168,155,144,37,0.01,0,34,2,0.01,65,185,181,197,5,0
42,0.01,179,217,206,205,208,217,179,188,178,156,157,175,155,189,198,194,210,178,208,190,133,133,0.01,176,192,183,186,2,0.01,181,189,188,190,162,135,166,0.01,0,0.01,0,0.01,91,197,185,163,0.01,115,3,63,182,195,0.01,0,44,129,0.01,193,179,162,106,0.01,0,0.01,190,114,166,205,193,115,0.01,173,15,0.01,164,0.01,187,184,47,53,23,168,155,144,37,0.01,0,34,2,0.01,65,185,181,197,5,0
42.25,0.01,179,217,206,205,208,217,179,188,178,156,157,175,155,189,198,194,210,178,208,190,133,133,0.01,176,192,183,186,2,0.01,181,189,188,190,162,135,166,0.01,0,0.01,0,0.01,91,197,185,163,0.01,115,3,63,182,195,0.01,0,44,129,2,193,179,162,106,0.01,0,0.01,190,114,166,205,193,115,0.01,173,15,0.01,164,0.01,187,184,50,57,23,168,155,144,37,0.01,0,51,2,0.01,65,185,181,197,5,0
42.5,0.01,179,217,206,205,208,217,182,188,178,156,157,175,155,189,198,194,210,178,208,190,133,133,0.01,176,192,183,186,2,0.01,181,189,188,190,162,135,166,0.01,0,0.01,0,0.01,91,197,185,163,0.01,115,3,63,182,195,0.01,0,44,129,2,193,179,162,106,0.01,0,0.01,190,114,166,205,193,115,0.01,177,15,0.01,164,0.01,187,184,50,57,23,168,155,144,37,0.01,0,56,2,0.01,65,185,181,197,5,0
42.75,0.01,179,217,208,206,210,217,190,188,182,156,157,175,157,191,201,196,211,183,219,192,133,133,0.01,176,192,183,189,2,0.01,186,194,197,197,162,135,166,0.01,0,0.01,0,0.01,96,199,190,173,0.01,115,3,63,182,195,0.01,0,44,137,2,200,179,162,106,0.01,0,0.01,190,114,167,205,193,115,0.01,177,15,0.01,164,0.01,187,184,50,57,23,168,155,144,37,0.01,0,56,2,0.01,65,185,181,197,5,0
43,0.01,179,217,208,206,210,217,190,188,182,156,157,175,157,191,201,196,211,183,219,192,133,133,0.01,176,192,183,189,2,0.01,186,194,197,197,162,135,166,0.01,0,0.01,0,0.01,96,199,190,173,0.01,115,3,63,182,195,0.01,0,44,137,2,200,179,162,106,0.01,0,0.01,190,114,167,205,193,115,0.01,177,15,0.01,164,0.01,187,184,50,57,23,168,155,144,37,0.01,0,59,2,0.01,65,185,181,197,5,0
43.25,0.01,179,217,208,206,210,217,190,188,182,156,157,175,157,191,201,196,211,183,219,192,133,133,0.01,176,192,183,189,2,0.01,186,194,197,197,162,135,166,0.01,0,0.01,0,0.01,96,199,190,173,0.01,115,3,63,182,195,0.01,0,44,137,3,200,179,162,106,0.01,0,0.01,190,114,167,205,193,115,0.01,177,15,0.01,164,0.01,187,184,50,57,23,168,155,144,37,0.01,0,59,2,0.01,65,185,181,197,5,0
43.5,0.01,179,217,208,206,210,217,190,188,182,156,157,175,157,191,201,196,211,183,219,192,133,133,0.01,176,192,183,189,2,0.01,186,194,197,197,162,135,166,0.01,0,0.01,0,0.01,96,199,190,173,0.01,115,3,63,182,195,0.01,0,44,137,3,200,179,162,106,0.01,0,0.01,190,114,167,205,193,115,0.01,177,15,0.01,164,0.01,187,184,50,57,23,168,155,144,37,0.01,0,60,2,0.01,65,185,181,197,5,0
43.75,0.01,179,217,208,206,210,217,190,188,182,156,157,175,158,191,201,196,211,183,219,192,133,133,0.01,176,192,183,189,2,0.01,186,194,197,197,162,135,166,0.01,0,0.01,0,0.01,96,199,190,173,0.01,115,3,63,182,195,0.01,0,44,137,3,200,179,162,106,0.01,0,0.01,190,114,167,205,193,115,0.01,177,15,0.01,164,0.01,187,184,50,57,23,168,155,144,37,0.01,0,60,2,0.01,65,185,181,197,5,0
44,0.01,179,217,208,206,210,217,190,188,182,156,157,175,158,191,201,196,211,183,219,194,133,133,0.01,176,192,183,189,2,0.01,186,194,197,197,162,135,166,0.01,0,0.01,0,0.01,96,199,190,173,0.01,115,3,63,182,195,0.01,0,44,137,5,200,179,162,106,0.01,0,0.01,190,114,167,205,193,115,0.01,178,15,0.01,164,0.01,187,184,50,57,23,168,155,144,37,0.01,0,60,2,0.01,65,185,181,197,5,0
44.25,0.01,182,217,208,206,210,217,190,188,182,156,157,175,160,191,201,196,211,183,219,194,133,133,0.01,176,192,183,189,2,0.01,186,194,197,197,162,135,166,0.01,0,0.01,0,0.01,96,199,190,173,0.01,115,3,63,182,197,0.01,0,44,137,5,200,179,162,106,0.01,0,0.01,190,114,168,205,193,115,0.01,178,15,0.01,164,0.01,187,184,50,57,23,168,155,144,37,0.01,0,60,2,0.01,65,185,181,197,5,0
44.5,0.01,182,217,208,206,210,217,195,188,182,156,157,175,160,191,201,196,211,183,219,194,133,133,0.01,176,192,183,189,4,0.01,186,194,197,197,162,135,166,0.01,0,0.01,0,0.01,96,199,190,173,0.01,115,3,63,182,197,0.01,0,44,137,5,200,179,162,106,0.01,0,0.01,190,114,177,207,193,115,0.01,178,15,0.01,164,0.01,187,184,50,57,23,168,155,144,37,0.01,0,60,2,0.01,65,185,181,197,5,0
44.75,0.01,182,217,208,206,210,217,195,188,182,156,157,175,160,191,201,196,211,183,219,194,133,133,0.01,176,192,183,189,4,0.01,186,194,197,197,162,135,166,0.01,0,0.01,0,0.01,96,199,190,173,0.01,115,3,63,182,197,0.01,0,44,137,6,200,179,162,106,0.01,0,0.01,190,115,177,207,193,115,0.01,178,15,0.01,164,0.01,187,184,50,57,23,168,155,144,37,0.01,0,60,2,0.01,65,185,181,197,5,0
45,0.01,182,217,208,206,210,217,195,188,182,156,157,175,160,191,201,196,211,183,219,195,133,133,0.01,176,192,183,189,4,0.01,186,194,197,197,162,135,166,0.01,0,0.01,0,0.01,96,199,190,174,0.01,115,3,63,182,197,0.01,0,44,137,6,200,179,162,106,0.01,0,0.01,190,115,177,207,193,115,0.01,181,15,0.01,164,0.01,187,184,50,57,23,168,155,144,37,0.01,0,60,2,0.01,65,185,181,197,5,0
45.25,0.01,182,217,208,207,210,217,205,188,182,156,157,175,160,193,203,196,211,187,225,195,133,133,0.01,176,192,183,189,4,0.01,186,198,199,201,162,135,166,0.01,0,0.01,0,0.01,98,199,190,180,0.01,115,3,63,182,197,0.01,0,44,142,6,200,179,162,106,0.01,0,0.01,190,115,177,207,193,115,0.01,181,15,0.01,164,0.01,187,184,50,57,23,168,155,144,37,0.01,0,60,2,0.01,65,185,181,197,5,0
45.5,0.01,182,217,208,207,210,217,205,188,182,156,157,175,160,193,203,196,211,187,225,195,133,133,0.01,176,192,183,189,4,0.01,186,198,199,201,162,135,166,0.01,0,0.01,0,0.01,98,199,190,180,0.01,115,3,63,182,197,0.01,0,44,142,6,200,179,162,106,0.01,0,0.01,190,115,177,207,193,115,0.01,186,15,0.01,164,0.01,187,184,50,57,23,168,155,144,37,0.01,0,61,2,0.01,65,185,181,197,5,0
45.75,0.01,182,217,208,207,210,217,205,188,182,156,157,175,160,193,203,196,211,187,225,195,133,133,0.01,176,192,183,189,4,0.01,186,198,199,201,162,135,166,0.01,0,0.01,0,0.01,98,199,190,180,0.01,115,3,63,182,197,0.01,0,44,142,6,200,179,162,106,0.01,0,0.01,190,115,177,207,193,115,0.01,186,15,0.01,164,0.01,187,184,50,57,23,168,155,144,37,0.01,0,61,2,0.01,65,185,181,197,5,0
46,0.01,182,217,208,207,210,217,205,188,182,156,157,175,160,193,203,196,211,187,225,195,133,133,0.01,176,192,183,189,4,0.01,186,198,199,201,162,135,166,0.01,0,0.01,0,0.01,98,199,190,180,0.01,115,3,63,182,197,0.01,0,44,142,7,200,179,162,106,0.01,0,0.01,190,115,177,207,193,115,0.01,187,15,0.01,164,0.01,187,184,50,57,23,168,155,144,37,0.01,0,61,2,0.01,65,185,181,197,5,0
46.25,0.01,182,217,208,207,210,217,205,188,182,156,157,175,160,193,203,196,211,187,225,195,133,133,0.01,176,192,183,189,4,0.01,186,198,199,201,162,135,166,0.01,0,0.01,0,0.01,98,199,190,180,0.01,115,3,63,182,197,0.01,0,44,142,9,200,179,162,106,0.01,0,0.01,190,115,177,207,193,115,0.01,187,15,0.01,164,0.01,187,184,50,57,23,168,155,144,37,0.01,0,63,2,0.01,65,185,181,197,5,0
46.5,0.01,182,217,208,207,210,217,205,188,182,156,157,175,160,193,203,196,211,187,225,195,133,133,0.01,176,192,183,189,4,0.01,186,198,199,201,162,135,166,0.01,0,0.01,0,0.01,98,199,190,180,0.01,115,3,63,182,197,0.01,0,44,142,9,200,179,162,106,0.01,0,0.01,190,115,177,207,193,115,0.01,187,15,0.01,164,0.01,187,184,50,57,23,168,155,144,37,0.01,0,65,2,0.01,65,185,181,197,5,0
46.75,0.01,182,217,208,207,210,217,205,188,182,156,157,175,160,193,203,196,211,187,225,195,133,133,0.01,176,192,183,189,4,0.01,186,198,199,201,162,135,166,0.01,0,0.01,0,0.01,98,199,190,180,0.01,115,3,63,182,197,0.01,0,44,142,9,200,179,162,106,0.01,0,0.01,190,115,177,207,193,115,0.01,189,15,0.01,164,0.01,187,184,50,57,23,168,155,144,37,0.01,0,67,2,0.01,65,185,181,197,5,0
47,0.01,182,217,208,207,210,217,205,188,182,156,157,175,160,193,203,196,211,187,225,195,133,133,0.01,176,192,183,189,4,0.01,186,198,199,201,162,135,166,0.01,0,0.01,0,0.01,98,199,190,180,0.01,115,3,63,182,197,0.01,0,44,142,9,200,179,162,106,0.01,0,0.01,190,116,177,207,193,115,0.01,189,15,0.01,164,0.01,187,184,50,57,23,168,155,144,37,0.01,0,68,2,0.01,65,185,181,197,5,0
47.25,0.01,182,217,208,207,210,217,205,188,182,156,157,175,160,193,203,196,211,187,225,196,133,133,0.01,176,192,183,189,4,0.01,186,198,199,201,162,135,166,0.01,0,0.01,0,0.01,98,199,190,180,0.01,115,3,63,182,197,0.01,0,44,142,9,200,179,163,106,0.01,0,0.01,190,116,179,208,193,115,0.01,191,15,0.01,164,0.01,187,184,50,57,23,168,155,144,37,0.01,0,68,2,0.01,65,185,181,197,5,0
47.5,0.01,182,217,208,207,210,217,205,188,182,156,157,175,160,193,203,196,211,187,225,196,133,133,0.01,176,192,183,189,4,0.01,186,198,199,201,162,135,166,0.01,0,0.01,0,0.01,98,199,190,180,0.01,115,3,63,182,197,0.01,0,44,142,9,200,179,163,106,0.01,0,0.01,190,116,179,208,193,115,0.01,191,15,0.01,164,0.01,187,184,50,57,23,168,155,144,37,0.01,0,70,2,0.01,65,185,181,197,5,0
47.75,0.01,182,217,208,207,210,217,205,188,182,156,157,175,160,193,203,196,211,187,225,196,133,133,0.01,176,192,183,189,5,0.01,186,198,199,201,162,135,166,0.01,0,0.01,0,0.01,98,199,190,180,0.01,115,3,63,182,197,0.01,0,44,142,9,200,179,163,106,0.01,0,0.01,190,116,179,208,193,115,0.01,193,15,0.01,164,0.01,187,184,50,57,23,168,155,144,37,0.01,0,71,2,0.01,65,185,181,197,5,0
