Data File    , C:\Program Files\Biolog\OL_DC_23\PMX\Data_2013\07\PMX_443_130705_B_25.OKA,,,,,,,,,,,,,,,,,,,,,,,,,,,,,,,,,,,,,,,,,,,,,,,,,,,,,,,,,,,,,,,,,,,,,,,,,,,,,,,,,,,,,,,,,,,,,,,
Set up Time  ,Jul 05 2013 12:22 PM,,,,,,,,,,,,,,,,,,,,,,,,,,,,,,,,,,,,,,,,,,,,,,,,,,,,,,,,,,,,,,,,,,,,,,,,,,,,,,,,,,,,,,,,,,,,,,,
Position     ,13-A,,,,,,,,,,,,,,,,,,,,,,,,,,,,,,,,,,,,,,,,,,,,,,,,,,,,,,,,,,,,,,,,,,,,,,,,,,,,,,,,,,,,,,,,,,,,,,,
Plate Type   ,PM 1-,,,,,,,,,,,,,,,,,,,,,,,,,,,,,,,,,,,,,,,,,,,,,,,,,,,,,,,,,,,,,,,,,,,,,,,,,,,,,,,,,,,,,,,,,,,,,,,
Strain Type  ,---,,,,,,,,,,,,,,,,,,,,,,,,,,,,,,,,,,,,,,,,,,,,,,,,,,,,,,,,,,,,,,,,,,,,,,,,,,,,,,,,,,,,,,,,,,,,,,,
Sample Number,,,,,,,,,,,,,,,,,,,,,,,,,,,,,,,,,,,,,,,,,,,,,,,,,,,,,,,,,,,,,,,,,,,,,,,,,,,,,,,,,,,,,,,,,,,,,,,,
Strain Name  ,rep1,,,,,,,,,,,,,,,,,,,,,,,,,,,,,,,,,,,,,,,,,,,,,,,,,,,,,,,,,,,,,,,,,,,,,,,,,,,,,,,,,,,,,,,,,,,,,,,
Strain Number,274-JUL 8,,,,,,,,,,,,,,,,,,,,,,,,,,,,,,,,,,,,,,,,,,,,,,,,,,,,,,,,,,,,,,,,,,,,,,,,,,,,,,,,,,,,,,,,,,,,,,,
Other        ,,,,,,,,,,,,,,,,,,,,,,,,,,,,,,,,,,,,,,,,,,,,,,,,,,,,,,,,,,,,,,,,,,,,,,,,,,,,,,,,,,,,,,,,,,,,,,,,
,,,,,,,,,,,,,,,,,,,,,,,,,,,,,,,,,,,,,,,,,,,,,,,,,,,,,,,,,,,,,,,,,,,,,,,,,,,,,,,,,,,,,,,,,,,,,,,,
Hour,  A01,  A02,  A03,  A04,  A05,  A06,  A07,  A08,  A09,  A10,  A11,  A12,  B01,  B02,  B03,  B04,  B05,  B06,  B07,  B08,  B09,  B10,  B11,  B12,  C01,  C02,  C03,  C04,  C05,  C06,  C07,  C08,  C09,  C10,  C11,  C12,  D01,  D02,  D03,  D04,  D05,  D06,  D07,  D08,  D09,  D10,  D11,  D12,  E01,  E02,  E03,  E04,  E05,  E06,  E07,  E08,  E09,  E10,  E11,  E12,  F01,  F02,  F03,  F04,  F05,  F06,  F07,  F08,  F09,  F10,  F11,  F12,  G01,  G02,  G03,  G04,  G05,  G06,  G07,  G08,  G09,  G10,  G11,  G12,  H01,  H02,  H03,  H04,  H05,  H06,  H07,  H08,  H09,  H10,  H11,  H12
0,0.01,0,0.01,0,0.01,0,0.01,0,0.01,0,0.01,0,0.01,0,0.01,0,0.01,0,0.01,0,0.01,0,0.01,0,0.01,0,0.01,0,0.01,0,0.01,0,0.01,0,0.01,0,0.01,0,0.01,0,0.01,0,0.01,0,0.01,0,0.01,0,0.01,0,0.01,0,0.01,0,0.01,0,0.01,0,0.01,0,0.01,0,0.01,0,0.01,0,0.01,0,0.01,0,0.01,0,0.01,0,0.01,0,0.01,0,0.01,0,0.01,0,0.01,0,0.01,0,0.01,0,0.01,0,0.01,0,0.01,0,5,11
0.25,0.01,0,0.01,0,0.01,0,0.01,0,0.01,0,0.01,0,0.01,0,0.01,0,0.01,0,0.01,0,0.01,0,0.01,0,0.01,0,0.01,0,0.01,0,0.01,0,0.01,0,0.01,0,0.01,0,0.01,0,0.01,0,0.01,0,0.01,0,0.01,0,0.01,0,0.01,0,0.01,0,0.01,0,0.01,0,0.01,0,0.01,0,0.01,0,0.01,0,0.01,0,0.01,0,0.01,2,0.01,0,0.01,0,0.01,0,0.01,0,2,0.01,0,4,0.01,0,0.01,0,0.01,12,8,2,6,8,19,25
0.5,0.01,0,0.01,0,0.01,0,0.01,0,0.01,0,0.01,0,0.01,0,0.01,0,0.01,0,0.01,0,0.01,0,0.01,0,0.01,0,0.01,0,0.01,0,0.01,0,0.01,0,0.01,0,0.01,0,0.01,0,0.01,0,0.01,0,0.01,0,0.01,0,0.01,0,0.01,0,0.01,0,0.01,0,0.01,0,0.01,0,0.01,0,0.01,0,0.01,0,0.01,0,0.01,0,0.01,0,0.01,0,0.01,0,0.01,0,0.01,0,0.01,0,0.01,2,0.01,0,0.01,0,0.01,10,6,0.01,4,6,17,23
0.75,0.01,0,0.01,0,0.01,0,0.01,0,0.01,0,0.01,0,0.01,0,0.01,0,0.01,0,0.01,0,0.01,0,0.01,0,0.01,0,0.01,0,0.01,0,0.01,0,0.01,0,0.01,0,0.01,0,0.01,0,0.01,0,0.01,0,0.01,0,0.01,0,0.01,0,0.01,0,0.01,0,0.01,0,0.01,0,0.01,0,0.01,0,0.01,0,0.01,0,0.01,0,0.01,0,0.01,0,0.01,0,0.01,0,0.01,0,0.01,0,0.01,0,0.01,2,0.01,0,0.01,0,0.01,10,6,0.01,4,6,17,23
1,0.01,0,0.01,0,0.01,0,0.01,0,0.01,0,0.01,0,0.01,0,0.01,0,0.01,0,0.01,0,0.01,0,0.01,0,0.01,0,0.01,0,0.01,0,0.01,0,0.01,0,0.01,0,0.01,0,0.01,0,0.01,0,0.01,0,0.01,0,0.01,0,0.01,0,0.01,0,0.01,0,0.01,0,0.01,0,0.01,0,0.01,0,0.01,0,0.01,0,0.01,0,0.01,0,0.01,0,0.01,0,0.01,0,0.01,0,0.01,0,0.01,0,0.01,0,0.01,0,0.01,0,0.01,3,0.01,0,0.01,0,10,16
1.25,0.01,0,0.01,0,0.01,0,0.01,0,0.01,0,0.01,0,0.01,0,0.01,0,0.01,0,0.01,0,0.01,0,0.01,0,0.01,0,0.01,0,0.01,0,0.01,0,0.01,0,0.01,0,0.01,0,0.01,0,0.01,0,0.01,0,0.01,0,0.01,0,0.01,0,0.01,0,0.01,0,0.01,0,0.01,0,0.01,0,0.01,0,0.01,0,0.01,0,0.01,0,0.01,0,0.01,0,0.01,0,0.01,0,0.01,0,0.01,0,0.01,0,0.01,0,0.01,0,0.01,0,0.01,1,0.01,0,0.01,0,8,14
1.5,0.01,0,0.01,0,0.01,0,0.01,0,0.01,0,0.01,0,0.01,0,0.01,0,0.01,0,0.01,0,0.01,0,0.01,0,0.01,0,0.01,0,0.01,0,0.01,0,0.01,0,0.01,0,0.01,0,0.01,0,0.01,0,0.01,0,0.01,0,0.01,0,0.01,0,0.01,0,0.01,0,0.01,0,0.01,0,0.01,0,0.01,0,0.01,0,0.01,0,0.01,0,0.01,0,0.01,0,0.01,0,0.01,0,0.01,0,0.01,0,0.01,0,0.01,0,0.01,0,0.01,0,0.01,0,0.01,0,0.01,0,0.01,6
1.75,0.01,0,0.01,0,0.01,0,0.01,0,0.01,0,0.01,0,0.01,0,0.01,0,0.01,0,0.01,0,0.01,0,0.01,0,0.01,0,0.01,0,0.01,0,0.01,0,0.01,0,0.01,0,0.01,0,0.01,0,0.01,0,0.01,0,0.01,0,0.01,0,0.01,0,0.01,0,0.01,0,0.01,0,0.01,0,0.01,0,0.01,0,0.01,0,0.01,0,0.01,0,0.01,0,0.01,0,0.01,0,0.01,0,0.01,0,0.01,0,0.01,0,0.01,0,0.01,0,0.01,0,0.01,0,0.01,0,0.01,0,0.01,6
2,0.01,0,0.01,0,0.01,0,0.01,0,0.01,0,0.01,0,0.01,0,0.01,0,0.01,0,0.01,0,0.01,0,0.01,0,0.01,0,0.01,0,0.01,0,0.01,0,0.01,0,0.01,0,0.01,0,0.01,0,0.01,0,0.01,0,0.01,0,0.01,0,0.01,0,0.01,0,0.01,0,0.01,0,0.01,0,0.01,0,0.01,0,0.01,0,0.01,0,0.01,0,0.01,0,0.01,0,0.01,0,0.01,0,0.01,0,0.01,0,0.01,0,0.01,0,0.01,0,0.01,0,0.01,0,0.01,0,0.01,0,0.01,6
2.25,0.01,0,0.01,0,0.01,0,0.01,0,0.01,0,0.01,0,0.01,0,0.01,0,0.01,0,0.01,0,2,0.01,0,0.01,0,0.01,0,0.01,0,0.01,0,0.01,0,0.01,0,0.01,0,0.01,0,0.01,0,0.01,0,0.01,0,0.01,0,0.01,0,0.01,0,0.01,0,0.01,0,0.01,0,0.01,0,0.01,0,0.01,0,0.01,0,0.01,0,0.01,0,0.01,0,0.01,0,0.01,0,0.01,0,0.01,0,0.01,0,0.01,0,0.01,0,0.01,0,0.01,0,0.01,0,0.01,0,0.01,0,6
2.5,0.01,0,0.01,0,2,3,0.01,0,0.01,0,0.01,0,0.01,0,9,0.01,0,0.01,0,0.01,15,0.01,0,0.01,0,0.01,0,0.01,0,0.01,0,0.01,0,0.01,0,0.01,0,0.01,0,0.01,0,0.01,0,0.01,0,0.01,0,0.01,0,0.01,2,0.01,0,0.01,0,0.01,0,0.01,0,0.01,0,0.01,0,0.01,0,0.01,0,0.01,0,0.01,0,0.01,0,0.01,0,0.01,0,0.01,0,2,2,0.01,0,0.01,0,0.01,0,0.01,0,0.01,9,6,0.01,0,1,4
2.75,0.01,0,0.01,0,0.01,0,0.01,0,0.01,0,0.01,0,0.01,0,12,2,0.01,0,0.01,0,19,0.01,0,0.01,0,0.01,0,0.01,0,0.01,0,0.01,0,0.01,0,0.01,0,0.01,0,0.01,0,0.01,0,0.01,0,0.01,0,0.01,0,0.01,0,0.01,0,0.01,0,0.01,0,0.01,0,0.01,0,0.01,0,0.01,0,0.01,0,0.01,0,0.01,0,0.01,0,0.01,0,0.01,0,0.01,0,0.01,0,0.01,0,0.01,0,0.01,0,0.01,0,0.01,6,3,0.01,0,0.01,0
3,0.01,0,0.01,0,0.01,3,0.01,0,0.01,0,0.01,0,0.01,0,14,2,0.01,0,0.01,0,19,0.01,0,0.01,0,0.01,0,0.01,0,0.01,0,0.01,0,0.01,0,0.01,0,0.01,0,0.01,0,0.01,0,0.01,0,0.01,0,0.01,0,0.01,0,0.01,0,0.01,0,0.01,0,0.01,0,0.01,0,0.01,0,0.01,0,0.01,0,0.01,0,0.01,0,0.01,0,0.01,0,0.01,0,0.01,0,0.01,0,0.01,0,0.01,0,0.01,0,0.01,0,0.01,6,4,0.01,0,0.01,0
3.25,0.01,0,0.01,0,5,6,0.01,0,0.01,0,0.01,0,1,0.01,25,7,0.01,0,0.01,0,26,1,0.01,0,0.01,0,0.01,0,0.01,0,0.01,0,0.01,0,0.01,0,0.01,0,0.01,0,0.01,0,0.01,0,0.01,0,0.01,0,0.01,0,3,0.01,0,0.01,0,0.01,0,0.01,0,6,0.01,0,0.01,0,0.01,0,0.01,0,0.01,0,0.01,0,0.01,0,0.01,0,0.01,0,0.01,2,0.01,0,0.01,1,0.01,0,0.01,0,0.01,0,9,10,0.01,0,0.01,0
3.5,0.01,0,0.01,0,5,10,0.01,0,0.01,0,0.01,0,1,0.01,30,9,0.01,0,0.01,0,26,5,0.01,0,0.01,0,0.01,0,0.01,0,0.01,0,0.01,0,0.01,0,0.01,0,0.01,0,0.01,0,0.01,0,0.01,0,0.01,0,0.01,0,4,0.01,0,0.01,0,0.01,0,0.01,0,6,0.01,0,0.01,0,0.01,0,0.01,0,0.01,0,0.01,0,0.01,0,0.01,0,0.01,0,0.01,2,0.01,0,0.01,1,0.01,0,0.01,0,0.01,0,9,10,0.01,0,0.01,0
3.75,0.01,0,0.01,0,9,10,0.01,0,0.01,0,0.01,0,1,0.01,32,11,0.01,0,0.01,0,26,8,0.01,0,0.01,0,0.01,0,0.01,0,0.01,0,0.01,0,0.01,0,0.01,0,0.01,0,0.01,0,0.01,0,0.01,0,0.01,0,0.01,0,4,0.01,0,0.01,0,0.01,0,0.01,0,8,0.01,0,0.01,0,0.01,0,0.01,0,0.01,0,0.01,1,0.01,0,0.01,0,0.01,0,0.01,2,0.01,0,0.01,1,0.01,0,0.01,0,0.01,0,9,10,0.01,0,0.01,0
4,0.01,4,0.01,0,13,17,0.01,0,0.01,0,0.01,0,1,0.01,49,23,0.01,0,3,0.01,41,12,0.01,0,0.01,0,0.01,6,0.01,0,0.01,4,0.01,1,5,0.01,0,0.01,0,0.01,0,0.01,0,11,0.01,0,0.01,8,0.01,0,12,0.01,0,0.01,0,0.01,0,0.01,0,16,0.01,0,0.01,0,0.01,0,0.01,0,0.01,0,0.01,12,0.01,0,3,0.01,0,0.01,0,8,1,0.01,0,10,7,0.01,0,0.01,0,0.01,16,21,8,0.01,0,0
4.25,0.01,6,0.01,0,13,17,0.01,0,0.01,0,0.01,0,1,0.01,51,23,0.01,0,3,0.01,41,13,0.01,0,0.01,0,0.01,6,0.01,0,0.01,4,0.01,4,5,0.01,0,0.01,0,0.01,0,0.01,0,11,0.01,0,0.01,8,0.01,0,12,0.01,0,0.01,0,0.01,0,0.01,0,17,0.01,0,0.01,0,0.01,0,0.01,0,0.01,0,0.01,12,0.01,0,3,0.01,0,0.01,0,8,1,0.01,0,10,7,0.01,0,0.01,0,0.01,16,21,8,0.01,0,0
4.5,0.01,14,0.01,0,12,18,0.01,0,0.01,0,0.01,0,0.01,0,60,22,0.01,0,2,0.01,41,15,0.01,0,0.01,0,0.01,6,0.01,0,0.01,3,0.01,18,4,0.01,0,0.01,0,0.01,0,0.01,0,15,0.01,0,0.01,7,0.01,0,17,0.01,0,0.01,0,0.01,0,0.01,1,23,0.01,0,0.01,0,0.01,0,0.01,0,0.01,0,0.01,11,0.01,0,13,0.01,0,0.01,0,12,0.01,0,0.01,9,8,0.01,0,0.01,0,0.01,15,23,11,0.01,0,0
4.75,0.01,20,0.01,0,14,18,0.01,0,0.01,0,7,0.01,0,0.01,72,29,0.01,0,4,0.01,51,16,0.01,0,0.01,0,0.01,12,0.01,0,0.01,10,0.01,24,9,6,0.01,0,0.01,0,0.01,0,0.01,22,0.01,0,0.01,12,0.01,0,19,0.01,0,0.01,2,0.01,0,0.01,9,26,0.01,0,0.01,0,0.01,0,0.01,0,0.01,0,0.01,19,1,0.01,24,0.01,0,0.01,0,20,2,0.01,0,10,12,0.01,0,0.01,0,0.01,19,29,15,1,0.01,0
5,0.01,24,0.01,0,14,18,0.01,0,0.01,2,7,0.01,0,0.01,72,29,0.01,0,4,0.01,51,17,0.01,0,0.01,0,0.01,12,0.01,0,0.01,10,0.01,24,9,6,0.01,0,0.01,0,0.01,0,0.01,22,0.01,0,0.01,12,0.01,0,19,0.01,0,0.01,2,0.01,0,0.01,9,26,0.01,0,0.01,0,0.01,0,0.01,0,0.01,0,0.01,19,1,0.01,24,0.01,0,0.01,0,20,2,0.01,0,10,12,0.01,0,0.01,0,0.01,19,29,15,1,0.01,0
5.25,0.01,27,0.01,0,10,14,0.01,0,0.01,8,3,0.01,8,0.01,80,34,0.01,0,0.01,0,53,15,0.01,0,0.01,0,0.01,19,0.01,0,0.01,10,0.01,20,9,6,0.01,0,0.01,0,0.01,0,0.01,23,0.01,0,0.01,8,0.01,0,19,0.01,0,0.01,0,0.01,0,0.01,15,30,0.01,0,0.01,0,0.01,0,0.01,0,0.01,0,0.01,21,2,0.01,36,0.01,0,5,0.01,17,2,0.01,0,9,16,0.01,0,0.01,0,0.01,19,33,16,5,0.01,0
5.5,0.01,32,0.01,0,11,16,0.01,0,0.01,9,3,0.01,8,0.01,80,34,3,0.01,0,0.01,53,16,0.01,0,0.01,0,0.01,19,0.01,0,0.01,10,0.01,20,9,6,0.01,0,0.01,0,0.01,0,0.01,23,0.01,0,0.01,8,0.01,0,20,0.01,0,0.01,0,0.01,0,0.01,15,30,0.01,0,0.01,0,0.01,0,0.01,0,0.01,0,0.01,21,2,0.01,36,0.01,0,5,0.01,17,2,0.01,0,9,16,0.01,0,0.01,0,0.01,19,33,16,5,0.01,0
5.75,0.01,32,0.01,0,11,18,0.01,0,0.01,15,2,0.01,8,0.01,89,38,6,0.01,0,0.01,55,19,0.01,0,7,0.01,0,22,0.01,0,0.01,9,0.01,19,8,5,0.01,0,0.01,0,0.01,0,0.01,22,0.01,0,0.01,7,0.01,0,22,0.01,0,0.01,0,0.01,0,0.01,14,34,0.01,0,0.01,0,0.01,0,0.01,0,0.01,0,0.01,20,1,0.01,38,0.01,0,5,0.01,16,1,0.01,0,8,16,0.01,0,0.01,0,0.01,18,32,15,4,0.01,0
6,0.01,32,0.01,0,11,18,0.01,0,0.01,16,9,0.01,9,0.01,89,39,6,0.01,0,1,62,19,0.01,0,20,0.01,0,27,0.01,0,0.01,12,0.01,19,13,16,0.01,0,0.01,0,0.01,0,0.01,31,0.01,0,0.01,13,0.01,0,22,0.01,0,0.01,0,0.01,0,0.01,25,38,1,0.01,0,0.01,0,0.01,2,0.01,0,0.01,0,28,5,0.01,49,0.01,0,13,0.01,21,1,0.01,0,9,21,0.01,0,0.01,0,0.01,18,40,21,12,0.01,0
6.25,0.01,44,0.01,0,12,21,0.01,0,0.01,22,9,0.01,9,0.01,96,42,15,0.01,0,1,62,19,0.01,0,28,0.01,0,27,0.01,0,0.01,14,0.01,19,13,16,0.01,0,0.01,0,0.01,0,0.01,31,0.01,0,0.01,13,0.01,0,28,4,0.01,0,0.01,0,0.01,0,25,43,1,0.01,0,0.01,0,0.01,2,0.01,0,0.01,0,28,5,0.01,49,0.01,0,14,0.01,23,1,0.01,0,9,21,0.01,0,0.01,0,0.01,18,40,21,12,0.01,0
6.5,0.01,44,0.01,0,12,21,0.01,0,0.01,23,11,0.01,9,0.01,97,45,15,0.01,0,6,67,19,0.01,0,44,0.01,0,33,0.01,0,0.01,15,0.01,19,13,16,0.01,0,0.01,0,0.01,0,0.01,34,0.01,0,1,15,0.01,0,29,17,0.01,0,0.01,0,0.01,2,27,43,1,0.01,0,0.01,0,0.01,2,0.01,0,0.01,0,29,5,0.01,49,0.01,0,15,0.01,23,1,0.01,0,9,21,0.01,0,0.01,0,0.01,18,40,21,12,0.01,0
6.75,0.01,47,0.01,0,12,24,0.01,0,0.01,27,14,0.01,9,0.01,97,50,17,0.01,0,10,71,19,0.01,0,55,0.01,0,37,0.01,0,0.01,18,0.01,22,16,21,0.01,0,0.01,0,0.01,0,0.01,38,1,0.01,7,18,0.01,0,30,30,0.01,0,1,0.01,0,4,32,45,4,0.01,0,0.01,0,0.01,3,0.01,0,0.01,0,32,5,0.01,58,0.01,1,22,0.01,26,1,0.01,0,9,23,0.01,0,0.01,0,0.01,18,44,24,15,0.01,0
7,0.01,47,0.01,0,12,24,0.01,0,0.01,27,14,0.01,9,0.01,97,50,17,0.01,0,10,74,19,0.01,0,61,0.01,0,42,0.01,0,0.01,19,0.01,23,18,22,0.01,0,0.01,0,0.01,0,0.01,46,3,0.01,7,18,0.01,0,30,38,0.01,0,1,0.01,0,5,37,48,4,0.01,0,0.01,0,0.01,5,0.01,0,0.01,0,35,9,0.01,61,0.01,3,22,0.01,26,1,1,0.01,9,25,0.01,0,0.01,0,0.01,21,49,28,23,3,0
7.25,0.01,48,0.01,0,12,29,1,0.01,0,32,17,0.01,9,0.01,97,51,23,0.01,3,14,79,19,0.01,0,70,0.01,0,48,0.01,0,0.01,22,0.01,26,20,25,0.01,0,0.01,0,0.01,0,0.01,58,6,0.01,11,21,0.01,0,35,50,0.01,0,1,0.01,0,11,37,52,4,0.01,0,0.01,0,0.01,5,0.01,0,0.01,0,37,9,0.01,61,0.01,3,26,0.01,26,1,1,0.01,9,25,0.01,0,0.01,0,0.01,21,49,29,23,3,0
7.5,0.01,50,0.01,0,12,32,1,0.01,0,34,17,0.01,9,0.01,97,53,24,0.01,3,14,80,20,0.01,0,75,0.01,0,52,0.01,0,0.01,22,0.01,27,20,25,0.01,0,0.01,0,0.01,0,0.01,60,6,0.01,11,21,0.01,0,38,56,0.01,0,1,0.01,0,11,37,52,4,0.01,0,0.01,0,0.01,6,0.01,0,0.01,0,37,9,0.01,61,0.01,3,26,0.01,26,1,1,0.01,9,25,0.01,0,0.01,0,0.01,21,49,30,23,3,0
7.75,0.01,58,0.01,0,12,39,1,0.01,0,35,17,0.01,9,0.01,100,56,29,0.01,3,14,82,22,0.01,0,80,0.01,0,56,0.01,0,0.01,25,0.01,30,20,25,0.01,0,0.01,0,0.01,0,0.01,60,7,0.01,12,21,0.01,0,40,64,0.01,0,1,0.01,0,11,41,56,4,0.01,0,0.01,0,0.01,8,0.01,0,0.01,0,37,9,0.01,65,0.01,3,26,0.01,26,1,1,0.01,9,25,0.01,0,0.01,0,0.01,21,51,31,23,3,0
8,0.01,58,0.01,0,12,39,1,0.01,0,35,17,0.01,9,0.01,100,56,29,1,3,14,84,22,0.01,0,81,0.01,0,57,0.01,0,0.01,25,0.01,30,20,25,0.01,0,0.01,0,0.01,0,0.01,60,7,0.01,13,21,0.01,0,40,69,0.01,0,1,0.01,0,11,41,56,4,0.01,0,0.01,0,0.01,8,0.01,0,0.01,0,37,9,0.01,69,0.01,3,27,0.01,26,1,1,0.01,9,26,0.01,0,0.01,0,0.01,21,51,31,23,3,0
8.25,0.01,59,0.01,0,13,45,1,0.01,0,42,20,0.01,9,0.01,100,60,32,12,3,20,90,24,3,0.01,93,0.01,0,66,0.01,0,3,29,0.01,34,22,26,0.01,0,0.01,0,0.01,0,0.01,62,11,0.01,17,21,0.01,0,46,77,0.01,0,1,0.01,0,14,49,64,4,0.01,0,0.01,0,0.01,12,0.01,0,0.01,0,41,9,0.01,72,0.01,3,31,0.01,26,1,4,0.01,9,28,0.01,0,0.01,0,0.01,21,56,36,26,3,0
8.5,0.01,77,0.01,0,15,64,1,0.01,0,47,20,0.01,9,0.01,112,63,47,16,3,20,90,24,3,0.01,98,0.01,0,67,0.01,0,3,29,0.01,34,22,26,0.01,0,0.01,0,0.01,0,0.01,62,11,0.01,20,21,0.01,0,51,80,0.01,0,1,0.01,0,20,49,64,4,0.01,0,0.01,0,0.01,12,0.01,0,0.01,0,41,9,0.01,72,0.01,3,31,0.01,26,1,4,0.01,9,28,0.01,0,0.01,0,0.01,21,56,36,26,3,0
8.75,0.01,78,0.01,0,15,68,1,0.01,0,47,20,0.01,9,0.01,112,65,49,22,3,20,90,24,3,0.01,104,0.01,0,70,0.01,0,3,29,0.01,35,22,26,0.01,0,0.01,0,0.01,0,0.01,62,11,0.01,20,21,0.01,0,53,81,0.01,0,1,0.01,0,20,49,66,4,0.01,0,0.01,0,0.01,12,0.01,0,0.01,0,41,9,0.01,72,0.01,3,31,0.01,26,1,4,0.01,9,28,0.01,0,0.01,0,0.01,21,56,36,26,3,0
9,0.01,75,3,0.01,16,67,0.01,0,0.01,52,19,0.01,9,0.01,109,68,49,36,3,25,97,27,2,0.01,106,0.01,0,77,0.01,0,7,36,2,39,24,25,0.01,0,0.01,0,0.01,0,0.01,64,14,0.01,23,18,0.01,0,55,90,0.01,0,0.01,0,0.01,20,54,73,1,0.01,0,0.01,0,0.01,17,0.01,0,0.01,0,45,6,0.01,78,0.01,3,37,0.01,23,2,13,0.01,6,31,0.01,0,0.01,0,0.01,20,63,40,33,0.01,0
9.25,0.01,80,7,0.01,17,71,3,0.01,0,55,23,0.01,9,0.01,117,69,54,45,4,28,100,27,5,0.01,106,0.01,1,81,0.01,0,11,38,2,39,28,33,0.01,0,0.01,0,0.01,0,0.01,71,14,0.01,28,23,0.01,0,55,97,0.01,0,1,0.01,0,24,57,80,5,0.01,0,0.01,0,0.01,17,0.01,0,0.01,0,49,6,0.01,79,0.01,5,43,0.01,28,2,19,0.01,6,31,0.01,0,0.01,0,0.01,20,64,40,38,0.01,0
9.5,0.01,80,7,0.01,17,71,3,0.01,0,55,23,0.01,9,0.01,117,69,54,47,4,28,102,27,5,0.01,106,0.01,1,82,0.01,0,11,38,2,39,28,33,0.01,0,0.01,0,0.01,0,0.01,74,14,0.01,28,23,0.01,0,55,97,0.01,0,1,0.01,0,24,58,80,6,0.01,0,0.01,0,0.01,17,0.01,0,0.01,0,49,6,0.01,83,0.01,5,43,0.01,28,2,24,0.01,6,33,0.01,0,0.01,0,0.01,20,68,40,42,0.01,0
9.75,0.01,87,7,0.01,17,83,3,0.01,0,56,23,0.01,9,0.01,117,69,70,50,4,28,102,27,5,0.01,108,0.01,1,82,0.01,0,11,38,2,39,28,33,0.01,0,0.01,0,0.01,0,0.01,74,14,0.01,28,23,0.01,0,58,97,0.01,0,1,0.01,0,24,58,80,6,0.01,0,0.01,0,0.01,17,0.01,0,0.01,0,49,6,0.01,83,0.01,5,43,0.01,28,2,24,0.01,6,33,0.01,0,0.01,0,0.01,20,68,40,42,0.01,0
10,0.01,91,7,0.01,17,86,3,0.01,0,57,23,0.01,9,0.01,117,73,78,57,4,28,105,27,5,0.01,115,0.01,1,87,0.01,0,11,38,2,41,28,33,0.01,0,0.01,0,0.01,0,0.01,74,14,0.01,28,23,0.01,0,62,97,0.01,0,1,0.01,0,25,59,80,6,0.01,0,0.01,0,0.01,17,0.01,0,0.01,0,49,6,0.01,83,0.01,5,43,0.01,28,2,24,0.01,6,33,0.01,0,0.01,0,0.01,20,68,40,42,0.01,0
10.25,0.01,91,7,0.01,17,86,3,0.01,0,57,24,0.01,9,0.01,117,73,78,64,4,29,109,27,6,0.01,115,0.01,1,89,0.01,0,12,42,2,41,30,33,0.01,0,0.01,0,0.01,0,0.01,79,14,0.01,29,23,0.01,0,62,102,0.01,0,1,0.01,0,25,70,80,6,0.01,0,0.01,0,0.01,19,0.01,0,0.01,0,50,7,0.01,89,0.01,5,45,0.01,28,2,29,0.01,6,36,0.01,0,0.01,0,0.01,20,71,43,51,0.01,0
10.5,0.01,91,7,0.01,17,86,3,0.01,0,57,27,0.01,9,0.01,117,73,78,71,4,31,111,27,6,0.01,115,0.01,1,91,0.01,0,13,45,2,41,32,35,0.01,0,0.01,0,0.01,0,0.01,80,14,0.01,31,23,0.01,0,62,102,0.01,0,1,0.01,0,25,71,80,6,0.01,0,0.01,0,0.01,19,0.01,0,0.01,0,50,7,0.01,91,0.01,5,48,0.01,28,2,30,0.01,6,37,0.01,0,0.01,0,0.01,20,71,43,55,0.01,0
10.75,0.01,91,9,0.01,17,86,3,0.01,0,57,31,0.01,9,0.01,117,73,78,77,4,32,114,27,7,0.01,115,0.01,1,94,0.01,0,17,45,2,41,34,41,0.01,0,0.01,0,0.01,0,0.01,80,14,0.01,34,25,0.01,0,62,109,0.01,0,1,0.01,0,26,74,87,6,0.01,0,0.01,0,0.01,23,0.01,0,0.01,0,54,7,0.01,92,0.01,5,52,0.01,28,2,34,0.01,6,37,0.01,0,0.01,0,0.01,20,71,43,58,0.01,0
11,0.01,98,9,0.01,17,96,3,0.01,0,66,31,0.01,9,0.01,125,78,98,81,4,32,114,27,7,0.01,118,0.01,1,97,0.01,0,17,48,2,43,34,41,0.01,0,0.01,0,0.01,0,0.01,80,14,0.01,34,25,0.01,0,69,109,0.01,0,1,0.01,0,30,74,87,6,0.01,0,0.01,0,0.01,23,0.01,0,0.01,0,54,7,0.01,92,0.01,5,52,0.01,28,2,34,0.01,6,37,0.01,0,0.01,0,0.01,20,71,43,58,0.01,0
11.25,0.01,98,10,0.01,17,96,3,0.01,0,66,31,0.01,9,0.01,125,78,98,87,4,36,121,27,7,0.01,118,0.01,1,100,0.01,0,18,51,2,44,35,41,0.01,0,0.01,0,0.01,0,1,83,17,0.01,35,25,0.01,0,71,111,0.01,0,1,0.01,0,30,77,87,6,0.01,0,0.01,0,0.01,26,0.01,0,0.01,0,54,7,0.01,95,0.01,5,53,0.01,28,2,34,0.01,6,37,0.01,0,0.01,0,0.01,20,71,45,58,0.01,0
11.5,0.01,99,10,0.01,18,99,3,0.01,0,68,31,0.01,9,0.01,126,84,106,94,4,36,126,28,7,0.01,128,0.01,1,105,0.01,0,18,54,3,49,35,41,0.01,0,0.01,0,0.01,0,1,83,17,0.01,36,25,0.01,0,80,111,0.01,0,1,0.01,0,31,78,87,6,0.01,0,0.01,0,0.01,26,0.01,0,0.01,0,54,7,0.01,95,0.01,5,53,0.01,28,2,34,0.01,6,37,0.01,0,0.01,0,0.01,20,71,45,58,0.01,0
11.75,0.01,99,12,0.01,18,99,3,0.01,0,68,33,0.01,9,0.01,126,84,106,97,4,39,126,28,9,0.01,128,0.01,1,105,0.01,0,22,56,3,49,37,41,0.01,0,0.01,0,0.01,0,1,86,17,0.01,39,25,0.01,0,80,116,0.01,0,1,0.01,0,31,80,87,7,0.01,0,0.01,0,0.01,26,0.01,0,0.01,0,58,7,0.01,100,0.01,5,60,0.01,28,3,38,0.01,6,38,0.01,0,0.01,0,0.01,20,72,48,66,0.01,0
12,0.01,100,14,0.01,20,102,3,0.01,0,74,33,0.01,9,0.01,134,88,109,108,5,41,133,31,12,0.01,128,0.01,4,110,0.01,0,23,63,7,53,40,41,0.01,0,0.01,0,0.01,0,5,88,21,0.01,40,25,0.01,0,88,118,0.01,0,1,0.01,0,35,82,87,7,0.01,0,0.01,0,0.01,34,0.01,0,0.01,0,58,7,0.01,100,0.01,5,62,0.01,28,3,38,0.01,6,38,0.01,0,0.01,0,0.01,20,72,53,67,0.01,0
12.25,0.01,108,14,0.01,20,109,3,0.01,0,77,33,0.01,9,0.01,136,92,120,110,5,41,133,31,12,0.01,133,0.01,4,113,0.01,0,23,64,7,54,40,41,0.01,0,0.01,0,0.01,0,6,88,21,0.01,42,25,0.01,0,96,118,0.01,0,1,0.01,0,42,82,87,7,0.01,0,0.01,0,0.01,34,0.01,0,0.01,0,58,7,0.01,100,0.01,5,62,0.01,28,3,38,0.01,6,38,0.01,0,0.01,0,0.01,20,72,53,67,0.01,0
12.5,0.01,108,15,0.01,20,109,4,0.01,0,77,38,0.01,11,0.01,136,92,120,113,5,45,134,32,16,0.01,133,0.01,6,115,0.01,0,29,67,7,54,44,41,0.01,0,0.01,0,0.01,0,6,97,21,0.01,44,25,0.01,0,96,120,0.01,0,1,0.01,0,42,89,87,7,0.01,0,0.01,0,0.01,34,0.01,0,0.01,0,60,7,0.01,106,0.01,6,65,0.01,28,4,41,0.01,6,41,0.01,0,0.01,0,0.01,21,75,53,71,1,0
12.75,0.01,108,16,0.01,20,109,4,0.01,0,77,40,0.01,11,0.01,136,92,120,113,6,45,134,32,19,0.01,133,0.01,6,115,0.01,0,29,67,7,54,47,45,0.01,0,0.01,0,0.01,0,7,97,21,0.01,44,25,0.01,0,96,121,0.01,0,2,0.01,0,42,91,87,9,0.01,0,0.01,0,0.01,34,0.01,0,0.01,0,62,12,0.01,110,0.01,9,67,0.01,28,5,43,0.01,6,44,0.01,0,0.01,0,0.01,22,78,54,73,1,0
13,0.01,108,18,0.01,20,109,6,0.01,0,77,40,0.01,11,0.01,136,92,120,113,6,46,134,32,19,0.01,133,0.01,6,115,0.01,0,29,67,7,54,47,47,0.01,0,0.01,0,0.01,0,7,97,21,0.01,45,27,0.01,0,96,125,0.01,0,2,0.01,0,42,91,87,12,0.01,0,0.01,0,0.01,34,0.01,0,0.01,0,62,12,0.01,111,0.01,9,69,0.01,29,5,43,0.01,6,44,0.01,0,0.01,0,0.01,22,78,54,75,1,0
13.25,0.01,108,21,0.01,23,109,10,0.01,0,78,42,0.01,11,0.01,145,92,120,124,6,50,141,32,19,0.01,133,0.01,8,119,0.01,0,32,72,7,54,48,47,0.01,0,0.01,0,0.01,0,11,100,21,0.01,45,27,0.01,0,105,129,0.01,0,2,0.01,0,45,91,87,12,0.01,0,0.01,0,0.01,38,0.01,0,0.01,0,63,12,0.01,111,0.01,9,72,0.01,29,5,45,0.01,6,44,0.01,0,0.01,0,0.01,22,78,55,75,1,0
13.5,0.01,114,21,0.01,24,119,10,0.01,0,82,42,0.01,11,0.01,145,99,134,129,6,50,144,32,19,0.01,140,0.01,8,123,0.01,0,32,75,7,60,48,47,0.01,0,0.01,0,0.01,0,11,100,22,0.01,47,27,0.01,0,112,129,0.01,0,2,0.01,0,52,91,87,12,0.01,0,0.01,0,0.01,40,0.01,0,0.01,0,63,12,0.01,111,0.01,9,72,0.01,29,5,45,0.01,6,44,0.01,0,0.01,0,0.01,22,78,55,75,1,0
13.75,0.01,114,28,0.01,24,119,13,0.01,0,82,47,0.01,13,0.01,145,99,134,129,6,54,144,32,24,0.01,140,0.01,14,123,0.01,0,35,75,7,60,53,50,0.01,0,0.01,0,0.01,0,13,101,24,0.01,52,30,0.01,0,112,134,0.01,0,6,0.01,0,52,98,87,13,0.01,0,0.01,0,0.01,42,0.01,0,0.01,0,69,12,0.01,118,0.01,11,78,0.01,31,5,51,0.01,6,46,0.01,0,0.01,0,0.01,23,78,56,80,1,0
14,0.01,113,27,0.01,27,118,12,0.01,0,86,48,0.01,12,0.01,146,98,133,133,6,54,148,35,23,0.01,139,0.01,13,127,0.01,0,35,82,11,60,52,49,0.01,0,0.01,0,0.01,0,15,106,25,0.01,51,29,0.01,0,118,133,0.01,0,5,0.01,0,56,97,86,12,0.01,0,0.01,0,0.01,46,0.01,0,0.01,0,68,11,0.01,117,0.01,10,77,0.01,30,5,50,0.01,5,45,0.01,0,0.01,0,0.01,22,77,58,79,0.01,0
14.25,0.01,121,27,0.01,27,125,12,0.01,0,86,48,0.01,12,0.01,148,102,142,137,6,54,148,35,23,0.01,143,0.01,13,127,0.01,0,35,82,11,60,52,49,0.01,0,0.01,0,0.01,0,16,106,25,0.01,51,29,0.01,0,120,133,0.01,0,5,0.01,0,58,97,86,12,0.01,0,0.01,0,0.01,46,0.01,0,0.01,0,68,11,0.01,117,0.01,10,77,0.01,30,5,50,0.01,5,45,0.01,0,0.01,0,0.01,22,77,58,79,0.01,0
14.5,0.01,118,24,0.01,28,122,10,0.01,0,84,49,0.01,9,0.01,146,101,139,138,4,54,150,34,22,0.01,140,0.01,12,129,0.01,0,35,84,8,61,49,46,0.01,0,0.01,0,0.01,0,14,104,25,0.01,48,26,0.01,0,121,130,0.01,0,2,0.01,0,57,94,83,9,0.01,0,0.01,0,0.01,46,0.01,0,0.01,0,65,8,0.01,116,0.01,7,76,0.01,27,2,47,0.01,2,42,0.01,0,0.01,0,0.01,19,74,57,76,0.01,0
14.75,0.01,122,24,0.01,29,127,10,0.01,0,86,49,0.01,9,0.01,148,102,144,139,4,54,150,34,22,0.01,147,0.01,12,129,0.01,0,35,84,8,61,49,46,0.01,0,0.01,0,0.01,0,14,104,25,0.01,49,26,0.01,0,125,130,0.01,0,2,0.01,0,65,94,83,9,0.01,0,0.01,0,0.01,46,0.01,0,0.01,0,65,8,0.01,116,0.01,7,76,0.01,27,2,47,0.01,2,42,0.01,0,0.01,0,0.01,19,74,57,76,0.01,0
15,0.01,122,27,0.01,29,127,11,0.01,0,86,52,0.01,9,0.01,148,102,144,139,4,55,150,34,27,0.01,147,0.01,13,129,0.01,0,35,84,8,61,52,48,0.01,0,0.01,0,0.01,0,14,107,25,0.01,49,26,0.01,0,125,132,0.01,0,3,0.01,0,65,102,83,9,0.01,0,0.01,0,0.01,46,0.01,0,0.01,0,65,9,0.01,123,0.01,8,77,0.01,27,4,53,0.01,2,42,0.01,0,0.01,0,0.01,21,77,57,78,0.01,0
15.25,0.01,122,35,0.01,29,127,15,0.01,0,86,52,0.01,9,0.01,148,102,144,139,4,55,150,34,27,0.01,147,0.01,15,129,0.01,0,35,84,8,61,52,50,0.01,0,0.01,0,0.01,0,14,107,25,0.01,49,26,0.01,0,125,137,0.01,0,3,0.01,0,65,102,83,13,0.01,0,0.01,0,0.01,46,0.01,0,0.01,0,66,9,0.01,123,0.01,8,80,0.01,31,4,55,0.01,2,42,0.01,0,0.01,0,0.01,21,77,57,83,0.01,0
15.5,0.01,128,35,0.01,35,132,19,0.01,0,92,54,0.01,9,0.01,155,103,149,147,4,56,152,34,27,0.01,147,0.01,19,134,0.01,0,38,90,8,62,52,50,0.01,0,0.01,0,0.01,0,18,107,26,0.01,50,26,0.01,0,132,139,0.01,0,3,0.01,0,73,102,83,13,0.01,0,0.01,0,0.01,50,0.01,0,0.01,0,66,9,0.01,123,0.01,8,82,0.01,31,4,55,0.01,2,42,0.01,0,0.01,0,0.01,21,77,61,83,0.01,0
15.75,0.01,128,35,0.01,36,132,19,0.01,0,92,54,0.01,9,0.01,155,104,149,149,4,56,152,34,27,0.01,147,0.01,19,134,0.01,0,38,91,8,62,52,50,0.01,0,0.01,0,0.01,0,18,107,26,0.01,51,26,0.01,0,132,139,0.01,0,3,0.01,0,74,102,83,13,0.01,0,0.01,0,0.01,51,0.01,0,0.01,0,66,9,0.01,123,0.01,8,83,0.01,31,4,55,0.01,2,42,0.01,0,0.01,0,0.01,21,77,61,83,0.01,0
16,0.01,128,37,0.01,36,132,19,0.01,0,92,63,0.01,9,0.01,155,104,149,149,6,63,155,38,35,0.01,147,0.01,20,136,0.01,0,40,92,9,63,54,50,0.01,0,0.01,0,0.01,0,20,115,26,0.01,52,26,0.01,0,132,139,0.01,0,6,0.01,0,74,109,83,13,0.01,0,0.01,0,0.01,52,0.01,0,0.01,0,66,9,0.01,129,0.01,11,83,0.01,31,5,61,0.01,2,42,0.01,0,0.01,0,0.01,24,79,61,86,2,0
16.25,0.01,128,37,0.01,45,133,24,0.01,0,92,63,0.01,9,0.01,159,104,149,154,7,63,157,38,35,0.01,147,0.01,23,139,0.01,0,41,98,9,65,54,50,0.01,0,0.01,0,0.01,0,24,115,28,0.01,52,26,0.01,0,134,141,0.01,0,6,0.01,0,74,109,83,13,0.01,0,0.01,0,0.01,57,0.01,0,0.01,0,66,9,0.01,129,0.01,11,87,0.01,31,5,61,0.01,2,42,0.01,0,0.01,0,0.01,24,79,62,86,2,0
16.5,0.01,128,39,0.01,45,133,24,0.01,0,92,63,0.01,9,0.01,159,104,149,154,7,65,160,38,36,0.01,147,0.01,23,140,0.01,0,42,98,9,65,54,50,0.01,0,0.01,0,0.01,0,24,116,28,0.01,52,26,0.01,0,134,141,0.01,0,6,0.01,0,74,109,83,13,0.01,0,0.01,0,0.01,57,0.01,0,0.01,0,66,9,0.01,129,0.01,11,87,0.01,31,5,61,0.01,2,42,0.01,0,0.01,0,0.01,24,79,62,86,2,0
16.75,0.01,128,39,0.01,45,133,24,0.01,0,92,68,0.01,9,0.01,159,104,149,154,7,65,160,38,39,0.01,147,0.01,23,140,0.01,0,42,98,9,65,57,50,0.01,0,0.01,0,0.01,0,24,116,28,0.01,52,26,0.01,0,134,141,0.01,0,6,0.01,0,74,111,83,13,0.01,0,0.01,0,0.01,57,0.01,0,0.01,0,66,9,0.01,130,0.01,11,87,0.01,31,5,66,0.01,2,42,0.01,0,0.01,0,0.01,24,79,62,90,2,0
17,0.01,128,41,0.01,45,133,24,0.01,0,92,70,0.01,9,0.01,159,104,149,154,7,65,160,38,39,0.01,147,0.01,25,140,0.01,0,42,98,9,65,59,50,0.01,0,0.01,0,0.01,0,24,118,28,0.01,52,26,0.01,0,134,141,0.01,0,6,0.01,0,74,111,83,13,0.01,0,0.01,0,0.01,57,0.01,0,0.01,0,66,9,0.01,133,0.01,11,87,0.01,31,5,66,0.01,2,42,0.01,0,0.01,0,0.01,24,79,62,90,2,0
17.25,0.01,128,46,0.01,45,133,26,0.01,0,92,71,0.01,9,0.01,159,104,149,154,7,67,160,38,41,0.01,147,0.01,29,141,0.01,0,43,98,9,65,59,50,0.01,0,0.01,0,0.01,0,24,118,28,0.01,52,26,0.01,0,134,145,0.01,0,6,0.01,0,74,111,83,13,0.01,0,0.01,0,0.01,57,0.01,0,0.01,0,69,9,0.01,135,0.01,13,90,0.01,31,5,68,0.01,2,42,0.01,0,0.01,0,0.01,24,79,62,90,2,0
17.5,0.01,128,51,0.01,51,133,33,0.01,0,92,74,0.01,9,0.01,159,104,149,154,8,70,160,38,43,0.01,147,0.01,31,141,0.01,0,44,98,9,65,59,50,0.01,0,0.01,0,0.01,0,24,118,28,0.01,52,26,0.01,0,134,147,0.01,0,6,0.01,0,74,111,83,13,0.01,0,0.01,0,0.01,57,0.01,0,0.01,0,69,9,0.01,135,0.01,13,90,0.01,31,5,70,0.01,2,42,0.01,0,0.01,0,0.01,24,79,62,91,2,0
17.75,0.01,128,51,0.01,55,133,33,0.01,0,92,77,0.01,9,0.01,159,104,149,156,12,71,163,42,46,0.01,147,0.01,36,145,0.01,0,46,106,9,70,59,50,0.01,0,0.01,0,0.01,0,28,123,29,0.01,57,26,0.01,0,134,147,0.01,0,6,0.01,0,74,115,83,13,0.01,0,0.01,0,0.01,61,0.01,0,0.01,0,69,9,0.01,137,0.01,14,91,0.01,31,5,72,0.01,2,42,0.01,0,0.01,0,0.01,24,79,62,91,2,0
18,0.01,128,51,0.01,55,133,33,0.01,0,92,77,0.01,9,0.01,159,104,149,156,12,71,163,42,46,0.01,147,0.01,36,145,0.01,0,46,106,9,70,59,50,0.01,0,0.01,0,0.01,0,28,123,29,0.01,57,26,0.01,0,134,147,0.01,0,6,0.01,0,74,115,83,13,0.01,0,0.01,0,0.01,61,0.01,0,0.01,0,69,9,0.01,137,0.01,14,91,0.01,31,5,73,0.01,2,42,0.01,0,0.01,0,0.01,24,79,62,91,2,0
18.25,0.01,128,51,0.01,63,133,38,0.01,0,92,80,0.01,9,0.01,159,107,149,162,17,75,168,42,50,0.01,151,0.01,42,148,0.01,0,49,114,14,74,59,50,0.01,0,0.01,0,0.01,0,34,129,34,0.01,57,26,0.01,0,139,147,0.01,0,7,0.01,0,85,115,83,13,0.01,0,0.01,0,0.01,69,0.01,0,0.01,0,69,9,0.01,138,0.01,14,96,0.01,31,5,74,0.01,2,42,0.01,0,0.01,0,0.01,24,79,68,91,2,0
18.5,0.01,134,51,0.01,70,140,43,0.01,0,92,80,0.01,9,0.01,164,112,159,166,17,75,168,42,50,0.01,155,0.01,44,149,0.01,0,49,114,14,74,59,50,0.01,0,0.01,0,0.01,0,34,129,34,0.01,57,26,0.01,0,143,149,0.01,0,7,0.01,0,86,115,83,13,0.01,0,0.01,0,0.01,69,0.01,0,0.01,0,69,9,0.01,138,0.01,14,96,0.01,31,5,74,0.01,2,42,0.01,0,0.01,0,0.01,24,79,68,91,2,0
18.75,0.01,134,51,0.01,70,140,43,0.01,0,92,81,0.01,9,0.01,164,112,159,166,17,75,168,42,51,0.01,155,0.01,44,149,0.01,0,49,114,14,74,62,50,4,0.01,0,0.01,0,0.01,34,129,34,0.01,58,26,0.01,0,143,149,0.01,0,8,0.01,0,86,115,83,13,0.01,0,0.01,0,0.01,69,0.01,0,0.01,0,69,9,0.01,141,0.01,15,96,0.01,31,8,79,0.01,2,42,0.01,0,0.01,0,0.01,24,79,68,91,2,0
19,0.01,134,51,0.01,70,140,43,0.01,0,92,81,0.01,9,0.01,164,112,159,166,17,75,168,42,51,0.01,155,0.01,44,149,0.01,0,49,114,14,74,62,50,6,0.01,0,0.01,0,0.01,34,129,34,0.01,58,26,0.01,0,143,149,0.01,0,8,0.01,0,86,115,83,13,0.01,0,0.01,0,0.01,69,0.01,0,0.01,0,69,9,0.01,142,0.01,15,96,0.01,31,8,82,0.01,2,42,0.01,0,0.01,0,0.01,24,79,68,94,2,0
19.25,0.01,134,56,0.01,80,140,52,0.01,0,95,83,0.01,9,0.01,166,112,159,169,23,78,171,43,57,0.01,156,0.01,54,153,0.01,0,52,120,16,74,62,50,6,0.01,0,0.01,0,0.01,38,132,37,0.01,59,26,0.01,0,145,153,0.01,0,8,0.01,0,94,115,83,13,0.01,0,0.01,0,0.01,75,0.01,0,0.01,0,69,9,0.01,144,0.01,15,103,0.01,31,8,82,0.01,2,42,0.01,0,0.01,0,0.01,24,79,72,94,2,0
19.5,0.01,134,60,0.01,80,140,52,0.01,0,95,83,0.01,9,0.01,166,112,159,169,23,78,171,43,57,0.01,156,0.01,54,153,0.01,0,52,120,16,74,62,50,6,0.01,0,0.01,0,0.01,38,132,37,0.01,59,26,0.01,0,145,155,0.01,0,8,0.01,0,94,115,83,13,0.01,0,0.01,0,0.01,75,0.01,0,0.01,0,69,9,0.01,144,0.01,16,103,0.01,31,8,84,0.01,2,42,0.01,0,0.01,0,0.01,24,79,72,98,2,0
19.75,0.01,139,62,0.01,91,143,63,0.01,0,98,83,0.01,9,0.01,170,114,162,174,27,80,173,43,60,0.01,161,0.01,61,155,0.01,0,56,122,16,75,62,50,6,0.01,0,0.01,0,0.01,43,133,39,0.01,60,26,0.01,0,148,155,0.01,0,8,0.01,0,101,115,83,13,0.01,0,0.01,0,0.01,77,0.01,0,0.01,0,69,9,0.01,144,0.01,16,104,0.01,31,8,84,0.01,2,42,0.01,0,0.01,0,0.01,24,79,76,98,2,0
20,0.01,139,70,0.01,95,143,65,0.01,0,98,83,0.01,9,0.01,172,114,162,174,27,81,173,43,62,0.01,161,0.01,62,155,0.01,0,56,122,16,75,63,50,6,0.01,0,0.01,0,0.01,43,133,39,0.01,64,26,0.01,0,150,158,0.01,0,8,3,0.01,103,115,83,13,0.01,0,0.01,0,0.01,78,0.01,0,0.01,0,69,9,0.01,144,0.01,16,107,0.01,31,8,84,0.01,2,42,0.01,0,0.01,0,0.01,24,79,79,100,2,0
20.25,0.01,139,70,0.01,95,143,65,0.01,0,98,86,0.01,9,0.01,172,114,162,174,27,81,173,47,62,0.01,161,0.01,62,155,0.01,0,56,122,16,76,66,50,16,0.01,0,0.01,0,0.01,43,133,39,0.01,64,26,0.01,0,150,158,0.01,0,11,3,0.01,103,116,83,13,0.01,0,0.01,1,0.01,78,0.01,0,0.01,0,69,9,0.01,150,0.01,19,107,0.01,31,10,91,0.01,2,42,0.01,0,0.01,0,0.01,24,79,79,100,2,0
20.5,0.01,139,70,0.01,101,148,70,0.01,0,98,86,0.01,9,0.01,172,119,167,178,34,85,177,47,64,0.01,164,0.01,70,157,0.01,0,58,129,20,80,66,50,16,0.01,0,0.01,0,0.01,47,137,43,0.01,64,26,0.01,0,150,158,0.01,0,11,5,0.01,105,116,83,13,0.01,0,0.01,1,0.01,84,0.01,0,0.01,0,69,9,0.01,150,0.01,19,109,0.01,31,10,91,0.01,2,42,0.01,0,0.01,0,0.01,24,79,79,100,2,0
20.75,0.01,139,70,0.01,101,148,70,0.01,0,98,86,0.01,9,0.01,172,119,167,178,34,87,177,48,64,0.01,164,0.01,70,157,0.01,0,58,129,20,80,66,50,16,0.01,0,0.01,0,0.01,47,139,43,0.01,64,26,0.01,0,150,158,0.01,0,11,8,0.01,105,116,83,13,0.01,0,0.01,1,0.01,84,0.01,0,0.01,0,69,9,0.01,150,0.01,19,109,0.01,31,10,94,0.01,2,42,0.01,0,0.01,0,0.01,24,79,79,100,2,0
21,0.01,139,70,0.01,101,148,70,0.01,0,98,86,0.01,9,0.01,172,119,167,178,34,87,177,48,64,0.01,164,0.01,70,157,0.01,0,58,129,20,80,66,50,23,0.01,0,0.01,0,0.01,47,139,43,0.01,65,26,0.01,0,150,158,0.01,0,12,8,0.01,105,117,83,13,0.01,0,0.01,6,0.01,84,0.01,0,0.01,0,69,9,0.01,150,0.01,20,109,0.01,31,12,94,0.01,2,42,0.01,0,0.01,0,0.01,24,79,79,100,2,0
21.25,0.01,139,70,0.01,101,148,70,0.01,0,98,86,0.01,9,0.01,172,119,167,178,34,87,177,48,64,0.01,164,0.01,70,157,0.01,0,58,129,20,80,66,50,24,0.01,0,0.01,0,0.01,47,139,43,0.01,65,26,0.01,0,150,158,0.01,0,12,8,0.01,105,117,83,13,0.01,0,0.01,7,0.01,84,0.01,0,0.01,0,69,9,0.01,150,0.01,20,109,0.01,31,12,94,3,2,42,0.01,0,0.01,0,0.01,24,79,79,100,2,0
21.5,0.01,139,70,0.01,101,148,70,0.01,0,98,86,0.01,9,0.01,172,119,167,178,34,87,177,48,64,0.01,164,0.01,70,157,0.01,0,58,129,20,80,68,50,27,0.01,0,0.01,0,0.01,47,139,43,0.01,65,26,0.01,0,150,158,0.01,0,12,10,0.01,105,117,83,13,0.01,0,0.01,7,0.01,84,0.01,0,0.01,0,69,9,0.01,151,0.01,21,109,0.01,31,12,95,3,2,42,0.01,0,0.01,0,0.01,24,79,79,105,2,0
21.75,0.01,139,75,0.01,101,148,70,0.01,0,98,86,0.01,9,0.01,172,119,167,178,34,87,177,48,64,0.01,164,0.01,70,157,0.01,0,58,129,20,80,68,50,28,0.01,0,0.01,0,0.01,47,139,43,0.01,65,26,0.01,0,150,158,0.01,0,12,13,0.01,105,117,83,13,0.01,0,0.01,9,0.01,84,0.01,0,0.01,0,69,9,0.01,152,0.01,23,109,0.01,31,12,98,3,2,42,0.01,0,0.01,0,0.01,24,79,79,107,2,0
22,0.01,145,80,0.01,119,148,85,0.01,0,98,86,0.01,9,0.01,175,119,167,179,44,88,180,49,64,0.01,164,0.01,84,160,0.01,0,62,133,25,80,68,50,28,0.01,0,0.01,0,0.01,52,142,43,0.01,65,26,0.01,0,150,162,0.01,0,13,18,0.01,110,117,83,13,0.01,0,0.01,9,0.01,92,0.01,0,0.01,0,69,9,0.01,153,0.01,23,115,0.01,31,12,99,3,2,42,0.01,0,0.01,0,0.01,24,79,79,107,2,0
22.25,0.01,145,80,0.01,119,148,87,0.01,0,98,86,0.01,9,0.01,175,119,167,179,44,88,180,49,65,0.01,164,0.01,84,162,0.01,0,62,136,27,80,68,50,31,0.01,0,0.01,0,0.01,52,143,44,0.01,67,26,0.01,0,150,162,0.01,0,13,19,0.01,114,117,83,13,0.01,0,0.01,9,0.01,93,0.01,0,0.01,0,69,9,0.01,155,0.01,23,117,0.01,31,12,99,3,2,42,0.01,0,0.01,0,0.01,24,79,83,107,2,0
22.5,0.01,149,89,0.01,128,152,97,0.01,0,103,86,0.01,9,0.01,178,119,171,184,48,91,181,49,66,0.01,168,0.01,91,164,0.01,0,66,137,31,80,70,50,31,0.01,0,0.01,0,0.01,58,143,47,8,70,26,0.01,0,153,166,0.01,0,13,24,0.01,119,117,83,13,0.01,0,0.01,10,0.01,98,0.01,0,0.01,0,69,9,0.01,156,0.01,23,123,0.01,31,12,99,3,2,42,0.01,0,0.01,0,0.01,24,79,87,107,2,0
22.75,0.01,149,89,0.01,128,156,97,0.01,0,103,86,0.01,9,0.01,178,126,173,185,58,91,184,49,66,0.01,169,0.01,94,164,0.01,0,66,137,31,83,70,50,34,0.01,0,0.01,0,0.01,58,145,48,8,70,26,0.01,0,153,166,0.01,0,13,24,0.01,119,117,83,13,0.01,0,0.01,10,0.01,98,0.01,0,0.01,0,69,9,0.01,156,0.01,23,123,0.01,31,12,99,3,2,42,0.01,0,0.01,0,0.01,24,79,87,107,2,0
23,0.01,153,89,0.01,135,156,103,0.01,0,103,86,0.01,9,0.01,179,126,174,185,58,91,184,49,66,0.01,169,0.01,95,164,0.01,0,66,138,31,83,70,50,34,0.01,0,0.01,0,0.01,58,145,50,12,70,26,0.01,0,153,166,0.01,0,13,24,0.01,121,117,83,13,0.01,0,0.01,10,0.01,98,0.01,0,0.01,0,69,9,0.01,156,0.01,23,123,0.01,31,12,99,3,2,42,0.01,0,0.01,0,0.01,24,79,87,107,2,0
23.25,0.01,153,89,0.01,135,156,103,0.01,0,103,86,0.01,9,0.01,179,126,174,185,58,93,184,53,66,0.01,169,0.01,95,164,0.01,0,66,138,31,83,70,50,42,0.01,0,0.01,0,0.01,58,146,50,18,70,26,0.01,0,153,166,0.01,0,16,24,0.01,121,117,83,13,0.01,0,0.01,16,0.01,98,0.01,0,0.01,0,69,9,0.01,158,0.01,23,123,0.01,31,12,105,3,2,42,0.01,0,0.01,0,0.01,24,79,87,107,2,0
23.5,0.01,153,91,0.01,137,157,106,0.01,0,103,86,0.01,9,0.01,179,129,174,188,72,100,188,59,66,0.01,171,0.01,103,170,0.01,0,71,143,42,92,70,50,48,0.01,0,0.01,0,0.01,65,152,56,28,74,26,0.01,0,153,166,0.01,0,21,32,0.01,121,117,83,13,0.01,0,0.01,19,0.01,106,0.01,0,0.01,0,69,9,0.01,161,0.01,23,127,0.01,31,17,109,3,2,42,0.01,0,0.01,0,0.01,24,79,87,107,2,0
23.75,0.01,153,91,0.01,137,157,106,0.01,0,103,86,0.01,9,0.01,179,129,174,188,72,100,188,59,66,0.01,171,0.01,103,170,0.01,0,71,143,42,92,70,50,48,0.01,0,0.01,0,0.01,65,152,56,28,74,26,0.01,0,153,166,0.01,0,21,32,0.01,121,117,83,13,0.01,0,0.01,19,0.01,106,0.01,0,0.01,0,69,9,0.01,161,0.01,23,127,0.01,31,17,109,3,2,42,0.01,0,0.01,0,0.01,24,79,87,107,2,0
24,0.01,154,92,0.01,143,163,111,0.01,0,103,86,0.01,9,0.01,180,132,178,189,81,100,188,59,66,0.01,175,0.01,106,170,0.01,0,71,143,42,92,70,50,48,0.01,0,0.01,0,0.01,65,152,56,28,74,26,0.01,0,154,166,0.01,0,21,32,0.01,125,117,83,13,0.01,0,0.01,19,0.01,106,0.01,0,0.01,0,69,9,0.01,161,0.01,23,127,0.01,31,17,109,3,2,42,0.01,0,0.01,0,0.01,24,79,87,107,2,0
24.25,0.01,154,92,0.01,143,163,111,0.01,0,103,86,0.01,9,0.01,180,132,178,189,81,100,188,59,66,0.01,175,0.01,106,170,0.01,0,71,143,42,92,70,50,51,0.01,0,0.01,0,0.01,65,152,56,32,74,26,0.01,0,154,166,0.01,0,21,32,0.01,125,118,83,13,0.01,0,0.01,23,0.01,106,0.01,0,0.01,0,69,9,0.01,161,0.01,25,127,0.01,31,17,111,3,2,42,0.01,0,0.01,0,0.01,24,79,87,108,2,0
24.5,0.01,154,92,0.01,143,163,111,0.01,1,103,86,0.01,9,0.01,180,132,178,189,81,100,188,59,66,0.01,175,0.01,106,170,0.01,0,71,143,42,92,74,50,55,0.01,0,0.01,0,0.01,65,152,56,36,74,26,0.01,0,154,166,0.01,0,21,35,0.01,125,118,83,13,0.01,0,0.01,26,0.01,106,0.01,0,0.01,0,69,9,0.01,161,0.01,28,127,0.01,31,17,113,3,2,42,0.01,0,0.01,0,0.01,24,79,87,112,2,0
24.75,0.01,154,96,0.01,143,163,111,0.01,3,103,86,0.01,9,0.01,180,132,178,189,81,100,188,59,66,0.01,175,0.01,106,170,0.01,0,71,143,42,92,76,50,56,0.01,0,0.01,0,0.01,65,152,56,39,75,26,0.01,0,154,167,0.01,0,21,38,0.01,125,118,83,13,0.01,0,0.01,27,0.01,106,0.01,0,0.01,0,69,9,0.01,163,0.01,30,127,0.01,31,17,114,3,2,42,0.01,0,0.01,0,0.01,24,79,87,112,2,0
25,0.01,154,96,0.01,143,163,115,0.01,3,103,86,0.01,9,0.01,180,132,178,189,86,101,188,59,66,0.01,175,0.01,111,170,0.01,0,73,147,48,92,76,50,57,0.01,0,0.01,0,0.01,67,156,60,49,75,26,0.01,0,154,167,0.01,0,21,38,0.01,127,118,83,13,0.01,0,0.01,27,0.01,108,0.01,0,0.01,0,69,9,0.01,163,0.01,30,128,0.01,31,17,114,3,2,42,0.01,0,0.01,0,0.01,24,79,87,112,2,0
25.25,0.01,154,96,0.01,143,163,115,0.01,12,103,86,0.01,9,0.01,180,132,178,189,86,101,188,59,66,0.01,175,0.01,111,170,0.01,0,73,147,48,92,76,50,60,0.01,0,0.01,0,0.01,67,156,60,49,76,26,0.01,0,154,167,0.01,0,21,38,0.01,127,118,83,13,0.01,0,0.01,29,2,108,0.01,0,0.01,0,69,9,0.01,163,0.01,32,128,0.01,31,17,116,3,2,42,0.01,0,0.01,0,0.01,24,79,87,112,2,0
25.5,0.01,154,96,0.01,143,163,115,0.01,12,103,86,0.01,9,0.01,180,132,178,189,86,101,188,59,66,0.01,175,0.01,111,170,0.01,0,73,147,48,92,76,50,62,0.01,0,0.01,0,0.01,67,156,60,52,77,26,0.01,0,154,167,0.01,0,21,38,0.01,127,119,83,13,0.01,0,0.01,30,4,108,0.01,0,0.01,0,69,9,0.01,163,0.01,32,128,0.01,31,17,116,3,2,42,0.01,0,0.01,0,0.01,24,79,87,112,2,0
25.75,0.01,154,96,0.01,143,163,115,2,18,103,86,0.01,9,0.01,180,132,178,189,86,101,188,60,69,0.01,175,0.01,111,170,0.01,0,73,147,48,92,77,50,67,0.01,0,0.01,0,0.01,67,156,60,59,82,26,0.01,0,154,167,0.01,0,22,42,0.01,127,123,83,13,0.01,0,0.01,35,9,108,0.01,0,0.01,0,69,9,0.01,163,0.01,36,128,0.01,31,19,121,7,2,42,0.01,0,0.01,0,0.01,26,79,87,112,2,0
26,0.01,154,96,0.01,143,163,115,2,21,103,86,0.01,9,0.01,180,132,178,189,86,101,188,60,69,0.01,175,0.01,111,170,0.01,0,73,147,48,92,77,50,67,0.01,0,0.01,0,0.01,67,156,60,59,82,26,0.01,0,154,167,0.01,0,22,42,0.01,127,123,83,13,0.01,0,0.01,35,9,108,0.01,0,0.01,0,69,9,0.01,163,0.01,39,128,0.01,31,19,121,7,2,42,0.01,0,0.01,0,0.01,26,79,87,112,2,0
26.25,0.01,160,109,0.01,162,173,137,2,21,106,86,0.01,9,0.01,182,144,188,195,116,107,192,60,69,0.01,179,0.01,127,177,0.01,0,79,148,60,94,77,50,67,0.01,0,0.01,0,0.01,79,159,66,66,82,26,0.01,0,156,167,0.01,0,22,51,0.01,144,123,83,13,0.01,0,0.01,35,9,110,0.01,0,0.01,0,69,9,0.01,163,0.01,39,134,0.01,31,19,121,7,2,42,0.01,0,0.01,0,0.01,26,79,87,112,2,0
26.5,0.01,160,111,0.01,162,173,137,2,41,106,86,0.01,9,0.01,182,144,188,195,116,107,192,60,69,0.01,179,0.01,127,177,0.01,0,79,148,60,94,78,50,73,0.01,0,0.01,0,0.01,79,159,66,66,82,26,0.01,0,156,168,0.01,0,22,51,0.01,144,123,83,13,0.01,0,0.01,41,9,110,0.01,0,0.01,0,69,9,0.01,166,0.01,53,134,0.01,31,19,124,7,2,42,0.01,0,0.01,0,0.01,26,79,87,113,2,0
26.75,0.01,160,111,0.01,162,173,137,2,43,106,86,0.01,9,0.01,182,144,188,195,116,107,192,61,69,0.01,179,0.01,127,177,0.01,0,79,148,60,94,78,50,75,0.01,0,0.01,0,0.01,79,159,66,71,82,26,0.01,0,156,168,0.01,0,22,51,0.01,144,123,83,13,0.01,0,0.01,41,10,114,0.01,0,0.01,0,69,9,0.01,166,0.01,53,134,0.01,31,19,124,7,2,42,0.01,0,0.01,0,0.01,26,79,87,113,2,0
27,0.01,160,111,0.01,162,173,137,2,43,106,86,0.01,9,0.01,182,144,188,195,116,107,192,64,69,0.01,179,0.01,127,177,0.01,0,79,149,60,94,78,50,75,0.01,0,0.01,0,0.01,79,159,66,75,82,26,0.01,0,156,168,0.01,0,22,51,0.01,144,123,83,13,0.01,0,0.01,42,11,115,0.01,0,0.01,0,69,9,0.01,166,0.01,53,134,0.01,31,19,124,7,2,42,0.01,0,0.01,0,0.01,26,79,87,113,2,0
27.25,0.01,160,111,0.01,162,173,137,2,43,106,86,0.01,9,0.01,182,144,188,195,116,107,192,66,69,0.01,179,0.01,127,177,0.01,0,79,149,60,94,78,50,80,0.01,0,0.01,0,0.01,79,159,66,78,82,26,0.01,0,156,168,0.01,0,25,51,0.01,144,123,83,13,0.01,0,0.01,43,17,115,0.01,0,0.01,0,69,9,0.01,166,0.01,58,134,0.01,31,19,127,7,2,42,0.01,0,0.01,0,0.01,26,79,87,113,2,0
27.5,0.01,170,120,0.01,173,174,154,2,43,108,86,0.01,9,0.01,183,144,190,196,124,107,193,66,69,0.01,179,0.01,132,177,0.01,0,82,152,63,94,78,50,80,0.01,0,0.01,0,0.01,80,159,73,90,82,26,0.01,0,158,169,0.01,0,25,60,0.01,158,123,83,13,0.01,0,0.01,43,17,123,0.01,0,0.01,0,69,9,0.01,166,0.01,58,135,0.01,31,19,127,7,2,42,0.01,0,0.01,0,0.01,26,79,90,113,2,0
27.75,0.01,170,120,0.01,173,178,154,2,43,108,86,0.01,9,0.01,183,144,190,197,135,109,193,66,69,0.01,179,0.01,134,177,0.01,0,82,152,68,98,78,50,80,0.01,0,0.01,0,0.01,84,162,73,90,82,26,0.01,0,158,169,0.01,0,25,60,0.01,158,123,83,13,0.01,0,0.01,43,17,123,0.01,0,0.01,0,69,9,0.01,166,0.01,58,137,0.01,31,19,127,7,2,42,0.01,0,0.01,0,0.01,26,79,90,113,2,0
28,0.01,170,121,0.01,176,181,154,2,43,108,86,0.01,9,0.01,183,150,191,198,142,112,196,66,69,0.01,179,0.01,138,179,0.01,0,83,153,74,102,78,50,80,0.01,0,0.01,0,0.01,87,166,75,90,82,26,0.01,0,158,169,0.01,0,25,63,0.01,158,123,83,13,0.01,0,0.01,43,17,123,0.01,0,0.01,0,69,9,0.01,166,0.01,58,138,0.01,31,19,127,7,2,42,0.01,0,0.01,0,0.01,26,79,90,113,2,0
28.25,0.01,170,121,0.01,176,181,154,4,56,108,86,0.01,9,0.01,183,150,191,198,142,112,196,67,69,0.01,179,0.01,138,179,0.01,0,83,153,74,102,78,50,87,0.01,0,0.01,0,0.01,87,166,75,90,82,26,0.01,0,158,169,0.01,0,28,63,0.01,158,123,83,13,0.01,0,0.01,56,29,123,0.01,0,0.01,0,69,9,0.01,166,0.01,77,138,0.01,31,20,130,7,2,42,0.01,0,0.01,0,0.01,26,79,90,113,2,0
28.5,0.01,170,121,0.01,176,181,154,4,56,108,86,0.01,9,0.01,183,150,191,198,142,112,196,68,69,0.01,179,0.01,138,179,0.01,0,83,153,74,102,78,50,90,0.01,0,0.01,0,0.01,87,166,75,93,82,26,0.01,0,158,169,0.01,0,28,63,0.01,158,123,83,13,0.01,0,0.01,59,33,123,0.01,0,0.01,0,69,9,0.01,166,0.01,84,138,0.01,31,20,132,7,2,42,0.01,0,0.01,0,0.01,26,79,90,113,2,0
28.75,0.01,173,130,0.01,179,181,164,4,61,108,86,0.01,9,0.01,184,150,191,198,142,112,196,68,69,0.01,179,0.01,142,179,0.01,0,85,157,74,102,78,50,90,0.01,0,0.01,0,0.01,87,166,76,104,82,26,0.01,0,159,175,0.01,0,28,71,0.01,163,123,83,13,0.01,0,0.01,59,33,129,0.01,0,0.01,0,69,9,0.01,166,0.01,84,140,0.01,31,20,132,7,2,42,0.01,0,0.01,0,0.01,26,79,90,113,2,0
29,0.01,173,130,0.01,179,181,164,5,75,108,86,0.01,9,0.01,184,150,191,198,142,112,196,69,69,0.01,179,0.01,142,179,0.01,0,85,157,74,102,79,50,97,0.01,0,0.01,0,0.01,87,166,76,104,82,26,0.01,0,159,175,0.01,0,28,71,0.01,163,123,83,13,0.01,0,0.01,66,37,129,0.01,0,0.01,0,69,9,0.01,166,0.01,96,140,0.01,31,20,132,7,2,42,0.01,0,0.01,0,0.01,26,79,90,113,2,0
29.25,0.01,173,130,0.01,179,181,164,5,75,109,86,0.01,9,0.01,184,150,191,198,142,112,196,72,69,0.01,179,0.01,142,179,0.01,0,85,160,74,103,79,50,97,0.01,0,0.01,0,0.01,87,169,76,105,82,26,0.01,0,159,175,0.01,0,32,71,0.01,163,123,83,13,0.01,0,0.01,66,38,129,0.01,0,0.01,0,69,9,0.01,166,0.01,96,140,0.01,31,20,132,7,2,42,0.01,0,0.01,0,0.01,26,79,90,113,2,0
29.5,0.01,173,130,0.01,179,181,164,5,75,109,86,0.01,9,0.01,184,150,191,198,142,112,196,74,69,0.01,179,0.01,142,179,0.01,0,85,160,74,103,79,50,101,0.01,0,0.01,0,0.01,87,169,76,107,82,26,0.01,0,159,175,0.01,0,32,71,0.01,163,123,83,13,0.01,0,0.01,70,43,129,0.01,0,0.01,0,69,9,0.01,166,0.01,104,140,0.01,31,20,132,7,2,42,0.01,0,0.01,0,0.01,26,79,90,113,2,0
29.75,0.01,173,130,0.01,179,181,164,5,75,109,86,0.01,9,0.01,184,150,191,198,142,113,196,74,69,0.01,179,0.01,142,179,0.01,0,85,160,74,105,79,50,101,0.01,0,0.01,0,0.01,87,171,76,107,82,26,0.01,0,159,175,0.01,0,35,73,0.01,163,123,83,13,0.01,0,0.01,70,46,129,0.01,0,0.01,0,69,9,0.01,166,0.01,104,142,0.01,31,20,132,7,2,42,0.01,0,0.01,0,0.01,26,79,90,113,2,0
30,0.01,173,130,0.01,179,181,164,6,75,109,86,0.01,9,0.01,184,150,191,198,142,113,196,74,69,0.01,179,0.01,142,179,0.01,0,85,160,74,105,79,50,103,0.01,0,0.01,0,0.01,87,171,76,108,82,26,0.01,0,159,175,0.01,0,35,73,0.01,163,123,83,13,0.01,0,0.01,75,51,129,0.01,0,0.01,0,69,9,0.01,166,0.01,106,142,0.01,31,20,132,7,2,42,0.01,0,0.01,0,0.01,26,79,90,113,2,0
30.25,0.01,173,130,0.01,179,181,164,6,75,110,86,0.01,9,0.01,184,150,191,198,142,113,196,75,69,0.01,179,0.01,142,179,0.01,0,85,164,74,105,79,50,105,0.01,0,0.01,0,0.01,87,171,76,117,82,26,0.01,0,159,175,0.01,0,35,78,0.01,163,123,83,13,0.01,0,0.01,79,53,130,0.01,0,0.01,0,69,9,0.01,166,0.01,110,143,0.01,31,20,132,7,2,42,0.01,0,0.01,0,0.01,26,79,90,113,2,0
30.5,0.01,173,130,0.01,179,181,164,6,75,110,86,0.01,9,0.01,184,150,191,198,142,113,196,75,69,0.01,179,0.01,142,179,0.01,0,85,164,74,105,79,50,105,0.01,0,0.01,0,0.01,87,171,76,117,82,26,0.01,0,159,175,0.01,0,36,78,0.01,163,123,83,13,0.01,0,0.01,79,55,130,0.01,0,0.01,0,69,9,0.01,166,0.01,110,143,1,31,20,132,7,2,42,0.01,0,0.01,0,0.01,26,79,90,113,2,0
30.75,0.01,173,130,0.01,179,181,164,6,75,110,86,0.01,9,0.01,184,150,191,198,145,113,196,75,69,0.01,179,0.01,142,179,0.01,0,85,164,74,105,79,50,105,0.01,0,0.01,0,0.01,87,171,76,117,82,26,0.01,0,159,175,0.01,0,36,78,0.01,163,123,83,13,0.01,0,0.01,79,55,130,0.01,0,0.01,0,69,9,0.01,166,0.01,111,143,1,31,20,132,7,2,42,0.01,0,0.01,0,0.01,26,79,90,113,2,0
31,0.01,173,130,0.01,179,181,164,6,75,110,86,0.01,9,0.01,184,150,191,198,145,113,196,75,69,0.01,179,0.01,142,179,0.01,0,85,164,74,105,79,50,105,0.01,0,0.01,0,0.01,87,171,76,117,82,26,0.01,0,159,175,0.01,0,36,78,0.01,163,123,83,13,0.01,0,0.01,80,57,130,0.01,0,0.01,0,69,9,0.01,166,0.01,111,143,1,31,20,132,7,2,42,0.01,0,0.01,0,0.01,26,79,90,113,2,0
31.25,0.01,178,142,0.01,190,182,176,6,75,110,86,0.01,9,0.01,184,150,196,202,165,116,198,75,69,0.01,179,0.01,155,181,0.01,0,89,164,89,106,79,50,108,0.01,0,0.01,0,0.01,93,174,82,125,82,26,0.01,0,159,180,0.01,0,36,89,0.01,169,123,83,13,0.01,0,0.01,85,57,137,0.01,0,0.01,0,69,9,0.01,166,0.01,112,145,1,31,20,132,7,2,42,0.01,0,0.01,0,0.01,26,79,90,113,2,0
31.5,0.01,178,142,0.01,190,182,176,6,75,110,86,0.01,9,0.01,184,150,196,202,165,116,198,75,69,0.01,179,0.01,155,181,0.01,0,89,164,89,106,79,50,111,0.01,0,0.01,0,0.01,93,174,82,125,82,26,0.01,0,159,180,0.01,0,38,89,0.01,169,123,83,13,0.01,0,0.01,90,60,137,0.01,0,0.01,0,69,9,0.01,166,0.01,122,145,1,31,20,132,7,2,42,0.01,0,0.01,0,0.01,26,79,90,113,2,0
31.75,0.01,178,142,0.01,190,182,176,11,88,110,86,0.01,9,0.01,184,150,196,202,165,116,198,75,69,0.01,179,0.01,155,181,0.01,0,89,164,89,106,79,50,123,0.01,0,0.01,0,0.01,93,174,82,127,82,26,0.01,0,159,180,0.01,0,38,89,0.01,169,123,83,13,0.01,0,0.01,100,63,137,0.01,0,0.01,0,69,9,0.01,166,0.01,138,146,6,31,21,132,7,2,42,0.01,0,0.01,0,0.01,26,79,90,113,2,0
32,0.01,178,142,0.01,190,182,176,11,88,110,86,0.01,9,0.01,184,150,196,202,165,116,198,75,69,0.01,179,0.01,155,181,0.01,0,89,164,89,107,79,50,123,0.01,0,0.01,0,0.01,93,174,82,127,82,26,0.01,0,159,180,0.01,0,41,89,0.01,169,123,83,13,0.01,0,0.01,100,63,137,0.01,0,0.01,0,69,9,0.01,166,0.01,138,148,6,31,21,132,7,2,42,0.01,0,0.01,0,0.01,26,79,90,113,2,0
32.25,0.01,178,142,0.01,190,182,176,11,88,110,86,0.01,9,0.01,184,150,196,202,165,116,198,76,69,0.01,179,0.01,155,181,0.01,0,89,164,89,107,79,50,123,0.01,0,0.01,0,0.01,93,174,82,127,82,26,0.01,0,159,180,0.01,0,41,89,0.01,169,123,83,13,0.01,0,0.01,102,64,137,0.01,0,0.01,0,69,9,0.01,166,0.01,138,148,6,31,21,132,7,2,42,0.01,0,0.01,0,0.01,26,79,90,113,2,0
32.5,0.01,178,142,0.01,191,182,176,11,88,110,86,0.01,9,0.01,184,158,197,204,172,124,198,76,69,0.01,179,0.01,161,184,0.01,1,93,164,95,115,79,50,123,0.01,0,0.01,0,0.01,98,177,84,127,82,26,0.01,0,159,180,0.01,0,41,97,0.01,173,123,83,13,0.01,0,0.01,102,64,137,0.01,0,0.01,0,69,9,0.01,166,0.01,138,148,6,31,21,132,7,2,42,0.01,0,0.01,0,0.01,26,79,90,113,2,0
32.75,0.01,178,142,0.01,191,182,176,11,88,110,86,0.01,9,0.01,184,158,197,204,172,124,198,76,69,0.01,179,0.01,161,184,0.01,4,93,164,95,115,79,50,123,0.01,0,0.01,0,0.01,98,177,84,127,82,26,0.01,0,159,180,0.01,0,45,97,0.01,173,123,83,13,0.01,0,0.01,104,64,137,0.01,0,0.01,0,69,9,0.01,166,0.01,138,148,6,31,21,132,7,2,42,0.01,0,0.01,0,0.01,26,79,90,113,2,0
33,0.01,178,142,0.01,191,182,176,11,88,110,86,0.01,9,0.01,184,158,197,204,172,124,198,76,69,0.01,179,0.01,161,184,0.01,8,93,164,95,115,79,50,123,0.01,0,0.01,0,0.01,98,177,84,127,82,26,0.01,0,159,180,0.01,0,46,97,0.01,173,123,83,13,0.01,0,0.01,108,66,137,0.01,0,0.01,0,69,9,0.01,166,0.01,138,148,6,31,21,132,7,2,42,0.01,0,0.01,0,0.01,26,79,90,113,2,0
33.25,0.01,178,143,0.01,191,182,176,12,88,110,86,0.01,9,0.01,184,158,197,204,172,124,198,77,69,0.01,179,0.01,161,184,0.01,13,93,165,95,115,79,50,130,0.01,0,0.01,0,0.01,98,177,84,132,82,26,0.01,0,159,180,0.01,0,47,97,0.01,173,123,83,13,0.01,0,0.01,114,69,137,0.01,0,0.01,0,69,9,0.01,166,0.01,143,148,6,31,21,132,7,2,42,0.01,0,0.01,0,0.01,26,79,90,113,2,0
33.5,0.01,178,143,0.01,191,182,176,13,88,110,86,0.01,9,0.01,184,158,197,204,172,124,198,77,69,0.01,179,0.01,161,184,0.01,13,93,165,95,115,79,50,130,0.01,0,0.01,0,0.01,98,177,84,133,82,26,0.01,0,159,180,0.01,0,47,97,0.01,173,123,83,13,0.01,0,0.01,115,69,137,0.01,0,0.01,0,69,9,0.01,166,0.01,143,148,6,31,21,132,7,2,42,0.01,0,0.01,0,0.01,26,79,90,113,2,0
33.75,0.01,178,143,0.01,191,182,176,13,88,110,86,0.01,9,0.01,184,158,197,204,172,124,198,77,69,0.01,179,0.01,161,184,0.01,14,93,165,95,115,79,50,130,0.01,0,0.01,0,0.01,98,177,84,133,82,26,0.01,0,159,180,0.01,0,50,97,0.01,173,123,83,13,0.01,0,0.01,115,69,137,0.01,0,0.01,0,69,9,0.01,166,0.01,143,148,6,31,21,132,7,2,42,0.01,0,0.01,0,0.01,26,79,90,113,2,0
34,0.01,178,147,0.01,191,182,176,13,88,110,86,0.01,9,0.01,184,158,197,204,172,124,198,77,69,0.01,179,0.01,161,184,0.01,14,93,165,95,115,79,50,130,0.01,0,0.01,0,0.01,98,177,84,136,82,26,0.01,0,159,180,0.01,0,50,99,0.01,173,123,83,13,0.01,0,0.01,117,69,138,0.01,0,0.01,0,69,9,0.01,166,0.01,143,148,6,31,21,132,7,2,42,0.01,0,0.01,0,0.01,26,79,90,113,2,0
34.25,0.01,178,147,0.01,191,182,176,13,88,110,86,0.01,9,0.01,184,158,197,204,172,124,198,77,69,0.01,179,0.01,161,184,0.01,19,93,165,95,115,79,50,130,0.01,0,0.01,0,0.01,98,178,84,136,82,26,0.01,0,159,180,0.01,0,52,100,0.01,173,123,83,13,0.01,0,0.01,117,69,138,0.01,0,0.01,0,69,9,0.01,166,0.01,143,148,6,31,21,132,7,2,42,0.01,0,0.01,0,0.01,26,79,90,113,2,0
34.5,0.01,178,147,0.01,191,182,176,13,88,110,86,0.01,9,0.01,184,158,197,204,172,124,198,77,69,0.01,179,0.01,161,184,0.01,21,93,165,95,115,79,50,134,0.01,0,0.01,0,0.01,98,178,84,138,82,26,0.01,0,159,180,0.01,0,52,100,0.01,174,123,83,13,0.01,0,0.01,121,69,138,0.01,0,0.01,0,69,9,0.01,166,0.01,143,148,6,31,21,132,7,2,42,0.01,0,7,0.01,0,26,79,90,113,2,0
34.75,0.01,178,147,0.01,191,182,176,13,88,110,86,0.01,9,0.01,184,158,197,204,172,124,198,77,69,0.01,179,0.01,161,184,0.01,24,93,165,95,116,79,50,135,0.01,0,0.01,0,0.01,98,178,84,138,82,26,0.01,0,159,180,0.01,0,52,101,0.01,174,123,83,13,0.01,0,0.01,124,69,138,0.01,0,0.01,0,69,9,0.01,166,0.01,143,148,6,31,21,132,7,2,42,0.01,0,8,0.01,0,26,79,90,113,2,0
35,0.01,178,147,0.01,191,182,176,13,88,110,86,0.01,9,0.01,184,158,197,204,172,124,198,77,69,0.01,179,0.01,161,184,0.01,27,93,165,95,116,79,50,135,0.01,0,0.01,0,0.01,98,178,84,138,82,26,0.01,0,159,180,0.01,0,53,101,0.01,174,123,83,13,0.01,0,0.01,124,69,138,0.01,0,0.01,0,69,9,0.01,166,0.01,143,148,6,31,21,132,7,2,42,0.01,0,14,0.01,0,26,79,90,113,2,0
35.25,0.01,178,153,0.01,204,192,184,13,88,110,86,0.01,9,0.01,186,166,203,206,173,129,198,77,69,0.01,179,0.01,174,187,0.01,31,97,165,103,118,79,50,135,0.01,0,0.01,0,0.01,104,182,88,138,82,26,0.01,0,159,180,0.01,0,53,108,0.01,180,123,83,13,0.01,0,0.01,124,69,138,0.01,0,0.01,0,69,9,0.01,166,0.01,143,148,6,31,21,132,7,2,42,0.01,0,14,0.01,0,26,79,90,113,2,0
35.5,0.01,178,153,0.01,204,192,184,17,88,110,86,0.01,9,0.01,186,166,203,206,173,129,198,77,69,0.01,179,0.01,174,187,0.01,31,97,165,103,118,79,50,137,0.01,0,0.01,0,0.01,104,182,88,138,82,26,0.01,0,159,180,0.01,0,53,108,0.01,180,123,83,13,0.01,0,0.01,126,69,138,0.01,0,0.01,0,69,9,0.01,166,0.01,143,148,6,31,21,132,7,2,42,0.01,0,15,0.01,0,26,79,90,113,2,0
35.75,0.01,178,153,0.01,204,192,184,17,88,110,86,0.01,9,0.01,186,166,203,206,173,129,198,77,69,0.01,179,0.01,174,187,0.01,31,97,165,103,118,79,50,137,0.01,0,0.01,0,0.01,104,182,88,138,82,26,0.01,0,159,180,0.01,0,53,108,0.01,180,123,83,13,0.01,0,0.01,126,69,138,0.01,0,0.01,0,69,9,0.01,166,0.01,143,148,7,31,21,132,7,2,42,0.01,0,22,0.01,0,26,79,90,113,2,0
36,0.01,178,153,0.01,204,192,184,24,88,110,86,0.01,9,0.01,186,166,203,206,173,129,198,77,69,0.01,179,0.01,174,187,0.01,34,97,165,103,118,79,50,139,0.01,0,0.01,0,0.01,104,182,88,143,82,26,0.01,0,159,180,0.01,0,53,108,0.01,180,123,83,13,0.01,0,0.01,132,69,140,0.01,0,0.01,0,69,9,0.01,166,0.01,143,148,7,31,21,132,7,2,42,0.01,0,22,0.01,0,26,79,90,113,2,0
36.25,0.01,178,158,0.01,204,192,184,24,88,110,86,0.01,9,0.01,186,166,203,206,173,129,198,77,69,0.01,179,0.01,174,187,0.01,38,97,169,103,118,79,50,141,0.01,0,0.01,0,0.01,104,182,88,154,82,26,0.01,0,159,184,0.01,0,53,112,0.01,182,123,83,13,0.01,0,0.01,132,69,149,0.01,0,0.01,0,69,9,0.01,166,0.01,143,148,7,31,21,132,7,2,42,0.01,0,22,0.01,0,26,79,90,113,2,0
36.5,0.01,178,158,0.01,204,192,184,24,88,110,86,0.01,9,0.01,186,166,203,206,173,129,198,77,69,0.01,179,0.01,174,187,0.01,41,97,169,103,118,79,50,141,0.01,0,0.01,0,0.01,104,182,88,154,82,26,0.01,0,159,184,0.01,0,54,112,0.01,182,123,83,13,0.01,0,0.01,132,69,149,0.01,0,0.01,0,69,9,0.01,166,0.01,143,148,7,31,21,132,7,2,42,0.01,0,23,0.01,0,26,79,90,113,2,0
36.75,0.01,178,161,0.01,204,192,190,24,88,110,86,0.01,9,0.01,186,166,203,206,173,129,198,77,69,0.01,179,0.01,174,187,0.01,49,97,169,103,118,79,50,141,0.01,0,0.01,0,0.01,104,184,88,155,82,26,0.01,0,159,186,0.01,0,54,116,0.01,184,123,83,13,0.01,0,0.01,132,69,149,0.01,0,0.01,0,69,9,0.01,166,0.01,143,148,7,31,21,132,7,2,42,0.01,0,23,0.01,0,26,79,90,113,2,0
37,0.01,178,161,0.01,204,192,190,24,88,110,86,0.01,9,0.01,186,166,203,206,173,129,198,77,69,0.01,179,0.01,174,187,0.01,51,97,169,103,118,79,50,141,0.01,0,0.01,0,0.01,104,186,88,155,82,26,0.01,0,159,186,0.01,0,56,116,0.01,184,123,83,13,0.01,0,0.01,132,69,149,0.01,0,0.01,0,69,9,0.01,166,0.01,143,148,7,31,21,132,7,2,42,0.01,0,23,0.01,0,26,79,90,113,2,0
37.25,0.01,178,161,0.01,204,192,190,28,88,110,86,0.01,9,0.01,186,166,203,206,173,129,198,77,69,0.01,179,0.01,174,187,0.01,53,97,169,103,118,79,50,141,0.01,0,0.01,0,0.01,104,186,88,155,82,26,0.01,0,159,186,0.01,0,56,116,0.01,184,123,83,13,0.01,0,0.01,135,69,149,0.01,0,0.01,0,69,9,0.01,166,0.01,143,148,7,31,21,132,7,2,42,0.01,0,23,0.01,0,26,79,90,113,2,0
37.5,0.01,178,161,0.01,204,192,190,28,88,110,86,4,9,0.01,186,166,203,206,173,129,198,77,69,0.01,179,0.01,174,187,0.01,53,97,169,103,118,79,50,141,0.01,0,0.01,0,0.01,104,186,88,155,82,26,0.01,0,159,186,0.01,0,57,116,0.01,184,123,83,13,0.01,0,0.01,135,69,149,0.01,0,0.01,0,69,9,0.01,166,0.01,143,148,7,31,21,132,7,2,42,0.01,0,25,0.01,0,26,79,90,113,2,0
37.75,0.01,178,161,0.01,204,192,190,28,88,110,86,4,9,0.01,186,166,203,206,173,129,198,77,69,0.01,179,0.01,174,187,0.01,53,97,169,103,118,79,50,141,0.01,0,0.01,0,0.01,104,186,88,155,82,26,0.01,0,159,186,0.01,0,57,116,0.01,184,123,83,13,0.01,0,0.01,136,69,149,0.01,0,0.01,0,69,9,0.01,166,0.01,143,148,7,31,21,132,7,2,42,0.01,0,31,0.01,0,26,79,90,113,2,0
38,0.01,178,161,0.01,204,192,190,35,88,110,86,5,9,0.01,186,166,203,206,173,129,198,77,69,0.01,179,0.01,174,187,0.01,56,97,169,103,118,79,50,141,0.01,0,0.01,0,0.01,104,186,88,155,82,26,0.01,0,159,186,0.01,0,58,116,0.01,184,123,83,13,0.01,0,0.01,140,69,149,0.01,0,0.01,0,69,9,0.01,166,0.01,143,148,7,31,21,132,7,2,42,0.01,0,31,0.01,0,26,79,90,113,2,0
38.25,0.01,178,161,0.01,204,192,190,35,88,110,86,5,9,0.01,186,166,203,206,173,129,198,77,69,0.01,179,0.01,174,187,0.01,65,97,169,103,118,79,50,141,0.01,0,0.01,0,0.01,104,186,88,155,82,26,0.01,0,159,186,0.01,0,59,116,0.01,184,123,85,13,0.01,0,0.01,140,69,149,0.01,0,0.01,0,69,9,0.01,166,0.01,143,148,7,31,21,132,7,2,42,0.01,0,31,0.01,0,26,79,90,113,2,0
38.5,0.01,182,166,0.01,215,193,193,35,88,110,86,5,9,0.01,188,171,205,206,173,129,198,77,69,0.01,179,0.01,187,190,0.01,73,102,169,112,118,79,50,141,0.01,0,0.01,0,0.01,107,186,95,155,82,26,0.01,0,159,186,0.01,0,59,121,0.01,184,123,85,13,0.01,0,0.01,140,69,149,0.01,0,0.01,0,69,9,0.01,166,0.01,143,148,7,31,21,132,7,2,42,0.01,0,31,0.01,0,26,79,90,113,2,0
38.75,0.01,182,166,0.01,215,193,193,35,88,110,86,5,9,0.01,188,171,205,206,173,130,198,77,69,0.01,179,0.01,187,190,0.01,75,102,169,112,118,79,50,141,0.01,0,0.01,0,0.01,107,188,95,156,82,26,0.01,0,159,186,0.01,0,59,121,0.01,184,123,85,13,0.01,0,0.01,140,69,149,0.01,0,0.01,0,69,9,0.01,166,0.01,143,148,7,31,21,132,7,2,42,0.01,0,31,0.01,0,26,79,90,113,2,0
39,0.01,182,166,0.01,215,193,193,35,88,110,86,5,9,0.01,188,171,205,206,173,131,198,77,69,0.01,179,0.01,187,190,0.01,77,102,169,112,120,79,50,141,0.01,0,0.01,0,0.01,107,189,95,156,82,26,0.01,0,159,186,0.01,0,59,121,0.01,184,123,85,13,0.01,0,0.01,140,69,149,0.01,0,0.01,0,69,9,0.01,166,0.01,143,148,7,31,21,132,7,2,42,0.01,0,31,0.01,0,26,79,90,113,2,0
39.25,0.01,182,166,0.01,215,193,193,39,88,110,86,5,9,0.01,188,171,205,206,173,131,198,77,69,0.01,179,0.01,187,190,0.01,77,102,169,112,120,79,50,141,0.01,0,0.01,0,0.01,107,189,95,159,82,26,0.01,0,159,186,0.01,0,59,122,0.01,184,123,85,13,0.01,0,0.01,140,69,154,1,0.01,0,0.01,69,9,0.01,166,0.01,143,148,7,31,21,132,7,2,42,0.01,0,31,0.01,0,26,79,90,113,2,0
39.5,0.01,182,166,0.01,215,193,193,39,88,110,86,5,9,0.01,188,171,205,206,173,131,198,77,70,0.01,179,0.01,187,190,0.01,78,102,169,112,120,79,50,141,0.01,0,0.01,0,0.01,107,189,95,159,82,26,0.01,0,159,186,0.01,0,60,122,0.01,184,123,86,13,0.01,0,0.01,141,69,154,1,0.01,0,0.01,69,9,0.01,166,0.01,143,148,7,31,21,132,7,2,42,0.01,0,33,0.01,0,26,79,90,113,2,0
39.75,0.01,182,166,0.01,215,193,193,39,88,110,86,5,9,0.01,188,171,205,206,173,131,198,77,70,0.01,179,0.01,187,190,0.01,78,102,169,112,120,79,50,141,0.01,0,0.01,0,0.01,107,189,95,159,82,26,0.01,0,159,186,0.01,0,60,122,0.01,184,123,86,13,0.01,0,0.01,141,69,154,1,0.01,0,0.01,69,9,0.01,166,0.01,143,148,7,31,21,132,7,2,42,0.01,0,33,0.01,0,26,79,90,113,2,0
40,0.01,182,166,0.01,215,193,193,39,88,110,86,5,9,0.01,188,171,205,206,173,131,198,77,70,0.01,179,0.01,187,190,0.01,83,102,169,112,120,79,50,141,0.01,0,0.01,0,0.01,107,189,95,159,82,26,0.01,0,159,186,0.01,0,60,122,0.01,184,123,86,13,0.01,0,0.01,141,69,154,1,0.01,0,0.01,69,9,0.01,166,0.01,143,148,7,31,21,132,7,2,42,0.01,0,33,0.01,0,26,79,90,113,2,0
40.25,0.01,182,166,0.01,215,193,193,39,88,110,86,5,9,0.01,188,171,205,206,173,131,198,77,70,0.01,179,0.01,187,190,0.01,83,102,169,112,120,79,50,141,0.01,0,0.01,0,0.01,107,189,95,159,82,26,0.01,0,159,186,0.01,0,60,122,0.01,184,123,86,13,0.01,0,0.01,141,69,154,1,0.01,0,0.01,69,9,0.01,166,0.01,143,148,7,31,21,132,7,2,42,0.01,0,35,0.01,0,26,79,90,113,2,0
40.5,0.01,182,166,0.01,215,193,193,43,88,110,86,5,9,0.01,188,171,205,206,173,131,198,77,70,0.01,179,0.01,187,190,0.01,83,102,169,112,120,79,50,141,0.01,0,0.01,0,0.01,107,189,95,159,82,26,0.01,0,159,186,0.01,0,60,122,0.01,184,123,86,13,0.01,0,0.01,142,69,154,4,0.01,0,0.01,69,9,0.01,166,0.01,143,148,7,31,21,132,7,2,42,0.01,0,35,0.01,0,26,79,90,113,2,0
40.75,0.01,182,167,0.01,215,193,193,43,88,110,86,7,9,0.01,188,171,205,206,173,131,198,77,70,0.01,179,0.01,187,190,0.01,94,102,169,112,120,79,50,141,0.01,0,0.01,0,0.01,107,189,95,159,82,26,0.01,0,159,186,0.01,0,64,125,0.01,184,123,89,13,0.01,0,0.01,145,69,156,6,0.01,0,0.01,69,9,0.01,166,0.01,143,148,7,31,21,132,7,2,42,0.01,0,37,0.01,0,26,79,90,113,2,0
41,0.01,182,169,0.01,221,201,193,43,88,110,86,7,9,0.01,190,182,207,206,173,131,198,77,70,0.01,179,0.01,194,194,0.01,103,108,169,120,120,79,50,141,0.01,0,0.01,0,0.01,107,189,99,159,82,26,0.01,0,159,186,0.01,0,64,125,0.01,184,123,89,13,0.01,0,0.01,145,69,156,6,0.01,0,0.01,69,9,0.01,166,0.01,143,148,7,31,21,132,7,2,42,0.01,0,37,0.01,0,26,79,90,113,2,0
41.25,0.01,182,170,0.01,221,201,194,43,88,110,86,7,9,0.01,190,182,207,206,173,131,198,77,70,0.01,179,0.01,195,194,0.01,106,108,169,120,120,79,50,141,0.01,0,0.01,0,0.01,109,189,99,159,82,26,0.01,0,159,186,0.01,0,64,127,0.01,184,123,89,13,0.01,0,0.01,145,69,156,6,0.01,0,0.01,69,9,0.01,166,0.01,143,148,7,31,21,132,7,2,42,0.01,0,37,0.01,0,26,79,90,113,2,0
41.5,0.01,182,170,0.01,221,201,194,43,88,110,86,7,9,0.01,190,182,207,206,173,131,198,77,74,0.01,179,0.01,195,194,0.01,106,108,169,120,120,79,50,141,0.01,0,0.01,0,0.01,109,191,99,159,82,26,0.01,0,159,186,0.01,0,64,127,0.01,184,123,89,13,0.01,0,0.01,145,69,156,6,0.01,0,0.01,69,9,0.01,166,0.01,143,148,7,31,21,132,7,2,42,0.01,0,38,0.01,0,26,79,90,113,2,0
41.75,0.01,182,170,0.01,221,201,194,43,88,110,86,7,9,0.01,190,182,207,206,173,131,198,77,74,0.01,179,0.01,195,194,0.01,106,108,169,120,120,79,50,141,0.01,0,0.01,0,0.01,109,191,99,159,82,26,0.01,0,159,186,0.01,0,66,127,0.01,184,123,89,13,0.01,0,0.01,145,69,156,6,0.01,1,0.01,69,9,0.01,166,0.01,143,148,7,31,21,132,7,2,42,0.01,0,40,0.01,0,26,79,90,113,2,0
42,0.01,182,170,0.01,221,201,194,43,88,110,86,7,9,0.01,190,182,207,206,173,131,198,77,78,0.01,179,0.01,195,194,0.01,106,108,169,120,120,79,50,141,0.01,0,0.01,0,0.01,109,192,99,159,82,26,0.01,0,159,186,0.01,0,67,127,0.01,184,123,89,13,0.01,0,0.01,145,69,156,6,0.01,34,0.01,69,9,0.01,166,0.01,143,148,7,31,21,132,7,2,42,0.01,0,40,0.01,0,26,79,90,113,2,0
42.25,0.01,182,170,0.01,223,201,194,43,88,110,86,7,9,0.01,190,182,207,206,173,131,198,77,78,0.01,179,0.01,198,195,0.01,116,108,169,120,120,79,50,141,0.01,0,0.01,0,0.01,109,192,99,159,82,26,0.01,0,159,186,0.01,0,67,127,0.01,184,123,89,13,0.01,0,0.01,145,69,156,6,0.01,36,0.01,69,9,0.01,166,0.01,143,148,7,31,21,132,7,2,42,0.01,0,40,0.01,0,26,79,90,113,2,0
42.5,0.01,182,170,0.01,223,201,194,43,88,110,86,8,9,0.01,190,182,207,206,173,131,198,77,80,0.01,179,0.01,198,195,0.01,116,108,169,120,120,79,50,141,0.01,0,0.01,0,0.01,109,192,99,159,82,26,0.01,0,159,186,0.01,0,67,127,0.01,184,123,89,13,0.01,0,0.01,145,69,156,6,0.01,52,0.01,69,9,0.01,166,0.01,143,148,7,31,21,132,7,2,42,0.01,0,45,0.01,0,26,79,90,113,2,0
42.75,0.01,182,170,0.01,223,201,194,43,88,110,86,9,9,0.01,190,182,207,206,173,131,198,77,80,0.01,179,0.01,198,195,0.01,116,108,169,120,120,79,50,141,0.01,0,0.01,0,0.01,109,192,99,159,82,26,0.01,0,159,186,0.01,0,67,127,0.01,184,123,89,13,0.01,0,0.01,145,69,156,6,0.01,55,0.01,69,9,0.01,166,0.01,143,148,7,31,21,132,7,2,42,0.01,0,47,0.01,0,26,79,90,113,2,0
43,0.01,182,170,0.01,223,201,194,43,88,110,86,9,9,0.01,190,182,207,206,173,131,198,77,80,0.01,179,0.01,198,195,0.01,116,108,169,120,120,79,50,141,0.01,0,0.01,0,0.01,109,192,99,159,82,26,0.01,0,159,186,0.01,0,67,127,0.01,184,123,89,13,0.01,0,0.01,145,69,156,6,0.01,55,0.01,69,9,0.01,166,0.01,143,148,7,31,21,132,7,2,42,0.01,0,47,0.01,0,26,79,90,113,2,0
43.25,0.01,182,170,0.01,223,201,194,43,88,110,86,9,9,0.01,190,182,207,206,173,131,198,77,80,0.01,179,0.01,198,195,0.01,116,108,169,120,120,79,50,141,0.01,0,0.01,0,0.01,109,192,99,159,82,26,0.01,0,159,186,0.01,0,68,127,0.01,184,123,89,13,0.01,0,0.01,145,69,156,6,0.01,55,0.01,69,9,0.01,166,0.01,143,148,7,31,21,132,7,2,42,0.01,0,55,0.01,0,26,79,90,113,2,0
43.5,0.01,182,170,0.01,223,201,194,43,88,110,86,9,9,0.01,190,182,207,206,173,133,198,80,80,0.01,179,0.01,198,195,0.01,123,108,169,120,120,79,50,141,0.01,0,0.01,0,0.01,109,196,99,159,82,26,0.01,0,159,186,0.01,0,68,127,0.01,184,123,89,13,0.01,0,0.01,145,69,156,6,0.01,55,0.01,69,9,0.01,166,0.01,143,148,7,31,21,132,7,2,42,0.01,0,55,0.01,0,26,79,90,113,2,0
43.75,0.01,182,170,0.01,223,201,194,43,88,110,86,9,9,0.01,190,182,207,206,173,133,198,82,80,0.01,179,0.01,198,195,0.01,123,108,169,120,120,79,50,141,0.01,0,0.01,0,0.01,109,196,99,159,82,26,0.01,0,159,186,0.01,0,70,127,0.01,184,123,92,13,0.01,0,0.01,145,69,156,6,0.01,55,0.01,69,9,0.01,166,0.01,143,148,7,31,21,132,7,2,42,0.01,0,58,0.01,0,26,79,90,113,2,0
44,0.01,182,170,0.01,223,201,194,43,88,110,86,9,9,0.01,190,182,207,206,173,133,198,82,80,0.01,179,0.01,198,195,0.01,123,108,169,120,120,79,50,141,0.01,0,0.01,0,0.01,109,196,99,159,82,26,0.01,0,159,186,0.01,0,70,127,0.01,184,123,92,13,0.01,0,0.01,145,69,156,6,0.01,56,0.01,69,9,0.01,166,0.01,143,148,7,31,21,132,7,2,42,0.01,0,58,0.01,0,26,79,90,113,2,0
44.25,0.01,182,170,0.01,223,201,194,43,88,110,86,9,9,0.01,190,182,207,206,173,133,198,82,80,0.01,179,0.01,198,195,0.01,123,108,169,120,120,79,50,141,0.01,0,0.01,0,0.01,109,196,99,159,82,26,0.01,0,159,186,0.01,0,71,127,0.01,184,123,92,13,0.01,0,0.01,145,69,156,6,0.01,56,0.01,69,9,0.01,166,0.01,143,148,7,31,21,132,7,2,42,0.01,0,58,0.01,0,26,79,90,113,2,0
44.5,0.01,182,170,0.01,223,201,194,43,88,110,86,9,9,0.01,190,182,207,206,173,133,198,82,80,0.01,179,0.01,198,195,0.01,123,108,169,120,120,79,50,141,0.01,0,0.01,0,0.01,109,196,99,159,82,26,0.01,0,159,186,0.01,0,71,127,0.01,184,123,92,13,0.01,0,0.01,145,69,156,6,0.01,56,0.01,69,9,0.01,166,0.01,143,148,7,31,21,132,7,2,42,0.01,0,59,0.01,0,26,79,90,113,2,0
44.75,0.01,182,170,0.01,223,201,194,43,88,110,86,9,9,0.01,190,182,207,206,173,133,198,82,80,0.01,179,0.01,198,195,0.01,123,108,169,120,120,79,50,141,0.01,0,0.01,0,0.01,109,196,99,159,82,26,0.01,0,159,186,0.01,0,71,127,0.01,184,123,92,13,0.01,0,0.01,145,69,156,6,0.01,56,0.01,69,9,0.01,166,0.01,143,148,7,31,21,132,7,2,42,0.01,0,59,0.01,0,26,79,90,113,2,0
45,0.01,182,170,0.01,223,201,194,43,88,110,86,9,9,0.01,190,182,207,206,173,133,198,82,85,0.01,179,0.01,198,195,0.01,129,108,169,120,120,79,50,141,0.01,0,0.01,0,0.01,109,196,99,159,82,26,0.01,0,159,186,0.01,0,71,127,0.01,184,123,92,13,0.01,0,0.01,145,69,156,6,0.01,59,0.01,69,9,0.01,166,0.01,143,148,7,31,21,132,7,2,42,0.01,0,62,0.01,0,26,79,90,113,2,0
45.25,0.01,182,170,0.01,223,201,194,43,88,110,86,9,9,0.01,190,182,207,206,173,133,198,83,85,0.01,179,0.01,198,195,0.01,129,108,169,120,120,79,50,141,0.01,0,0.01,0,0.01,109,196,99,159,82,26,0.01,0,159,186,0.01,0,72,127,0.01,184,123,92,13,0.01,0,0.01,145,69,156,6,0.01,59,0.01,69,9,0.01,166,0.01,143,148,7,31,21,132,7,2,42,0.01,0,62,0.01,0,26,79,90,113,2,0
45.5,0.01,182,170,0.01,223,201,194,43,88,110,86,11,9,0.01,190,182,207,206,173,133,198,83,85,0.01,179,0.01,198,195,0.01,129,108,169,120,120,79,50,141,0.01,0,0.01,0,0.01,109,196,99,159,82,26,0.01,0,159,186,0.01,0,74,127,0.01,184,123,93,13,0.01,0,0.01,145,69,156,6,0.01,59,0.01,69,9,0.01,166,0.01,143,148,7,31,21,132,7,2,42,0.01,0,64,0.01,0,26,79,90,113,2,0
45.75,0.01,182,170,0.01,223,201,194,43,88,110,86,11,9,0.01,190,182,207,206,173,133,198,86,85,0.01,179,0.01,198,195,0.01,133,108,169,120,120,79,50,141,0.01,0,0.01,0,0.01,109,196,99,159,82,26,0.01,0,159,186,0.01,0,74,127,0.01,184,123,93,13,0.01,0,0.01,145,69,156,6,0.01,59,0.01,69,9,0.01,166,0.01,143,148,7,31,21,132,7,2,42,0.01,0,64,0.01,0,26,79,90,113,2,0
46,0.01,182,170,0.01,223,201,194,43,88,110,86,11,9,0.01,190,182,207,206,173,133,198,86,85,0.01,179,0.01,198,195,0.01,133,108,169,120,120,79,50,141,0.01,0,0.01,0,0.01,109,196,99,159,82,26,0.01,0,159,186,0.01,0,74,127,0.01,184,123,93,13,0.01,0,0.01,145,69,156,6,0.01,59,0.01,69,9,0.01,166,0.01,143,148,8,31,21,132,7,2,42,0.01,0,64,0.01,0,26,79,90,113,2,0
46.25,0.01,182,170,0.01,223,201,194,43,88,110,86,11,9,0.01,190,182,207,206,173,133,198,86,85,0.01,179,0.01,198,195,0.01,134,108,169,120,120,79,50,141,0.01,0,0.01,0,0.01,109,196,99,159,82,26,0.01,0,159,186,0.01,0,74,127,0.01,184,123,93,13,0.01,0,0.01,145,69,156,6,0.01,59,0.01,69,9,0.01,166,0.01,143,148,8,31,21,132,7,2,42,0.01,0,64,0.01,0,26,79,90,113,2,0
46.5,0.01,182,174,0.01,223,201,194,43,88,110,86,11,9,0.01,190,182,207,206,173,133,198,90,85,0.01,179,0.01,198,195,0.01,139,108,169,120,120,79,50,141,0.01,0,0.01,0,0.01,113,197,99,159,82,26,0.01,0,159,186,0.01,0,74,127,0.01,184,123,95,13,0.01,0,0.01,145,69,156,6,0.01,59,0.01,69,9,0.01,166,0.01,143,148,12,31,21,132,7,2,42,0.01,0,64,0.01,0,26,79,90,113,2,0
46.75,0.01,182,175,0.01,224,205,194,43,88,110,86,11,9,0.01,194,191,207,206,173,133,198,90,85,0.01,179,0.01,204,200,0.01,139,112,169,120,120,79,50,141,0.01,0,0.01,0,0.01,113,197,99,159,82,26,0.01,0,159,186,0.01,0,74,127,0.01,184,123,95,13,0.01,0,0.01,145,69,156,6,0.01,59,0.01,69,9,0.01,166,0.01,143,148,12,31,21,132,7,2,42,0.01,0,64,0.01,0,26,79,90,113,2,0
47,0.01,182,178,0.01,224,205,194,43,88,110,86,11,9,0.01,194,191,207,206,173,133,198,90,85,0.01,179,0.01,204,200,0.01,139,112,169,120,120,79,50,141,0.01,0,0.01,0,0.01,114,197,99,159,82,26,0.01,0,159,186,0.01,0,74,127,0.01,184,123,95,13,0.01,0,0.01,145,69,156,6,0.01,59,0.01,69,9,0.01,166,0.01,143,148,12,31,21,132,7,2,42,0.01,0,64,0.01,0,26,79,90,113,2,0
47.25,0.01,182,178,0.01,224,205,194,43,88,110,86,11,9,0.01,194,191,207,206,173,133,198,90,88,0.01,179,0.01,204,200,0.01,139,112,169,120,120,79,50,141,0.01,0,0.01,0,0.01,114,197,99,159,82,26,0.01,0,159,186,0.01,0,74,127,0.01,184,123,95,13,0.01,0,0.01,145,69,156,6,0.01,62,0.01,69,9,0.01,166,0.01,143,148,17,31,21,132,7,2,42,0.01,0,67,0.01,0,26,79,90,113,2,0
47.5,0.01,182,178,0.01,224,205,194,43,88,110,86,11,9,0.01,194,191,207,206,173,133,198,90,88,0.01,179,0.01,204,200,0.01,142,112,169,120,120,79,50,141,0.01,0,0.01,0,0.01,117,200,99,159,82,26,0.01,0,159,186,0.01,0,74,127,0.01,184,123,95,13,0.01,0,0.01,145,69,156,6,0.01,62,0.01,69,9,0.01,166,0.01,143,148,17,31,21,132,7,2,42,0.01,0,67,0.01,0,26,79,90,113,2,0
47.75,0.01,182,178,0.01,224,205,194,43,88,110,86,12,9,0.01,194,191,207,206,173,133,198,90,88,0.01,179,0.01,204,200,0.01,142,112,169,120,120,79,50,141,0.01,0,0.01,0,0.01,117,200,99,159,82,26,0.01,0,159,186,0.01,0,75,127,0.01,184,123,95,13,0.01,0,0.01,145,69,156,6,0.01,62,0.01,69,9,0.01,166,0.01,143,148,17,31,21,132,7,2,42,0.01,0,67,0.01,0,26,79,90,113,2,0
