Data File    , C:\Program Files\Biolog\OL_DC_23\PMX\Data_2013\07\PMX_443_130705_A_08.OKA,,,,,,,,,,,,,,,,,,,,,,,,,,,,,,,,,,,,,,,,,,,,,,,,,,,,,,,,,,,,,,,,,,,,,,,,,,,,,,,,,,,,,,,,,,,,,,,
Set up Time  ,Jul 05 2013 11:57 AM,,,,,,,,,,,,,,,,,,,,,,,,,,,,,,,,,,,,,,,,,,,,,,,,,,,,,,,,,,,,,,,,,,,,,,,,,,,,,,,,,,,,,,,,,,,,,,,
Position     , 4-B,,,,,,,,,,,,,,,,,,,,,,,,,,,,,,,,,,,,,,,,,,,,,,,,,,,,,,,,,,,,,,,,,,,,,,,,,,,,,,,,,,,,,,,,,,,,,,,
Plate Type   ,PM 1-,,,,,,,,,,,,,,,,,,,,,,,,,,,,,,,,,,,,,,,,,,,,,,,,,,,,,,,,,,,,,,,,,,,,,,,,,,,,,,,,,,,,,,,,,,,,,,,
Strain Type  ,---,,,,,,,,,,,,,,,,,,,,,,,,,,,,,,,,,,,,,,,,,,,,,,,,,,,,,,,,,,,,,,,,,,,,,,,,,,,,,,,,,,,,,,,,,,,,,,,
Sample Number,,,,,,,,,,,,,,,,,,,,,,,,,,,,,,,,,,,,,,,,,,,,,,,,,,,,,,,,,,,,,,,,,,,,,,,,,,,,,,,,,,,,,,,,,,,,,,,,
Strain Name  ,rep2,,,,,,,,,,,,,,,,,,,,,,,,,,,,,,,,,,,,,,,,,,,,,,,,,,,,,,,,,,,,,,,,,,,,,,,,,,,,,,,,,,,,,,,,,,,,,,,
Strain Number,287-JUL8,,,,,,,,,,,,,,,,,,,,,,,,,,,,,,,,,,,,,,,,,,,,,,,,,,,,,,,,,,,,,,,,,,,,,,,,,,,,,,,,,,,,,,,,,,,,,,,
Other        ,,,,,,,,,,,,,,,,,,,,,,,,,,,,,,,,,,,,,,,,,,,,,,,,,,,,,,,,,,,,,,,,,,,,,,,,,,,,,,,,,,,,,,,,,,,,,,,,
,,,,,,,,,,,,,,,,,,,,,,,,,,,,,,,,,,,,,,,,,,,,,,,,,,,,,,,,,,,,,,,,,,,,,,,,,,,,,,,,,,,,,,,,,,,,,,,,
Hour,  A01,  A02,  A03,  A04,  A05,  A06,  A07,  A08,  A09,  A10,  A11,  A12,  B01,  B02,  B03,  B04,  B05,  B06,  B07,  B08,  B09,  B10,  B11,  B12,  C01,  C02,  C03,  C04,  C05,  C06,  C07,  C08,  C09,  C10,  C11,  C12,  D01,  D02,  D03,  D04,  D05,  D06,  D07,  D08,  D09,  D10,  D11,  D12,  E01,  E02,  E03,  E04,  E05,  E06,  E07,  E08,  E09,  E10,  E11,  E12,  F01,  F02,  F03,  F04,  F05,  F06,  F07,  F08,  F09,  F10,  F11,  F12,  G01,  G02,  G03,  G04,  G05,  G06,  G07,  G08,  G09,  G10,  G11,  G12,  H01,  H02,  H03,  H04,  H05,  H06,  H07,  H08,  H09,  H10,  H11,  H12
0,0.01,10,0.01,0,0.01,0,0.01,0,0.01,0,0.01,0,0.01,0,0.01,0,0.01,0,0.01,0,0.01,0,0.01,0,0.01,0,0.01,0,0.01,0,0.01,0,0.01,0,0.01,0,0.01,0,0.01,0,0.01,0,0.01,0,0.01,0,0.01,0,0.01,0,0.01,0,0.01,0,0.01,0,0.01,0,0.01,0,0.01,0,0.01,0,0.01,0,0.01,0,0.01,0,0.01,0,0.01,0,0.01,0,0.01,0,0.01,0,0.01,0,0.01,3,0.01,0,0.01,0,0.01,0,0.01,0,0.01,0,0.01,0
0.25,0.01,6,0.01,0,0.01,0,0.01,0,0.01,0,0.01,0,0.01,0,0.01,0,0.01,0,0.01,0,0.01,0,0.01,0,0.01,0,0.01,2,0.01,0,0.01,0,0.01,0,0.01,0,0.01,0,0.01,0,0.01,0,0.01,0,0.01,0,0.01,0,0.01,0,0.01,0,0.01,0,0.01,0,0.01,0,0.01,0,0.01,0,0.01,0,0.01,0,0.01,0,0.01,0,0.01,0,0.01,0,0.01,0,0.01,0,0.01,0,0.01,0,0.01,0,0.01,0,0.01,0,0.01,0,0.01,0,0.01,0,0.01,0
0.5,0.01,6,0.01,0,0.01,0,0.01,0,0.01,0,0.01,0,0.01,0,0.01,0,0.01,0,0.01,0,0.01,0,0.01,0,0.01,0,0.01,2,0.01,0,0.01,0,0.01,0,0.01,0,0.01,0,0.01,0,0.01,0,0.01,0,0.01,0,0.01,0,0.01,0,0.01,0,0.01,0,0.01,0,0.01,0,0.01,0,0.01,0,0.01,0,0.01,0,0.01,0,0.01,0,0.01,0,0.01,0,0.01,0,0.01,0,0.01,0,0.01,0,0.01,0,0.01,0,0.01,0,0.01,0,0.01,0,0.01,0,0.01,0
0.75,0.01,7,0.01,0,0.01,0,0.01,0,0.01,0,0.01,0,0.01,0,0.01,0,0.01,0,0.01,0,0.01,0,0.01,0,0.01,0,0.01,2,0.01,0,0.01,0,0.01,0,0.01,0,0.01,0,0.01,0,0.01,0,0.01,0,0.01,0,0.01,0,0.01,0,0.01,0,0.01,0,0.01,0,0.01,0,0.01,0,0.01,0,0.01,0,0.01,0,0.01,0,0.01,0,0.01,0,0.01,0,0.01,0,0.01,0,0.01,0,0.01,0,0.01,0,0.01,0,0.01,0,0.01,0,0.01,0,0.01,0,0.01,0
1,0.01,8,0.01,0,0.01,0,0.01,0,0.01,0,0.01,0,0.01,0,0.01,0,0.01,0,0.01,0,0.01,0,0.01,0,0.01,0,0.01,0,0.01,0,0.01,0,0.01,0,0.01,0,0.01,0,0.01,0,0.01,0,0.01,0,0.01,0,0.01,0,0.01,0,0.01,0,0.01,0,0.01,0,0.01,0,0.01,0,0.01,0,0.01,0,0.01,0,0.01,0,0.01,0,0.01,0,0.01,0,0.01,0,0.01,0,0.01,0,0.01,0,0.01,0,0.01,0,0.01,0,0.01,0,0.01,0,0.01,0,0.01,0
1.25,0.01,4,0.01,0,0.01,0,0.01,0,0.01,0,0.01,0,0.01,0,0.01,0,0.01,0,0.01,0,0.01,0,0.01,0,0.01,0,0.01,0,0.01,0,0.01,0,0.01,0,0.01,0,0.01,0,0.01,0,0.01,0,0.01,0,0.01,0,0.01,0,0.01,0,0.01,0,0.01,0,0.01,0,0.01,0,0.01,0,0.01,0,0.01,0,0.01,0,0.01,0,0.01,0,0.01,0,0.01,0,0.01,0,0.01,0,0.01,0,0.01,0,0.01,0,0.01,0,0.01,0,0.01,0,0.01,0,0.01,0,0.01,0
1.5,0.01,0,0.01,0,0.01,0,0.01,0,0.01,0,0.01,0,0.01,0,0.01,0,0.01,0,0.01,0,0.01,0,0.01,0,0.01,0,0.01,0,0.01,0,0.01,0,0.01,0,0.01,0,0.01,0,0.01,0,0.01,0,0.01,0,0.01,0,0.01,0,0.01,0,0.01,0,0.01,0,0.01,0,0.01,0,0.01,0,0.01,0,0.01,0,0.01,0,0.01,0,0.01,0,0.01,0,0.01,0,0.01,0,0.01,0,0.01,0,0.01,0,0.01,0,0.01,0,0.01,0,0.01,0,0.01,0,0.01,0,0.01,0
1.75,0.01,0,0.01,0,0.01,0,0.01,1,0.01,0,0.01,0,0.01,0,0.01,0,0.01,0,0.01,0,0.01,0,0.01,0,0.01,0,0.01,0,0.01,0,0.01,0,0.01,0,0.01,0,0.01,0,0.01,0,0.01,0,0.01,0,0.01,0,0.01,0,0.01,0,0.01,0,0.01,0,0.01,0,0.01,0,0.01,0,0.01,0,0.01,0,0.01,0,0.01,0,0.01,0,0.01,0,0.01,0,0.01,0,0.01,0,0.01,0,0.01,0,0.01,0,0.01,0,0.01,0,0.01,0,0.01,0,0.01,0,0.01,0
2,0.01,0,0.01,0,0.01,0,0.01,0,0.01,0,0.01,0,0.01,0,0.01,0,0.01,0,0.01,0,0.01,0,0.01,0,0.01,0,0.01,0,0.01,0,0.01,0,0.01,0,0.01,0,0.01,0,0.01,0,0.01,0,0.01,0,0.01,0,0.01,0,0.01,0,0.01,0,0.01,0,0.01,0,0.01,0,0.01,0,0.01,0,0.01,0,0.01,0,0.01,0,0.01,0,0.01,0,0.01,0,0.01,0,0.01,0,0.01,0,0.01,0,0.01,0,0.01,0,0.01,0,0.01,0,0.01,0,0.01,0,0.01,0
2.25,0.01,0,0.01,0,2,1,0.01,0,0.01,0,0.01,0,0.01,0,1,0.01,0,0.01,0,0.01,4,0.01,0,0.01,0,0.01,0,0.01,0,0.01,0,0.01,0,0.01,0,0.01,0,0.01,0,0.01,0,0.01,0,0.01,0,0.01,0,0.01,0,0.01,0,0.01,0,0.01,0,0.01,0,0.01,0,0.01,0,0.01,0,0.01,0,0.01,0,0.01,0,0.01,0,2,0.01,0,0.01,0,0.01,0,0.01,0,0.01,0,0.01,0,0.01,0,0.01,0,0.01,0,0.01,0,0.01,0,0.01,0
2.5,0.01,0,0.01,0,4,7,0.01,5,0.01,0,0.01,0,0.01,0,3,0.01,0,0.01,0,0.01,11,1,0.01,0,0.01,0,0.01,0,0.01,0,0.01,0,0.01,0,0.01,0,0.01,0,0.01,0,0.01,0,0.01,0,0.01,0,0.01,0,0.01,0,0.01,0,0.01,0,0.01,0,0.01,0,0.01,1,0.01,0,0.01,0,0.01,0,0.01,0,0.01,0,0.01,13,0.01,0,0.01,0,0.01,0,0.01,0,0.01,0,0.01,4,0.01,0,0.01,0,0.01,0,0.01,0,0.01,0,0.01,0
2.75,0.01,3,0.01,0,10,12,3,5,0.01,0,0.01,0,0.01,0,9,2,0.01,0,0.01,0,16,6,0.01,0,0.01,0,0.01,0,0.01,0,0.01,0,0.01,0,0.01,0,0.01,0,0.01,0,0.01,0,0.01,0,0.01,0,0.01,0,0.01,0,0.01,0,0.01,0,0.01,0,0.01,0,0.01,4,0.01,0,0.01,0,0.01,0,0.01,0,0.01,0,0.01,14,0.01,0,0.01,0,0.01,0,0.01,0,0.01,0,0.01,7,0.01,0,0.01,0,0.01,0,0.01,0,0.01,0,0.01,0
3,0.01,6,0.01,0,12,14,3,5,0.01,0,0.01,0,0.01,0,12,4,0.01,0,1,0.01,21,9,0.01,0,0.01,0,0.01,0,0.01,0,0.01,0,0.01,3,0.01,0,0.01,0,0.01,0,0.01,0,0.01,3,0.01,0,1,0.01,0,0.01,0,0.01,0,0.01,0,0.01,0,0.01,0,13,0.01,0,0.01,0,0.01,0,0.01,0,0.01,0,0.01,18,0.01,0,0.01,0,0.01,0,0.01,1,0.01,0,1,12,0.01,0,0.01,0,0.01,0,0.01,0,0.01,0,0.01,0
3.25,0.01,10,0.01,0,14,18,4,6,0.01,1,0.01,0,0.01,0,16,9,0.01,0,1,0.01,28,12,0.01,0,0.01,0,0.01,0,0.01,0,0.01,0,0.01,5,0.01,0,0.01,0,0.01,0,0.01,0,0.01,5,0.01,0,2,1,0.01,0,2,0.01,0,0.01,0,0.01,0,0.01,0,15,0.01,0,0.01,0,0.01,0,0.01,0,0.01,0,0.01,20,4,0.01,0,0.01,0,0.01,0,3,0.01,0,5,16,2,0.01,0,0.01,0,0.01,0,1,0.01,0,0.01,0
3.5,0.01,13,0.01,0,14,19,8,9,1,9,5,0.01,0,0.01,17,11,1,0.01,4,0.01,36,15,0.01,0,0.01,0,1,3,0.01,0,0.01,2,0.01,11,0.01,0,0.01,0,0.01,0,0.01,0,2,9,0.01,0,14,12,0.01,0,5,0.01,0,0.01,0,0.01,0,0.01,5,26,0.01,0,0.01,0,0.01,0,0.01,0,0.01,0,0.01,34,6,0.01,2,0.01,0,0.01,0,8,0.01,0,10,21,8,0.01,0,0.01,0,0.01,3,9,0.01,0,0.01,0
3.75,0.01,19,0.01,0,17,21,8,9,1,12,5,0.01,0,0.01,26,15,2,0.01,4,0.01,40,17,0.01,0,0.01,0,1,3,0.01,0,0.01,3,0.01,13,0.01,0,0.01,0,0.01,0,0.01,0,4,9,0.01,0,14,12,0.01,0,8,0.01,0,0.01,0,0.01,0,0.01,7,28,0.01,0,0.01,0,0.01,0,0.01,0,0.01,0,0.01,36,8,0.01,12,0.01,0,0.01,0,8,0.01,0,10,21,11,0.01,0,0.01,0,0.01,3,9,0.01,0,0.01,0
4,0.01,23,0.01,0,17,21,9,12,5,22,10,0.01,0,0.01,30,17,8,0.01,5,0.01,46,20,0.01,0,0.01,0,2,6,0.01,0,0.01,6,0.01,19,1,3,0.01,0,0.01,0,0.01,0,4,12,0.01,0,23,16,0.01,0,10,0.01,0,0.01,0,0.01,0,0.01,12,33,0.01,0,0.01,0,0.01,0,0.01,0,0.01,0,0.01,44,9,0.01,17,0.01,0,0.01,0,9,1,0.01,16,25,16,0.01,0,0.01,0,0.01,8,15,1,0.01,0,0
4.25,0.01,27,0.01,0,17,21,10,13,5,22,15,0.01,0,0.01,34,22,10,0.01,5,0.01,52,23,0.01,0,0.01,0,4,6,0.01,0,0.01,6,0.01,23,3,6,0.01,0,0.01,0,0.01,0,5,18,0.01,0,25,16,0.01,0,10,0.01,0,0.01,0,0.01,0,0.01,20,35,0.01,0,0.01,0,0.01,0,0.01,0,0.01,0,0.01,44,9,0.01,20,0.01,0,0.01,0,10,1,0.01,16,25,16,0.01,0,0.01,0,0.01,8,15,1,0.01,0,0
4.5,0.01,36,3,0.01,19,24,11,13,5,26,15,0.01,0,0.01,43,27,18,0.01,6,0.01,60,27,0.01,0,1,0.01,6,11,0.01,0,0.01,9,0.01,28,7,8,0.01,0,0.01,0,0.01,0,9,24,4,0.01,29,16,0.01,0,17,0.01,0,0.01,3,1,0.01,1,26,39,0.01,0,0.01,0,0.01,0,2,0.01,0,0.01,0,44,11,0.01,28,0.01,0,0.01,0,19,5,0.01,18,26,22,0.01,0,0.01,0,0.01,11,19,6,0.01,0,0
4.75,0.01,41,6,0.01,19,24,11,15,5,32,20,0.01,0,0.01,49,32,21,0.01,8,2,64,29,0.01,0,3,0.01,7,15,0.01,0,0.01,10,0.01,34,9,12,0.01,0,0.01,0,0.01,0,9,27,8,0.01,33,20,0.01,0,21,0.01,0,0.01,3,2,0.01,3,29,45,0.01,0,0.01,0,0.01,0,4,0.01,0,0.01,0,47,12,0.01,34,0.01,0,0.01,0,19,5,0.01,19,28,26,0.01,0,0.01,0,0.01,11,23,9,0.01,0,0
5,0.01,46,10,0.01,19,25,12,16,5,32,20,0.01,0,0.01,55,37,23,1,8,4,67,31,0.01,0,5,0.01,7,20,0.01,0,0.01,11,0.01,35,9,12,0.01,0,0.01,0,0.01,0,10,31,10,0.01,33,20,0.01,0,22,0.01,0,0.01,3,2,0.01,9,34,46,0.01,0,0.01,0,0.01,0,8,0.01,0,0.01,0,47,12,0.01,36,0.01,0,2,0.01,20,5,0.01,19,28,27,0.01,0,0.01,0,0.01,11,26,10,2,0.01,0
5.25,0.01,50,11,0.01,19,26,12,18,6,38,25,0.01,0,0.01,59,39,28,3,8,6,69,32,0.01,0,6,0.01,7,22,0.01,0,0.01,12,0.01,39,13,17,0.01,0,0.01,0,0.01,0,10,35,12,0.01,38,24,0.01,0,24,0.01,0,0.01,3,2,0.01,9,38,52,0.01,0,0.01,0,0.01,0,8,0.01,0,0.01,0,52,13,0.01,42,0.01,0,4,0.01,20,5,0.01,20,30,32,0.01,0,0.01,0,0.01,13,30,14,4,0.01,0
5.5,0.01,58,15,0.01,19,27,13,18,6,42,25,0.01,0,0.01,65,43,32,4,9,13,71,33,0.01,0,10,0.01,7,28,0.01,0,0.01,16,0.01,39,13,18,0.01,0,0.01,0,0.01,0,10,35,14,0.01,40,24,0.01,0,27,0.01,0,0.01,3,4,0.01,11,38,57,0.01,0,0.01,0,0.01,0,8,0.01,0,0.01,0,55,14,0.01,46,0.01,0,9,0.01,20,6,0.01,20,32,38,0.01,0,0.01,0,0.01,13,33,19,10,0.01,0
5.75,0.01,59,17,0.01,19,29,13,24,6,44,26,0.01,0,0.01,73,47,36,6,9,14,76,33,0.01,0,10,0.01,7,32,0.01,0,0.01,16,0.01,44,15,19,0.01,0,0.01,0,0.01,0,10,38,18,0.01,40,25,0.01,0,28,0.01,0,0.01,3,4,0.01,14,43,58,0.01,0,0.01,0,0.01,0,10,0.01,0,0.01,0,55,14,0.01,46,0.01,0,13,0.01,20,6,0.01,20,32,38,0.01,0,0.01,0,0.01,13,34,19,10,0.01,0
6,0.01,63,22,0.01,20,31,14,30,8,50,32,0.01,0,0.01,79,52,38,10,9,18,78,36,1,0.01,14,0.01,7,38,0.01,0,3,18,3,47,18,24,0.01,0,0.01,0,0.01,0,10,39,20,1,44,29,0.01,0,32,1,0.01,0,3,4,0.01,18,48,63,0.01,0,0.01,0,0.01,0,13,0.01,0,0.01,0,58,14,0.01,52,0.01,1,15,0.01,20,7,2,20,32,39,0.01,0,0.01,0,0.01,13,37,23,13,0.01,0
6.25,0.01,70,26,0.01,22,36,17,33,10,55,33,0.01,0,0.01,86,56,47,16,10,24,85,37,4,0.01,20,0.01,9,46,0.01,0,7,21,6,51,21,26,0.01,0,0.01,0,0.01,0,12,43,23,4,49,33,0.01,0,37,8,0.01,0,4,6,0.01,23,52,66,0.01,0,0.01,0,0.01,0,15,0.01,0,0.01,0,64,14,0.01,54,0.01,3,23,0.01,20,8,6,23,34,42,0.01,0,0.01,0,0.01,14,42,28,18,0.01,0
6.5,0.01,76,27,0.01,22,37,17,33,13,59,39,0.01,0,0.01,93,59,49,16,11,26,90,41,6,0.01,29,0.01,10,54,0.01,0,8,22,10,55,24,30,0.01,0,0.01,0,0.01,0,12,44,23,5,52,37,0.01,0,38,16,0.01,0,5,6,0.01,23,58,72,0.01,0,0.01,0,0.01,0,19,0.01,0,0.01,0,66,14,0.01,60,0.01,5,24,0.01,20,8,10,25,36,43,0.01,0,0.01,0,0.01,16,48,29,21,0.01,0
6.75,0.01,79,31,0.01,22,41,17,33,13,60,39,0.01,0,0.01,98,63,55,17,11,29,92,41,8,0.01,41,0.01,12,60,0.01,0,12,23,12,56,25,30,0.01,0,0.01,0,0.01,0,14,44,27,5,53,37,0.01,0,42,27,0.01,0,5,8,0.01,26,58,75,0.01,0,0.01,0,0.01,0,21,0.01,0,0.01,0,66,14,0.01,62,0.01,6,27,0.01,20,8,17,25,36,44,0.01,0,0.01,0,0.01,16,48,32,23,0.01,0
7,0.01,79,31,0.01,22,42,17,33,13,60,39,0.01,0,0.01,98,63,56,17,11,29,93,41,8,0.01,46,0.01,12,64,0.01,0,12,23,12,56,25,30,0.01,0,0.01,0,0.01,0,14,44,27,5,55,37,0.01,0,42,33,0.01,0,5,8,0.01,26,59,75,0.01,0,0.01,0,0.01,0,21,0.01,0,0.01,0,66,14,0.01,62,0.01,6,27,0.01,20,8,18,25,36,44,0.01,0,0.01,0,0.01,16,49,32,23,0.01,0
7.25,0.01,84,35,0.01,22,50,17,33,13,61,39,0.01,0,0.01,104,65,61,19,11,33,98,41,8,0.01,56,0.01,12,69,0.01,0,13,25,13,59,25,30,0.01,0,0.01,0,0.01,0,14,46,29,5,56,37,0.01,0,45,46,0.01,0,5,8,0.01,30,64,79,0.01,0,0.01,0,0.01,0,22,0.01,0,0.01,0,66,14,0.01,66,0.01,6,29,0.01,20,8,27,25,36,44,0.01,0,0.01,0,0.01,16,52,34,28,0.01,0
7.5,0.01,87,35,0.01,22,52,17,33,17,64,41,0.01,0,0.01,106,69,64,22,13,37,104,41,9,0.01,60,0.01,12,74,0.01,0,16,26,16,62,27,35,0.01,0,0.01,0,0.01,0,14,46,29,5,60,37,0.01,0,46,56,0.01,0,5,8,0.01,32,69,81,0.01,0,0.01,0,0.01,0,23,0.01,0,0.01,0,71,14,0.01,69,0.01,6,35,0.01,20,8,33,26,36,44,0.01,0,0.01,0,0.01,16,57,36,31,0.01,0
7.75,0.01,92,39,0.01,22,58,18,33,17,72,45,0.01,0,0.01,113,71,68,23,13,41,107,41,11,0.01,69,0.01,12,78,0.01,0,16,30,19,65,30,37,0.01,0,0.01,0,0.01,0,14,49,32,6,65,39,0.01,0,49,66,0.01,0,5,8,0.01,33,72,86,0.01,0,0.01,0,0.01,0,28,0.01,0,0.01,0,77,14,0.01,73,0.01,6,37,0.01,20,8,35,26,36,45,0.01,0,0.01,0,0.01,16,61,42,35,0.01,0
8,0.01,92,39,0.01,22,59,18,33,17,72,45,0.01,0,0.01,113,71,68,23,13,41,107,41,11,0.01,74,0.01,12,78,0.01,0,16,30,19,65,30,37,0.01,0,0.01,0,0.01,0,14,49,32,6,65,39,0.01,0,49,71,0.01,0,5,8,0.01,34,72,86,0.01,0,0.01,0,0.01,0,28,0.01,0,0.01,0,77,14,0.01,73,0.01,6,38,0.01,20,8,37,26,36,45,0.01,0,0.01,0,0.01,16,61,42,35,0.01,0
8.25,0.01,94,39,0.01,22,65,18,33,17,72,45,0.01,0,0.01,113,74,71,25,13,41,111,41,11,0.01,74,0.01,12,83,0.01,0,18,30,19,67,30,37,0.01,0,0.01,0,0.01,0,14,50,32,6,68,39,0.01,0,49,78,0.01,0,5,8,0.01,36,77,91,0.01,0,0.01,0,0.01,0,28,0.01,0,0.01,0,78,14,0.01,73,0.01,6,38,0.01,20,8,42,26,36,45,0.01,0,0.01,0,0.01,16,62,42,37,0.01,0
8.5,0.01,97,40,0.01,22,69,18,33,17,72,45,0.01,0,0.01,118,74,75,30,13,43,115,41,11,0.01,79,0.01,12,87,0.01,0,20,31,19,67,30,37,0.01,0,0.01,0,0.01,0,14,50,32,6,68,39,0.01,0,52,84,0.01,0,5,8,0.01,39,79,92,0.01,0,0.01,0,0.01,0,28,0.01,0,0.01,0,79,14,0.01,77,0.01,6,39,0.01,20,8,43,26,36,45,0.01,0,0.01,0,0.01,16,64,43,41,0.01,0
8.75,0.01,102,46,0.01,23,79,18,33,17,79,45,0.01,0,0.01,119,81,81,39,14,48,121,41,15,0.01,83,0.01,12,93,0.01,0,24,34,23,73,34,39,0.01,0,0.01,0,0.01,0,16,53,37,6,74,39,0.01,0,57,91,0.01,0,5,8,0.01,43,86,99,0.01,0,0.01,0,0.01,0,29,0.01,0,0.01,0,83,14,0.01,82,0.01,6,47,0.01,20,8,49,26,36,45,0.01,0,0.01,0,0.01,16,70,48,90,0.01,0
9,0.01,108,48,0.01,24,85,23,33,19,84,51,0.01,0,2,124,84,88,49,17,52,127,46,21,0.01,88,0.01,16,99,0.01,0,28,40,25,77,38,44,0.01,0,0.01,0,0.01,0,17,58,41,9,82,47,0.01,0,60,98,0.01,0,5,11,0.01,48,93,106,0.01,0,0.01,0,0.01,0,37,0.01,0,0.01,0,89,14,0.01,87,0.01,6,52,0.01,20,10,55,28,41,45,0.01,0,0.01,0,0.01,16,79,55,90,0.01,0
9.25,0.01,109,48,0.01,25,90,23,33,21,87,53,0.01,0,2,126,87,91,56,17,54,131,46,21,0.01,88,0.01,16,102,2,1,30,42,27,81,40,44,0.01,0,0.01,0,0.01,0,19,60,42,9,85,47,0.01,0,62,102,0.01,0,7,11,0.01,49,98,109,0.01,0,0.01,0,0.01,0,39,0.01,0,0.01,0,92,14,0.01,88,0.01,6,52,0.01,20,10,55,28,42,45,0.01,0,0.01,0,0.01,18,79,57,90,0.01,0
9.5,0.01,110,48,0.01,25,91,23,33,21,89,54,0.01,0,2,126,90,97,61,17,55,134,46,21,0.01,88,0.01,16,105,2,1,31,42,27,83,41,48,0.01,0,0.01,0,0.01,0,19,61,43,9,86,49,0.01,0,65,104,0.01,0,7,11,0.01,50,105,111,0.01,0,0.01,0,0.01,0,39,0.01,0,0.01,0,93,14,0.01,89,0.01,6,52,0.01,20,11,57,39,42,45,0.01,0,0.01,0,0.01,18,83,58,90,0.01,0
9.75,0.01,115,52,0.01,25,98,23,33,21,90,54,0.01,0,2,131,90,103,71,18,59,137,46,22,0.01,91,0.01,16,112,3,1,34,46,29,84,41,48,0.01,0,0.01,0,0.01,0,20,64,45,9,87,49,0.01,0,69,108,0.01,0,7,11,0.01,55,114,113,0.01,0,0.01,0,0.01,0,41,0.01,0,0.01,0,93,14,0.01,94,0.01,7,55,0.01,20,11,60,39,43,47,0.01,0,0.01,0,0.01,18,85,60,90,0.01,0
10,0.01,115,52,0.01,25,98,23,33,21,92,54,0.01,0,2,131,90,106,75,18,59,139,46,22,0.01,93,0.01,16,112,3,1,34,46,29,84,42,48,0.01,0,0.01,0,0.01,0,20,64,45,9,90,49,0.01,0,69,110,0.01,0,7,11,0.01,55,120,115,0.01,0,0.01,0,0.01,0,41,0.01,0,0.01,0,97,14,0.01,95,0.01,7,57,0.01,20,11,60,39,43,47,0.01,0,0.01,0,0.01,18,88,63,90,0.01,0
10.25,0.01,116,55,0.01,25,106,23,33,21,92,54,0.01,0,3,132,95,114,84,18,61,142,46,24,0.01,94,0.01,16,115,3,1,38,49,31,88,44,49,0.01,0,0.01,0,0.01,0,21,66,48,9,90,49,0.01,0,74,112,0.01,0,7,11,0.01,58,128,118,0.01,0,0.01,0,0.01,0,41,0.01,0,0.01,0,97,14,0.01,98,0.01,7,60,0.01,20,11,63,39,43,47,0.01,0,0.01,0,0.01,18,88,66,92,0.01,0
10.5,0.01,119,55,0.01,25,107,26,33,22,97,60,0.01,0,3,136,96,119,91,18,64,148,46,26,0.01,94,0.01,16,120,3,1,38,53,32,90,50,52,0.01,0,0.01,0,0.01,0,23,69,48,11,95,53,0.01,0,75,116,0.01,0,7,11,0.01,58,133,122,0.01,0,0.01,0,0.01,0,48,0.01,0,0.01,0,104,14,0.01,100,0.01,7,64,0.01,20,11,67,39,45,47,0.01,0,0.01,0,0.01,18,92,71,99,0.01,0
10.75,0.01,122,55,0.01,25,113,26,33,22,99,60,0.01,0,3,137,98,124,96,18,65,151,46,26,0.01,95,0.01,16,124,3,1,41,54,32,92,50,54,0.01,0,0.01,0,0.01,0,23,71,49,11,96,53,0.01,0,75,119,0.01,0,7,12,0.01,60,138,122,0.01,0,0.01,0,0.01,0,49,0.01,0,0.01,0,105,14,0.01,102,0.01,7,64,0.01,20,11,67,39,45,47,0.01,0,0.01,0,0.01,18,92,71,102,0.01,0
11,0.01,123,58,0.01,26,116,26,33,22,99,60,0.01,0,3,139,102,132,107,18,69,154,46,29,0.01,102,0.01,17,128,3,2,43,55,34,93,50,54,0.01,0,0.01,0,0.01,0,23,73,52,11,100,53,0.01,0,80,121,0.01,0,7,12,0.01,60,143,123,0.01,0,0.01,0,0.01,0,49,0.01,0,0.01,0,105,14,0.01,106,0.01,7,68,0.01,20,11,69,39,45,47,0.01,0,0.01,0,0.01,18,94,75,111,0.01,0
11.25,0.01,126,58,0.01,26,117,26,33,22,101,60,0.01,0,3,141,102,135,110,18,69,158,46,30,0.01,102,0.01,17,131,3,2,44,57,34,96,53,55,0.01,0,0.01,0,0.01,0,24,77,52,11,102,54,0.01,0,81,121,0.01,0,7,12,0.01,62,143,123,0.01,0,0.01,0,0.01,0,52,0.01,0,0.01,0,107,14,0.01,106,0.01,7,68,0.01,20,11,70,39,46,47,0.01,0,0.01,0,0.01,18,94,75,113,0.01,0
11.5,0.01,126,58,0.01,26,118,26,33,22,102,62,0.01,0,3,141,102,139,113,18,69,158,46,30,0.01,102,0.01,17,132,3,2,44,57,34,96,53,55,0.01,0,0.01,0,0.01,0,24,77,52,11,103,54,0.01,0,82,122,0.01,0,7,12,0.01,62,146,123,0.01,0,0.01,0,0.01,0,52,0.01,0,0.01,0,108,14,0.01,107,0.01,7,69,0.01,20,11,70,39,46,47,0.01,0,0.01,0,0.01,18,96,76,118,0.01,0
11.75,0.01,127,58,0.01,26,123,26,33,23,102,63,0.01,0,3,141,104,143,120,18,70,162,46,30,0.01,102,0.01,17,136,3,2,46,62,34,101,55,56,0.01,0,0.01,0,0.01,0,25,80,52,11,105,56,0.01,0,91,123,0.01,0,7,12,0.01,63,148,123,0.01,0,0.01,0,0.01,0,55,0.01,0,0.01,0,113,14,0.01,107,0.01,7,69,0.01,20,11,70,39,47,47,0.01,0,0.01,0,0.01,18,96,81,122,0.01,0
12,0.01,129,58,0.01,26,125,26,33,23,106,67,0.01,0,3,143,105,148,125,18,74,165,46,32,0.01,102,0.01,17,139,3,3,48,63,35,102,58,58,0.01,0,0.01,0,0.01,0,25,81,52,11,109,56,0.01,0,96,129,0.01,0,7,12,0.01,65,155,124,0.01,0,0.01,0,0.01,0,57,0.01,0,0.01,0,116,14,0.01,112,0.01,7,73,0.01,20,11,75,39,47,47,0.01,0,0.01,0,0.01,18,99,84,130,0.01,0
12.25,0.01,130,58,0.01,26,126,26,33,23,106,67,0.01,0,3,144,105,150,128,18,74,166,46,32,0.01,102,0.01,17,141,3,3,48,64,35,102,58,58,0.01,0,0.01,0,0.01,0,25,82,52,11,109,56,0.01,0,100,129,0.01,0,7,12,0.01,66,156,124,0.01,0,0.01,0,0.01,0,57,0.01,0,0.01,0,116,14,0.01,112,0.01,7,73,0.01,20,11,75,39,47,47,0.01,0,0.01,0,0.01,18,99,85,131,0.01,0
12.5,0.01,136,65,0.01,26,135,33,33,26,111,72,0.01,0,3,150,114,158,138,24,80,174,51,38,0.01,102,0.01,20,148,5,6,56,73,40,108,64,64,0.01,0,0.01,0,0.01,0,31,91,57,15,117,79,0.01,0,110,135,0.01,0,9,15,0.01,76,163,127,0.01,0,0.01,0,0.01,0,66,0.01,0,0.01,0,124,14,0.01,118,0.01,7,82,0.01,20,11,83,39,54,47,0.01,0,0.01,0,0.01,20,100,95,140,0.01,0
12.75,0.01,137,65,0.01,27,136,33,33,26,111,72,0.01,0,3,151,114,160,141,24,81,174,51,39,0.01,102,0.01,20,149,5,6,56,73,40,108,64,64,0.01,0,0.01,0,0.01,0,31,91,58,15,117,109,0.01,0,110,138,0.01,0,9,15,0.01,77,164,127,0.01,0,0.01,0,0.01,0,66,0.01,0,0.01,0,124,14,0.01,119,0.01,7,82,0.01,20,11,83,39,54,47,0.01,0,0.01,0,0.01,20,100,95,144,0.01,0
13,0.01,140,65,0.01,27,140,33,33,26,111,72,0.01,0,3,151,116,164,149,24,82,177,51,42,0.01,102,0.01,20,152,5,6,58,74,41,109,64,64,0.01,0,0.01,0,0.01,0,31,95,60,15,118,109,0.01,0,113,139,0.01,0,9,15,0.01,84,168,127,0.01,0,0.01,0,0.01,0,66,0.01,0,0.01,0,124,14,0.01,120,0.01,7,84,0.01,20,11,86,39,54,47,0.01,0,0.01,0,0.01,20,100,98,148,0.01,0
13.25,0.01,140,67,0.01,29,141,37,33,30,115,78,0.01,0,3,155,118,168,150,24,85,179,51,42,0.01,102,0.01,21,156,5,6,60,80,41,114,69,67,0.01,0,0.01,0,0.01,0,36,97,60,16,123,109,0.01,0,116,140,0.01,0,9,17,0.01,84,168,128,0.01,0,0.01,0,0.01,0,73,0.01,0,0.01,1,131,14,0.01,122,0.01,7,87,0.01,20,12,90,39,57,47,0.01,0,0.01,0,0.01,21,101,102,151,0.01,0
13.5,0.01,140,67,0.01,29,143,37,33,30,115,78,0.01,0,3,155,118,170,153,24,85,181,51,42,0.01,102,0.01,21,159,5,6,60,81,41,114,69,67,0.01,0,0.01,0,0.01,0,36,97,60,16,123,109,0.01,0,116,142,0.01,0,9,17,0.01,85,169,128,0.01,0,0.01,0,0.01,0,73,0.01,0,0.01,1,131,14,0.01,122,0.01,7,88,0.01,20,12,90,39,57,47,0.01,0,0.01,0,0.01,21,101,102,152,0.01,0
13.75,0.01,141,67,0.01,29,143,37,33,30,115,78,0.01,0,3,155,118,172,157,24,85,181,51,42,0.01,102,0.01,21,161,5,6,60,81,41,114,69,67,0.01,0,0.01,0,0.01,0,36,97,60,16,123,109,0.01,0,118,142,0.01,0,9,17,0.01,86,172,128,0.01,0,0.01,0,0.01,0,73,0.01,0,0.01,1,131,14,0.01,124,0.01,7,88,0.01,20,12,90,39,57,47,0.01,0,0.01,0,0.01,21,101,104,156,0.01,0
14,0.01,141,67,0.01,29,147,37,33,30,116,78,0.01,0,3,156,119,175,159,24,86,182,51,42,0.01,102,0.01,21,161,5,6,60,81,41,115,69,67,0.01,0,0.01,0,0.01,0,36,98,60,16,123,109,0.01,0,121,145,0.01,0,9,17,0.01,90,173,128,0.01,0,0.01,0,0.01,0,73,0.01,0,0.01,1,132,14,0.01,126,0.01,7,91,0.01,20,12,93,39,57,47,0.01,0,0.01,0,0.01,21,101,105,159,0.01,0
14.25,0.01,145,71,0.01,34,152,41,33,30,121,80,0.01,0,3,160,123,180,165,25,90,188,51,44,0.01,102,0.01,22,164,5,6,66,88,45,118,72,67,0.01,0,0.01,0,0.01,0,39,105,66,16,128,109,0.01,0,125,149,0.01,0,9,18,0.01,98,178,128,0.01,0,0.01,0,0.01,0,77,0.01,0,0.01,1,139,14,0.01,129,0.01,7,97,0.01,20,12,98,45,61,47,0.01,0,0.01,0,0.01,21,102,110,165,0.01,0
14.5,0.01,148,73,0.01,36,154,41,33,30,122,80,0.01,0,3,160,123,182,169,25,95,188,51,49,0.01,102,0.01,22,167,5,7,67,88,45,118,72,67,0.01,0,0.01,0,0.01,0,39,105,68,16,128,109,0.01,0,131,153,0.01,0,12,18,0.01,98,180,129,0.01,0,0.01,0,0.01,0,77,0.01,0,0.01,1,140,14,0.01,133,0.01,7,99,0.01,20,12,103,45,61,47,0.01,0,0.01,0,0.01,21,103,115,168,0.01,0
14.75,0.01,148,73,0.01,36,154,41,33,30,122,80,0.01,0,3,160,123,184,169,25,95,189,51,49,0.01,102,0.01,22,167,5,7,67,88,45,118,72,67,0.01,0,0.01,0,0.01,0,39,105,68,16,128,109,0.01,0,131,153,0.01,0,12,18,0.01,101,180,129,0.01,0,0.01,0,0.01,0,77,0.01,0,0.01,1,140,14,0.01,133,0.01,7,99,0.01,20,12,103,47,61,47,0.01,0,0.01,0,0.01,21,103,115,168,0.01,0
15,0.01,150,73,0.01,39,156,45,33,30,128,89,0.01,0,3,161,123,186,174,25,95,191,55,49,0.01,102,0.01,23,169,5,7,68,92,47,122,74,69,0.01,0,0.01,0,0.01,0,41,111,68,16,137,109,0.01,0,133,157,0.01,0,12,18,0.01,104,185,132,0.01,0,0.01,0,0.01,0,81,0.01,0,0.01,1,147,14,0.01,135,0.01,7,100,0.01,20,12,110,50,66,47,0.01,0,0.01,0,0.01,21,107,119,172,0.01,0
15.25,0.01,151,73,0.01,40,156,45,33,30,128,89,0.01,0,3,164,124,186,174,25,97,192,55,49,0.01,102,0.01,23,170,5,7,68,92,47,122,74,69,0.01,0,0.01,0,0.01,0,43,111,69,16,147,109,0.01,0,133,157,0.01,0,12,18,0.01,106,186,132,0.01,0,0.01,0,0.01,0,81,0.01,0,0.01,1,147,14,0.01,135,0.01,7,100,0.01,20,12,111,54,66,47,0.01,0,0.01,0,0.01,21,107,119,172,0.01,0
15.5,0.01,153,78,0.01,44,161,51,33,30,128,89,0.01,0,3,167,130,191,179,27,98,196,55,52,0.01,102,0.01,26,174,5,9,72,99,50,125,76,69,0.01,0,0.01,0,0.01,0,47,116,71,16,147,109,0.01,0,134,159,0.01,0,12,20,0.01,113,188,132,0.01,0,0.01,0,0.01,0,86,0.01,0,0.01,1,150,14,0.01,139,0.01,7,102,0.01,20,12,112,60,73,47,0.01,0,0.01,0,0.01,21,107,122,176,0.01,0
15.75,0.01,154,78,0.01,45,162,52,33,30,131,90,0.01,0,3,168,130,191,181,27,98,196,55,52,0.01,102,0.01,26,176,5,9,72,100,50,126,76,69,0.01,0,0.01,0,0.01,0,48,116,71,16,147,109,0.01,0,134,159,0.01,0,12,20,0.01,113,188,132,0.01,0,0.01,0,0.01,0,88,0.01,0,0.01,1,152,14,0.01,139,0.01,7,102,0.01,20,12,118,60,74,47,0.01,0,0.01,0,0.01,21,107,123,177,0.01,0
16,0.01,154,78,0.01,48,163,52,33,30,131,93,0.01,0,3,168,131,194,183,27,101,198,55,54,0.01,102,0.01,26,176,5,9,72,101,50,126,76,69,0.01,0,0.01,0,0.01,0,49,118,72,16,147,109,0.01,0,135,159,0.01,0,12,20,0.01,119,189,132,0.01,0,0.01,0,0.01,0,88,0.01,0,0.01,1,152,14,0.01,140,0.01,7,102,0.01,20,12,118,66,75,47,0.01,0,0.01,0,0.01,22,107,125,180,0.01,0
16.25,0.01,154,78,0.01,48,163,52,33,30,131,93,0.01,0,3,168,131,194,183,27,101,198,55,54,0.01,102,0.01,26,176,5,9,72,101,50,126,76,69,0.01,0,0.01,0,0.01,0,49,118,72,16,147,109,0.01,0,135,160,0.01,0,12,20,0.01,119,189,132,0.01,0,0.01,0,0.01,0,88,0.01,0,0.01,1,152,14,0.01,140,0.01,7,102,0.01,20,12,118,66,75,47,0.01,0,0.01,0,0.01,22,107,125,180,0.01,0
16.5,0.01,154,80,0.01,53,168,53,33,30,131,94,0.01,0,3,168,133,196,188,27,103,200,55,56,0.01,102,0.01,26,177,5,9,74,102,50,127,77,69,0.01,0,0.01,0,0.01,0,49,120,75,16,165,109,0.01,0,140,164,0.01,0,12,20,0.01,122,193,132,0.01,0,0.01,0,0.01,0,88,0.01,0,0.01,1,155,14,0.01,145,0.01,7,104,0.01,20,12,125,70,75,47,0.01,0,0.01,0,0.01,22,107,129,182,0.01,0
16.75,0.01,155,80,0.01,57,168,59,33,30,136,98,0.01,0,3,171,133,196,188,27,103,200,57,56,0.01,102,0.01,30,180,5,9,74,106,50,127,81,69,0.01,0,0.01,0,0.01,0,53,121,75,16,165,109,0.01,0,140,164,0.01,0,12,20,0.01,122,193,132,0.01,0,0.01,0,0.01,0,94,0.01,0,0.01,1,159,14,0.01,145,0.01,7,106,0.01,20,13,127,72,80,47,0.01,0,0.01,0,0.01,22,113,133,182,0.01,0
17,0.01,155,80,0.01,58,168,59,33,30,136,98,0.01,0,3,171,133,198,191,27,104,202,57,57,0.01,102,0.01,30,181,5,9,76,107,50,130,81,69,0.01,0,0.01,0,0.01,0,53,121,75,16,165,109,0.01,0,140,164,0.01,0,12,20,0.01,128,195,132,0.01,0,0.01,0,0.01,0,94,0.01,0,0.01,1,159,14,0.01,145,0.01,7,106,0.01,20,13,129,80,81,47,0.01,0,0.01,0,0.01,22,113,133,184,0.01,0
17.25,0.01,158,82,0.01,65,171,63,33,30,141,101,0.01,0,3,175,134,200,195,30,109,202,58,59,0.01,102,0.01,32,184,5,9,80,109,53,130,82,69,0.01,0,0.01,0,0.01,0,56,124,78,17,167,109,0.01,0,143,170,0.01,0,15,22,0.01,128,198,132,0.01,0,0.01,0,0.01,0,96,0.01,0,0.01,1,162,14,0.01,147,0.01,7,109,0.01,20,14,134,84,82,47,0.01,0,0.01,0,0.01,22,117,140,187,0.01,0
17.5,0.01,158,82,0.01,68,174,63,33,30,141,101,0.01,0,3,175,138,200,196,30,110,203,58,60,0.01,102,0.01,32,184,5,9,80,109,53,133,83,69,0.01,0,0.01,0,0.01,0,56,126,78,17,167,109,0.01,0,143,170,0.01,0,15,22,0.01,130,198,132,0.01,0,0.01,0,0.01,0,96,0.01,0,0.01,1,162,14,0.01,147,0.01,7,109,0.01,20,14,134,88,84,47,0.01,0,0.01,0,0.01,22,117,142,188,0.01,0
17.75,0.01,158,82,0.01,73,176,71,33,30,141,106,0.01,0,3,175,140,203,199,31,112,207,58,62,0.01,102,0.01,37,185,5,9,83,119,53,137,87,69,0.01,0,0.01,0,0.01,0,62,132,79,18,167,109,0.01,0,143,170,0.01,0,15,23,0.01,135,198,132,0.01,0,0.01,0,0.01,0,100,0.01,0,0.01,2,164,14,0.01,147,0.01,7,111,0.01,20,14,140,96,91,47,0.01,0,0.01,0,0.01,22,117,144,192,0.01,0
18,0.01,159,85,0.01,75,179,71,33,30,141,107,0.01,0,3,175,143,207,202,32,113,208,58,67,0.01,102,0.01,38,185,5,9,84,119,55,138,87,69,0.01,0,0.01,0,0.01,0,62,133,83,18,167,109,0.01,0,143,171,0.01,0,15,23,0.01,140,201,132,0.01,0,0.01,0,0.01,0,100,0.01,0,0.01,2,164,14,0.01,147,0.01,7,111,0.01,20,14,144,102,91,47,0.01,0,0.01,0,0.01,22,117,146,194,0.01,0
18.25,0.01,159,85,0.01,79,179,74,35,30,143,107,0.01,0,3,177,143,207,202,33,113,208,58,67,0.01,102,0.01,41,188,5,9,84,122,55,138,88,69,0.01,0,0.01,0,0.01,0,64,135,83,18,167,109,0.01,0,143,171,0.01,0,15,24,0.01,140,201,132,0.01,0,0.01,0,0.01,0,108,0.01,0,0.01,2,164,14,0.01,147,0.01,7,112,0.01,20,14,144,103,96,47,0.01,0,0.01,0,0.01,22,123,148,194,0.01,0
18.5,0.01,160,85,0.01,81,179,74,35,30,143,107,0.01,0,3,177,143,207,202,33,113,208,58,67,0.01,102,0.01,41,188,5,9,84,122,55,138,88,69,0.01,0,0.01,0,0.01,0,64,135,83,18,167,109,0.01,0,143,173,0.01,0,15,24,0.01,140,201,132,0.01,0,0.01,0,0.01,0,108,0.01,0,0.01,2,164,14,0.01,147,0.01,7,112,0.01,20,14,145,105,96,47,0.01,0,0.01,0,0.01,22,123,148,195,0.01,0
18.75,0.01,161,85,0.01,84,180,76,35,30,143,107,0.01,0,3,177,144,208,205,34,115,208,58,67,0.01,102,0.01,41,188,5,9,85,123,55,139,90,69,0.01,0,0.01,0,0.01,0,64,137,84,18,167,109,0.01,0,143,173,0.01,0,15,24,0.01,142,201,132,0.01,0,0.01,0,0.01,0,108,0.01,0,0.01,2,164,14,0.01,147,0.01,7,112,0.01,20,14,148,111,98,47,0.01,0,0.01,0,0.01,22,123,154,198,0.01,0
19,0.01,161,85,0.01,86,180,76,35,30,143,107,0.01,0,3,177,144,208,205,34,115,209,58,67,0.01,102,0.01,41,188,5,9,85,123,55,139,90,69,0.01,0,0.01,0,0.01,0,64,137,84,18,167,109,0.01,0,143,173,0.01,0,15,24,0.01,143,201,132,0.01,0,0.01,0,0.01,0,108,0.01,0,0.01,2,164,14,0.01,147,0.01,7,112,0.01,20,14,149,115,98,47,0.01,0,0.01,0,0.01,22,127,154,198,0.01,0
19.25,0.01,161,87,0.01,91,181,82,35,30,145,107,0.01,0,3,177,144,208,207,37,117,209,58,67,0.01,102,0.01,41,188,5,9,86,123,55,139,90,69,0.01,0,0.01,0,0.01,0,64,137,84,18,167,109,0.01,0,143,174,0.01,0,15,24,0.01,144,201,132,0.01,0,0.01,0,0.01,0,108,0.01,0,0.01,2,164,14,0.01,147,0.01,7,112,0.01,20,14,151,119,100,47,0.01,0,0.01,0,0.01,22,129,156,199,0.01,0
19.5,0.01,161,87,0.01,96,183,86,35,30,146,107,0.01,0,3,177,144,210,207,38,117,210,58,67,0.01,102,0.01,45,189,5,9,88,127,57,140,90,69,0.01,0,0.01,0,0.01,0,66,139,84,18,167,109,0.01,0,143,175,0.01,0,15,24,0.01,147,201,132,0.01,0,0.01,0,0.01,0,109,0.01,0,0.01,2,164,14,0.01,147,0.01,7,114,0.01,20,14,155,125,105,47,0.01,0,0.01,0,0.01,22,133,160,202,0.01,0
19.75,0.01,161,87,0.01,101,183,87,35,30,147,107,0.01,0,3,177,144,211,207,41,118,210,59,67,0.01,102,0.01,47,192,5,9,90,127,57,140,93,69,0.01,0,0.01,0,0.01,0,71,140,84,18,167,109,0.01,0,143,176,0.01,0,15,24,0.01,148,201,134,0.01,0,0.01,0,0.01,0,113,0.01,0,0.01,2,164,14,0.01,147,0.01,7,117,0.01,20,14,157,127,109,47,0.01,0,0.01,0,0.01,22,136,163,202,0.01,0
20,0.01,161,87,0.01,102,185,87,35,30,147,107,0.01,0,3,177,147,212,211,41,118,210,59,68,0.01,102,0.01,47,192,5,9,90,127,60,142,93,69,0.01,0,0.01,0,0.01,0,71,141,86,18,167,109,0.01,0,143,176,0.01,0,15,24,0.01,151,201,134,0.01,0,0.01,0,0.01,0,113,0.01,0,0.01,2,164,14,0.01,147,0.01,7,117,0.01,20,14,158,131,109,47,0.01,0,0.01,0,0.01,22,136,164,204,0.01,0
20.25,0.01,161,88,0.01,106,187,92,35,30,147,107,0.01,0,3,177,147,214,213,43,119,212,59,74,0.01,102,0.01,50,193,5,9,92,129,61,143,93,69,0.01,0,0.01,0,0.01,0,72,143,86,18,167,109,0.01,0,143,176,0.01,0,15,25,0.01,154,203,134,0.01,0,0.01,0,0.01,0,114,0.01,0,0.01,2,164,14,0.01,147,0.01,7,117,0.01,20,14,161,136,114,47,0.01,0,0.01,0,0.01,22,137,168,205,0.01,0
20.5,0.01,163,91,0.01,113,189,96,35,30,151,107,0.01,0,3,178,147,216,214,49,123,212,59,74,0.01,102,0.01,52,193,5,9,95,130,65,143,97,69,0.01,0,0.01,0,0.01,0,72,143,89,22,167,109,0.01,0,143,179,0.01,0,16,27,0.01,155,203,135,0.01,0,0.01,0,0.01,0,115,0.01,0,0.01,2,164,14,0.01,147,0.01,7,122,0.01,20,14,166,138,114,47,0.01,0,0.01,0,0.01,22,144,170,206,0.01,0
20.75,0.01,163,93,0.01,114,194,97,35,30,151,107,0.01,0,3,178,153,219,218,52,126,214,59,79,0.01,102,0.01,53,194,5,9,95,132,67,146,97,69,0.01,0,0.01,0,0.01,0,72,145,93,24,167,109,0.01,0,143,179,0.01,0,16,27,0.01,159,203,135,0.01,0,0.01,0,0.01,0,115,0.01,0,0.01,2,164,14,0.01,147,0.01,7,122,0.01,20,14,167,145,115,47,0.01,0,0.01,0,0.01,22,144,174,208,0.01,0
21,0.01,163,93,0.01,116,194,101,35,30,153,107,0.01,0,3,181,153,219,218,56,126,214,59,79,0.01,102,0.01,58,196,5,9,95,133,69,146,98,69,0.01,0,0.01,0,0.01,0,77,147,93,27,167,115,0.01,0,143,180,0.01,0,16,31,0.01,159,203,135,0.01,0,0.01,0,0.01,0,119,0.01,0,0.01,2,164,14,0.01,147,0.01,7,123,0.01,20,14,168,149,121,47,0.01,0,0.01,0,0.01,22,148,176,209,0.01,0
21.25,0.01,163,93,0.01,121,194,104,35,30,153,107,0.01,0,3,181,153,219,218,58,126,215,59,80,0.01,102,0.01,58,196,5,9,95,135,73,146,100,69,0.01,0,0.01,0,0.01,0,77,147,94,30,167,115,0.01,0,143,180,0.01,0,16,31,0.01,160,203,135,0.01,0,0.01,0,0.01,0,119,0.01,0,0.01,2,164,14,0.01,147,0.01,7,125,0.01,20,14,170,152,123,47,0.01,0,0.01,0,0.01,22,148,179,210,0.01,0
21.5,0.01,164,94,0.01,124,194,104,35,30,153,107,0.01,0,3,181,153,219,219,65,129,215,59,85,0.01,102,0.01,58,197,5,9,97,135,74,146,100,69,0.01,0,0.01,0,0.01,0,77,148,94,32,167,119,0.01,0,143,181,0.01,0,16,32,0.01,164,203,135,0.01,0,0.01,0,0.01,0,120,0.01,0,0.01,2,164,14,0.01,147,0.01,7,126,0.01,20,14,170,157,123,47,0.01,0,0.01,0,0.01,22,148,180,211,0.01,0
21.75,0.01,164,94,0.01,128,195,112,35,30,153,107,0.01,0,3,181,153,220,219,70,129,215,59,85,0.01,102,0.01,66,197,5,9,99,141,78,148,104,69,0.01,0,0.01,0,0.01,0,82,151,95,39,167,119,0.01,0,143,182,0.01,0,16,37,0.01,165,204,136,0.01,0,0.01,0,0.01,0,125,0.01,0,0.01,2,164,14,0.01,147,0.01,7,126,0.01,20,14,172,160,128,47,0.01,0,0.01,0,0.01,22,152,185,212,0.01,0
22,0.01,165,97,0.01,130,197,113,35,30,153,107,0.01,0,3,181,153,220,221,73,129,216,59,87,0.01,102,0.01,66,197,5,9,100,141,81,148,104,69,0.01,0,0.01,0,0.01,0,82,151,96,41,167,119,0.01,0,143,182,0.01,0,16,37,0.01,167,204,136,0.01,0,0.01,0,0.01,0,125,0.01,0,0.01,2,164,14,0.01,147,0.01,7,127,0.01,20,14,175,165,128,47,0.01,0,0.01,0,0.01,22,152,187,213,0.01,0
22.25,0.01,165,97,0.01,136,198,117,35,30,153,107,0.01,0,3,182,153,223,223,79,131,219,59,90,0.01,102,0.01,69,198,5,9,100,143,85,150,104,69,0.01,0,0.01,0,0.01,0,87,155,96,46,167,119,0.01,0,143,182,0.01,0,16,39,0.01,171,205,136,0.01,0,0.01,0,2,0.01,128,0.01,0,0.01,2,164,14,0.01,147,0.01,7,127,0.01,20,14,176,169,128,47,0.01,0,0.01,0,0.01,23,153,190,217,0.01,0
22.5,0.01,165,97,0.01,139,198,121,35,30,153,107,0.01,0,3,182,154,223,223,83,131,219,59,90,0.01,102,0.01,73,199,5,9,101,144,87,151,106,69,0.01,0,0.01,0,0.01,0,88,156,96,50,167,119,0.01,0,143,182,0.01,0,16,42,0.01,171,205,137,0.01,0,0.01,0,3,0.01,130,0.01,0,0.01,2,164,14,0.01,147,0.01,7,127,0.01,20,14,177,171,128,47,0.01,0,0.01,0,0.01,23,154,193,217,0.01,0
22.75,0.01,165,97,0.01,139,198,121,35,30,155,107,0.01,0,3,182,154,223,223,84,131,219,59,90,0.01,102,0.01,73,199,5,9,101,144,87,151,106,69,0.01,0,0.01,0,0.01,0,88,156,96,50,167,119,0.01,0,143,182,0.01,0,16,42,0.01,171,205,137,0.01,0,0.01,0,3,0.01,130,0.01,0,0.01,2,164,14,0.01,147,0.01,7,131,0.01,20,14,177,171,128,47,0.01,0,0.01,0,0.01,23,155,193,217,0.01,0
23,0.01,166,99,0.01,146,200,125,35,30,157,107,0.01,0,3,186,154,225,224,92,132,220,59,90,0.01,102,0.01,78,202,5,10,105,149,94,153,108,69,0.01,0,0.01,0,0.01,0,91,157,99,58,168,119,0.01,0,143,183,0.01,0,16,48,0.01,177,206,137,0.01,0,0.01,0,7,0.01,136,0.01,0,0.01,2,164,14,0.01,147,0.01,7,131,0.01,20,14,183,177,132,47,0.01,0,0.01,0,0.01,23,160,200,219,0.01,0
23.25,0.01,166,99,0.01,146,200,125,35,30,157,107,0.01,0,3,186,154,225,224,95,132,220,59,90,0.01,102,0.01,78,202,5,10,105,149,94,153,108,69,0.01,0,0.01,0,0.01,0,91,157,99,61,168,119,0.01,0,143,183,0.01,0,16,48,0.01,177,206,137,0.01,0,0.01,0,7,0.01,136,0.01,0,0.01,2,164,14,0.01,147,0.01,7,131,0.01,20,14,183,177,132,47,0.01,0,0.01,0,0.01,23,160,200,219,0.01,0
23.5,0.01,166,99,0.01,147,200,125,35,30,157,107,0.01,0,3,186,154,225,224,97,132,220,59,90,0.01,102,0.01,78,202,5,10,105,149,94,153,108,69,0.01,0,0.01,0,0.01,0,91,157,99,63,168,119,0.01,0,143,183,0.01,0,16,48,0.01,177,206,137,0.01,0,0.01,0,7,0.01,136,0.01,0,0.01,2,164,14,0.01,147,0.01,7,131,0.01,20,14,183,178,132,47,0.01,0,0.01,0,0.01,23,160,200,219,0.01,0
23.75,0.01,167,103,0.01,148,204,129,35,30,162,107,0.01,0,3,186,154,225,225,104,133,220,59,90,0.01,102,0.01,78,202,5,10,105,149,101,153,109,69,0.01,0,0.01,0,0.01,0,91,157,105,67,168,119,0.01,0,143,183,0.01,0,19,48,0.01,177,206,137,0.01,0,0.01,0,7,0.01,136,0.01,0,0.01,2,164,14,0.01,147,0.01,7,139,0.01,20,14,185,179,132,47,0.01,0,0.01,0,0.01,23,160,204,219,0.01,0
24,0.01,167,103,0.01,158,204,139,35,34,162,107,0.01,0,3,191,158,227,228,115,136,222,60,90,0.01,102,0.01,88,205,5,12,110,156,106,155,114,69,0.01,0,0.01,0,0.01,0,101,161,107,81,175,119,0.01,0,143,184,0.01,0,19,62,1,185,208,138,0.01,0,0.01,0,15,0.01,143,0.01,0,0.01,5,166,14,0.01,147,0.01,7,139,0.01,20,14,189,190,143,47,0.01,0,0.01,0,0.01,26,165,208,222,0.01,0
24.25,0.01,167,103,0.01,158,204,139,35,34,162,107,0.01,0,3,191,158,227,228,115,136,222,60,90,0.01,102,0.01,88,205,5,12,110,156,107,155,114,69,0.01,0,0.01,0,0.01,0,101,161,107,81,175,119,0.01,0,143,184,0.01,0,19,62,1,185,208,138,0.01,0,0.01,0,15,0.01,143,0.01,0,0.01,5,166,14,0.01,147,0.01,7,139,0.01,20,14,189,190,143,47,0.01,0,0.01,0,0.01,26,165,209,222,0.01,0
24.5,0.01,167,104,0.01,159,204,139,35,34,165,107,0.01,0,3,191,159,227,228,119,136,222,62,90,0.01,102,0.01,88,205,5,12,110,156,107,155,114,69,0.01,0,0.01,0,0.01,0,101,161,107,85,175,119,0.01,0,143,184,0.01,0,19,62,1,185,208,138,0.01,0,0.01,0,15,0.01,143,0.01,0,0.01,5,166,14,0.01,147,0.01,7,139,0.01,20,14,189,190,143,47,0.01,0,0.01,0,0.01,26,165,209,222,0.01,0
24.75,0.01,167,104,0.01,161,204,141,35,34,165,107,0.01,0,3,191,159,227,228,124,136,222,62,90,0.01,102,0.01,88,205,5,12,110,156,109,155,114,69,0.01,0,0.01,0,0.01,0,101,161,107,87,175,119,0.01,0,143,184,0.01,0,19,62,1,185,208,138,0.01,0,0.01,0,15,0.01,143,0.01,0,0.01,5,166,14,0.01,147,0.01,7,139,0.01,20,14,189,190,143,47,0.01,0,0.01,0,0.01,26,165,211,222,0.01,0
25,0.01,167,105,0.01,166,206,144,35,38,165,107,0.01,0,3,191,162,228,229,129,136,222,62,90,0.01,102,0.01,89,205,5,12,110,156,114,155,114,69,0.01,0,0.01,0,0.01,0,101,161,109,91,175,119,0.01,0,143,184,0.01,0,19,62,1,186,208,138,0.01,0,0.01,0,15,0.01,143,0.01,0,0.01,5,166,14,0.01,147,0.01,7,139,0.01,20,14,192,196,145,47,0.01,0,0.01,0,0.01,26,165,215,223,0.01,0
25.25,0.01,167,105,0.01,167,206,146,35,39,168,107,0.01,0,3,191,162,228,229,132,136,222,62,90,0.01,102,0.01,89,205,5,12,110,156,114,155,115,69,0.01,0,0.01,0,0.01,0,101,161,110,95,175,119,0.01,0,143,184,0.01,0,19,62,1,186,208,138,0.01,0,0.01,0,15,0.01,143,0.01,0,0.01,5,166,14,0.01,147,0.01,7,139,0.01,20,14,193,196,145,47,0.01,0,0.01,0,0.01,26,165,216,223,0.01,0
25.5,0.01,167,107,0.01,169,214,148,35,39,168,107,0.01,0,3,191,167,229,234,133,141,222,62,90,0.01,102,0.01,94,205,5,12,110,156,124,155,115,69,0.01,0,0.01,0,0.01,0,101,165,114,96,175,119,0.01,0,143,184,0.01,0,19,67,1,190,208,138,0.01,0,0.01,0,15,0.01,143,0.01,0,0.01,5,166,14,0.01,147,0.01,7,139,0.01,20,14,195,196,145,47,0.01,0,0.01,0,0.01,26,165,216,225,0.01,0
25.75,0.01,167,107,0.01,173,214,153,35,49,170,107,0.01,0,3,191,167,229,234,140,141,222,63,90,0.01,102,0.01,94,205,5,12,110,158,124,155,117,69,0.01,0,0.01,0,0.01,0,103,165,114,103,176,119,0.01,0,143,184,0.01,0,19,67,1,190,208,138,0.01,0,0.01,0,15,0.01,143,0.01,0,0.01,5,166,14,0.01,147,0.01,7,139,0.01,20,14,196,199,149,47,0.01,0,0.01,0,0.01,26,169,219,225,0.01,0
26,0.01,167,107,0.01,173,214,153,35,49,170,107,0.01,0,3,191,167,230,234,143,141,222,63,90,0.01,102,0.01,95,205,5,12,114,158,125,156,117,69,0.01,0,0.01,0,0.01,0,103,166,117,105,176,119,0.01,0,143,184,0.01,0,19,72,1,194,208,138,0.01,0,0.01,0,15,0.01,143,0.01,0,0.01,5,166,14,0.01,147,0.01,7,139,0.01,20,14,200,201,149,47,0.01,0,0.01,0,0.01,26,169,219,227,0.01,0
26.25,0.01,167,109,0.01,178,214,157,35,58,172,107,0.01,0,3,191,167,230,234,151,141,224,63,90,0.01,102,0.01,100,206,5,12,116,162,126,159,117,69,0.01,0,0.01,0,0.01,0,105,167,117,112,179,119,0.01,0,143,184,0.01,0,21,77,1,194,208,138,0.01,0,0.01,0,15,0.01,143,0.01,0,0.01,5,166,14,0.01,147,0.01,7,139,0.01,20,14,203,206,151,47,0.01,0,0.01,0,0.01,26,169,223,230,0.01,0
26.5,0.01,167,110,0.01,178,214,157,35,58,175,107,0.01,0,3,191,167,230,234,152,141,224,63,90,0.01,102,0.01,100,206,5,12,116,162,126,159,117,69,0.01,0,0.01,0,0.01,0,105,167,117,112,179,119,0.01,0,143,184,0.01,0,21,77,1,194,208,138,0.01,0,0.01,0,15,0.01,143,0.01,0,0.01,5,166,14,0.01,147,0.01,7,139,0.01,20,14,203,206,151,47,0.01,0,0.01,0,0.01,26,169,223,230,0.01,0
26.75,0.01,167,110,0.01,182,214,160,35,67,175,107,0.01,0,3,191,167,230,234,158,141,224,63,90,0.01,102,0.01,102,206,5,12,116,162,128,159,118,69,0.01,0,0.01,0,0.01,0,105,168,118,117,179,119,0.01,0,143,184,0.01,0,21,79,1,194,208,138,0.01,0,0.01,0,15,0.01,143,0.01,0,0.01,5,166,14,0.01,147,0.01,7,139,0.01,20,14,203,208,155,47,0.01,0,0.01,0,0.01,26,169,223,231,0.01,0
27,0.01,167,113,0.01,182,215,163,35,67,176,107,0.01,0,3,191,167,232,234,161,144,226,63,90,0.01,102,0.01,102,207,5,12,118,162,135,160,118,69,0.01,0,0.01,0,0.01,0,105,169,123,120,179,119,0.01,0,143,184,0.01,0,21,84,1,200,208,138,0.01,0,0.01,0,15,0.01,143,0.01,0,0.01,5,166,14,0.01,147,0.01,7,139,0.01,20,14,208,209,155,47,0.01,0,0.01,0,0.01,26,169,225,233,0.01,0
27.25,0.01,167,115,0.01,182,218,163,35,67,176,107,0.01,0,3,191,167,232,237,161,145,226,63,90,0.01,102,0.01,102,207,5,12,118,162,137,160,118,69,0.01,0,0.01,0,0.01,0,105,169,125,120,179,119,0.01,0,143,184,0.01,0,21,84,1,200,208,138,0.01,0,0.01,0,15,0.01,143,0.01,0,0.01,5,166,14,0.01,147,0.01,7,139,0.01,20,14,208,209,155,47,0.01,0,0.01,0,0.01,26,169,225,233,0.01,0
27.5,0.01,167,115,0.01,182,218,163,35,67,176,107,0.01,0,3,191,167,232,237,162,145,226,63,90,0.01,102,0.01,102,207,5,12,118,162,137,160,118,69,0.01,0,0.01,0,0.01,0,105,169,125,120,179,119,0.01,0,143,184,0.01,0,21,84,1,200,208,138,0.01,0,0.01,0,15,0.01,143,0.01,0,0.01,5,166,14,0.01,147,0.01,7,139,0.01,20,14,208,209,155,47,0.01,0,0.01,0,0.01,26,169,225,233,0.01,0
27.75,0.01,167,115,0.01,182,218,164,35,72,176,107,0.01,0,3,191,167,232,237,168,145,226,63,90,0.01,102,0.01,102,207,5,12,118,162,141,160,118,69,0.01,0,0.01,0,0.01,0,105,169,125,122,179,119,0.01,0,143,184,0.01,0,21,85,1,201,208,138,0.01,0,0.01,0,15,0.01,143,0.01,0,0.01,5,166,14,0.01,147,0.01,7,139,0.01,20,14,210,209,155,47,0.01,0,0.01,0,0.01,26,169,225,233,0.01,0
28,0.01,167,115,0.01,184,218,167,35,79,176,107,0.01,0,3,191,167,232,237,170,145,226,63,90,0.01,102,0.01,102,207,5,12,118,162,141,160,118,69,0.01,0,0.01,0,0.01,0,105,169,125,124,179,119,0.01,0,143,184,0.01,0,21,85,1,201,208,138,0.01,0,0.01,0,15,0.01,143,0.01,0,0.01,5,166,14,0.01,147,0.01,7,139,0.01,20,14,210,210,155,47,0.01,0,0.01,0,0.01,26,169,226,233,0.01,0
28.25,0.01,167,116,0.01,184,220,169,35,81,176,107,0.01,0,3,191,169,232,237,173,145,226,63,90,0.01,102,0.01,102,207,5,12,119,162,142,160,118,69,0.01,0,0.01,0,0.01,0,105,169,126,127,179,119,0.01,0,143,184,0.01,0,21,86,1,202,208,138,0.01,0,0.01,0,15,0.01,143,0.01,0,0.01,5,166,14,0.01,147,0.01,7,139,0.01,20,14,211,210,155,47,0.01,0,17,0.01,0,26,169,226,233,0.01,0
28.5,0.01,167,118,0.01,189,220,177,35,95,184,107,1,0.01,3,191,169,232,238,178,145,227,65,90,0.01,102,0.01,105,207,5,13,122,162,142,160,118,69,0.01,0,0.01,0,0.01,0,105,172,129,133,182,119,0.01,0,143,184,0.01,0,23,87,4,202,208,138,0.01,0,0.01,0,15,4,143,0.01,0,0.01,5,166,14,0.01,147,0.01,7,139,0.01,20,14,213,216,162,47,0.01,0,28,0.01,0,26,169,228,233,0.01,5
28.75,0.01,167,118,0.01,191,220,177,35,96,184,107,1,0.01,3,191,169,232,238,179,145,227,65,90,0.01,102,0.01,105,207,5,13,122,162,142,160,118,69,0.01,0,0.01,0,0.01,0,105,172,129,133,182,119,0.01,0,143,184,0.01,0,23,92,4,202,208,138,0.01,0,0.01,0,15,4,144,0.01,0,0.01,5,166,14,0.01,147,0.01,7,139,0.01,20,14,215,217,162,47,0.01,0,28,0.01,0,26,169,228,235,0.01,5
29,0.01,167,118,0.01,193,220,178,35,101,184,107,1,0.01,3,192,169,232,238,184,145,227,65,90,0.01,102,0.01,105,208,5,13,122,162,145,160,118,69,0.01,0,0.01,0,0.01,0,105,174,129,137,182,119,0.01,0,143,184,0.01,0,23,98,4,206,208,138,0.01,0,0.01,0,15,4,145,0.01,0,0.01,5,166,14,0.01,147,0.01,7,139,1,20,14,217,218,162,47,0.01,0,28,0.01,0,26,169,228,235,0.01,5
29.25,0.01,167,118,0.01,201,220,185,39,113,184,107,1,0.01,3,199,169,232,238,190,145,227,71,90,0.01,102,0.01,117,208,5,13,122,176,145,160,120,69,0.01,0,0.01,0,0.01,0,119,176,129,142,187,119,0.01,0,143,184,0.01,0,26,107,4,206,208,138,0.01,0,0.01,0,15,4,163,0.01,0,0.01,9,166,14,0.01,147,0.01,7,139,7,20,19,224,227,163,47,0.01,0,28,0.01,0,26,169,228,240,2,5
29.5,0.01,167,118,0.01,201,221,185,39,113,184,107,1,0.01,3,199,171,232,239,190,147,229,71,90,0.01,102,0.01,117,208,5,13,122,176,150,161,120,69,0.01,0,0.01,0,0.01,0,119,176,131,142,187,119,0.01,0,143,184,0.01,0,26,107,4,208,208,138,0.01,0,0.01,0,15,4,163,0.01,0,0.01,9,166,14,0.01,147,0.01,7,139,7,20,19,224,227,163,47,0.01,0,28,0.01,0,26,169,228,240,2,5
29.75,0.01,167,122,0.01,201,227,185,39,113,184,107,1,0.01,3,199,172,232,240,190,152,229,71,90,0.01,102,0.01,117,208,5,13,125,176,157,161,120,69,0.01,0,0.01,0,0.01,0,119,176,137,142,187,119,0.01,0,143,184,0.01,0,26,107,4,208,208,138,0.01,0,0.01,0,15,4,163,0.01,0,0.01,9,166,14,0.01,147,0.01,7,139,7,20,19,224,227,163,47,0.01,0,28,0.01,0,26,169,228,240,2,5
30,0.01,167,122,0.01,201,227,186,39,113,184,107,1,0.01,3,199,172,232,240,190,152,229,71,90,0.01,102,0.01,117,208,5,13,125,176,157,161,120,69,0.01,0,0.01,0,0.01,0,119,176,137,142,187,119,0.01,0,143,184,0.01,0,26,107,4,210,208,138,0.01,0,0.01,0,15,4,163,0.01,0,0.01,9,166,14,0.01,147,0.01,7,139,7,20,19,224,227,163,47,0.01,0,28,0.01,0,26,169,228,240,2,5
30.25,0.01,167,122,0.01,201,227,190,39,121,184,107,1,0.01,3,199,172,232,240,193,152,229,71,90,0.01,102,0.01,117,208,5,13,125,176,157,161,120,69,0.01,0,0.01,0,0.01,0,119,176,137,148,187,119,0.01,0,143,184,0.01,0,26,112,4,211,208,138,0.01,0,0.01,0,15,4,163,0.01,0,0.01,9,166,14,0.01,147,0.01,7,139,7,20,19,224,227,163,47,0.01,0,28,0.01,0,26,169,228,240,2,5
30.5,0.01,167,122,0.01,201,227,191,39,121,184,107,1,0.01,3,199,172,232,240,193,152,229,71,90,0.01,102,0.01,117,208,5,13,125,176,157,161,120,69,0.01,0,0.01,0,0.01,0,119,176,137,148,187,119,0.01,0,143,184,0.01,0,26,112,4,211,208,138,0.01,0,0.01,0,15,4,163,0.01,0,0.01,9,166,14,0.01,147,0.01,7,139,7,20,19,224,227,163,47,0.01,0,28,0.01,0,26,169,229,240,2,5
30.75,0.01,167,122,0.01,201,227,191,39,122,184,107,1,0.01,3,199,173,232,241,193,152,229,71,90,0.01,102,0.01,117,208,5,13,127,176,158,161,120,69,0.01,0,0.01,0,0.01,0,119,176,137,148,187,119,0.01,0,143,184,0.01,0,26,112,4,211,208,138,0.01,0,0.01,0,15,4,163,0.01,0,0.01,9,166,14,0.01,147,0.01,7,139,7,20,19,224,227,163,47,0.01,0,40,0.01,0,26,169,229,240,2,5
31,0.01,167,122,0.01,205,227,195,39,133,184,107,1,0.01,3,199,178,232,241,197,152,229,71,90,0.01,102,0.01,117,208,5,13,127,176,158,163,120,69,0.01,0,0.01,0,0.01,0,119,177,137,153,187,119,0.01,0,143,184,0.01,0,26,113,4,212,208,138,0.01,0,0.01,0,15,4,163,0.01,0,0.01,9,166,14,0.01,147,0.01,7,139,7,20,19,224,227,163,47,0.01,0,44,0.01,0,26,169,229,240,2,5
31.25,0.01,167,122,0.01,208,227,198,39,138,184,107,1,0.01,3,199,178,232,241,197,152,229,71,90,0.01,102,0.01,117,208,5,13,127,176,158,163,120,69,0.01,0,0.01,0,0.01,0,119,177,137,155,187,119,0.01,0,143,184,0.01,0,26,117,4,212,209,138,0.01,0,0.01,0,15,4,163,0.01,0,0.01,9,166,14,0.01,147,0.01,7,139,7,20,19,225,231,163,47,0.01,0,44,0.01,0,26,169,229,240,2,5
31.5,0.01,167,123,0.01,208,227,198,39,138,184,107,1,0.01,3,199,178,232,241,197,152,229,71,90,0.01,102,0.01,117,208,5,13,127,176,158,163,120,69,0.01,0,0.01,0,0.01,0,119,177,138,155,187,119,0.01,0,143,184,0.01,0,26,117,4,212,209,138,0.01,0,0.01,0,15,4,163,0.01,0,0.01,9,166,14,0.01,147,0.01,7,139,7,20,19,225,231,163,47,0.01,0,48,0.01,0,26,169,229,240,2,5
31.75,0.01,167,123,0.01,210,227,201,39,144,184,107,1,0.01,3,199,178,232,242,197,152,229,71,90,0.01,102,0.01,117,208,5,13,128,176,158,165,120,69,0.01,0,0.01,0,0.01,0,119,178,138,157,187,119,0.01,0,143,184,0.01,0,26,120,4,213,211,138,0.01,0,0.01,0,15,4,163,0.01,0,0.01,9,166,14,0.01,147,0.01,7,139,7,20,19,225,231,163,47,0.01,0,50,0.01,0,26,169,229,240,2,5
32,0.01,167,123,0.01,210,227,201,39,144,184,107,1,0.01,3,199,178,232,242,197,152,229,71,90,0.01,102,0.01,117,208,5,13,128,176,160,165,120,69,0.01,0,0.01,0,0.01,0,119,178,138,157,187,119,0.01,0,143,184,0.01,0,26,120,4,213,211,138,0.01,0,0.01,0,15,4,163,0.01,0,0.01,9,166,14,0.01,147,0.01,7,139,7,20,19,225,231,163,47,0.01,0,50,0.01,0,26,169,229,240,2,5
32.25,0.01,167,128,0.01,210,227,201,39,144,184,107,1,0.01,3,199,178,232,242,197,153,229,71,90,0.01,102,0.01,117,208,5,13,130,176,167,165,120,69,0.01,0,0.01,0,0.01,0,119,179,142,157,187,119,0.01,0,143,184,0.01,0,26,121,4,216,211,138,0.01,0,0.01,0,15,4,163,0.01,0,0.01,9,166,14,0.01,147,0.01,7,139,7,20,19,225,231,163,47,0.01,0,54,0.01,0,26,169,229,240,2,5
32.5,0.01,167,128,0.01,210,227,202,39,145,184,107,1,0.01,3,199,178,232,242,197,153,229,71,90,0.01,102,0.01,117,208,5,13,130,176,167,165,120,69,0.01,0,0.01,0,0.01,0,119,179,142,159,187,119,0.01,0,143,184,0.01,0,26,125,4,216,211,138,0.01,0,0.01,0,15,4,163,0.01,0,0.01,9,166,14,0.01,147,0.01,7,139,7,20,19,225,231,163,47,0.01,0,54,0.01,0,26,169,229,240,2,5
32.75,0.01,167,128,0.01,210,227,205,39,154,184,107,1,0.01,3,199,178,232,242,197,153,229,71,90,0.01,102,0.01,117,208,5,13,130,176,167,165,120,69,0.01,0,0.01,0,0.01,0,119,179,142,161,187,119,0.01,0,143,184,0.01,0,26,125,4,216,211,138,0.01,0,0.01,0,15,4,163,0.01,0,0.01,9,166,14,0.01,147,0.01,7,139,7,20,19,225,231,163,47,0.01,0,54,0.01,0,26,169,229,240,2,5
33,0.01,166,128,0.01,209,226,204,38,153,183,106,0.01,0,2,198,177,231,241,196,152,228,70,89,0.01,101,0.01,116,207,4,12,130,175,169,164,119,68,0.01,0,0.01,0,0.01,0,118,178,144,160,186,118,0.01,0,142,183,0.01,0,25,124,3,215,210,137,0.01,0,0.01,0,14,3,162,0.01,0,0.01,8,165,13,0.01,146,0.01,6,138,6,19,18,224,230,162,46,0.01,0,56,0.01,0,25,168,228,239,1,4
33.25,0.01,166,128,0.01,210,226,207,38,155,183,106,0.01,0,2,198,177,231,241,196,152,229,70,89,0.01,101,0.01,116,207,4,12,130,175,169,164,119,68,0.01,0,0.01,0,0.01,0,118,179,144,163,186,118,0.01,0,142,183,0.01,0,29,134,3,217,211,137,0.01,0,0.01,0,14,3,165,0.01,0,0.01,8,165,13,0.01,146,0.01,6,138,6,19,18,226,231,162,46,0.01,0,56,0.01,0,25,168,228,239,1,4
33.5,0.01,164,126,0.01,211,224,209,36,160,181,104,0.01,0,0.01,196,175,229,239,194,150,227,68,87,0.01,99,0.01,114,205,2,10,128,174,167,163,117,66,0.01,0,0.01,0,0.01,0,116,179,142,162,186,116,0.01,0,140,181,0.01,0,27,132,1,216,210,135,0.01,0,0.01,0,12,1,163,0.01,0,0.01,6,163,11,0.01,144,0.01,4,136,4,17,16,224,230,160,44,0.01,0,54,0.01,0,23,166,226,237,0.01,2
33.75,0.01,162,124,0.01,209,222,209,34,158,179,102,0.01,0,0.01,194,175,227,237,192,148,225,66,85,0.01,97,0.01,112,203,0.01,8,126,172,165,161,115,64,0.01,0,0.01,0,0.01,0,114,178,140,161,184,114,0.01,0,138,179,0.01,0,29,136,0.01,216,209,133,0.01,0,0.01,0,10,0.01,163,0.01,0,0.01,4,161,9,0.01,142,0.01,2,134,2,15,14,222,228,158,42,0.01,0,52,0.01,0,21,164,224,235,0.01,0
34,0.01,161,123,0.01,208,221,210,33,158,178,101,0.01,0,0.01,193,175,226,236,193,147,227,65,84,0.01,96,0.01,111,202,0.01,7,127,173,165,163,114,63,0.01,0,0.01,0,0.01,0,115,179,139,164,185,113,0.01,0,137,178,0.01,0,30,141,0.01,216,210,132,0.01,0,0.01,0,9,0.01,166,0.01,0,0.01,3,160,8,0.01,141,0.01,1,133,1,14,13,223,227,157,41,0.01,0,51,0.01,0,20,163,223,234,0.01,0
34.25,0.01,160,122,0.01,207,220,209,32,158,177,100,0.01,0,0.01,192,174,225,237,192,146,226,64,83,0.01,95,0.01,110,201,0.01,6,126,172,169,162,113,62,0.01,0,0.01,0,0.01,0,114,179,138,164,184,112,0.01,0,136,177,0.01,0,31,144,0.01,216,209,131,0.01,0,0.01,0,8,0.01,165,0.01,0,0.01,2,159,7,0.01,140,0.01,0,132,0.01,13,14,222,226,156,40,0.01,0,50,0.01,0,19,162,222,233,0.01,0
34.5,0.01,160,122,0.01,207,220,209,32,162,177,100,0.01,0,0.01,192,174,225,237,192,146,226,64,83,0.01,95,0.01,110,201,0.01,6,126,172,169,162,114,62,0.01,0,0.01,0,0.01,0,114,179,138,164,184,112,0.01,0,136,177,0.01,0,31,144,0.01,216,209,131,0.01,0,0.01,0,8,0.01,165,0.01,0,0.01,2,159,7,0.01,140,0.01,0,132,0.01,13,14,222,226,156,40,0.01,0,50,0.01,0,19,162,222,233,0.01,0
34.75,0.01,160,122,0.01,207,220,211,32,162,177,100,0.01,0,0.01,192,175,225,237,192,146,226,64,83,0.01,95,0.01,110,201,0.01,6,127,172,169,162,114,62,0.01,0,0.01,0,0.01,0,114,179,138,164,184,112,0.01,0,136,177,0.01,0,31,144,0.01,216,209,131,0.01,0,0.01,0,8,0.01,165,0.01,0,0.01,2,159,7,0.01,140,0.01,0,132,0.01,13,14,222,226,156,40,0.01,0,50,0.01,0,19,162,222,233,0.01,0
35,0.01,160,122,0.01,207,220,212,32,167,177,100,0.01,0,0.01,192,175,225,237,192,146,227,64,83,0.01,95,0.01,110,201,0.01,7,127,174,169,162,114,62,0.01,0,0.01,0,0.01,0,114,179,138,166,186,112,0.01,0,136,177,0.01,0,31,144,0.01,216,210,131,0.01,0,0.01,0,8,0.01,165,0.01,0,0.01,2,159,7,0.01,140,0.01,0,132,0.01,13,14,222,226,156,40,0.01,0,53,0.01,0,19,162,222,233,0.01,0
35.25,0.01,160,122,0.01,207,220,214,32,169,177,100,0.01,0,0.01,192,175,225,237,192,146,227,64,83,0.01,95,0.01,110,201,0.01,7,127,174,169,162,114,62,0.01,0,0.01,0,0.01,0,114,179,138,167,187,112,0.01,0,136,177,0.01,0,31,144,0.01,216,210,131,0.01,0,0.01,0,8,0.01,165,0.01,0,0.01,4,159,7,0.01,140,0.01,0,132,0.01,13,14,222,226,156,40,0.01,0,53,0.01,0,19,162,222,233,0.01,0
35.5,0.01,160,123,0.01,207,220,214,32,169,177,100,0.01,0,0.01,192,178,225,237,192,146,227,64,83,0.01,95,0.01,110,201,0.01,7,129,174,171,162,114,62,0.01,0,0.01,0,0.01,0,114,179,139,167,187,112,0.01,0,136,177,0.01,0,31,145,0.01,217,210,131,0.01,0,0.01,0,8,0.01,165,0.01,0,0.01,4,159,7,0.01,140,0.01,0,132,0.01,13,14,222,226,156,40,0.01,0,53,0.01,0,19,162,222,233,0.01,0
35.75,0.01,151,114,0.01,198,211,207,23,165,168,91,0.01,0,0.01,183,169,216,228,183,137,218,55,74,0.01,86,0.01,101,192,0.01,0,120,168,162,153,105,53,0.01,0,0.01,0,0.01,0,105,170,130,161,179,103,0.01,0,127,168,0.01,0,22,138,0.01,208,201,122,0.01,0,0.01,0,0.01,0,156,0.01,0,0.01,0,150,0.01,0,131,0.01,0,123,0.01,4,6,213,217,147,31,0.01,0,44,0.01,0,10,153,213,224,0.01,0
36,0.01,147,110,0.01,194,207,205,19,161,164,87,0.01,0,0.01,179,165,212,224,179,133,214,51,70,0.01,82,0.01,97,188,0.01,0,117,164,158,149,101,49,0.01,0,0.01,0,0.01,0,101,166,128,158,175,99,0.01,0,123,164,0.01,0,18,138,0.01,205,198,118,0.01,0,0.01,0,0.01,0,152,0.01,0,0.01,0,146,0.01,0,127,0.01,0,119,0.01,0,2,209,213,143,27,0.01,0,40,0.01,0,6,149,209,220,0.01,0
36.25,0.01,147,110,0.01,194,207,206,19,161,164,87,0.01,0,0.01,179,168,212,224,179,133,215,51,70,0.01,82,0.01,97,188,0.01,0,117,166,159,151,101,49,0.01,0,0.01,0,0.01,0,103,168,128,162,175,99,0.01,0,123,164,0.01,0,21,146,0.01,207,198,118,0.01,0,0.01,0,0.01,0,152,0.01,0,0.01,0,146,0.01,0,127,0.01,0,119,0.01,0,4,209,213,143,27,0.01,0,40,0.01,0,6,149,209,220,0.01,0
36.5,0.01,147,117,0.01,194,207,209,19,161,164,87,0.01,0,0.01,179,168,212,224,179,133,215,51,70,0.01,82,0.01,97,188,0.01,0,118,166,159,151,101,49,0.01,0,0.01,0,0.01,0,103,168,130,162,175,99,0.01,0,123,164,0.01,0,21,146,0.01,207,198,118,0.01,0,0.01,0,0.01,0,152,0.01,0,0.01,0,146,0.01,0,127,0.01,0,119,0.01,0,4,209,213,143,27,0.01,0,44,0.01,0,6,149,209,220,0.01,0
36.75,0.01,147,117,0.01,194,207,209,19,163,164,87,0.01,0,0.01,179,168,212,224,179,133,215,51,70,0.01,82,0.01,97,188,0.01,0,118,166,159,151,101,49,0.01,0,0.01,0,0.01,0,103,168,130,162,175,99,0.01,0,123,164,0.01,0,21,146,0.01,207,198,118,0.01,0,0.01,0,0.01,0,152,0.01,0,0.01,0,146,0.01,0,127,0.01,0,119,0.01,0,4,209,213,143,27,0.01,0,44,0.01,0,6,149,209,220,0.01,0
37,0.01,147,117,0.01,194,207,210,19,163,164,87,0.01,0,0.01,179,170,212,224,179,133,215,51,70,0.01,82,0.01,97,188,0.01,3,118,166,162,151,101,49,0.01,0,0.01,0,0.01,0,103,168,130,163,175,99,0.01,0,123,164,0.01,0,21,146,0.01,207,198,118,0.01,0,0.01,0,0.01,0,152,0.01,0,0.01,0,146,0.01,0,127,0.01,0,119,0.01,0,4,209,213,143,27,0.01,0,44,0.01,0,6,149,209,220,0.01,0
37.25,0.01,147,117,0.01,194,207,210,19,163,164,87,0.01,0,0.01,179,170,212,224,179,133,215,51,70,0.01,82,0.01,97,188,0.01,3,118,166,162,151,101,49,0.01,0,0.01,0,0.01,0,103,168,130,163,175,99,0.01,0,123,164,0.01,0,21,146,0.01,207,198,118,0.01,0,0.01,0,0.01,0,152,0.01,0,0.01,0,146,0.01,0,127,0.01,0,119,0.01,0,4,209,213,143,27,0.01,0,44,0.01,0,6,149,209,220,0.01,0
37.5,0.01,146,119,0.01,193,209,210,18,162,163,86,0.01,0,0.01,178,172,211,223,178,135,214,50,69,0.01,81,0.01,96,187,0.01,2,119,165,164,150,100,48,0.01,0,0.01,0,0.01,0,102,167,133,162,174,98,0.01,0,122,163,0.01,0,20,145,0.01,206,197,117,0.01,0,0.01,0,0.01,0,151,0.01,0,0.01,0,145,0.01,0,126,0.01,0,118,0.01,0,3,208,212,142,26,0.01,0,43,0.01,0,5,148,208,219,0.01,0
37.75,0.01,146,119,0.01,193,209,211,18,165,163,86,0.01,0,0.01,178,172,211,223,178,135,214,50,69,0.01,81,0.01,96,187,0.01,5,119,165,164,150,100,48,0.01,0,0.01,0,0.01,0,102,167,133,164,175,98,0.01,0,122,163,0.01,0,20,145,0.01,207,197,117,0.01,0,0.01,0,0.01,0,151,0.01,0,0.01,0,145,0.01,0,126,0.01,0,118,0.01,0,3,209,212,142,26,0.01,0,43,0.01,0,5,148,208,219,0.01,0
38,0.01,146,119,0.01,193,209,212,18,165,163,86,0.01,0,0.01,178,172,211,223,178,135,214,50,69,0.01,81,0.01,96,187,0.01,5,119,165,164,150,100,48,0.01,0,0.01,0,0.01,0,102,167,133,164,176,98,0.01,0,122,163,0.01,0,20,145,0.01,207,197,117,0.01,0,0.01,0,0.01,0,151,0.01,0,0.01,0,145,0.01,0,126,0.01,0,118,0.01,0,3,209,212,142,26,0.01,0,43,0.01,0,5,148,208,219,0.01,0
38.25,0.01,145,118,0.01,192,208,212,17,164,162,85,0.01,0,0.01,177,172,210,222,177,134,213,49,68,0.01,80,0.01,95,186,0.01,5,118,164,163,149,99,47,0.01,0,0.01,0,0.01,0,101,167,132,165,175,97,0.01,0,121,162,0.01,0,19,144,0.01,206,196,116,0.01,0,0.01,0,0.01,0,150,0.01,0,0.01,0,144,0.01,0,125,0.01,0,117,0.01,0,2,208,211,141,25,0.01,0,42,0.01,0,4,147,207,218,0.01,0
38.5,0.01,145,118,0.01,192,208,215,17,168,162,85,0.01,0,0.01,177,173,210,222,177,134,214,49,68,0.01,80,0.01,95,186,0.01,10,118,165,163,150,99,47,0.01,0,0.01,0,0.01,0,101,170,132,170,177,97,0.01,0,121,162,0.01,0,19,156,0.01,207,199,116,0.01,0,0.01,0,0.01,0,150,0.01,0,0.01,0,144,0.01,0,125,0.01,0,117,0.01,0,2,212,211,141,25,0.01,0,42,0.01,0,4,147,207,218,0.01,0
38.75,0.01,145,118,0.01,192,208,215,17,168,162,85,0.01,0,0.01,177,178,210,222,177,138,214,49,68,0.01,80,0.01,95,186,0.01,10,120,165,165,150,99,47,0.01,0,0.01,0,0.01,0,101,170,135,170,177,97,0.01,0,121,162,0.01,0,19,156,0.01,208,199,116,0.01,0,0.01,0,0.01,0,150,0.01,0,0.01,0,144,0.01,0,125,0.01,0,117,0.01,0,2,212,211,141,25,0.01,0,42,0.01,0,4,147,207,218,0.01,0
39,0.01,145,118,0.01,192,208,215,17,168,162,85,0.01,0,0.01,177,178,210,222,177,138,214,49,68,0.01,80,0.01,95,186,0.01,10,120,165,165,150,99,47,0.01,0,0.01,0,0.01,0,101,170,135,170,177,97,0.01,0,121,162,0.01,0,19,156,0.01,208,199,116,0.01,0,0.01,0,0.01,0,150,0.01,0,0.01,0,144,0.01,0,125,0.01,0,117,0.01,0,2,212,211,141,25,0.01,0,42,0.01,0,4,147,207,218,0.01,0
39.25,0.01,145,118,0.01,192,208,215,17,171,162,85,0.01,0,0.01,177,178,210,222,177,138,214,49,68,0.01,80,0.01,95,186,0.01,10,120,165,165,150,99,47,0.01,0,0.01,0,0.01,0,101,170,135,170,177,97,0.01,0,121,162,0.01,0,19,156,0.01,208,199,116,0.01,0,0.01,0,0.01,0,150,0.01,0,0.01,0,144,0.01,0,125,0.01,0,117,0.01,0,2,212,211,141,25,0.01,0,42,0.01,0,4,147,207,218,0.01,0
39.5,0.01,145,118,0.01,192,208,215,17,171,162,85,0.01,0,0.01,177,178,210,222,177,138,214,49,68,0.01,80,0.01,95,186,0.01,10,120,165,165,150,99,47,0.01,0,0.01,0,0.01,0,101,170,135,170,177,97,0.01,0,121,162,0.01,0,19,156,0.01,208,199,116,0.01,0,0.01,0,0.01,0,150,0.01,0,0.01,0,144,0.01,0,125,0.01,0,117,0.01,0,2,212,211,141,25,0.01,0,45,0.01,0,4,147,207,218,0.01,0
39.75,0.01,145,118,0.01,192,208,217,17,177,162,85,0.01,0,0.01,177,178,210,222,177,138,214,49,68,0.01,80,0.01,95,186,0.01,10,120,165,165,150,99,47,0.01,0,0.01,0,0.01,0,101,170,135,171,177,97,0.01,0,121,162,0.01,0,19,156,0.01,208,199,116,0.01,0,0.01,0,0.01,0,150,0.01,0,0.01,0,144,0.01,0,125,0.01,0,117,0.01,0,2,212,214,141,25,0.01,0,45,0.01,0,4,147,207,218,0.01,0
40,0.01,145,118,0.01,192,208,218,17,177,162,85,0.01,0,0.01,177,178,210,222,177,138,214,49,68,0.01,80,0.01,95,186,0.01,12,120,165,165,150,99,47,0.01,0,0.01,0,0.01,0,101,170,135,173,177,97,0.01,0,121,162,0.01,0,19,156,0.01,208,199,116,0.01,0,0.01,0,0.01,0,150,0.01,0,0.01,0,144,0.01,0,125,0.01,0,117,0.01,0,2,212,214,141,25,0.01,0,45,0.01,0,4,147,207,218,0.01,0
40.25,0.01,145,118,0.01,192,208,218,17,177,162,85,0.01,0,0.01,177,178,210,222,177,138,214,49,68,0.01,80,0.01,95,186,0.01,12,120,165,165,150,99,47,0.01,0,0.01,0,0.01,0,101,170,135,173,177,97,0.01,0,121,162,0.01,0,19,156,0.01,208,199,116,0.01,0,0.01,0,0.01,0,150,0.01,0,0.01,0,144,0.01,0,125,0.01,0,117,0.01,0,2,212,214,141,25,0.01,0,45,0.01,0,4,147,207,218,0.01,0
40.5,0.01,145,118,0.01,192,208,219,17,177,162,85,0.01,0,0.01,177,178,210,222,177,138,214,49,68,0.01,80,0.01,95,186,0.01,12,120,165,165,150,99,47,0.01,0,0.01,0,0.01,0,101,170,135,173,177,97,0.01,0,121,162,0.01,0,19,156,0.01,208,199,116,0.01,0,0.01,0,0.01,0,150,0.01,0,0.01,0,144,0.01,0,125,0.01,0,117,0.01,0,2,212,214,141,25,0.01,0,45,0.01,0,4,147,207,218,0.01,0
40.75,0.01,145,118,0.01,192,208,219,17,177,162,85,0.01,0,0.01,177,178,210,222,177,138,214,49,68,0.01,80,0.01,95,186,0.01,12,120,165,165,150,99,47,0.01,0,0.01,0,0.01,0,101,170,135,173,177,97,0.01,0,121,162,0.01,0,19,156,0.01,208,199,116,0.01,0,0.01,0,0.01,0,150,0.01,0,0.01,0,144,0.01,0,125,0.01,0,117,0.01,0,2,212,214,141,25,0.01,0,54,0.01,0,4,147,207,218,0.01,0
41,0.01,145,118,0.01,192,208,221,17,181,162,85,0.01,0,0.01,177,178,210,222,177,138,214,49,68,0.01,80,0.01,95,186,0.01,12,120,166,165,152,99,47,0.01,0,0.01,0,0.01,0,101,170,135,175,177,97,0.01,0,121,162,0.01,0,19,161,0.01,208,199,116,0.01,0,0.01,0,0.01,0,150,0.01,0,0.01,0,144,0.01,0,125,0.01,0,117,0.01,0,2,212,214,141,25,0.01,0,54,0.01,0,4,147,207,218,0.01,0
41.25,0.01,143,116,0.01,190,206,222,15,183,160,83,0.01,0,0.01,175,179,208,220,175,136,212,47,66,0.01,78,0.01,93,184,0.01,15,118,171,163,155,97,45,0.01,0,0.01,0,0.01,0,99,170,133,175,175,95,0.01,0,119,160,0.01,0,17,164,0.01,209,197,114,0.01,0,0.01,0,0.01,0,148,0.01,0,0.01,0,142,0.01,0,123,0.01,0,115,0.01,0,0.01,210,213,139,23,0.01,0,52,0.01,0,2,145,205,216,0.01,0
41.5,0.01,143,116,0.01,190,206,222,15,183,160,83,0.01,0,0.01,175,179,208,220,175,142,212,47,66,0.01,78,0.01,93,184,0.01,15,119,171,163,155,97,45,0.01,0,0.01,0,0.01,0,99,170,136,175,175,95,0.01,0,119,160,0.01,0,17,164,0.01,209,197,114,0.01,0,0.01,0,0.01,0,148,0.01,0,0.01,0,142,0.01,0,123,0.01,0,115,0.01,0,0.01,210,213,139,23,0.01,0,52,0.01,0,2,145,205,216,0.01,0
41.75,0.01,143,116,0.01,190,206,222,15,183,160,83,0.01,0,0.01,175,179,208,220,175,142,212,47,66,0.01,78,0.01,93,184,0.01,15,119,171,163,155,97,45,0.01,0,0.01,0,0.01,0,99,170,136,175,175,95,0.01,0,119,160,0.01,0,17,164,0.01,209,197,114,0.01,0,0.01,0,0.01,0,148,0.01,0,0.01,0,142,0.01,0,123,0.01,0,115,0.01,0,0.01,210,213,139,23,0.01,0,52,0.01,0,2,145,205,216,0.01,0
42,0.01,143,116,0.01,190,206,222,15,183,160,83,0.01,0,0.01,175,179,208,220,175,142,212,47,66,0.01,78,0.01,93,184,0.01,15,119,171,163,155,97,45,0.01,0,0.01,0,0.01,0,99,170,136,175,175,95,0.01,0,119,160,0.01,0,17,164,0.01,209,197,114,0.01,0,0.01,0,0.01,0,148,0.01,0,0.01,0,142,0.01,0,123,0.01,0,115,0.01,0,0.01,210,213,139,23,0.01,0,52,0.01,0,2,145,205,216,0.01,0
42.25,0.01,143,116,0.01,190,206,222,15,183,160,83,0.01,0,0.01,175,179,208,220,175,142,212,47,66,0.01,78,0.01,93,184,0.01,15,119,171,163,155,97,45,0.01,0,0.01,0,0.01,0,99,170,136,175,175,95,0.01,0,119,160,0.01,0,17,164,0.01,209,197,114,0.01,0,0.01,0,0.01,0,148,0.01,0,0.01,0,142,0.01,0,123,0.01,0,115,0.01,0,0.01,210,213,139,23,0.01,0,52,0.01,0,2,145,205,216,0.01,0
42.5,0.01,143,116,0.01,190,206,222,15,183,160,83,0.01,0,0.01,175,179,208,220,175,142,212,47,66,0.01,78,0.01,93,184,0.01,15,119,171,163,155,97,45,0.01,0,0.01,0,0.01,0,99,170,136,175,175,95,0.01,0,119,160,0.01,0,17,164,0.01,209,197,114,0.01,0,0.01,0,0.01,0,148,0.01,0,0.01,0,142,0.01,0,123,0.01,0,115,0.01,0,0.01,210,213,139,23,0.01,0,52,0.01,0,2,145,205,216,0.01,0
42.75,0.01,143,116,0.01,190,206,222,15,183,160,83,0.01,0,0.01,175,179,208,220,175,142,212,47,66,0.01,78,0.01,93,184,0.01,15,119,171,163,155,97,45,0.01,0,0.01,0,0.01,0,99,170,136,175,175,95,0.01,0,119,160,0.01,0,17,164,0.01,209,197,114,0.01,0,0.01,0,0.01,0,148,0.01,0,0.01,0,142,0.01,0,123,0.01,0,115,0.01,0,0.01,210,213,139,23,0.01,0,52,0.01,0,2,145,205,216,0.01,0
43,0.01,143,116,0.01,190,206,222,15,183,160,83,0.01,0,0.01,175,179,208,220,175,142,212,47,66,0.01,78,0.01,93,184,0.01,15,119,171,163,155,97,45,0.01,0,0.01,0,0.01,0,99,170,136,176,175,95,0.01,0,119,160,0.01,0,17,164,0.01,209,197,114,0.01,0,0.01,0,0.01,0,148,0.01,0,0.01,0,142,0.01,0,123,0.01,0,115,0.01,0,0.01,210,213,139,23,0.01,0,52,0.01,0,2,145,205,216,0.01,0
43.25,0.01,142,115,0.01,189,205,221,14,182,159,82,0.01,0,0.01,174,178,207,219,174,141,211,46,65,0.01,77,0.01,92,183,0.01,14,118,170,162,154,96,44,0.01,0,0.01,0,0.01,0,98,169,135,175,174,94,0.01,0,118,159,0.01,0,16,163,0.01,208,196,113,0.01,0,0.01,0,0.01,0,147,0.01,0,0.01,0,141,0.01,0,122,0.01,0,114,0.01,0,0.01,209,212,138,22,0.01,0,51,0.01,0,1,144,204,215,0.01,0
43.5,0.01,142,115,0.01,189,205,221,14,182,159,82,0.01,0,0.01,174,178,207,219,174,141,211,46,65,0.01,77,0.01,92,183,0.01,14,118,170,162,154,96,44,0.01,0,0.01,0,0.01,0,98,169,135,175,174,94,0.01,0,118,159,0.01,0,16,163,0.01,208,196,113,0.01,0,0.01,0,0.01,0,147,0.01,0,0.01,0,141,0.01,0,122,0.01,0,114,0.01,0,0.01,209,212,138,22,0.01,0,51,0.01,0,1,144,204,215,0.01,0
43.75,0.01,142,115,0.01,189,205,221,14,182,159,82,0.01,0,0.01,174,178,207,219,174,141,211,46,65,0.01,77,0.01,92,183,0.01,14,118,170,162,157,96,44,0.01,0,0.01,0,0.01,0,98,169,135,176,174,94,0.01,0,118,159,0.01,0,16,164,0.01,211,196,113,0.01,0,0.01,0,0.01,0,147,0.01,0,0.01,0,141,0.01,0,122,0.01,0,114,0.01,0,0.01,209,212,138,22,0.01,0,51,0.01,0,1,144,204,215,0.01,0
44,0.01,142,115,0.01,189,205,221,14,182,159,82,0.01,0,0.01,174,178,207,219,174,141,211,46,65,0.01,77,0.01,92,183,0.01,14,118,170,162,157,96,44,0.01,0,0.01,0,0.01,0,98,169,136,176,174,94,0.01,0,118,159,0.01,0,16,164,0.01,211,196,113,0.01,0,0.01,0,0.01,0,147,0.01,0,0.01,0,141,0.01,0,122,0.01,0,114,0.01,0,0.01,209,212,138,22,0.01,0,51,0.01,0,1,144,204,215,0.01,0
44.25,0.01,142,115,0.01,189,205,221,14,182,159,82,0.01,0,0.01,174,178,207,219,174,141,211,46,65,0.01,77,0.01,92,183,0.01,14,118,170,162,157,96,44,0.01,0,0.01,0,0.01,0,98,169,136,176,174,94,0.01,0,118,159,0.01,0,16,165,0.01,211,196,113,0.01,0,0.01,0,0.01,0,147,0.01,0,0.01,0,141,0.01,0,122,0.01,0,114,0.01,0,0.01,209,212,138,22,0.01,0,51,0.01,0,1,144,204,215,0.01,0
44.5,0.01,142,115,0.01,189,205,221,14,182,159,82,0.01,0,0.01,174,178,207,219,174,141,211,46,65,0.01,77,0.01,92,183,0.01,14,119,170,162,157,96,44,0.01,0,0.01,0,0.01,0,98,169,138,176,174,94,0.01,0,118,159,0.01,0,16,165,0.01,211,196,113,0.01,0,0.01,0,0.01,0,147,0.01,0,0.01,0,141,0.01,0,122,0.01,0,114,0.01,0,0.01,209,212,138,22,0.01,0,51,0.01,0,1,144,204,215,0.01,0
44.75,0.01,141,114,0.01,188,204,220,13,181,158,81,0.01,0,0.01,173,177,206,218,173,140,210,45,64,0.01,76,0.01,91,182,0.01,13,118,169,161,157,95,43,0.01,0,0.01,0,0.01,0,97,168,137,175,173,93,0.01,0,117,158,0.01,0,15,164,0.01,210,195,112,0.01,0,0.01,0,0.01,0,146,0.01,0,0.01,0,140,0.01,0,121,0.01,0,113,0.01,0,0.01,208,211,137,21,0.01,0,50,0.01,0,0.01,143,203,214,0.01,0
45,0.01,141,114,0.01,188,204,220,13,181,158,81,0.01,0,0.01,173,177,206,218,173,140,210,45,64,0.01,76,0.01,91,182,0.01,13,118,169,161,157,95,43,0.01,0,0.01,0,0.01,0,97,168,137,175,173,93,0.01,0,117,158,0.01,0,15,164,0.01,210,195,112,0.01,0,0.01,0,0.01,0,146,0.01,0,0.01,0,140,0.01,0,121,0.01,0,113,0.01,0,0.01,208,211,137,21,0.01,0,50,0.01,0,0.01,143,203,214,0.01,0
45.25,0.01,141,114,0.01,188,204,220,13,181,158,81,0.01,0,0.01,173,177,206,218,173,140,210,45,64,0.01,76,0.01,91,182,0.01,13,118,169,161,159,95,43,0.01,0,0.01,0,0.01,0,97,168,137,175,173,93,0.01,0,117,158,0.01,0,15,170,0.01,213,195,112,0.01,0,0.01,0,0.01,0,146,0.01,0,0.01,0,140,0.01,0,121,0.01,0,113,0.01,0,0.01,208,211,137,21,0.01,0,50,0.01,0,0.01,143,203,214,0.01,0
45.5,0.01,141,114,0.01,188,204,220,13,181,158,81,0.01,0,0.01,173,177,206,218,173,140,210,45,64,0.01,76,0.01,91,182,0.01,13,118,169,161,159,95,43,0.01,0,0.01,0,0.01,0,97,168,137,175,173,93,0.01,0,117,158,0.01,0,15,170,0.01,213,195,112,0.01,0,0.01,0,0.01,0,146,0.01,0,0.01,0,140,0.01,0,121,0.01,0,113,0.01,0,0.01,208,211,137,21,0.01,0,50,0.01,0,0.01,143,203,214,0.01,0
45.75,0.01,141,114,0.01,188,204,220,13,181,158,81,0.01,0,0.01,173,177,206,218,173,140,210,45,64,0.01,76,0.01,91,182,0.01,13,118,169,161,159,95,43,0.01,0,0.01,0,0.01,0,97,168,137,175,173,93,0.01,0,117,158,0.01,0,15,170,0.01,214,195,112,0.01,0,0.01,0,0.01,0,146,0.01,0,0.01,0,140,0.01,0,121,0.01,0,113,0.01,0,0.01,208,211,137,21,0.01,0,50,0.01,0,0.01,143,203,214,0.01,0
46,0.01,141,114,0.01,188,204,220,13,181,158,81,0.01,0,0.01,173,177,206,218,173,140,210,45,64,0.01,76,0.01,91,182,0.01,13,120,169,161,159,95,43,0.01,0,0.01,0,0.01,0,97,168,137,175,173,93,0.01,0,117,158,0.01,0,15,172,0.01,214,195,112,0.01,0,0.01,0,0.01,0,146,0.01,0,0.01,0,140,0.01,0,121,0.01,0,113,0.01,0,0.01,208,211,137,21,0.01,0,50,0.01,0,0.01,143,203,214,0.01,0
46.25,0.01,141,114,0.01,188,204,220,13,181,158,81,0.01,0,0.01,173,177,206,218,173,140,210,45,64,0.01,76,0.01,91,182,0.01,13,120,169,161,159,95,43,0.01,0,0.01,0,0.01,0,97,168,137,175,173,93,0.01,0,117,158,0.01,0,15,172,0.01,216,195,112,0.01,0,0.01,0,0.01,0,146,0.01,0,0.01,0,140,0.01,0,121,0.01,0,113,0.01,0,0.01,208,211,137,21,0.01,0,50,0.01,0,0.01,143,203,214,0.01,0
46.5,0.01,140,113,0.01,187,203,219,12,180,157,80,0.01,0,0.01,172,176,205,217,172,139,209,44,63,0.01,75,0.01,90,181,0.01,12,120,168,160,158,94,42,0.01,0,0.01,0,0.01,0,96,167,136,174,172,92,0.01,0,116,157,0.01,0,14,171,0.01,215,194,111,0.01,0,0.01,0,0.01,0,145,0.01,0,0.01,0,139,0.01,0,120,0.01,0,112,0.01,0,0.01,207,210,136,20,0.01,0,53,0.01,0,0.01,142,202,213,0.01,0
46.75,0.01,140,113,0.01,187,203,219,12,180,157,80,0.01,0,0.01,172,176,205,217,172,142,209,44,63,0.01,75,0.01,90,181,0.01,12,121,168,160,158,94,42,0.01,0,0.01,0,0.01,0,96,167,137,174,172,92,0.01,0,116,157,0.01,0,14,171,0.01,215,194,111,0.01,0,0.01,0,0.01,0,145,0.01,0,0.01,0,139,0.01,0,120,0.01,0,112,0.01,0,0.01,207,210,136,20,0.01,0,53,0.01,0,0.01,142,202,213,0.01,0
47,0.01,140,113,0.01,187,203,219,12,180,157,80,0.01,0,0.01,172,176,205,217,172,142,209,44,63,0.01,75,0.01,90,181,0.01,12,121,168,160,158,94,42,0.01,0,0.01,0,0.01,0,96,167,137,174,172,92,0.01,0,116,157,0.01,0,14,171,0.01,216,194,111,0.01,0,0.01,0,0.01,0,145,0.01,0,0.01,0,139,0.01,0,120,0.01,0,112,0.01,0,0.01,207,210,136,20,0.01,0,53,0.01,0,0.01,142,202,213,0.01,0
47.25,0.01,140,113,0.01,187,203,219,12,180,157,80,0.01,0,0.01,172,176,205,217,172,142,209,44,63,0.01,75,0.01,90,181,0.01,12,121,168,160,158,94,42,0.01,0,0.01,0,0.01,0,96,167,138,174,172,92,0.01,0,116,157,0.01,0,14,171,0.01,216,194,111,0.01,0,0.01,0,0.01,0,145,0.01,0,0.01,0,139,0.01,0,120,0.01,0,112,0.01,0,0.01,207,210,136,20,0.01,0,53,0.01,0,0.01,142,202,213,0.01,0
47.5,0.01,139,112,0.01,186,202,218,11,179,156,79,0.01,0,0.01,171,175,204,216,171,141,208,43,62,0.01,74,0.01,89,180,0.01,11,120,167,159,157,93,41,0.01,0,0.01,0,0.01,0,95,166,137,173,171,91,0.01,0,115,156,0.01,0,13,170,0.01,217,193,110,0.01,0,0.01,0,0.01,0,144,0.01,0,0.01,0,138,0.01,0,119,0.01,0,111,0.01,0,0.01,206,209,135,19,0.01,0,52,0.01,0,0.01,141,201,212,0.01,0
47.75,0.01,139,112,0.01,186,202,218,11,179,156,79,0.01,0,0.01,171,175,204,216,171,141,208,43,62,0.01,74,0.01,89,180,0.01,11,120,167,159,157,93,41,0.01,0,0.01,0,0.01,0,95,166,137,173,171,91,0.01,0,115,156,0.01,0,13,170,0.01,217,193,110,0.01,0,0.01,0,0.01,0,144,0.01,0,0.01,0,138,0.01,0,119,0.01,0,111,0.01,0,0.01,206,209,135,19,0.01,0,52,0.01,0,0.01,141,201,212,0.01,0
