Data File    , C:\Program Files\Biolog\OL_DC_23\PMX\Data_2013\07\PMX_443_130705_A_02.OKA,,,,,,,,,,,,,,,,,,,,,,,,,,,,,,,,,,,,,,,,,,,,,,,,,,,,,,,,,,,,,,,,,,,,,,,,,,,,,,,,,,,,,,,,,,,,,,,
Set up Time  ,Jul 05 2013 11:57 AM,,,,,,,,,,,,,,,,,,,,,,,,,,,,,,,,,,,,,,,,,,,,,,,,,,,,,,,,,,,,,,,,,,,,,,,,,,,,,,,,,,,,,,,,,,,,,,,
Position     , 1-B,,,,,,,,,,,,,,,,,,,,,,,,,,,,,,,,,,,,,,,,,,,,,,,,,,,,,,,,,,,,,,,,,,,,,,,,,,,,,,,,,,,,,,,,,,,,,,,
Plate Type   ,PM 1-,,,,,,,,,,,,,,,,,,,,,,,,,,,,,,,,,,,,,,,,,,,,,,,,,,,,,,,,,,,,,,,,,,,,,,,,,,,,,,,,,,,,,,,,,,,,,,,
Strain Type  ,---,,,,,,,,,,,,,,,,,,,,,,,,,,,,,,,,,,,,,,,,,,,,,,,,,,,,,,,,,,,,,,,,,,,,,,,,,,,,,,,,,,,,,,,,,,,,,,,
Sample Number,,,,,,,,,,,,,,,,,,,,,,,,,,,,,,,,,,,,,,,,,,,,,,,,,,,,,,,,,,,,,,,,,,,,,,,,,,,,,,,,,,,,,,,,,,,,,,,,
Strain Name  ,rep2,,,,,,,,,,,,,,,,,,,,,,,,,,,,,,,,,,,,,,,,,,,,,,,,,,,,,,,,,,,,,,,,,,,,,,,,,,,,,,,,,,,,,,,,,,,,,,,
Strain Number,299-JUL8,,,,,,,,,,,,,,,,,,,,,,,,,,,,,,,,,,,,,,,,,,,,,,,,,,,,,,,,,,,,,,,,,,,,,,,,,,,,,,,,,,,,,,,,,,,,,,,
Other        ,,,,,,,,,,,,,,,,,,,,,,,,,,,,,,,,,,,,,,,,,,,,,,,,,,,,,,,,,,,,,,,,,,,,,,,,,,,,,,,,,,,,,,,,,,,,,,,,
,,,,,,,,,,,,,,,,,,,,,,,,,,,,,,,,,,,,,,,,,,,,,,,,,,,,,,,,,,,,,,,,,,,,,,,,,,,,,,,,,,,,,,,,,,,,,,,,
Hour,  A01,  A02,  A03,  A04,  A05,  A06,  A07,  A08,  A09,  A10,  A11,  A12,  B01,  B02,  B03,  B04,  B05,  B06,  B07,  B08,  B09,  B10,  B11,  B12,  C01,  C02,  C03,  C04,  C05,  C06,  C07,  C08,  C09,  C10,  C11,  C12,  D01,  D02,  D03,  D04,  D05,  D06,  D07,  D08,  D09,  D10,  D11,  D12,  E01,  E02,  E03,  E04,  E05,  E06,  E07,  E08,  E09,  E10,  E11,  E12,  F01,  F02,  F03,  F04,  F05,  F06,  F07,  F08,  F09,  F10,  F11,  F12,  G01,  G02,  G03,  G04,  G05,  G06,  G07,  G08,  G09,  G10,  G11,  G12,  H01,  H02,  H03,  H04,  H05,  H06,  H07,  H08,  H09,  H10,  H11,  H12
0,0.01,5,0.01,0,0.01,0,0.01,0,0.01,0,4,9,0.01,0,0.01,0,0.01,0,0.01,0,0.01,0,0.01,0,0.01,0,0.01,0,0.01,0,0.01,0,0.01,0,0.01,0,0.01,0,0.01,0,0.01,0,0.01,0,0.01,0,0.01,0,0.01,0,0.01,0,0.01,0,0.01,0,0.01,0,0.01,0,0.01,0,0.01,0,0.01,0,0.01,0,0.01,0,0.01,0,0.01,0,0.01,0,0.01,0,0.01,0,0.01,0,0.01,0,0.01,0,0.01,0,0.01,0,0.01,0,0.01,0,0.01,0
0.25,0.01,5,0.01,0,0.01,0,0.01,0,0.01,0,8,11,0.01,0,0.01,0,0.01,0,0.01,0,0.01,0,0.01,1,0.01,0,0.01,0,0.01,0,0.01,0,0.01,0,0.01,0,0.01,0,0.01,0,0.01,0,0.01,0,0.01,0,0.01,1,0.01,0,0.01,0,0.01,0,0.01,0,0.01,0,0.01,0,0.01,0,0.01,0,0.01,0,0.01,0,0.01,0,0.01,0,0.01,0,0.01,0,0.01,0,0.01,0,0.01,0,0.01,0,0.01,0,0.01,0,0.01,0,0.01,0,0.01,0,0.01,0
0.5,0.01,4,0.01,0,0.01,0,0.01,0,0.01,0,9,11,0.01,0,0.01,0,0.01,0,0.01,0,0.01,0,0.01,0,0.01,0,0.01,0,0.01,0,0.01,0,0.01,0,0.01,0,0.01,0,0.01,0,0.01,0,0.01,0,0.01,0,0.01,1,0.01,0,0.01,0,0.01,0,0.01,0,0.01,0,0.01,0,0.01,0,0.01,0,0.01,0,0.01,0,0.01,0,0.01,0,0.01,0,0.01,0,0.01,0,0.01,0,0.01,0,0.01,0,0.01,0,0.01,0,0.01,0,0.01,0,0.01,0,0.01,0
0.75,0.01,4,0.01,0,0.01,0,0.01,0,0.01,0,9,13,0.01,0,0.01,0,0.01,0,0.01,0,0.01,0,0.01,0,0.01,0,0.01,0,0.01,0,0.01,0,0.01,0,0.01,0,0.01,0,0.01,0,0.01,0,0.01,0,0.01,0,0.01,2,0.01,0,0.01,0,0.01,0,0.01,0,0.01,0,0.01,0,0.01,0,0.01,0,0.01,0,0.01,0,0.01,0,0.01,0,0.01,0,0.01,0,0.01,0,0.01,0,0.01,0,0.01,0,0.01,0,0.01,0,0.01,0,0.01,0,0.01,0,0.01,0
1,0.01,0,0.01,0,0.01,0,0.01,0,0.01,0,5,8,0.01,0,0.01,0,0.01,0,0.01,0,0.01,0,0.01,0,0.01,0,0.01,0,0.01,0,0.01,0,0.01,0,0.01,0,0.01,0,0.01,0,0.01,0,0.01,0,0.01,0,0.01,0,0.01,0,0.01,0,0.01,0,0.01,0,0.01,0,0.01,0,0.01,0,0.01,0,0.01,0,0.01,0,0.01,0,0.01,0,0.01,0,0.01,0,0.01,0,0.01,0,0.01,0,0.01,0,0.01,0,0.01,0,0.01,0,0.01,0,0.01,0,0.01,0
1.25,0.01,0,0.01,0,0.01,0,0.01,5,1,0.01,3,11,0.01,0,0.01,0,0.01,0,0.01,0,0.01,0,0.01,0,0.01,0,0.01,0,0.01,0,0.01,0,0.01,0,0.01,0,0.01,0,0.01,0,0.01,0,0.01,0,0.01,0,0.01,0,0.01,0,0.01,0,0.01,0,0.01,0,0.01,0,0.01,0,0.01,0,0.01,0,0.01,0,0.01,0,0.01,0,0.01,0,0.01,0,0.01,0,0.01,0,0.01,0,0.01,0,0.01,0,0.01,0,0.01,0,0.01,0,0.01,0,0.01,0,0.01,0
1.5,0.01,0,0.01,0,0.01,0,0.01,4,0.01,0,0.01,5,0.01,0,0.01,0,0.01,0,0.01,0,0.01,0,0.01,0,0.01,0,0.01,0,0.01,0,0.01,0,0.01,0,0.01,0,0.01,0,0.01,0,0.01,0,0.01,0,0.01,0,0.01,0,0.01,0,0.01,0,0.01,0,0.01,0,0.01,0,0.01,0,0.01,0,0.01,0,0.01,0,0.01,0,0.01,0,0.01,0,0.01,0,0.01,0,0.01,0,0.01,0,0.01,0,0.01,0,0.01,0,0.01,0,0.01,0,0.01,0,0.01,0,0.01,0
1.75,0.01,0,0.01,0,0.01,0,0.01,8,2,0.01,0,6,0.01,0,3,0.01,0,0.01,0,0.01,6,0.01,0,0.01,0,0.01,0,0.01,0,0.01,0,0.01,0,0.01,0,0.01,0,0.01,0,0.01,0,0.01,0,0.01,0,0.01,0,1,0.01,0,0.01,0,0.01,0,0.01,0,0.01,0,0.01,0,0.01,0,0.01,0,0.01,0,0.01,0,0.01,0,0.01,0,0.01,0,0.01,0,0.01,0,0.01,0,0.01,0,0.01,0,0.01,0,0.01,0,0.01,0,0.01,0,0.01,0,0.01,0
2,0.01,0,0.01,0,0.01,4,0.01,15,7,0.01,6,12,0.01,0,5,0.01,0,0.01,0,0.01,12,4,0.01,0,0.01,0,0.01,0,0.01,0,0.01,0,0.01,0,0.01,0,0.01,0,0.01,0,0.01,0,0.01,0,0.01,0,0.01,7,0.01,0,0.01,0,0.01,0,0.01,0,0.01,0,0.01,0,0.01,0,0.01,0,0.01,0,0.01,0,0.01,0,0.01,0,0.01,0,0.01,0,0.01,0,0.01,1,0.01,0,0.01,2,0.01,0,0.01,0,0.01,0,0.01,0,0.01,0,0.01,0
2.25,0.01,0,0.01,0,3,6,0.01,15,7,0.01,6,12,0.01,0,11,0.01,0,0.01,0,0.01,15,9,0.01,0,0.01,0,0.01,0,0.01,0,0.01,0,0.01,1,0.01,0,0.01,0,0.01,0,0.01,0,0.01,0,0.01,0,0.01,7,0.01,0,4,0.01,0,0.01,0,0.01,0,0.01,0,0.01,0,0.01,0,0.01,0,0.01,0,0.01,0,0.01,0,0.01,0,0.01,2,0.01,0,0.01,0,5,0.01,0,0.01,5,0.01,0,0.01,0,0.01,0,0.01,1,0.01,0,0.01,0
2.5,0.01,0,0.01,0,6,15,3,22,11,7,15,16,0.01,1,17,6,0.01,0,0.01,0,29,18,0.01,0,0.01,0,0.01,0,0.01,0,0.01,2,0.01,7,6,0.01,0,0.01,0,0.01,0,0.01,0,3,0.01,0,6,17,0.01,0,9,0.01,0,0.01,0,0.01,0,0.01,0,9,0.01,0,0.01,0,0.01,0,0.01,0,0.01,0,0.01,6,3,0.01,10,0.01,0,0.01,0,12,0.01,0,6,13,4,0.01,0,0.01,0,0.01,6,9,0.01,0,0.01,0
2.75,0.01,0,0.01,0,9,15,4,22,11,9,15,16,0.01,1,21,10,0.01,0,0.01,0,33,21,0.01,0,0.01,0,0.01,1,0.01,0,0.01,4,0.01,11,7,4,0.01,0,0.01,0,0.01,0,0.01,9,0.01,0,9,21,0.01,0,13,0.01,0,0.01,1,2,0.01,0,4,15,0.01,0,0.01,0,0.01,0,0.01,0,0.01,0,0.01,9,6,0.01,17,0.01,0,0.01,0,15,0.01,0,10,16,10,0.01,0,0.01,0,0.01,10,15,0.01,0,0.01,0
3,0.01,2,0.01,0,12,19,4,21,10,13,16,15,0.01,0,22,13,0.01,0,1,0.01,40,25,0.01,0,0.01,0,3,4,0.01,0,0.01,7,0.01,15,11,8,0.01,0,0.01,0,0.01,0,1,11,0.01,0,13,24,0.01,0,16,0.01,0,0.01,4,2,0.01,0,8,21,0.01,0,0.01,0,0.01,0,0.01,0,0.01,0,0.01,11,5,0.01,17,0.01,0,0.01,0,17,0.01,0,13,20,13,0.01,0,0.01,0,0.01,12,18,0.01,0,0.01,0
3.25,0.01,5,0.01,0,15,19,6,22,11,17,16,15,0.01,0,25,19,1,0.01,3,0.01,47,31,1,1,0.01,0,5,10,0.01,0,0.01,11,0.01,19,15,14,0.01,0,0.01,0,0.01,0,4,20,0.01,0,19,29,0.01,0,22,0.01,0,0.01,7,4,0.01,2,16,30,5,0.01,0,0.01,0,0.01,0,0.01,0,0.01,0,22,10,0.01,22,0.01,0,3,0.01,22,0.01,0,19,25,23,0.01,0,0.01,0,0.01,18,25,0.01,0,0.01,0
3.5,0.01,11,0.01,0,16,19,10,24,15,24,20,15,0.01,0,34,22,7,0.01,5,0.01,57,35,4,2,0.01,0,7,14,0.01,0,0.01,13,0.01,25,17,19,8,0.01,0,0.01,0,0.01,8,25,5,1,23,34,3,0.01,27,0.01,0,0.01,12,6,0.01,7,22,41,9,0.01,0,0.01,0,0.01,0,0.01,0,0.01,0,27,14,0.01,22,0.01,1,7,0.01,26,0.01,0,25,29,32,0.01,0,0.01,0,0.01,23,32,0.01,0,0.01,0
3.75,0.01,19,0.01,0,18,20,10,26,15,26,22,17,0.01,0,45,26,11,0.01,8,0.01,63,36,7,3,0.01,0,9,16,0.01,0,0.01,17,0.01,27,19,26,8,0.01,0,0.01,0,0.01,11,30,7,2,28,37,3,0.01,29,0.01,0,0.01,13,8,0.01,9,28,45,9,0.01,0,0.01,0,0.01,0,0.01,0,0.01,0,33,14,0.01,25,0.01,2,12,0.01,27,1,0.01,28,32,32,0.01,0,0.01,0,0.01,25,37,0.01,0,0.01,0
4,0.01,23,4,0.01,17,21,8,23,15,29,25,17,0.01,1,49,24,13,0.01,6,0.01,69,38,7,2,1,0.01,5,19,0.01,0,0.01,15,0.01,29,19,25,4,0.01,0,0.01,0,0.01,9,28,6,0.01,26,39,5,0.01,29,0.01,0,0.01,13,4,0.01,9,31,50,5,0.01,0,0.01,0,0.01,0,0.01,0,0.01,0,34,11,0.01,28,0.01,0,12,0.01,25,0.01,0,26,28,28,0.01,0,0.01,0,0.01,22,35,0.01,0,0.01,0
4.25,0.01,26,4,0.01,17,21,8,23,15,30,25,17,0.01,1,54,27,15,0.01,6,0.01,69,38,7,2,1,0.01,5,20,0.01,0,0.01,15,0.01,30,19,25,4,0.01,0,0.01,0,0.01,9,30,6,0.01,28,39,5,0.01,29,0.01,0,0.01,13,4,0.01,9,31,50,5,0.01,0,0.01,0,0.01,0,0.01,0,0.01,0,37,12,0.01,30,0.01,3,12,0.01,25,0.01,0,27,28,32,0.01,0,0.01,0,0.01,22,37,1,0.01,0,0
4.5,0.01,38,4,0.01,18,21,8,23,15,32,25,17,0.01,3,63,27,21,0.01,6,0.01,69,38,7,2,3,0.01,5,20,0.01,0,0.01,17,0.01,34,19,25,4,0.01,0,0.01,0,0.01,9,33,6,0.01,28,39,5,0.01,30,0.01,0,0.01,13,4,0.01,9,32,50,5,0.01,0,0.01,0,0.01,0,0.01,0,0.01,0,38,15,0.01,33,0.01,6,13,0.01,25,0.01,0,27,28,37,0.01,0,0.01,0,0.01,22,39,5,0.01,0,0
4.75,0.01,38,6,0.01,18,21,8,23,15,38,29,17,0.01,3,67,34,24,0.01,6,0.01,77,38,10,2,4,0.01,5,24,0.01,0,0.01,19,0.01,38,24,28,4,0.01,0,0.01,0,0.01,10,33,8,0.01,34,44,5,0.01,36,0.01,0,0.01,13,4,0.01,15,40,51,5,0.01,0,0.01,0,0.01,0,0.01,0,0.01,0,44,15,0.01,38,0.01,6,19,0.01,25,0.01,0,32,28,37,0.01,0,0.01,0,0.01,22,44,7,0.01,0,0
5,0.01,43,11,0.01,16,21,6,21,13,43,35,15,0.01,1,74,41,29,0.01,8,1,84,42,13,0.01,8,0.01,4,26,0.01,0,0.01,22,0.01,43,27,33,2,0.01,0,0.01,0,0.01,10,35,12,0.01,38,48,3,0.01,39,1,0.01,0,11,2,0.01,19,47,54,3,0.01,0,0.01,0,0.01,2,0.01,0,0.01,0,49,13,0.01,44,0.01,4,21,0.01,25,0.01,0,34,27,35,0.01,0,0.01,0,0.01,21,49,9,0.01,0,0
5.25,0.01,44,12,0.01,18,23,7,24,16,50,43,15,0.01,1,82,45,36,5,8,8,89,46,19,1,10,0.01,8,32,0.01,0,0.01,24,0.01,48,32,40,2,0.01,0,0.01,0,0.01,11,40,16,0.01,44,61,3,0.01,44,7,0.01,0,14,4,0.01,23,54,57,7,0.01,0,0.01,0,0.01,8,0.01,0,0.01,0,56,15,0.01,53,0.01,5,23,0.01,29,0.01,0,38,32,41,0.01,0,0.01,0,0.01,27,56,17,6,0.01,0
5.5,0.01,50,12,0.01,18,23,7,24,16,50,43,15,0.01,1,86,46,40,5,8,8,89,46,19,1,11,0.01,8,35,0.01,0,0.01,24,0.01,48,32,40,2,0.01,0,0.01,0,0.01,11,40,16,0.01,44,61,3,0.01,45,10,0.01,0,14,4,0.01,25,54,57,7,0.01,0,0.01,0,0.01,8,0.01,0,0.01,0,56,16,0.01,56,0.01,5,23,0.01,29,0.01,0,38,32,45,0.01,0,0.01,0,0.01,27,56,17,6,0.01,0
5.75,0.01,52,18,0.01,18,29,8,24,16,56,47,15,0.01,1,93,54,44,7,9,12,97,48,21,2,20,0.01,8,45,0.01,0,1,27,0.01,55,35,43,2,0.01,0,0.01,0,0.01,11,47,21,0.01,49,67,3,0.01,52,23,0.01,0,14,4,0.01,30,63,58,7,0.01,0,0.01,0,0.01,10,0.01,0,0.01,0,63,16,0.01,65,0.01,6,28,0.01,29,0.01,0,38,32,45,0.01,0,0.01,0,0.01,27,63,20,11,0.01,0
6,0.01,56,18,0.01,18,29,8,24,16,56,47,15,0.01,1,96,54,47,7,9,15,97,48,21,2,31,0.01,8,47,0.01,0,2,27,0.01,55,36,43,2,0.01,0,0.01,0,0.01,11,47,21,0.01,49,67,3,0.01,52,33,0.01,0,14,4,0.01,30,63,58,7,0.01,0,0.01,0,0.01,10,0.01,0,0.01,0,63,16,0.01,68,0.01,6,28,0.01,29,0.01,0,38,32,45,0.01,0,0.01,0,0.01,27,63,20,11,0.01,0
6.25,0.01,60,24,0.01,19,40,10,25,17,62,52,15,0.01,1,105,64,53,14,12,21,105,51,25,4,46,0.01,10,57,0.01,0,6,29,3,62,40,48,2,0.01,0,0.01,0,0.01,14,52,26,0.01,55,74,3,0.01,60,50,0.01,0,18,7,0.01,38,74,65,8,0.01,0,0.01,0,0.01,15,0.01,0,0.01,0,68,17,0.01,79,0.01,10,34,0.01,33,2,0.01,40,33,45,0.01,0,0.01,0,0.01,30,73,28,17,0.01,0
6.5,0.01,65,24,0.01,19,40,10,25,17,62,52,15,0.01,1,110,64,58,14,12,23,105,51,25,4,61,0.01,10,59,0.01,0,8,30,3,62,42,50,2,0.01,0,0.01,0,0.01,14,53,26,0.01,55,74,3,0.01,61,61,0.01,0,18,7,0.01,38,74,69,8,0.01,0,0.01,0,0.01,16,0.01,0,0.01,0,71,17,0.01,80,0.01,10,34,0.01,33,2,0.01,40,33,51,0.01,0,0.01,0,0.01,30,73,29,19,0.01,0
6.75,0.01,69,27,0.01,20,47,10,25,17,65,52,15,1,1,110,66,63,15,12,27,107,51,25,4,69,0.01,10,63,0.01,0,9,32,5,65,42,50,2,0.01,0,0.01,0,0.01,14,56,28,0.01,57,74,3,0.01,64,75,0.01,0,18,7,0.01,42,76,72,8,0.01,0,0.01,0,0.01,16,0.01,0,0.01,0,72,17,0.01,84,0.01,10,36,0.01,33,2,0.01,40,33,51,0.01,0,0.01,0,0.01,30,75,29,21,0.01,0
7,0.01,70,27,0.01,20,47,10,25,17,65,52,15,1,1,117,66,64,15,12,27,107,51,25,4,79,0.01,10,67,0.01,0,10,32,5,65,42,50,2,0.01,0,0.01,0,0.01,14,57,28,0.01,58,74,3,0.01,64,81,0.01,0,18,7,0.01,42,76,76,8,0.01,0,0.01,0,0.01,17,0.01,0,0.01,0,75,17,0.01,86,0.01,10,37,0.01,33,2,0.01,40,33,56,0.01,0,0.01,0,0.01,30,75,30,21,0.01,0
7.25,0.01,71,31,0.01,20,59,11,26,18,74,62,15,1,1,125,76,70,20,13,33,120,58,31,4,82,0.01,11,78,0.01,0,15,37,9,73,50,60,2,0.01,0,0.01,0,0.01,14,64,35,1,65,81,3,0.01,71,96,0.01,0,19,7,0.01,47,88,82,8,0.01,0,0.01,0,0.01,22,0.01,0,0.01,0,80,17,0.01,94,0.01,13,43,0.01,33,2,3,42,33,56,0.01,0,0.01,0,0.01,30,88,38,29,0.01,0
7.5,0.01,74,34,0.01,20,64,11,26,18,75,62,15,1,2,125,76,75,24,13,36,123,58,31,4,90,0.01,11,81,0.01,0,16,41,10,75,50,61,2,0.01,0,0.01,0,0.01,15,68,37,1,69,83,3,0.01,76,106,0.01,0,19,7,0.01,50,92,87,8,0.01,0,0.01,0,0.01,25,0.01,0,0.01,0,81,17,0.01,95,0.01,14,49,0.01,33,2,8,42,33,56,0.01,0,0.01,0,0.01,30,93,39,33,0.01,0
7.75,0.01,75,35,0.01,23,70,16,26,21,81,68,18,1,2,131,84,79,31,16,41,126,63,37,6,98,0.01,12,87,0.01,0,22,46,15,78,55,66,2,0.01,0,0.01,0,0.01,17,70,41,3,75,87,3,0.01,81,114,0.01,0,23,10,0.01,53,99,98,10,0.01,0,0.01,0,0.01,30,0.01,0,0.01,1,89,21,0.01,100,0.01,18,52,0.01,37,4,18,46,38,56,0.01,0,0.01,0,0.01,34,99,46,41,0.01,0
8,0.01,81,35,0.01,23,70,16,26,21,81,68,18,1,2,131,84,81,33,16,41,126,63,37,6,100,0.01,12,87,0.01,0,22,46,15,78,55,66,2,0.01,0,0.01,0,0.01,17,70,41,3,75,87,3,0.01,81,114,0.01,0,23,10,0.01,53,99,101,10,0.01,0,0.01,0,0.01,30,0.01,0,0.01,1,89,21,0.01,100,0.01,18,52,0.01,37,4,18,46,38,58,0.01,0,0.01,0,0.01,34,99,46,41,0.01,0
8.25,0.01,81,35,0.01,23,70,16,26,21,81,68,18,1,2,131,84,82,39,16,41,126,63,37,6,103,0.01,12,90,0.01,0,22,46,15,78,55,66,2,0.01,0,0.01,0,0.01,17,72,41,3,75,87,3,0.01,81,119,0.01,0,23,10,0.01,53,99,107,10,0.01,0,0.01,0,0.01,30,0.01,0,0.01,1,89,21,0.01,100,0.01,18,52,0.01,37,4,22,46,38,58,0.01,0,0.01,0,0.01,34,99,46,46,0.01,0
8.5,0.01,81,35,0.01,23,81,16,26,21,84,68,18,1,2,137,85,84,51,16,44,135,63,38,6,105,0.01,12,96,0.01,0,23,47,15,84,56,70,2,0.01,0,0.01,0,0.01,17,78,42,3,82,88,3,0.01,84,129,0.01,0,23,10,0.01,57,108,111,10,0.01,0,0.01,0,0.01,30,0.01,0,0.01,1,92,21,0.01,102,0.01,18,57,0.01,37,4,35,46,38,58,0.01,0,0.01,0,0.01,34,107,47,57,0.01,0
8.75,0.01,87,40,0.01,24,88,16,27,21,89,75,18,1,2,142,90,93,63,17,50,139,65,43,6,109,0.01,13,103,0.01,0,29,52,17,87,61,75,2,0.01,0,0.01,0,0.01,19,83,47,3,85,92,3,0.01,87,134,0.01,0,25,10,0.01,62,119,120,10,0.01,0,0.01,0,0.01,35,0.01,0,0.01,1,96,21,0.01,106,0.01,18,59,0.01,37,4,43,46,38,58,0.01,0,0.01,0,0.01,34,112,52,100,0.01,0
9,0.01,95,43,0.01,24,88,16,27,21,90,75,18,3,3,142,91,101,72,17,52,139,65,43,6,115,0.01,14,103,0.01,0,31,52,17,90,61,77,2,0.01,0,0.01,2,0.01,19,86,47,3,88,92,3,0.01,89,137,0.01,0,25,10,0.01,65,120,125,10,0.01,0,0.01,0,0.01,36,0.01,0,0.01,1,101,21,0.01,108,0.01,20,63,0.01,37,4,47,46,38,60,0.01,0,0.01,0,0.01,34,113,53,100,0.01,0
9.25,0.01,99,45,0.01,24,91,16,27,21,93,75,18,5,6,144,92,108,80,17,55,139,65,43,6,118,0.01,14,107,0.01,0,33,54,17,95,62,79,2,0.01,0,0.01,2,0.01,20,89,48,3,89,92,3,0.01,93,140,2,0.01,25,10,0.01,69,127,128,10,0.01,0,0.01,0,0.01,37,0.01,0,0.01,1,101,21,0.01,112,0.01,21,66,0.01,37,5,53,46,38,63,0.01,0,0.01,1,0.01,34,114,55,100,0.01,0
9.5,0.01,99,47,0.01,26,101,18,28,24,98,81,19,5,6,150,98,110,92,20,58,148,71,49,8,118,0.01,15,115,2,0.01,37,62,22,97,69,83,4,0.01,0,0.01,3,0.01,24,93,53,6,95,98,3,0.01,98,147,2,0.01,32,12,0.01,70,139,133,10,0.01,0,0.01,0,0.01,43,0.01,0,0.01,4,106,21,0.01,116,0.01,21,71,0.01,38,8,59,50,39,63,0.01,0,0.01,1,0.01,35,124,60,100,0.01,0
9.75,0.01,99,47,0.01,26,103,18,30,24,100,81,19,5,6,151,101,115,99,21,61,152,71,51,8,120,0.01,16,118,3,0.01,39,62,23,98,71,86,4,0.01,0,0.01,3,0.01,24,96,55,6,98,99,3,0.01,101,149,2,0.01,32,12,0.01,72,145,136,10,0.01,0,0.01,0,0.01,44,0.01,0,0.01,4,109,21,0.01,119,0.01,22,75,0.01,38,8,63,50,40,63,0.01,0,0.01,1,0.01,36,128,64,103,0.01,0
10,0.01,99,47,0.01,26,103,18,30,24,100,81,19,5,6,151,101,119,101,21,61,152,71,51,8,120,0.01,16,118,3,0.01,39,62,23,100,71,86,4,0.01,0,0.01,3,0.01,24,96,55,6,98,99,3,0.01,101,150,2,0.01,32,12,0.01,72,145,136,10,0.01,0,0.01,0,0.01,44,0.01,0,0.01,4,109,21,0.01,119,0.01,22,75,0.01,38,8,63,50,40,63,0.01,0,0.01,1,0.01,36,128,64,110,0.01,0
10.25,0.01,106,48,0.01,26,103,18,30,24,101,81,19,5,6,151,101,127,109,21,62,152,71,51,8,123,0.01,16,120,3,0.01,40,62,23,103,71,88,4,0.01,0,0.01,3,0.01,24,100,55,6,100,99,3,0.01,108,150,2,0.01,32,12,0.01,73,145,140,10,0.01,0,0.01,0,0.01,44,0.01,0,0.01,4,110,21,0.01,120,0.01,22,78,0.01,38,8,65,50,40,63,0.01,0,0.01,1,0.01,36,128,65,112,0.01,0
10.5,0.01,112,49,0.01,27,107,18,30,24,105,81,19,5,6,153,104,132,117,21,67,152,71,51,8,132,0.01,16,123,3,0.01,42,63,23,105,74,91,4,0.01,0,0.01,3,0.01,25,102,55,6,104,99,3,0.01,115,151,2,0.01,32,12,0.01,75,145,145,10,0.01,0,0.01,0,0.01,49,0.01,0,0.01,4,113,21,0.01,122,0.01,23,82,0.01,38,8,68,50,40,67,0.01,0,0.01,2,0.01,36,129,72,121,0.01,0
10.75,0.01,112,52,0.01,28,116,20,30,25,110,90,25,5,6,158,109,135,123,22,69,161,78,57,8,132,0.01,18,128,4,0.01,47,72,26,109,79,96,4,0.01,0,0.01,3,0.01,29,107,60,6,107,106,3,0.01,123,158,2,0.01,38,14,0.01,77,159,148,10,0.01,0,0.01,0,0.01,53,0.01,0,0.01,5,121,21,0.01,126,0.01,25,85,0.01,41,9,75,51,44,67,0.01,0,0.01,2,0.01,36,140,75,132,0.01,0
11,0.01,112,53,0.01,28,117,20,30,25,110,90,25,5,6,159,109,139,127,22,70,161,78,57,8,132,0.01,18,129,4,0.01,47,73,26,109,80,98,4,0.01,0,0.01,4,0.01,29,109,60,6,109,107,3,0.01,128,161,2,0.01,38,14,0.01,82,159,148,10,0.01,0,0.01,0,0.01,53,0.01,0,0.01,5,121,21,0.01,127,0.01,25,89,0.01,41,9,75,51,44,67,0.01,0,0.01,2,0.01,36,140,75,136,0.01,0
11.25,0.01,113,53,0.01,28,117,20,30,25,112,90,25,5,6,161,110,145,132,22,72,161,78,57,8,132,0.01,18,130,4,0.01,48,73,26,112,82,105,4,0.01,0,0.01,4,0.01,29,110,60,6,110,109,3,0.01,133,161,2,0.01,38,14,0.01,84,159,150,10,0.01,0,0.01,0,0.01,55,0.01,0,0.01,5,122,21,0.01,128,0.01,25,91,0.01,41,9,75,51,44,67,0.01,0,0.01,2,0.01,36,140,78,138,0.01,0
11.5,0.01,116,53,0.01,28,119,20,30,25,112,90,25,5,6,161,110,146,136,22,72,164,78,57,8,132,0.01,18,131,4,0.01,48,74,26,112,82,108,4,0.01,0,0.01,4,0.01,29,111,60,6,110,109,3,0.01,135,162,2,0.01,38,14,0.01,86,159,151,10,0.01,0,0.01,0,0.01,55,0.01,0,0.01,5,122,21,0.01,129,0.01,25,93,0.01,41,9,75,51,44,67,0.01,0,0.01,2,0.01,36,141,79,143,0.01,0
11.75,0.01,116,56,0.01,30,128,20,30,25,115,94,32,5,6,163,113,152,143,23,76,172,78,61,8,132,0.01,20,136,4,0.01,52,81,26,114,86,115,4,0.01,0,0.01,4,0.01,33,114,62,6,115,112,3,0.01,140,167,2,0.01,43,14,0.01,89,167,155,10,0.01,0,0.01,0,0.01,58,0.01,0,0.01,5,125,21,0.01,133,0.01,25,100,0.01,41,9,79,53,46,67,0.01,0,0.01,2,0.01,36,146,83,151,0.01,0
12,0.01,117,56,0.01,30,128,20,30,25,117,96,34,5,6,164,117,153,145,23,78,174,79,61,8,132,0.01,20,140,4,0.01,53,83,26,116,89,120,4,0.01,0,0.01,4,0.01,34,118,63,6,115,114,3,0.01,146,167,2,0.01,45,14,0.01,92,169,156,10,0.01,0,0.01,0,0.01,61,0.01,0,0.01,5,128,21,0.01,133,0.01,25,101,0.01,41,9,82,53,47,67,0.01,0,0.01,2,0.01,36,146,90,153,0.01,0
12.25,0.01,118,56,0.01,30,130,20,30,25,118,96,34,5,6,164,117,156,147,23,78,175,79,61,8,132,0.01,20,140,4,0.01,53,84,26,116,89,124,4,0.01,0,0.01,4,0.01,34,120,63,6,118,114,3,0.01,147,169,2,0.01,45,14,0.01,96,169,156,10,0.01,0,0.01,0,0.01,61,0.01,0,0.01,5,130,21,0.01,135,0.01,25,104,0.01,41,9,84,53,47,67,0.01,0,0.01,2,0.01,36,147,90,156,0.01,0
12.5,0.01,126,59,0.01,32,132,20,30,25,122,99,36,5,6,168,122,163,154,24,84,176,79,63,8,138,0.01,24,144,6,0.01,58,86,26,122,95,134,4,0.01,0,0.01,7,0.01,37,124,68,6,121,123,3,0.01,155,170,6,0.01,47,14,0.01,103,171,160,10,0.01,0,0.01,3,0.01,64,0.01,0,0.01,5,136,21,0.01,139,0.01,27,111,0.01,41,10,88,59,49,67,0.01,0,0.01,2,0.01,36,150,99,161,0.01,0
12.75,0.01,126,60,0.01,35,139,26,32,27,125,105,48,5,6,172,124,165,158,28,86,182,85,68,9,138,0.01,28,146,7,3,61,94,33,123,98,137,5,0.01,0,0.01,7,0.01,41,127,69,9,125,153,3,0.01,160,175,6,0.01,51,19,0.01,105,178,165,10,0.01,0,0.01,5,0.01,71,0.01,0,0.01,6,141,21,0.01,145,0.01,28,114,0.01,46,11,94,62,57,67,0.01,0,0.01,2,0.01,40,154,102,166,0.01,0
13,0.01,127,61,0.01,38,142,26,33,27,126,106,52,5,7,172,124,166,162,29,88,184,85,69,9,139,0.01,28,148,7,3,62,94,33,125,98,141,5,0.01,0,0.01,7,0.01,42,128,70,9,125,153,3,0.01,163,175,6,0.01,54,19,0.01,107,180,165,10,0.01,0,0.01,5,0.01,73,0.01,0,0.01,7,141,21,0.01,146,0.01,28,117,0.01,46,11,96,63,57,67,0.01,0,0.01,2,0.01,40,154,106,171,0.01,0
13.25,0.01,138,64,0.01,39,142,26,33,27,128,106,52,5,7,172,126,173,165,29,89,184,85,69,9,143,0.01,30,151,7,3,65,94,33,127,102,145,5,0.01,0,0.01,8,0.01,42,132,70,9,127,153,3,0.01,166,176,7,0.01,54,19,0.01,113,180,166,10,0.01,0,0.01,5,0.01,73,0.01,0,0.01,7,145,21,0.01,150,0.01,28,119,0.01,46,11,96,64,57,67,0.01,0,0.01,2,0.01,40,154,111,171,0.01,0
13.5,0.01,138,64,0.01,39,142,26,33,27,128,106,52,5,7,173,126,173,165,29,89,184,85,69,9,143,0.01,30,151,7,3,65,95,33,127,103,146,5,0.01,0,0.01,8,0.01,42,132,70,9,127,153,3,0.01,166,176,7,0.01,54,19,0.01,113,180,166,10,0.01,0,0.01,5,0.01,73,0.01,0,0.01,7,147,21,0.01,150,0.01,28,120,0.01,46,11,96,64,57,67,0.01,0,0.01,2,0.01,40,154,114,171,0.01,0
13.75,0.01,138,64,0.01,42,147,29,33,27,131,108,60,5,7,173,127,174,170,29,91,188,86,70,9,143,0.01,31,151,7,3,65,99,33,127,103,147,5,0.01,0,0.01,8,0.01,45,132,71,9,129,153,3,0.01,170,180,7,0.01,56,19,0.01,115,184,166,10,0.01,0,0.01,7,0.01,75,0.01,0,0.01,7,148,21,0.01,152,0.01,28,125,0.01,46,11,101,67,59,67,0.01,0,0.01,2,0.01,40,157,117,177,0.01,0
14,0.01,138,66,0.01,46,149,31,33,27,131,109,64,5,7,173,127,176,172,29,94,190,87,73,9,143,0.01,33,153,7,3,66,101,33,127,103,148,5,0.01,0,0.01,8,0.01,47,136,71,9,129,153,3,0.01,170,180,7,0.01,59,19,0.01,118,185,167,10,0.01,0,0.01,7,0.01,77,0.01,0,0.01,7,148,21,0.01,153,0.01,28,129,0.01,46,11,102,70,62,67,0.01,0,0.01,2,0.01,40,160,122,178,0.01,0
14.25,0.01,138,69,0.01,50,152,36,33,27,135,113,70,5,7,176,132,178,174,30,97,193,91,74,10,144,0.01,39,156,7,3,71,104,34,130,105,154,5,0.01,0,0.01,8,0.01,50,137,73,9,132,153,3,0.01,176,183,7,0.01,62,21,0.01,122,189,170,10,0.01,0,0.01,11,0.01,82,0.01,0,0.01,9,155,21,0.01,156,0.01,30,131,0.01,46,12,108,76,67,67,0.01,0,0.01,2,0.01,42,161,126,180,0.01,0
14.5,0.01,141,69,0.01,51,152,39,33,27,136,113,70,5,7,176,132,181,177,31,97,193,91,74,10,144,0.01,39,158,7,4,71,106,35,133,109,156,5,0.01,0,0.01,8,0.01,50,142,74,9,133,153,3,0.01,176,183,7,0.01,62,22,0.01,125,189,171,10,0.01,0,0.01,11,0.01,82,0.01,0,0.01,9,155,21,0.01,159,0.01,30,134,0.01,46,12,110,76,68,67,0.01,0,0.01,2,0.01,42,161,130,183,0.01,0
14.75,0.01,141,69,0.01,53,153,39,33,27,136,113,73,5,7,176,132,181,178,31,97,193,91,74,10,144,0.01,40,158,7,4,71,106,35,133,109,156,5,0.01,0,0.01,8,0.01,50,142,74,9,133,153,3,0.01,176,184,7,0.01,63,22,0.01,126,189,171,10,0.01,0,0.01,11,0.01,82,0.01,0,0.01,9,156,21,0.01,159,0.01,30,135,0.01,46,12,111,77,68,67,0.01,0,0.01,2,0.01,42,161,130,183,0.01,0
15,0.01,142,71,0.01,61,157,45,33,28,139,118,78,5,7,180,135,185,183,34,102,196,93,76,11,148,0.01,44,164,9,5,73,110,36,136,112,161,6,0.01,0,0.01,8,0.01,55,144,76,10,142,153,3,0.01,181,187,7,0.01,67,28,0.01,129,192,171,10,0.01,0,0.01,14,0.01,87,0.01,0,0.01,9,159,21,0.01,162,0.01,30,142,0.01,49,12,116,83,75,67,0.01,0,0.01,2,0.01,42,165,136,186,0.01,0
15.25,0.01,143,73,0.01,63,157,47,33,28,141,118,81,5,7,180,136,186,183,34,103,196,94,77,11,148,0.01,44,164,9,5,74,113,37,136,112,162,6,0.01,0,0.01,8,0.01,57,146,76,10,154,153,3,0.01,181,187,7,0.01,68,29,0.01,132,195,172,10,0.01,0,0.01,17,0.01,89,0.01,0,0.01,9,161,21,0.01,163,0.01,31,145,0.01,51,13,118,85,77,67,0.01,0,0.01,2,0.01,45,168,139,189,0.01,0
15.5,0.01,144,75,0.01,65,159,50,33,28,142,119,86,5,7,181,136,189,184,35,104,197,96,79,11,148,0.01,46,164,9,5,76,115,37,138,113,166,6,0.01,0,0.01,8,0.01,57,147,76,10,154,153,3,0.01,184,187,7,0.01,70,29,0.01,133,195,173,10,0.01,0,0.01,19,0.01,90,0.01,0,0.01,9,164,21,0.01,164,0.01,31,145,0.01,51,13,120,90,79,67,0.01,0,0.01,2,0.01,45,168,143,190,0.01,0
15.75,0.01,160,80,0.01,66,159,50,33,28,142,119,86,6,8,183,140,192,187,35,107,197,96,79,11,154,0.01,50,170,9,5,79,115,37,141,118,171,6,0.01,0,0.01,8,0.01,57,151,77,10,154,153,3,0.01,186,188,10,0.01,70,29,0.01,140,195,173,10,0.01,0,0.01,19,0.01,90,0.01,0,0.01,9,167,21,0.01,170,0.01,31,148,0.01,51,13,121,94,79,67,0.01,0,0.01,2,0.01,45,168,151,190,0.01,0
16,0.01,160,80,0.01,70,160,50,33,28,144,119,86,6,8,183,140,192,187,35,107,197,96,79,11,156,0.01,50,170,9,5,79,115,37,141,118,174,6,0.01,0,0.01,8,0.01,57,151,78,10,154,153,3,0.01,186,188,10,0.01,70,30,0.01,140,195,175,10,0.01,0,0.01,19,0.01,91,0.01,0,0.01,9,170,21,0.01,170,0.01,31,150,0.01,51,13,125,98,79,67,0.01,0,0.01,2,0.01,45,168,153,190,0.01,0
16.25,0.01,160,80,0.01,73,161,55,33,28,144,120,91,6,8,183,140,192,187,35,107,199,96,79,11,156,0.01,53,170,9,5,79,116,37,141,118,174,6,0.01,0,0.01,8,0.01,59,151,78,10,154,153,3,0.01,186,189,10,0.01,71,33,0.01,140,195,175,10,0.01,0,0.01,19,0.01,93,0.01,0,0.01,9,170,21,0.01,170,0.01,31,151,0.01,51,13,125,98,84,67,0.01,0,0.01,2,0.01,45,169,153,193,0.01,0
16.5,0.01,160,80,0.01,82,165,61,33,28,147,124,95,6,8,183,142,194,192,42,111,204,97,82,11,156,0.01,59,170,9,6,80,121,39,144,120,174,7,0.01,0,0.01,8,0.01,63,155,81,10,168,153,3,0.01,190,194,10,0.01,77,39,0.01,144,200,175,10,0.01,0,0.01,24,0.01,100,0.01,0,0.01,10,171,21,0.01,171,0.01,34,157,0.01,52,13,132,104,91,67,0.01,0,0.01,2,0.01,45,174,153,194,0.01,0
16.75,0.01,160,82,0.01,84,166,62,33,28,147,125,95,6,8,186,143,195,192,42,112,204,97,82,11,156,0.01,61,173,9,6,81,121,39,144,125,178,7,0.01,0,0.01,8,0.01,63,156,81,10,168,153,3,0.01,192,194,10,0.01,77,39,0.01,146,200,175,10,0.01,0,0.01,24,0.01,100,0.01,0,0.01,10,174,21,0.01,172,0.01,34,159,0.01,52,13,132,111,91,67,0.01,0,0.01,2,0.01,45,174,159,195,0.01,0
17,0.01,160,82,0.01,89,168,68,33,28,149,125,103,6,8,186,143,195,192,45,113,204,98,82,11,156,0.01,63,173,9,6,81,125,39,145,125,178,8,0.01,0,0.01,8,0.01,65,156,81,10,168,153,3,0.01,192,194,10,0.01,79,44,0.01,147,203,175,10,0.01,0,0.01,27,0.01,100,0.01,0,0.01,10,174,21,0.01,173,0.01,34,163,0.01,52,13,136,112,97,67,0.01,0,0.01,2,0.01,45,175,159,197,0.01,0
17.25,0.01,160,82,0.01,97,168,71,33,28,150,126,103,6,8,186,143,196,192,45,115,204,100,82,11,158,0.01,63,173,9,6,84,125,39,145,125,179,8,0.01,0,0.01,8,0.01,68,156,81,10,168,153,3,0.01,193,194,10,0.01,79,48,0.01,148,203,175,10,0.01,0,0.01,28,0.01,103,0.01,0,0.01,10,177,21,0.01,174,0.01,36,163,0.01,52,13,137,117,99,67,0.01,0,0.01,2,0.01,45,175,162,199,0.01,0
17.5,0.01,160,85,0.01,103,173,81,33,33,154,129,113,6,8,188,144,197,196,51,120,208,106,85,13,158,0.01,70,173,9,7,86,130,42,147,125,181,13,0.01,0,0.01,8,0.01,75,161,86,14,168,153,3,0.01,196,197,10,0.01,86,56,0.01,152,207,176,10,0.01,0,0.01,33,0.01,106,0.01,0,0.01,12,179,25,0.01,178,0.01,40,169,0.01,61,17,141,120,109,67,0.01,0,0.01,2,0.01,48,181,162,201,2,0
17.75,0.01,160,85,0.01,104,173,81,33,33,155,129,113,6,8,189,146,199,196,51,120,208,106,85,13,159,0.01,73,175,9,7,86,130,42,148,128,184,13,0.01,0,0.01,8,0.01,75,161,86,14,168,153,3,0.01,196,197,10,0.01,86,56,0.01,155,207,176,10,0.01,0,0.01,33,0.01,106,0.01,0,0.01,12,181,25,0.01,178,0.01,40,169,0.01,61,17,142,124,109,67,0.01,0,0.01,2,0.01,48,181,166,201,2,0
18,0.01,166,88,0.01,109,174,81,33,33,155,130,113,6,9,190,149,201,202,51,121,208,106,85,13,161,0.01,78,180,9,7,88,130,42,152,130,184,13,0.01,0,0.01,8,0.01,75,165,86,14,168,153,3,0.01,200,198,10,0.01,86,56,0.01,158,207,176,10,0.01,0,0.01,33,0.01,107,0.01,0,0.01,12,183,25,0.01,181,0.01,41,172,0.01,61,17,146,129,109,67,0.01,0,0.01,2,0.01,48,181,173,201,2,0
18.25,0.01,166,88,0.01,117,174,90,33,33,156,132,120,6,9,190,149,201,202,58,121,210,107,87,13,161,0.01,80,180,9,8,89,134,45,152,130,184,19,0.01,0,0.01,8,0.01,78,165,86,17,168,153,3,0.01,200,200,10,0.01,89,61,0.01,158,207,177,10,0.01,0,0.01,38,0.01,111,0.01,0,0.01,12,183,25,0.01,181,0.01,44,176,0.01,63,17,149,129,117,67,0.01,0,0.01,2,0.01,50,185,173,204,2,0
18.5,0.01,166,88,0.01,119,174,93,33,33,156,132,122,6,9,190,149,201,202,58,121,210,107,87,13,161,0.01,83,180,9,8,89,134,45,152,130,184,19,0.01,0,0.01,8,0.01,78,165,86,17,168,153,3,0.01,200,200,10,0.01,89,61,0.01,158,207,177,10,0.01,0,0.01,38,0.01,111,0.01,0,0.01,12,183,25,0.01,181,0.01,44,176,0.01,63,17,149,131,117,67,0.01,0,0.01,2,0.01,50,185,173,204,2,0
18.75,0.01,166,88,0.01,125,175,97,33,33,157,132,124,6,9,190,149,201,202,61,122,210,107,87,13,161,0.01,83,180,9,8,89,135,45,152,130,184,19,0.01,0,0.01,8,0.01,78,165,86,17,168,153,3,0.01,200,200,10,0.01,90,64,0.01,160,209,177,10,0.01,0,0.01,41,0.01,113,0.01,0,0.01,12,185,25,0.01,184,0.01,45,179,0.01,63,17,154,135,123,67,0.01,0,0.01,2,0.01,50,187,173,205,2,0
19,0.01,166,88,0.01,128,177,99,33,33,157,132,125,6,9,190,149,202,202,63,122,211,107,87,13,161,0.01,87,180,9,8,89,138,45,152,130,184,19,0.01,0,0.01,8,0.01,78,167,86,17,168,153,3,0.01,200,200,10,0.01,90,64,0.01,160,209,177,10,0.01,0,0.01,42,0.01,113,0.01,0,0.01,12,185,25,0.01,184,0.01,45,179,0.01,63,17,154,140,123,67,0.01,0,0.01,2,0.01,50,187,173,205,2,0
19.25,0.01,166,88,0.01,133,177,103,33,33,157,132,129,6,9,190,149,202,202,63,122,211,107,87,13,161,0.01,90,180,9,8,90,138,45,152,130,184,19,0.01,0,0.01,8,0.01,78,167,87,18,168,153,3,0.01,201,200,10,0.01,91,64,0.01,162,209,177,10,0.01,0,0.01,42,1,114,0.01,0,0.01,12,186,25,0.01,184,0.01,46,180,0.01,63,17,157,143,125,67,0.01,0,0.01,2,0.01,50,187,175,205,2,0
19.5,0.01,166,93,0.01,139,181,110,33,33,159,137,137,6,9,191,151,205,206,73,124,216,108,89,13,161,0.01,98,182,9,8,93,140,45,153,131,185,21,0.01,0,0.01,8,0.01,85,169,89,24,168,153,3,0.01,203,203,10,0.01,95,71,0.01,166,214,177,10,0.01,0,0.01,47,5,118,0.01,0,0.01,12,187,25,0.01,187,0.01,51,186,0.01,65,17,160,148,133,67,0.01,0,0.01,2,0.01,50,190,177,206,2,0
19.75,0.01,166,93,0.01,145,181,115,33,33,161,138,142,6,9,191,151,205,206,74,125,216,110,92,14,161,0.01,98,182,9,8,93,142,45,153,131,186,25,0.01,0,0.01,8,0.01,86,169,89,26,168,153,3,0.01,203,204,10,0.01,95,73,0.01,166,214,177,10,0.01,0,0.01,49,5,121,0.01,0,0.01,12,188,25,0.01,187,0.01,55,188,0.01,69,17,163,149,139,67,0.01,0,0.01,2,0.01,50,192,178,209,2,0
20,0.01,166,93,0.01,145,182,115,33,33,161,138,142,6,9,194,153,206,206,74,125,216,110,92,14,165,0.01,101,184,9,8,96,142,48,153,134,188,25,0.01,0,0.01,8,0.01,86,173,91,26,168,153,3,0.01,206,204,10,0.01,95,73,0.01,169,214,177,10,0.01,0,0.01,49,8,121,0.01,0,0.01,12,190,25,0.01,189,0.01,55,188,0.01,69,17,163,154,139,67,0.01,0,0.01,2,0.01,50,192,185,209,2,0
20.25,0.01,166,93,0.01,148,184,116,33,33,161,138,142,6,9,194,154,207,206,76,125,216,110,93,14,165,0.01,105,184,9,8,96,142,48,154,135,189,25,0.01,0,0.01,8,0.01,86,174,91,27,168,157,3,0.01,206,204,10,0.01,95,74,0.01,169,214,177,10,0.01,0,0.01,49,8,121,0.01,0,0.01,12,192,25,0.01,191,0.01,55,189,0.01,69,17,166,158,139,67,0.01,0,0.01,2,0.01,50,192,188,209,2,0
20.5,0.01,169,96,0.01,153,189,120,33,33,162,138,142,6,9,195,157,208,210,83,130,216,110,98,14,166,0.01,112,187,10,8,99,143,50,156,139,189,25,0.01,0,0.01,8,0.01,86,179,94,31,168,159,3,0.01,207,206,10,0.01,99,74,0.01,172,214,177,10,0.01,0,0.01,54,11,123,0.01,0,0.01,12,193,25,0.01,193,0.01,57,191,0.01,69,17,168,163,143,67,0.01,0,0.01,2,0.01,50,196,188,209,2,0
20.75,0.01,169,96,0.01,156,189,127,33,33,162,138,146,6,9,195,157,208,210,84,130,216,110,99,14,166,0.01,112,187,10,8,99,145,52,156,139,189,26,0.01,0,0.01,8,0.01,87,179,94,35,168,159,3,0.01,207,206,10,0.01,99,78,0.01,172,215,177,10,0.01,0,0.01,54,11,125,0.01,0,0.01,12,193,25,0.01,193,0.01,61,192,0.01,70,17,170,163,148,67,0.01,0,0.01,2,0.01,50,196,188,210,2,0
21,0.01,169,99,0.01,161,189,131,33,33,163,139,158,6,9,195,157,208,210,92,130,217,111,101,14,166,0.01,115,187,10,8,99,150,55,156,139,189,30,0.01,0,0.01,8,0.01,92,179,94,39,168,182,3,0.01,207,208,10,0.01,102,83,0.01,172,216,177,10,0.01,0,0.01,58,12,128,0.01,0,0.01,12,193,25,0.01,193,0.01,65,197,0.01,76,17,173,163,153,67,0.01,0,0.01,2,0.01,50,198,188,213,2,0
21.25,0.01,169,99,0.01,166,189,133,33,33,165,141,158,6,9,195,157,208,210,93,130,217,111,102,14,166,0.01,116,187,10,8,99,150,58,156,139,189,31,0.01,0,0.01,8,0.01,92,179,94,40,168,186,3,0.01,207,208,10,0.01,103,85,0.01,173,217,177,10,0.01,0,0.01,61,13,128,0.01,0,0.01,12,193,25,0.01,193,0.01,68,199,0.01,78,17,174,164,157,67,0.01,0,0.01,2,0.01,50,200,188,213,2,0
21.5,0.01,169,99,0.01,168,189,138,33,33,165,141,163,6,9,195,157,208,210,99,131,218,115,103,14,166,0.01,119,187,10,8,100,151,61,156,139,189,35,0.01,0,0.01,8,0.01,94,179,94,43,168,186,3,0.01,207,208,10,0.01,103,88,0.01,175,217,177,10,0.01,0,0.01,62,14,130,0.01,0,0.01,12,193,25,0.01,193,0.01,71,199,0.01,79,17,175,167,158,67,0.01,0,0.01,2,0.01,50,200,190,214,2,0
21.75,0.01,169,101,0.01,170,191,140,33,33,166,141,163,6,9,195,158,209,210,101,131,218,115,108,14,166,0.01,125,187,10,8,101,152,65,159,139,189,35,0.01,0,0.01,8,0.01,94,179,94,46,168,186,3,0.01,207,209,10,0.01,103,88,0.01,177,217,177,10,0.01,0,0.01,63,17,131,0.01,0,0.01,12,194,25,0.01,195,0.01,72,200,0.01,79,17,177,169,158,67,0.01,0,0.01,2,0.01,50,203,193,214,2,0
22,0.01,169,101,0.01,175,191,143,33,33,168,142,168,6,9,195,158,210,211,107,132,220,115,108,14,166,0.01,127,187,10,8,102,154,67,159,139,189,36,0.01,0,0.01,8,0.01,96,179,94,49,168,186,3,0.01,207,210,10,0.01,105,92,0.01,177,219,177,10,0.01,0,0.01,67,18,133,0.01,0,0.01,12,194,25,0.01,195,0.01,78,203,0.01,82,17,179,172,164,67,0.01,0,0.01,2,0.01,50,205,193,214,2,0
22.25,0.01,169,102,0.01,177,191,145,33,33,169,143,168,6,9,195,159,210,211,108,132,220,115,112,14,168,0.01,128,189,10,8,104,154,74,159,142,191,36,0.01,0,0.01,8,0.01,96,179,97,52,168,186,3,0.01,209,210,10,0.01,105,94,0.01,181,219,177,10,0.01,0,0.01,67,22,134,0.01,0,0.01,12,197,25,0.01,196,0.01,78,203,0.01,82,17,181,176,164,67,0.01,0,0.01,2,0.01,50,205,198,214,2,0
22.5,0.01,174,108,0.01,179,198,147,33,33,170,146,168,6,9,199,165,216,214,108,135,220,115,116,14,175,0.01,133,193,10,8,108,154,83,160,146,193,36,0.01,0,0.01,9,0.01,96,183,100,56,168,186,3,0.01,211,211,12,0.01,105,94,0.01,183,219,179,10,0.01,0,0.01,70,28,136,0.01,0,0.01,12,197,25,0.01,204,0.01,80,204,0.01,82,18,183,184,164,67,0.01,0,0.01,3,0.01,50,205,205,214,2,0
22.75,0.01,174,108,0.01,182,198,150,33,33,170,146,173,6,9,199,165,216,214,115,135,220,115,116,14,175,0.01,133,193,10,8,108,158,83,160,146,193,41,0.01,0,0.01,9,0.01,99,183,100,56,168,186,3,0.01,211,211,12,0.01,106,97,0.01,183,219,179,10,0.01,0,0.01,72,28,136,0.01,0,0.01,12,197,25,0.01,204,0.01,86,205,0.01,88,18,183,184,172,67,0.01,0,0.01,3,0.01,50,206,205,214,2,0
23,0.01,174,109,0.01,186,198,157,33,34,172,146,178,6,9,199,165,216,215,124,136,222,115,119,14,175,0.01,139,193,11,10,108,160,87,161,146,193,46,0.01,0,0.01,9,0.01,104,184,101,63,170,186,3,0.01,211,214,12,0.01,112,100,0.01,183,221,179,10,0.01,0,0.01,78,31,140,0.01,0,0.01,12,198,25,0.01,204,0.01,92,211,0.01,90,18,187,184,176,67,0.01,0,0.01,3,0.01,50,209,205,216,2,0
23.25,0.01,174,109,0.01,187,198,157,33,34,172,146,178,6,9,199,165,216,215,124,136,222,115,119,14,175,0.01,139,193,11,10,108,160,87,161,146,193,46,0.01,0,0.01,9,0.01,104,184,101,64,170,186,3,0.01,211,214,12,0.01,112,100,0.01,183,221,179,10,0.01,0,0.01,78,31,140,0.01,0,0.01,12,198,25,0.01,204,0.01,92,211,0.01,90,18,187,184,178,67,0.01,0,0.01,3,0.01,50,209,205,216,2,0
23.5,0.01,174,109,0.01,190,198,159,33,34,172,146,180,6,9,199,165,216,215,128,136,222,115,119,14,175,0.01,139,193,11,10,108,160,87,161,146,193,47,0.01,0,0.01,9,0.01,104,184,101,65,170,186,3,0.01,211,214,12,0.01,112,101,0.01,183,221,179,10,0.01,0,0.01,78,31,141,0.01,0,0.01,12,198,25,0.01,204,0.01,94,211,0.01,90,18,187,184,180,67,0.01,0,0.01,3,0.01,50,209,205,216,2,0
23.75,0.01,174,111,0.01,192,198,160,33,34,173,146,180,6,9,199,166,216,215,130,136,222,115,123,14,175,0.01,144,194,11,10,108,160,98,161,146,193,47,0.01,0,0.01,9,0.01,104,184,101,69,170,186,3,0.01,211,214,12,0.01,112,102,0.01,187,221,179,10,0.01,0,0.01,79,38,141,0.01,0,0.01,12,198,25,0.01,206,0.01,94,211,0.01,90,18,188,189,180,67,0.01,0,0.01,3,0.01,50,209,209,216,2,0
24,0.01,174,114,0.01,198,198,170,36,40,174,147,189,6,9,199,166,216,216,140,140,223,121,127,17,175,0.01,146,194,12,12,110,167,101,164,146,193,59,0.01,0,0.01,9,0.01,110,185,101,76,171,186,3,0.01,211,216,12,0.01,116,110,0.01,187,223,182,10,0.01,0,0.01,90,41,147,6,0.01,0,14,198,25,0.01,206,1,108,216,0.01,101,18,193,189,189,67,0.01,0,0.01,3,0.01,50,214,209,219,4,0
24.25,0.01,174,114,0.01,198,198,170,36,40,174,147,189,6,9,199,168,216,216,140,140,223,121,127,17,175,0.01,146,194,12,12,110,167,103,164,146,193,59,0.01,0,0.01,9,0.01,110,187,101,76,172,186,3,0.01,211,216,12,0.01,116,110,0.01,189,223,182,10,0.01,0,0.01,90,42,147,6,0.01,0,14,198,25,0.01,206,1,108,216,0.01,101,18,193,190,189,67,0.01,0,0.01,3,0.01,50,214,209,219,4,0
24.5,0.01,174,114,0.01,198,198,171,36,40,174,147,189,6,9,199,168,216,216,144,140,223,121,127,17,175,0.01,147,194,12,12,110,167,104,164,146,193,59,0.01,0,0.01,9,0.01,110,187,101,76,172,186,3,0.01,211,216,12,0.01,116,110,0.01,189,223,182,10,0.01,0,0.01,90,42,147,6,0.01,0,14,198,25,0.01,206,1,108,216,0.01,101,18,193,190,189,67,0.01,0,0.01,3,0.01,50,216,209,219,4,0
24.75,0.01,174,114,0.01,201,198,171,36,40,174,147,189,6,9,199,168,216,216,145,140,223,121,127,17,175,0.01,149,194,12,12,110,167,109,164,146,194,59,0.01,0,0.01,9,0.01,110,187,104,81,172,186,3,0.01,211,216,12,0.01,116,114,0.01,190,223,182,10,0.01,0,0.01,90,46,148,6,0.01,0,14,198,25,0.01,206,1,109,216,0.01,101,18,194,193,189,67,0.01,0,0.01,3,0.01,50,216,209,219,4,0
25,0.01,174,118,0.01,201,201,171,36,40,174,153,189,6,9,203,171,219,216,145,140,223,121,131,17,180,0.01,151,200,12,12,116,167,117,164,152,194,59,0.01,0,0.01,9,0.01,110,187,106,85,172,186,3,0.01,213,216,12,0.01,116,117,0.01,192,223,182,10,0.01,0,0.01,90,54,148,6,0.01,0,14,198,25,0.01,213,1,109,216,0.01,101,18,194,202,189,67,0.01,0,0.01,3,0.01,50,216,221,219,4,0
25.25,0.01,174,118,0.01,203,201,173,36,40,174,153,189,6,9,203,171,219,216,146,140,223,121,131,17,180,0.01,151,200,12,12,116,167,117,164,152,194,60,0.01,0,0.01,9,0.01,110,187,106,85,172,186,3,0.01,213,216,12,0.01,116,117,0.01,192,223,182,10,0.01,0,0.01,90,54,148,7,0.01,0,14,198,25,0.01,213,1,113,216,0.01,101,18,195,202,192,67,0.01,0,0.01,3,0.01,50,216,221,219,4,0
25.5,0.01,174,121,0.01,205,201,177,36,44,176,153,194,6,9,203,171,219,218,157,140,223,121,135,17,180,0.01,160,200,12,12,116,169,118,164,152,194,70,0.01,0,0.01,9,0.01,111,193,107,90,175,186,3,0.01,213,218,12,0.01,119,117,0.01,193,225,182,10,0.01,0,0.01,100,58,150,15,0.01,0,14,198,25,0.01,213,1,119,220,0.01,105,18,197,202,197,67,0.01,0,0.01,3,0.01,50,220,221,219,4,0
25.75,0.01,174,121,0.01,207,201,180,36,46,176,153,194,6,9,203,171,219,218,159,140,223,121,135,17,180,0.01,160,200,12,12,116,169,118,164,152,194,70,0.01,0,0.01,9,0.01,111,193,107,90,175,186,3,0.01,213,218,12,0.01,119,117,0.01,193,225,182,10,0.01,0,0.01,100,58,153,16,0.01,0,14,198,25,0.01,213,1,121,220,0.01,105,18,199,202,198,67,0.01,0,0.01,3,0.01,50,220,221,219,4,0
26,0.01,174,121,0.01,208,201,183,36,51,176,153,194,6,9,203,171,219,218,160,140,223,121,135,17,180,0.01,160,200,12,12,116,170,119,164,152,194,73,0.01,0,0.01,9,0.01,113,193,107,91,175,186,3,0.01,213,218,12,0.01,119,118,0.01,193,225,182,10,0.01,0,0.01,101,58,153,21,0.01,0,14,198,25,0.01,213,1,129,220,0.01,111,18,199,202,203,67,0.01,0,0.01,3,0.01,50,221,221,219,4,0
26.25,0.01,174,121,0.01,213,201,188,36,61,179,153,203,6,9,203,171,219,218,168,141,223,124,137,19,180,0.01,160,200,12,12,116,174,125,165,152,194,83,0.01,0,0.01,9,0.01,120,193,107,98,177,190,3,0.01,213,218,12,0.01,120,126,0.01,194,227,182,10,0.01,0,0.01,109,62,157,31,0.01,0,14,199,25,0.01,213,2,137,222,0.01,120,18,203,202,207,67,0.01,0,0.01,3,0.01,53,223,221,221,6,1
26.5,0.01,174,121,0.01,213,201,188,36,61,179,153,203,6,9,203,171,219,218,168,141,223,124,137,19,180,0.01,160,200,12,12,116,174,125,165,152,194,83,0.01,0,0.01,9,0.01,120,193,107,98,177,190,3,0.01,213,218,12,0.01,120,126,0.01,194,227,182,10,0.01,0,0.01,109,62,157,31,0.01,0,14,199,25,0.01,213,2,137,222,0.01,120,18,203,202,207,67,0.01,0,0.01,3,0.01,53,223,221,221,6,1
26.75,0.01,174,126,0.01,215,201,190,36,61,179,153,203,6,9,203,175,219,218,171,142,223,124,139,19,180,0.01,168,200,12,12,118,174,130,165,153,196,83,0.01,0,0.01,9,0.01,120,193,111,102,177,190,3,0.01,213,219,12,0.01,121,126,0.01,197,227,182,10,0.01,0,0.01,109,74,158,31,0.01,0,14,201,25,0.01,214,2,137,222,0.01,120,18,205,205,207,67,0.01,0,0.01,3,0.01,53,223,221,221,6,1
27,0.01,174,126,0.01,217,202,193,36,61,181,155,203,6,9,203,176,219,218,174,142,223,124,141,19,180,0.01,170,200,12,16,120,174,134,167,154,196,83,0.01,0,0.01,9,0.01,120,193,113,106,178,191,3,0.01,214,219,12,0.01,122,127,0.01,197,227,182,10,0.01,0,0.01,113,79,160,34,0.01,0,14,201,25,0.01,214,2,138,223,0.01,120,18,205,205,208,67,0.01,0,0.01,3,0.01,53,224,221,221,6,1
27.25,0.01,174,126,0.01,218,203,193,36,64,181,155,203,6,9,203,176,219,218,176,142,223,124,141,19,180,0.01,171,200,12,16,120,174,135,167,154,196,83,0.01,0,0.01,9,0.01,120,194,113,106,178,191,3,0.01,214,220,12,0.01,122,127,0.01,197,227,182,10,0.01,0,0.01,115,79,160,34,0.01,0,14,201,25,0.01,214,2,138,223,0.01,120,18,205,205,208,67,0.01,0,0.01,3,0.01,53,224,221,221,6,1
27.5,0.01,174,126,0.01,218,203,193,36,74,181,155,203,6,9,203,176,219,218,181,142,223,124,141,19,180,0.01,172,200,12,16,120,175,135,167,154,196,86,0.01,0,0.01,9,0.01,120,194,113,106,178,191,3,0.01,214,220,12,0.01,123,127,0.01,197,227,182,10,0.01,0,0.01,117,79,160,42,0.01,0,14,201,25,0.01,214,2,142,224,0.01,121,18,206,205,209,67,0.01,0,0.01,3,0.01,53,227,221,221,6,1
27.75,0.01,174,126,0.01,221,203,198,36,79,181,155,203,6,9,203,176,219,218,182,142,223,124,142,19,180,0.01,172,200,12,16,120,178,136,167,154,196,91,0.01,0,0.01,9,0.01,122,194,113,108,178,191,3,0.01,214,220,12,0.01,123,131,0.01,197,227,182,10,0.01,0,0.01,121,80,162,49,0.01,0,14,201,25,0.01,214,2,147,225,0.01,126,18,208,205,215,67,0.01,0,0.01,3,0.01,53,227,221,223,6,1
28,0.01,174,126,0.01,221,203,198,36,85,181,155,203,6,9,203,176,219,218,185,142,224,124,142,19,180,0.01,173,200,12,16,120,178,136,167,154,196,93,0.01,0,0.01,9,0.01,123,194,113,109,178,191,3,0.01,214,220,12,0.01,123,132,0.01,198,227,182,10,0.01,0,0.01,124,83,162,51,0.01,0,14,201,25,0.01,214,2,151,225,0.01,126,18,208,205,215,67,0.01,0,0.01,3,0.01,53,227,221,223,6,1
28.25,0.01,174,131,0.01,223,204,198,36,85,184,155,204,6,9,203,179,220,219,188,144,224,124,144,19,180,0.01,178,200,12,20,121,179,144,168,155,196,93,0.01,0,0.01,9,0.01,123,197,117,114,180,201,3,0.01,214,222,12,0.01,126,132,0.01,201,227,182,10,0.01,0,0.01,127,92,164,56,0.01,0,14,201,25,0.01,214,2,151,227,0.01,126,18,208,205,215,67,0.01,0,0.01,3,0.01,53,229,222,223,6,1
28.5,0.01,174,132,0.01,225,204,201,36,95,184,155,206,6,9,203,179,220,219,190,144,226,124,144,19,180,0.01,179,200,12,23,121,181,144,168,155,196,100,0.01,0,0.01,9,0.01,128,197,117,114,180,201,3,0.01,214,222,12,0.01,126,138,0.01,201,228,182,10,0.01,0,0.01,131,94,167,62,0.01,0,14,201,25,0.01,214,2,156,229,0.01,132,18,213,205,219,67,0.01,0,0.01,3,0.01,53,231,222,223,6,1
28.75,0.01,174,132,0.01,225,204,203,36,97,184,155,206,6,9,203,179,220,219,190,144,226,124,144,19,180,0.01,179,200,12,23,121,181,144,168,155,196,101,0.01,0,0.01,9,0.01,128,197,117,115,180,201,3,0.01,214,222,12,0.01,126,138,0.01,201,228,182,10,0.01,0,0.01,131,94,167,63,0.01,0,14,201,25,0.01,214,2,158,229,0.01,134,18,213,205,220,67,0.01,0,0.01,3,0.01,53,232,222,223,6,1
29,0.01,174,132,0.01,225,204,203,36,102,184,155,207,6,9,203,179,220,219,191,144,226,124,144,19,180,0.01,179,200,12,23,121,181,144,168,155,196,104,0.01,0,0.01,9,0.01,128,197,117,115,180,201,3,0.01,214,222,12,0.01,126,138,0.01,201,228,182,10,0.01,0,0.01,131,94,167,67,0.01,0,14,201,25,0.01,214,2,162,229,0.01,135,18,213,205,220,67,0.01,0,0.01,3,0.01,53,232,222,223,6,1
29.25,0.01,174,132,0.01,228,204,203,36,102,188,158,207,6,9,203,181,221,219,194,144,226,124,147,19,180,0.01,182,200,12,25,124,181,149,168,157,196,104,0.01,0,0.01,9,0.01,128,197,122,122,181,201,3,0.01,214,222,12,0.01,126,138,0.01,203,228,182,10,0.01,0,0.01,135,103,170,67,0.01,0,14,201,25,0.01,215,2,162,229,0.01,135,18,213,208,220,67,0.01,0,0.01,3,0.01,53,232,225,223,6,1
29.5,0.01,174,133,0.01,228,204,206,36,102,188,162,207,6,9,203,183,221,219,194,146,226,124,152,19,180,0.01,182,200,12,27,125,181,151,169,159,197,104,0.01,0,0.01,9,0.01,128,197,125,125,182,201,3,0.01,215,222,12,0.01,126,141,0.01,206,228,182,10,0.01,0,0.01,139,108,170,70,0.01,0,14,203,25,0.01,217,2,162,229,0.01,135,18,213,209,221,67,0.01,0,0.01,3,0.01,53,232,227,223,6,1
29.75,0.01,174,141,0.01,232,206,206,36,104,188,162,207,6,9,205,187,223,223,200,148,226,124,153,19,180,0.01,189,200,12,34,128,182,156,173,159,198,109,0.01,0,0.01,9,0.01,128,202,127,125,184,201,3,0.01,215,224,12,0.01,129,141,0.01,206,228,182,10,0.01,0,0.01,142,116,170,78,0.01,0,14,203,25,0.01,220,2,163,231,0.01,135,18,215,210,222,67,0.01,0,0.01,3,0.01,53,233,229,223,6,1
30,0.01,174,141,0.01,232,206,206,36,115,188,162,207,6,9,205,187,223,223,200,148,226,124,153,19,180,0.01,189,200,12,34,128,182,156,173,159,198,112,0.01,0,0.01,9,0.01,128,202,127,125,184,201,3,0.01,215,224,12,0.01,129,142,0.01,206,228,182,10,0.01,0,0.01,144,116,171,80,0.01,0,14,203,25,0.01,220,2,168,231,0.01,139,18,215,210,224,67,0.01,0,0.01,3,0.01,53,234,229,223,6,1
30.25,0.01,174,141,0.01,232,206,207,36,115,188,162,207,6,9,205,187,223,223,201,148,226,124,153,19,180,0.01,189,200,12,34,128,184,156,173,159,198,113,0.01,0,0.01,9,0.01,129,202,127,125,184,201,3,0.01,215,224,12,0.01,129,144,0.01,206,228,182,10,0.01,0,0.01,147,116,172,86,0.01,0,14,203,25,0.01,220,2,171,231,0.01,143,18,215,210,225,67,0.01,0,0.01,3,0.01,53,236,229,224,6,1
30.5,0.01,174,141,0.01,232,206,208,36,119,188,162,207,6,9,205,187,223,223,203,148,227,124,153,19,180,0.01,191,200,12,36,128,184,156,173,159,198,115,0.01,0,0.01,9,0.01,129,202,127,128,184,202,3,0.01,215,224,12,0.01,129,144,0.01,206,228,182,10,0.01,0,0.01,152,118,172,90,0.01,0,14,203,25,0.01,220,2,171,231,0.01,143,18,217,210,226,67,0.01,0,0.01,3,0.01,53,236,229,224,6,1
30.75,0.01,174,141,0.01,232,206,210,36,127,188,162,210,6,9,205,187,223,223,205,148,227,127,153,19,180,0.01,191,200,12,36,128,186,156,173,159,198,119,0.01,0,0.01,9,0.01,132,202,127,128,184,203,3,0.01,215,224,12,0.01,129,148,0.01,206,231,182,10,0.01,0,0.01,156,119,175,96,0.01,0,14,203,25,0.01,220,2,176,232,0.01,145,18,217,210,228,67,0.01,0,0.01,3,0.01,53,236,229,224,6,1
31,0.01,174,141,0.01,235,206,210,36,128,188,162,210,6,9,205,187,223,223,206,148,227,128,153,19,180,0.01,191,200,12,36,128,186,156,173,159,198,119,0.01,0,0.01,9,0.01,132,202,127,128,184,203,3,0.01,215,224,12,0.01,129,148,0.01,206,231,182,10,0.01,0,0.01,156,121,175,98,0.01,0,14,203,25,0.01,220,2,177,232,0.01,146,18,217,210,228,67,0.01,0,0.01,3,0.01,53,237,229,225,6,1
31.25,0.01,174,141,0.01,235,206,210,36,131,188,162,210,6,9,205,187,223,223,206,148,227,128,153,19,180,0.01,191,200,12,36,128,186,156,173,159,198,119,0.01,0,0.01,9,0.01,132,202,127,128,184,203,3,0.01,215,224,12,0.01,129,148,0.01,206,231,182,10,0.01,0,0.01,157,121,175,100,0.01,0,14,203,25,0.01,220,2,177,232,0.01,147,18,217,210,228,67,0.01,0,0.01,3,0.01,53,237,229,225,6,1
31.5,0.01,174,141,0.01,235,206,212,36,131,188,162,210,6,9,205,187,223,223,206,148,227,128,153,19,180,0.01,191,200,12,36,128,186,156,173,159,199,119,0.01,0,0.01,9,0.01,132,202,127,131,184,206,3,0.01,215,224,12,0.01,129,150,0.01,206,231,182,10,0.01,0,0.01,158,133,176,100,0.01,0,14,203,25,0.01,220,2,177,232,0.01,147,18,219,213,228,67,0.01,0,0.01,3,0.01,53,237,231,225,6,1
31.75,0.01,174,149,0.01,237,208,216,36,131,191,171,210,6,10,210,194,227,224,207,153,227,128,161,19,180,0.01,199,209,12,52,135,186,167,176,166,202,124,0.01,0,0.01,9,0.01,132,205,137,138,187,206,3,0.01,219,224,12,0.01,129,155,0.01,211,231,182,10,0.01,0,0.01,165,143,179,109,0.01,0,14,206,25,0.01,227,2,177,234,0.01,147,20,220,221,230,67,0.01,0,0.01,5,0.01,53,237,240,225,6,1
32,0.01,174,149,0.01,237,208,216,36,139,191,171,210,6,10,210,194,227,224,207,153,227,128,161,19,180,0.01,199,209,12,52,135,187,167,176,166,202,124,0.01,0,0.01,9,0.01,132,205,137,138,187,206,3,0.01,219,224,12,0.01,129,155,0.01,211,231,182,10,0.01,0,0.01,165,143,179,109,0.01,0,14,206,25,0.01,227,2,181,234,0.01,150,20,220,221,230,67,0.01,0,0.01,5,0.01,53,238,240,225,6,1
32.25,0.01,174,149,0.01,237,208,216,36,145,191,171,210,6,10,210,194,227,224,209,153,227,129,161,19,180,0.01,199,209,12,52,135,190,167,176,166,202,124,0.01,0,0.01,9,0.01,136,205,137,138,187,206,3,0.01,219,224,12,0.01,129,155,0.01,211,231,182,10,0.01,0,0.01,171,143,179,116,0.01,0,14,206,25,0.01,227,2,185,236,0.01,153,20,222,221,235,67,0.01,0,0.01,5,0.01,53,242,240,226,6,1
32.5,0.01,174,149,0.01,237,208,216,36,145,191,171,210,6,10,210,194,227,224,209,153,227,129,161,19,180,0.01,199,209,12,52,135,190,167,176,166,202,124,0.01,0,0.01,9,0.01,136,205,137,138,187,206,3,0.01,219,224,12,0.01,129,155,0.01,211,231,182,10,0.01,0,0.01,171,143,179,116,0.01,0,14,206,25,0.01,227,2,185,236,0.01,153,20,222,221,235,67,0.01,0,0.01,5,0.01,53,242,240,226,6,1
32.75,0.01,174,149,0.01,237,208,216,36,147,191,171,210,6,10,210,194,227,224,211,153,227,129,161,19,180,0.01,202,209,12,52,135,190,167,176,166,202,124,0.01,0,0.01,9,0.01,136,205,137,139,187,210,3,0.01,219,224,12,0.01,129,155,0.01,211,231,182,10,0.01,0,0.01,174,144,179,122,0.01,0,14,206,25,0.01,227,2,186,236,0.01,155,20,222,221,235,67,0.01,0,0.01,5,0.01,53,242,240,226,6,1
33,0.01,174,149,0.01,238,208,218,36,147,191,171,210,6,10,210,194,227,224,211,153,227,129,161,19,180,0.01,202,209,12,52,135,190,167,176,166,204,124,0.01,0,0.01,9,0.01,136,205,137,143,187,210,3,0.01,219,224,12,0.01,129,160,0.01,211,231,182,10,0.01,0,0.01,174,151,183,122,0.01,0,14,206,25,0.01,227,2,187,236,0.01,155,20,223,221,235,67,0.01,0,0.01,5,0.01,53,242,240,226,6,1
33.25,0.01,174,149,0.01,238,208,218,36,153,191,171,210,6,10,210,194,227,224,211,153,227,129,161,19,180,0.01,203,209,12,52,135,191,167,176,166,204,124,0.01,0,0.01,9,0.01,136,205,137,143,187,210,3,0.01,219,224,12,0.01,129,160,0.01,211,231,182,10,0.01,0,0.01,179,151,183,127,0.01,0,14,206,25,0.01,227,2,189,236,0.01,156,20,223,221,235,67,0.01,0,0.01,5,0.01,53,242,240,226,6,1
33.5,0.01,174,149,0.01,238,208,218,36,156,191,171,210,6,10,210,194,227,224,211,153,227,129,161,19,180,0.01,203,209,12,52,135,192,167,176,166,204,124,0.01,0,0.01,9,0.01,138,205,137,143,187,210,3,0.01,219,224,12,0.01,129,160,0.01,211,231,182,10,0.01,0,0.01,182,151,183,130,0.01,0,14,206,25,0.01,227,2,190,236,0.01,158,20,223,221,236,67,0.01,0,0.01,5,0.01,53,243,240,226,6,1
33.75,0.01,174,149,0.01,239,208,220,36,156,192,171,210,6,10,210,194,227,224,211,153,227,129,161,19,180,0.01,205,209,12,52,135,192,167,176,166,204,125,0.01,0,0.01,9,0.01,138,205,137,143,187,213,3,0.01,219,224,12,0.01,129,163,0.01,211,231,182,10,0.01,0,0.01,182,154,183,133,0.01,0,14,206,25,0.01,227,2,190,237,0.01,158,20,225,221,236,67,0.01,0,0.01,5,0.01,53,243,240,226,6,1
34,0.01,174,151,0.01,240,208,220,36,156,195,171,210,6,10,210,196,227,224,212,153,227,129,161,19,180,0.01,208,209,12,63,136,192,167,180,166,205,127,0.01,0,0.01,9,0.01,138,207,143,146,188,213,3,0.01,219,225,12,0.01,130,163,0.01,213,231,182,10,0.01,0,0.01,185,160,186,141,0.01,0,14,206,25,0.01,227,2,191,238,0.01,158,20,226,221,237,67,0.01,0,0.01,5,0.01,53,243,240,226,6,1
34.25,0.01,174,151,0.01,240,208,220,36,165,195,171,210,6,10,210,196,227,224,214,153,228,129,161,19,180,0.01,208,209,12,64,136,196,167,180,166,205,127,0.01,0,0.01,9,0.01,140,208,143,146,190,213,3,0.01,219,225,12,0.01,130,163,0.01,213,231,182,10,0.01,0,0.01,189,160,186,143,0.01,0,14,206,25,0.01,227,2,195,239,0.01,164,20,226,221,238,67,0.01,0,0.01,5,0.01,53,243,240,226,6,1
34.5,0.01,174,151,0.01,240,208,220,36,165,195,171,210,6,10,210,196,227,224,214,153,228,129,161,19,180,0.01,208,209,12,64,136,196,167,180,166,205,127,0.01,0,0.01,9,0.01,140,208,143,146,190,213,3,0.01,219,225,12,0.01,130,163,0.01,213,231,182,10,0.01,0,0.01,189,160,186,145,0.01,0,14,206,25,0.01,227,2,195,239,0.01,164,20,226,221,238,67,0.01,0,0.01,5,0.01,53,244,240,226,6,1
34.75,0.01,174,151,0.01,240,208,220,36,165,195,171,210,6,10,210,196,227,224,214,153,228,130,161,19,180,0.01,208,209,12,64,136,196,167,180,166,205,127,0.01,0,0.01,9,0.01,140,208,143,146,190,213,3,0.01,219,225,12,0.01,130,163,0.01,213,231,182,10,0.01,0,0.01,189,160,186,145,0.01,0,14,206,25,0.01,227,2,195,239,0.01,164,20,226,221,238,67,0.01,0,0.01,5,0.01,53,244,240,226,6,1
35,0.01,174,151,0.01,240,208,220,36,166,195,171,210,6,10,210,196,227,224,214,153,228,131,161,19,180,0.01,208,209,12,64,136,196,167,180,166,205,127,0.01,0,0.01,9,0.01,140,208,143,146,190,213,3,0.01,219,225,12,0.01,130,163,0.01,213,231,182,10,0.01,0,0.01,191,160,186,149,0.01,0,14,206,25,0.01,227,2,196,239,0.01,164,20,226,221,239,67,0.01,0,0.01,5,0.01,53,244,240,226,6,1
35.25,0.01,174,151,0.01,240,208,221,36,170,195,171,210,6,10,210,196,227,224,214,153,228,131,161,19,180,0.01,208,209,12,64,136,196,167,180,166,205,127,0.01,0,0.01,9,0.01,140,208,143,146,190,214,3,0.01,219,225,12,0.01,130,165,0.01,213,231,182,10,0.01,0,0.01,194,160,186,153,0.01,0,14,206,25,0.01,227,2,200,239,0.01,166,20,226,221,240,67,0.01,0,0.01,5,0.01,53,244,240,226,6,1
35.5,0.01,174,151,0.01,240,208,222,36,171,195,171,210,6,10,210,196,227,224,214,153,228,133,161,19,180,0.01,210,209,12,64,136,196,167,180,166,207,127,0.01,0,0.01,9,0.01,140,208,143,146,190,214,3,0.01,219,225,12,0.01,130,166,0.01,213,231,182,10,0.01,0,0.01,195,160,186,155,0.01,0,14,206,25,0.01,227,2,202,240,0.01,171,20,227,221,240,67,0.01,0,0.01,5,0.01,53,244,240,227,6,1
35.75,0.01,174,151,0.01,240,208,224,36,171,195,171,210,6,10,210,196,227,224,214,153,228,133,161,19,180,0.01,211,209,12,64,136,196,167,180,166,209,127,0.01,0,0.01,9,0.01,140,208,143,149,190,216,3,0.01,219,225,12,0.01,130,170,0.01,215,231,182,10,0.01,0,0.01,196,166,188,158,0.01,0,14,208,25,0.01,227,2,202,241,0.01,171,20,228,221,241,67,0.01,0,0.01,5,0.01,53,244,240,227,6,1
36,0.01,174,151,0.01,240,208,224,36,171,195,171,210,6,10,210,196,227,224,214,153,228,133,161,19,180,0.01,211,209,12,64,136,196,167,180,166,209,127,0.01,0,0.01,9,0.01,140,208,143,149,190,216,3,0.01,219,225,12,0.01,130,170,0.01,215,231,182,10,0.01,0,0.01,196,167,188,159,0.01,0,14,208,25,0.01,227,2,202,241,0.01,171,20,228,221,241,67,0.01,0,0.01,5,0.01,53,244,240,227,6,1
36.25,0.01,174,151,0.01,240,208,224,36,171,196,172,210,6,10,210,199,228,224,214,153,228,133,161,19,180,0.01,213,209,12,66,140,196,169,181,167,209,127,0.01,0,0.01,9,0.01,140,208,148,154,191,217,3,0.01,219,225,12,0.01,130,172,0.01,217,231,182,10,0.01,0,0.01,198,171,191,167,0.01,0,14,208,25,0.01,227,2,202,241,0.01,171,20,229,221,241,67,0.01,0,0.01,5,0.01,53,244,242,227,6,1
36.5,0.01,174,151,0.01,240,208,224,36,172,196,172,210,6,10,210,199,228,224,214,153,228,133,161,19,180,0.01,213,209,12,66,140,196,169,181,167,209,127,0.01,0,0.01,9,0.01,140,208,148,154,191,218,3,0.01,219,225,12,0.01,130,172,0.01,217,231,182,10,0.01,0,0.01,199,171,191,169,0.01,0,14,208,25,0.01,227,2,202,241,0.01,171,20,229,221,241,67,0.01,0,0.01,5,0.01,53,244,243,227,6,1
36.75,0.01,174,151,0.01,240,208,224,36,178,196,172,210,6,10,210,199,228,224,214,153,228,134,161,19,180,0.01,216,209,12,66,140,196,169,181,167,209,127,0.01,0,0.01,9,0.01,143,208,148,154,191,218,3,0.01,219,225,12,0.01,130,172,0.01,217,231,182,10,0.01,0,0.01,204,171,191,172,0.01,0,14,208,25,0.01,227,2,206,244,0.01,172,20,229,221,243,67,0.01,0,0.01,5,0.01,53,245,243,227,6,1
37,0.01,174,151,0.01,240,208,224,36,178,196,172,210,6,10,210,199,228,224,215,153,228,134,161,19,180,0.01,216,209,12,67,140,197,169,182,167,209,127,0.01,0,0.01,9,0.01,144,208,148,154,191,218,3,0.01,219,225,12,0.01,130,172,0.01,217,231,182,10,0.01,0,0.01,207,171,191,174,0.01,0,14,208,25,0.01,227,2,206,244,0.01,174,20,229,221,243,67,0.01,0,0.01,5,0.01,53,245,243,227,6,1
37.25,0.01,174,151,0.01,240,208,224,36,179,196,172,210,6,10,210,199,228,224,215,153,228,136,161,19,180,0.01,216,209,12,67,140,197,169,182,167,209,127,0.01,0,0.01,9,0.01,144,208,148,154,191,218,3,0.01,219,225,12,0.01,130,172,0.01,217,231,182,10,0.01,0,0.01,207,171,191,174,0.01,0,14,208,25,0.01,227,2,208,244,0.01,174,20,229,221,244,67,0.01,0,0.01,5,0.01,53,245,243,227,6,1
37.5,0.01,174,151,0.01,240,208,224,36,179,196,172,210,6,10,210,199,228,224,215,153,228,136,161,19,180,0.01,216,209,12,67,140,197,169,182,167,209,127,0.01,0,0.01,9,0.01,144,208,148,154,191,218,3,0.01,219,225,12,0.01,130,174,0.01,217,231,182,10,0.01,0,0.01,207,171,191,176,0.01,0,14,208,25,0.01,227,2,208,244,0.01,174,20,229,221,244,67,0.01,0,0.01,5,0.01,53,245,243,227,6,1
37.75,0.01,174,151,0.01,240,208,224,36,181,196,172,210,6,10,210,199,228,224,215,153,228,136,161,19,180,0.01,216,209,12,67,140,198,169,182,167,209,127,0.01,0,0.01,9,0.01,146,208,148,154,191,218,3,0.01,219,225,12,0.01,130,174,0.01,217,231,182,10,0.01,0,0.01,208,171,191,177,0.01,0,14,208,25,0.01,227,2,209,244,0.01,178,20,229,221,244,67,0.01,0,0.01,5,0.01,53,245,243,227,6,1
38,0.01,174,151,0.01,240,208,224,36,182,196,172,210,6,10,210,199,228,224,215,153,228,136,161,19,180,0.01,216,209,12,67,140,198,169,182,167,209,127,0.01,0,0.01,9,0.01,146,208,148,154,191,218,3,0.01,219,225,12,0.01,130,174,0.01,217,231,182,10,0.01,0,0.01,209,171,191,179,0.01,0,14,208,25,0.01,227,2,211,244,0.01,179,20,229,221,244,67,0.01,0,0.01,5,0.01,53,245,243,227,6,1
38.25,0.01,174,151,0.01,240,208,224,36,182,196,172,210,6,10,210,199,228,224,215,153,228,136,161,19,180,0.01,216,209,12,67,140,198,169,182,167,210,127,0.01,0,0.01,9,0.01,146,208,148,154,191,218,3,0.01,219,225,12,0.01,130,177,0.01,217,231,182,10,0.01,0,0.01,209,171,192,181,0.01,0,14,209,25,0.01,227,2,212,244,0.01,179,20,230,221,244,67,0.01,0,0.01,5,0.01,53,245,243,227,6,1
38.5,0.01,174,153,0.01,240,208,224,36,182,196,172,210,6,10,210,202,228,224,215,153,228,136,161,19,180,0.01,218,209,12,67,140,198,169,182,167,210,127,0.01,0,0.01,9,0.01,146,208,148,155,191,219,3,0.01,219,225,12,0.01,130,178,0.01,217,231,182,10,0.01,0,0.01,210,176,195,185,0.01,0,14,209,25,0.01,227,2,212,246,0.01,179,20,231,221,245,67,0.01,0,0.01,5,0.01,53,245,243,227,6,1
38.75,0.01,174,155,0.01,240,208,224,36,182,197,172,210,6,10,212,204,228,224,215,153,228,136,163,19,180,0.01,218,210,12,71,142,198,169,182,167,210,127,0.01,0,0.01,9,0.01,146,209,151,160,191,219,3,0.01,219,225,12,0.01,130,179,0.01,217,231,182,10,0.01,0,0.01,212,177,196,188,0.01,0,14,209,25,0.01,227,2,212,246,0.01,179,20,231,221,245,67,0.01,0,0.01,5,0.01,53,245,244,227,6,1
39,0.01,174,155,0.01,240,208,224,36,185,197,172,210,6,10,212,204,228,224,215,153,228,136,163,19,180,0.01,218,210,12,71,142,198,169,182,167,210,127,0.01,0,0.01,9,0.01,146,209,151,160,191,219,3,0.01,219,225,12,0.01,130,179,0.01,217,231,182,10,0.01,0,0.01,214,177,196,188,0.01,0,14,209,25,0.01,227,2,214,246,0.01,183,20,231,221,245,67,0.01,0,0.01,5,0.01,53,245,244,227,6,1
39.25,0.01,174,155,0.01,240,208,224,36,185,197,172,210,6,10,212,204,228,224,215,153,228,138,163,19,180,0.01,218,210,12,71,142,199,169,182,167,210,127,0.01,0,0.01,9,0.01,146,209,151,160,191,219,3,0.01,219,225,12,0.01,130,179,0.01,217,231,182,10,0.01,0,0.01,215,177,196,188,0.01,0,14,209,25,0.01,227,2,216,246,0.01,183,20,231,221,245,67,0.01,0,0.01,5,0.01,53,245,244,227,6,1
39.5,0.01,174,155,0.01,240,208,224,36,185,197,172,210,6,10,212,204,228,224,215,153,228,138,163,19,180,0.01,218,210,12,71,142,199,169,182,167,210,127,0.01,0,0.01,9,0.01,146,209,151,160,191,219,3,0.01,219,225,12,0.01,130,180,0.01,217,231,182,10,0.01,0,0.01,215,177,196,189,0.01,0,14,209,25,0.01,227,2,216,246,0.01,183,20,231,221,245,67,0.01,0,0.01,5,0.01,53,245,244,227,6,1
39.75,0.01,174,155,0.01,240,208,224,36,186,197,172,210,6,10,212,204,228,224,215,153,228,138,163,19,180,0.01,218,210,12,71,142,199,169,182,167,210,127,0.01,0,0.01,9,0.01,146,209,151,160,191,219,3,0.01,219,225,12,0.01,130,180,0.01,217,231,182,10,0.01,0,0.01,215,177,196,189,0.01,0,14,209,25,0.01,227,2,216,247,0.01,183,20,231,221,245,67,0.01,0,0.01,5,0.01,53,245,244,227,6,1
40,0.01,174,155,0.01,240,208,224,36,186,197,172,210,6,10,212,204,228,224,215,153,228,138,163,19,180,0.01,218,210,12,71,142,199,169,182,167,210,127,0.01,0,0.01,9,0.01,146,209,151,160,191,219,3,0.01,219,225,12,0.01,130,180,0.01,217,231,182,10,0.01,0,0.01,216,177,196,192,0.01,0,14,209,25,0.01,227,2,216,247,0.01,183,20,231,221,245,67,0.01,0,0.01,5,0.01,53,245,244,227,6,1
40.25,0.01,174,155,0.01,240,208,224,36,186,197,172,210,6,10,212,204,228,224,215,153,228,138,163,19,180,0.01,218,210,12,71,142,199,169,182,167,210,127,0.01,0,0.01,9,0.01,146,209,151,160,191,219,3,0.01,219,225,12,0.01,130,180,0.01,217,231,182,10,0.01,0,0.01,217,177,196,194,0.01,0,14,209,25,0.01,227,2,217,247,0.01,183,20,231,221,245,67,0.01,0,0.01,5,0.01,53,245,244,227,6,1
40.5,0.01,174,155,0.01,240,208,224,36,186,197,172,210,6,10,212,204,228,224,215,153,228,138,163,19,180,0.01,218,210,12,71,142,199,169,182,167,210,127,0.01,0,0.01,9,0.01,146,209,151,160,191,219,3,0.01,219,225,12,0.01,130,180,0.01,217,231,182,10,0.01,0,0.01,218,177,196,199,0.01,0,14,209,25,0.01,227,2,218,247,0.01,184,20,231,221,245,67,0.01,0,0.01,5,0.01,53,245,244,227,6,1
40.75,0.01,174,155,0.01,240,208,224,36,186,197,172,210,6,10,212,204,228,224,215,153,228,138,163,19,180,0.01,218,210,12,71,142,199,169,182,167,210,127,0.01,0,0.01,9,0.01,146,209,151,160,191,219,3,0.01,219,225,12,0.01,130,181,0.01,217,231,182,10,0.01,0,0.01,218,177,196,201,0.01,0,14,209,25,0.01,227,2,218,248,0.01,184,20,231,221,245,67,0.01,0,0.01,5,0.01,53,245,244,227,6,1
41,0.01,174,155,0.01,240,208,224,36,186,197,172,210,6,10,212,204,228,224,215,153,228,138,163,19,180,0.01,218,210,12,71,142,199,169,182,167,210,127,0.01,0,0.01,9,0.01,146,209,151,160,191,219,3,0.01,219,225,12,0.01,130,182,0.01,217,231,182,10,0.01,0,0.01,219,177,196,204,0.01,0,14,209,25,0.01,227,2,220,248,0.01,184,20,231,221,245,67,0.01,0,0.01,5,0.01,53,245,244,227,6,1
41.25,0.01,174,155,0.01,240,208,224,36,188,197,172,210,6,10,212,204,228,224,215,153,228,138,163,19,180,0.01,218,210,12,71,143,199,169,182,167,210,127,0.01,0,0.01,9,0.01,146,209,153,163,191,224,3,0.01,219,225,12,0.01,130,185,0.01,217,231,182,10,0.01,0,0.01,221,177,199,209,0.01,0,14,209,25,0.01,227,2,223,251,0.01,184,20,231,221,245,67,0.01,0,0.01,5,0.01,53,245,244,227,6,1
41.5,0.01,174,155,0.01,240,208,224,36,188,197,172,210,6,10,212,204,228,224,215,153,228,138,165,19,180,0.01,218,210,12,71,143,199,169,182,167,210,127,0.01,0,0.01,9,0.01,148,209,153,163,191,224,3,0.01,219,225,12,0.01,130,185,0.01,217,231,182,10,0.01,0,0.01,222,177,199,209,0.01,0,14,209,25,0.01,227,2,223,251,0.01,187,20,231,221,245,67,0.01,0,0.01,5,0.01,53,245,244,227,6,1
41.75,0.01,174,155,0.01,240,208,224,36,190,197,172,210,6,10,212,204,228,224,215,153,228,138,165,19,180,0.01,218,210,12,71,143,199,169,182,167,210,127,0.01,0,0.01,9,0.01,148,209,153,163,191,224,3,0.01,219,225,12,0.01,130,185,0.01,217,231,182,10,0.01,0,0.01,223,177,199,210,0.01,0,14,209,25,0.01,227,2,223,251,0.01,187,20,231,221,245,67,0.01,0,0.01,5,0.01,53,245,244,227,6,1
42,0.01,174,155,0.01,240,208,224,36,190,197,172,210,6,10,212,204,228,224,215,153,228,139,165,19,180,0.01,218,210,12,71,143,199,169,182,167,210,127,0.01,0,0.01,9,0.01,148,209,153,163,191,224,3,0.01,219,225,12,0.01,130,185,0.01,217,231,182,10,0.01,0,0.01,223,177,199,210,0.01,0,14,209,25,0.01,227,2,223,251,0.01,189,20,231,221,245,67,0.01,0,0.01,5,0.01,53,245,244,227,6,1
42.25,0.01,174,155,0.01,240,208,224,36,190,197,172,210,6,10,212,204,228,224,215,153,228,139,165,19,180,0.01,218,210,12,71,143,199,169,182,167,210,127,0.01,0,0.01,9,0.01,148,209,153,163,191,224,3,0.01,219,225,12,0.01,130,185,0.01,217,231,182,10,0.01,0,0.01,224,177,199,211,0.01,0,14,209,25,0.01,227,2,224,251,0.01,190,20,231,221,245,67,0.01,0,0.01,5,0.01,53,245,244,227,6,1
42.5,0.01,174,155,0.01,240,208,224,36,190,197,172,210,6,10,212,204,228,224,215,153,228,139,165,19,180,0.01,218,210,12,71,143,199,169,182,167,210,127,0.01,0,0.01,9,0.01,148,209,153,163,191,224,3,0.01,219,225,12,0.01,130,185,0.01,217,231,182,10,0.01,0,0.01,226,177,199,213,0.01,0,14,209,25,0.01,227,2,224,251,0.01,190,20,231,221,245,67,0.01,0,0.01,5,0.01,53,245,244,227,6,1
42.75,0.01,174,155,0.01,240,208,224,36,191,197,172,210,6,10,212,204,228,224,215,153,228,140,165,19,180,0.01,218,210,12,71,143,199,169,182,167,210,127,0.01,0,0.01,9,0.01,148,209,153,163,191,224,3,0.01,219,225,12,0.01,130,185,0.01,217,231,182,10,0.01,0,0.01,227,177,199,214,0.01,0,14,209,25,0.01,227,2,226,251,0.01,191,20,231,221,245,67,0.01,0,0.01,5,0.01,53,245,244,227,6,1
43,0.01,174,155,0.01,240,208,224,36,191,197,172,210,6,10,212,204,228,224,215,153,228,140,165,19,180,0.01,218,210,12,71,143,199,169,182,167,210,127,0.01,0,0.01,9,0.01,149,209,153,163,191,224,3,0.01,219,225,12,0.01,130,185,0.01,217,231,182,10,0.01,0,0.01,227,177,199,214,0.01,0,14,209,25,0.01,227,2,226,251,0.01,192,20,231,221,245,67,0.01,0,0.01,5,0.01,53,245,244,227,6,1
43.25,0.01,174,158,0.01,240,208,224,36,191,197,172,210,6,10,212,204,228,224,215,153,228,140,165,19,180,0.01,218,210,12,71,145,199,169,182,167,210,127,0.01,0,0.01,9,0.01,149,209,155,165,191,224,3,0.01,219,225,12,0.01,130,190,0.01,217,231,182,10,0.01,0,0.01,227,178,201,221,0.01,0,14,209,25,0.01,227,2,228,254,0.01,192,20,231,221,245,67,0.01,0,0.01,5,0.01,53,245,244,227,6,1
43.5,0.01,174,160,0.01,240,208,224,36,191,199,172,210,6,10,212,207,228,224,215,155,228,140,165,19,180,0.01,218,210,12,72,150,200,169,182,167,210,127,0.01,0,0.01,9,0.01,149,209,159,169,191,224,3,0.01,219,225,12,0.01,130,191,0.01,217,231,182,10,0.01,0,0.01,228,181,203,222,0.01,0,14,209,25,0.01,227,2,229,256,0.01,192,20,231,221,245,67,0.01,0,0.01,5,0.01,53,245,244,227,6,1
43.75,0.01,174,161,0.01,240,208,224,36,191,199,172,210,6,10,212,207,228,224,215,155,228,140,165,19,180,0.01,218,210,12,74,150,200,169,182,167,210,127,0.01,0,0.01,9,0.01,149,210,159,170,191,224,3,0.01,219,225,12,0.01,130,191,0.01,217,231,182,10,0.01,0,0.01,230,181,203,223,0.01,0,14,209,25,0.01,227,2,230,256,0.01,192,20,231,221,245,67,0.01,0,0.01,5,0.01,53,245,244,227,6,1
44,0.01,174,161,0.01,240,208,224,36,195,199,172,210,6,10,212,207,228,224,215,155,228,141,167,19,180,0.01,218,210,12,74,150,201,169,182,167,210,127,0.01,0,0.01,9,0.01,152,210,159,170,191,224,3,0.01,219,225,12,0.01,130,191,0.01,217,231,182,10,0.01,0,0.01,232,181,203,223,0.01,0,14,209,25,0.01,227,2,230,256,0.01,196,20,231,221,245,67,0.01,0,0.01,5,0.01,53,245,244,227,6,1
44.25,0.01,174,161,0.01,240,208,224,36,195,199,172,210,6,10,212,207,228,224,215,155,228,143,167,19,180,0.01,218,210,12,74,150,201,169,182,167,210,127,0.01,0,0.01,9,0.01,152,210,159,170,191,224,3,0.01,219,225,12,0.01,130,191,0.01,217,231,182,10,0.01,0,0.01,232,181,203,223,0.01,0,14,209,25,0.01,227,2,230,256,0.01,197,20,231,221,245,67,0.01,0,0.01,5,0.01,53,245,244,227,6,1
44.5,0.01,174,161,0.01,240,208,224,36,195,199,172,210,6,10,212,207,228,224,215,155,228,143,167,19,180,0.01,218,210,12,74,150,201,169,182,167,210,127,0.01,0,0.01,9,0.01,152,210,159,170,191,224,3,0.01,219,225,12,0.01,130,191,0.01,217,231,182,10,0.01,0,0.01,232,181,203,223,0.01,0,14,209,25,0.01,227,2,230,256,0.01,197,20,231,221,245,67,0.01,0,0.01,5,0.01,53,245,244,227,6,1
44.75,0.01,174,161,0.01,240,208,224,36,195,199,172,210,6,10,212,207,228,224,215,155,228,143,167,19,180,0.01,218,210,12,74,150,201,169,182,167,210,127,0.01,0,0.01,9,0.01,152,210,159,170,191,224,3,0.01,219,225,12,0.01,130,191,0.01,217,231,182,10,0.01,0,0.01,232,181,203,223,0.01,0,14,209,25,0.01,227,2,230,256,0.01,198,20,231,221,245,67,0.01,0,0.01,5,0.01,53,245,244,227,6,1
45,0.01,174,161,0.01,240,208,224,36,195,199,172,210,6,10,212,207,228,224,215,155,228,143,167,19,180,0.01,218,210,12,74,150,201,169,182,167,210,127,0.01,0,0.01,9,0.01,152,210,159,170,191,224,3,0.01,219,225,12,0.01,130,191,0.01,217,231,182,10,0.01,0,0.01,233,181,203,223,0.01,0,14,209,25,0.01,227,2,231,256,0.01,198,20,231,221,245,67,0.01,0,0.01,5,0.01,53,245,244,227,6,1
45.25,0.01,174,161,0.01,240,208,224,36,196,199,172,210,6,10,212,207,228,224,215,155,228,143,167,19,180,0.01,218,210,12,74,150,201,169,182,167,210,127,0.01,0,0.01,9,0.01,152,210,159,170,191,224,3,0.01,219,225,12,0.01,130,191,0.01,217,231,182,10,0.01,0,0.01,234,181,203,223,0.01,0,14,209,25,0.01,227,2,232,256,0.01,199,20,231,221,245,67,0.01,0,0.01,5,0.01,53,245,244,227,6,1
45.5,0.01,174,161,0.01,240,208,224,36,196,199,172,210,6,10,212,207,228,224,215,155,228,143,167,19,180,0.01,218,210,12,74,150,201,169,182,167,210,127,0.01,0,0.01,9,0.01,152,210,159,170,191,224,3,0.01,219,225,12,0.01,130,191,0.01,217,231,182,10,0.01,0,0.01,235,181,203,224,0.01,0,14,209,25,0.01,227,2,233,256,0.01,199,20,231,221,245,67,0.01,0,0.01,5,0.01,53,245,244,227,6,1
45.75,0.01,174,161,0.01,240,208,224,36,196,199,172,210,6,10,212,207,228,224,215,155,228,143,167,19,180,0.01,218,210,12,74,150,201,169,182,167,210,127,0.01,0,0.01,9,0.01,152,210,159,170,191,224,3,0.01,219,225,12,0.01,130,193,0.01,217,231,182,10,0.01,0,0.01,235,181,203,228,0.01,0,14,209,25,0.01,227,2,235,256,0.01,199,20,231,221,245,67,0.01,0,0.01,5,0.01,53,245,244,227,6,1
46,0.01,174,161,0.01,240,208,224,36,196,199,172,210,6,10,212,207,228,224,215,156,228,143,167,19,180,0.01,218,210,12,76,150,201,169,182,167,210,127,0.01,0,0.01,9,0.01,152,210,161,172,191,224,3,0.01,219,225,12,0.01,130,195,0.01,217,231,182,10,0.01,0,0.01,235,181,204,228,0.01,0,14,209,25,0.01,227,2,235,257,0.01,199,20,231,221,245,67,0.01,0,0.01,5,0.01,53,245,244,227,6,1
46.25,0.01,174,161,0.01,240,208,224,36,196,199,172,210,6,10,212,207,228,224,215,158,228,143,167,19,180,0.01,218,210,12,78,152,201,169,182,167,210,127,0.01,0,0.01,9,0.01,152,210,163,173,191,224,3,0.01,219,225,12,0.01,130,195,0.01,217,231,182,10,0.01,0,0.01,235,181,204,229,0.01,0,14,209,25,0.01,227,2,236,258,0.01,199,20,231,221,245,67,0.01,0,0.01,5,0.01,53,245,244,227,6,1
46.5,0.01,174,161,0.01,240,208,224,36,196,199,172,210,6,10,212,207,228,224,215,158,228,143,167,19,180,0.01,218,210,12,78,152,201,169,182,167,210,127,0.01,0,0.01,9,0.01,152,210,163,173,191,224,3,0.01,219,225,12,0.01,130,195,0.01,217,231,182,10,0.01,0,0.01,237,181,204,229,0.01,0,14,209,25,0.01,227,2,236,258,0.01,201,20,231,221,245,67,0.01,0,0.01,5,0.01,53,245,244,227,6,1
46.75,0.01,174,161,0.01,240,208,224,36,196,199,172,210,6,10,212,207,228,224,215,158,228,143,167,19,180,0.01,218,210,12,78,152,201,169,182,167,210,127,0.01,0,0.01,9,0.01,152,210,163,173,191,224,3,0.01,219,225,12,0.01,130,195,0.01,217,231,182,10,0.01,0,0.01,237,181,204,229,0.01,0,14,209,25,0.01,227,2,236,258,0.01,203,20,231,221,245,67,0.01,0,0.01,5,0.01,53,245,244,227,6,1
47,0.01,174,161,0.01,240,208,224,36,196,199,172,210,6,10,212,207,228,224,215,158,228,143,167,19,180,0.01,218,210,12,78,152,201,169,182,167,210,127,0.01,0,0.01,9,0.01,152,210,163,173,191,224,3,0.01,219,225,12,0.01,130,195,0.01,217,231,182,10,0.01,0,0.01,239,181,204,229,0.01,0,14,209,25,0.01,227,2,237,258,0.01,203,20,231,221,245,67,0.01,0,0.01,5,0.01,53,245,244,227,6,1
47.25,0.01,174,161,0.01,240,208,224,36,196,199,172,210,6,10,212,207,228,224,215,158,228,143,167,19,180,0.01,218,210,12,78,152,201,169,182,167,210,127,0.01,0,0.01,9,0.01,152,210,163,173,191,224,3,0.01,219,225,12,0.01,130,195,0.01,217,231,182,10,0.01,0,0.01,239,181,204,229,0.01,0,14,209,25,0.01,227,2,237,258,0.01,204,20,231,221,245,67,0.01,0,0.01,5,0.01,53,245,244,227,6,1
47.5,0.01,174,161,0.01,240,208,224,36,196,199,172,210,6,10,212,207,228,224,215,158,228,143,167,19,180,0.01,218,210,12,78,152,201,169,182,167,210,127,0.01,0,0.01,9,0.01,152,210,163,173,191,224,3,0.01,219,225,12,0.01,130,195,0.01,217,231,182,10,0.01,0,0.01,239,181,204,229,0.01,0,14,209,25,0.01,227,2,237,258,0.01,204,20,231,221,245,67,0.01,0,0.01,5,0.01,53,245,244,227,6,1
47.75,0.01,174,161,0.01,240,208,224,36,196,199,172,210,6,10,212,207,228,224,215,158,228,143,167,19,180,0.01,218,210,12,79,152,201,169,182,167,210,127,0.01,0,0.01,9,0.01,152,210,163,173,191,224,3,0.01,219,225,12,0.01,130,195,0.01,217,231,182,10,0.01,0,0.01,239,181,204,229,0.01,0,14,209,25,0.01,227,2,237,258,0.01,205,20,231,221,245,67,0.01,0,0.01,5,0.01,53,245,244,227,6,1
